"ID"	"Name"	"Chromosome"	"Start"	"End"	"Pattern"	"Score"	"Segments"	"SegmentLength"	"SegmentScore"	"SegmentMean"	"SegmentSD"	"MatchPlot"	"OptimizerPlot"
"GENE1"	"Gene 1"	"chr1"	0	10000	"pat1"	0.3	"{{.*}}"	"{{.*}}"	"{{.*}}"	"{{.*}}"	"{{.*}}"	"Gene_1-pat1.png"	NA
"GENE1"	"Gene 1"	"chr1"	0	10000	"pat2"	0.33333333333333337	"{{.*}}"	"{{.*}}"	"{{.*}}"	"{{.*}}"	"{{.*}}"	"Gene_1-pat2.png"	NA
"GENE2"	"Gene 2"	"chr1"	8000	11000	"pat1"	0.3	"{{.*}}"	"{{.*}}"	"{{.*}}"	"{{.*}}"	"{{.*}}"	"Gene_2-pat1.png"	NA
"GENE2"	"Gene 2"	"chr1"	8000	11000	"pat2"	0.33333333333333337	"{{.*}}"	"{{.*}}"	"{{.*}}"	"{{.*}}"	"{{.*}}"	"Gene_2-pat2.png"	NA
