"chr"	"start"	"end"	"numCs"	"coverage"	"percMeth"
"chr1"	10499	10499	4	19	21.0526315789474
"chr1"	10500	10500	0	21	0
"chr1"	10504	10504	0	21	0
"chr1"	10509	10509	21	21	100
"chr1"	10511	10511	19	21	90.4761904761905
"chr1"	10512	10512	19	21	90.4761904761905
"chr1"	10514	10514	21	21	100
"chr1"	10519	10519	20	21	95.2380952380952
"chr2"	10526	10526	0	20	0
"chr2"	10533	10533	2	20	10
"chr3"	10567	10567	0	31	0
"chr3"	10572	10572	31	31	100
"chr3"	10578	10578	31	31	100
"chr3"	10580	10580	31	31	100
"chr3"	10581	10581	0	31	0
"chr3"	10583	10583	0	31	0
"chr3"	10590	10590	21	21	100
"chr3"	10934	10934	21	21	100
