ID	chr	start	end	a	LogR
S0006	1	3252007	22603889	70	0.538510
S0006	1	23199726	31024709	36	0.000000
S0006	1	31322886	31322886	1	-0.845158
S0006	1	31332492	36722788	25	0.000000
S0006	1	36777235	40408280	12	0.402021
S0006	1	40496677	44887860	23	0.000000
S0006	1	45064759	47265273	12	1.248116
S0006	1	47385583	61248310	56	0.000000
S0006	1	61274534	63684460	18	3.051997
S0006	1	63830874	71022529	28	0.000000
S0006	1	71060210	71975017	3	-0.279776
S0006	1	72031566	92565241	78	0.000000
S0006	1	92569195	94763207	17	0.154816
S0006	1	94813457	97542797	11	0.992733
S0006	1	97749248	101655292	10	0.956847
S0006	1	101772759	107602612	16	0.802031
S0006	1	107946650	109938325	15	2.194217
S0006	1	110918901	118907505	37	0.802031
S0006	1	119048181	120509855	13	-0.035886
S0006	1	149938984	149938984	1	-0.343585
S0006	1	150725728	155467277	21	-0.035886
S0006	1	155516192	156830218	11	0.000000
S0006	1	157113495	157113495	1	0.420494
S0006	1	157347130	157347130	1	0.000000
S0006	1	157470674	157680114	2	1.016451
S0006	1	158150056	217418745	211	0.000000
S0006	1	218318460	218318460	1	-1.036881
S0006	1	219351142	247785294	100	0.000000
S0006	2	548277	30478628	85	-0.048623
S0006	2	30490442	51651967	61	-0.736153
S0006	2	51659710	51659710	1	-0.428998
S0006	2	51771417	58190681	23	-0.736153
S0006	2	58214883	59197814	3	-0.390890
S0006	2	59308456	70694883	26	-0.736153
S0006	2	71577144	99611016	48	-1.191711
S0006	2	100193557	103839875	12	-0.504181
S0006	2	103865288	103865288	1	-1.293578
S0006	2	103884567	128624537	65	-0.504181
S0006	2	128800798	129940647	4	0.191788
S0006	2	130431535	133401746	4	-0.504181
S0006	2	133404586	139801799	17	-0.068615
S0006	2	139951151	147017390	22	-0.504181
S0006	2	147344514	148775578	4	-0.057793
S0006	2	151227237	158820136	17	-0.504181
S0006	2	159180134	167471876	31	-1.111317
S0006	2	167680484	206154000	111	-0.504181
S0006	2	206240434	242217627	104	-0.048623
S0006	3	3362137	30074874	82	0.000000
S0006	3	30100084	30821281	4	-0.816453
S0006	3	31006125	63802871	99	0.000000
S0006	3	63956655	63956655	1	0.228859
S0006	3	64036016	65368030	3	0.731486
S0006	3	65573867	66786091	7	0.228859
S0006	3	66882281	73621001	32	0.000000
S0006	3	74155664	77850731	12	-0.703372
S0006	3	77895652	86942577	43	0.000000
S0006	3	87082814	112295767	61	0.341197
S0006	3	112364873	114791072	16	0.505945
S0006	3	115533559	127660097	40	0.341197
S0006	3	127766235	152032495	67	0.000000
S0006	3	152127354	156334430	13	0.262010
S0006	3	156469799	174960474	54	0.000000
S0006	3	176380744	176597889	2	0.268297
S0006	3	176963521	181904297	17	0.000000
S0006	3	182050907	182050907	1	0.261013
S0006	3	182322914	182322914	1	0.000000
S0006	3	182518504	182518504	1	0.280115
S0006	3	182703729	197212100	50	0.000000
S0006	4	1059202	5525706	20	-0.052956
S0006	4	6249840	6303844	2	-0.404768
S0006	4	6303991	22264580	51	-0.052956
S0006	4	23222053	23222053	1	0.828160
S0006	4	24035754	65146700	101	-0.052956
S0006	4	65538012	65813578	4	0.387516
S0006	4	65878696	102032299	110	-0.052956
S0006	4	102218715	104583821	12	-0.458966
S0006	4	104683858	107503209	12	-0.520082
S0006	4	107820594	182784721	185	-0.114072
S0006	4	182892047	188763651	17	-0.153828
S0006	5	1325767	11227646	38	-0.041408
S0006	5	11229246	11229246	1	0.819084
S0006	5	12331200	73392666	167	-0.041408
S0006	5	73840051	75712103	6	0.225145
S0006	5	76250378	106841937	49	-0.041408
S0006	5	107165086	107173281	2	-0.456139
S0006	5	107653061	124348233	34	-0.041408
S0006	5	124946389	124946389	1	-0.650001
S0006	5	125433208	158624569	69	-0.041408
S0006	5	158975210	164967295	17	0.489576
S0006	5	165403746	179730478	52	-0.041408
S0006	6	1057482	2008850	4	0.000000
S0006	6	2177024	2188596	2	-0.579415
S0006	6	2511559	9074306	38	0.000000
S0006	6	9392644	12367746	14	-0.273022
S0006	6	12872440	12872440	1	-0.548149
S0006	6	12967645	18138827	22	-0.273022
S0006	6	18186730	18204882	3	-0.014213
S0006	6	18237661	19789579	7	-0.273022
S0006	6	19821326	23054094	24	-0.415663
S0006	6	23395389	54811900	103	-0.290056
S0006	6	55007378	65771036	31	-0.415663
S0006	6	66166861	78803610	47	-0.142641
S0006	6	78814334	79350712	2	0.378238
S0006	6	79482550	92808457	39	-0.142641
S0006	6	92886453	100332734	32	0.159923
S0006	6	100338714	103665370	9	1.112638
S0006	6	103770944	103912336	2	1.486837
S0006	6	104205337	107766968	22	1.112638
S0006	6	107807880	124421392	70	1.255279
S0006	6	124486499	133499986	38	0.952715
S0006	6	133663636	170872572	165	0.000000
S0006	7	863293	20374270	60	0.022007
S0006	7	20465061	24182997	14	1.523531
S0006	7	24302257	84427012	167	0.022007
S0006	7	85390679	85390679	1	0.213631
S0006	7	85682920	99978080	31	0.022007
S0006	7	100479811	100479811	1	-0.612154
S0006	7	100715874	158215549	145	0.022007
S0006	8	618552	11102682	36	0.548403
S0006	8	11154358	13244335	5	1.215317
S0006	8	13302699	16050274	15	1.591324
S0006	8	16650015	18020696	17	1.005224
S0006	8	18025043	18025043	1	0.542774
S0006	8	18194218	27142598	28	1.591324
S0006	8	27406124	30112932	25	1.600487
S0006	8	30245351	30350280	3	2.544281
S0006	8	30402935	31099615	8	1.600487
S0006	8	31447633	36129554	43	0.933572
S0006	8	36213763	38996089	39	0.932825
S0006	8	39173900	39775754	8	0.627858
S0006	8	39873720	41613496	24	0.932825
S0006	8	41637360	42806506	15	1.582247
S0006	8	42922990	48710487	5	3.507347
S0006	8	49320751	58133843	45	1.582247
S0006	8	58275695	63467199	25	0.932825
S0006	8	63643215	68161523	20	0.923663
S0006	8	68326072	84136017	81	0.917970
S0006	8	84183214	85482938	6	3.894236
S0006	8	85648661	85803529	2	6.817922
S0006	8	86046941	86285926	4	7.598728
S0006	8	86949727	90022416	14	6.817922
S0006	8	90323764	92187766	10	3.894236
S0006	8	92220214	96826168	26	0.917970
S0006	8	97343968	98195883	5	1.528794
S0006	8	98339277	100557356	8	1.148821
S0006	8	101014665	106490018	33	1.528794
S0006	8	107930723	117111532	43	1.279724
S0006	8	117196600	117594864	4	0.668900
S0006	8	117620112	120343056	12	2.223929
S0006	8	120443775	122379293	8	0.668900
S0006	8	122636922	123743923	10	2.342086
S0006	8	124149159	125149578	7	1.966079
S0006	8	125482957	145147978	90	0.292893
S0006	9	905450	7057701	25	0.000000
S0006	9	7245009	21732466	68	-0.422269
S0006	9	21993964	38058424	69	-0.733513
S0006	9	38396502	90650880	53	-0.422269
S0006	9	90780151	95598716	13	0.000000
S0006	9	96011635	96144349	2	0.469387
S0006	9	96582511	98344608	5	0.000000
S0006	9	98585987	110662503	24	0.442502
S0006	9	110875895	110875895	1	0.761762
S0006	9	110977253	114185794	14	0.442502
S0006	9	114351229	114351229	1	-0.175199
S0006	9	115085848	116907992	7	-0.617701
S0006	9	117372183	140599989	98	0.000000
S0006	10	466220	10281161	35	0.000000
S0006	10	10443187	10443187	1	-1.035575
S0006	10	10831412	28503165	50	0.000000
S0006	10	28603464	32951411	14	0.900759
S0006	10	33735135	39045746	30	1.007429
S0006	10	43465021	56329106	32	1.008944
S0006	10	58578720	63530322	24	2.123745
S0006	10	63577644	63678180	2	2.017075
S0006	10	64137067	64137067	1	2.605252
S0006	10	64300521	65994428	10	2.017075
S0006	10	66217477	67527000	8	3.240573
S0006	10	67663412	67755810	2	5.161361
S0006	10	68939641	73336025	18	4.260603
S0006	10	73413555	73928530	4	6.248439
S0006	10	74152536	74810840	3	5.133638
S0006	10	74929933	76445062	6	3.212850
S0006	10	76537811	91126771	75	1.225013
S0006	10	91456525	101057399	32	0.001515
S0006	10	101146374	135124948	122	0.000000
S0006	11	577454	24116195	87	-0.252417
S0006	11	24171109	26650691	14	-0.004776
S0006	11	26677710	28177723	6	-0.357841
S0006	11	28782463	33634595	30	-0.004776
S0006	11	33661419	37921772	16	-0.683436
S0006	11	38060464	39557130	10	-0.004776
S0006	11	39746931	40453275	7	-0.412322
S0006	11	40469244	40487034	2	0.860333
S0006	11	40487666	42413562	9	-0.412322
S0006	11	42787485	44848050	10	-0.004776
S0006	11	44926820	45096369	3	-0.387215
S0006	11	45391556	60082501	45	-0.004776
S0006	11	60331763	67036001	55	0.115701
S0006	11	67054144	68490361	13	0.691241
S0006	11	68660797	68960204	5	0.115701
S0006	11	69015728	69435627	4	-0.004776
S0006	11	69448373	69540990	3	0.299950
S0006	11	69628936	82976278	127	-0.004776
S0006	11	83371691	89842993	28	0.808825
S0006	11	90241946	102486681	49	-0.004776
S0006	11	102766165	104728919	2	2.921356
S0006	11	104914969	104914969	1	3.362163
S0006	11	104937371	106370011	6	-0.004776
S0006	11	107310710	134044100	91	-0.252417
S0006	12	1287872	1911860	3	-0.064104
S0006	12	2140625	2140625	1	-1.235864
S0006	12	2500431	12165726	32	-0.064104
S0006	12	12210328	17625605	23	2.531925
S0006	12	17660865	29527675	50	3.022446
S0006	12	29815195	31093789	7	4.798173
S0006	12	31099949	31839776	4	3.022446
S0006	12	32224948	52791900	65	0.426417
S0006	12	53019394	74687675	118	-0.064104
S0006	12	74844696	75139253	3	1.211639
S0006	12	75187700	75468162	3	0.201028
S0006	12	75713292	75713292	1	0.600108
S0006	12	75880697	81844493	20	0.201028
S0006	12	81938897	85369253	19	-1.074715
S0006	12	85406588	86810898	10	-1.527201
S0006	12	86990974	87031785	2	-1.816095
S0006	12	87043048	89891366	10	-2.255632
S0006	12	90081404	102684827	31	-1.245021
S0006	12	102958562	103547606	2	-1.670632
S0006	12	103754732	106432154	4	-1.245021
S0006	12	106636097	112764428	24	-0.352998
S0006	12	112861988	113138261	2	-0.590471
S0006	12	113397691	133161346	61	-0.352998
S0006	13	19538886	23241666	19	0.400621
S0006	13	23564568	23564568	1	1.060653
S0006	13	23577885	26532473	11	0.400621
S0006	13	26881568	29138498	5	2.113546
S0006	13	29579677	30225686	10	0.400621
S0006	13	30611956	31330981	10	0.000000
S0006	13	31371737	31371737	1	-0.670364
S0006	13	31634208	43423390	31	0.000000
S0006	13	44142022	44142022	1	-0.337369
S0006	13	44469835	54958504	33	0.000000
S0006	13	56531743	60815511	6	-0.310763
S0006	13	60883723	86087941	91	0.000000
S0006	13	86484151	93644631	25	-1.409850
S0006	13	93644964	93644964	1	-0.777555
S0006	13	94033414	100203573	16	-1.409850
S0006	13	100508767	102628700	11	-2.378580
S0006	13	102664847	102664847	1	-1.409850
S0006	13	102695620	114981574	52	0.000000
S0006	14	20825965	21230576	3	0.000000
S0006	14	21695466	21695466	1	0.445971
S0006	14	21813355	23348952	4	0.000000
S0006	14	23682699	33918155	52	-0.370353
S0006	14	33921142	33921142	1	-1.645940
S0006	14	34004507	48642903	67	-0.370353
S0006	14	48654969	51772581	11	-0.686700
S0006	14	52267923	68985751	64	-0.370353
S0006	14	69028137	71552692	9	-1.089816
S0006	14	72120350	80346029	21	-0.370353
S0006	14	80416884	80416884	1	-4.004549
S0006	14	81485293	85576443	14	-0.370353
S0006	14	86017922	105690735	65	0.089408
S0006	15	23733544	51503005	72	-0.071821
S0006	15	51660546	56543422	22	1.238385
S0006	15	56553590	64505236	31	4.366669
S0006	15	64697929	68622347	11	1.238385
S0006	15	68892852	99408970	106	-0.071821
S0006	15	99477911	100261115	7	1.754422
S0006	15	100274747	101214182	3	-0.071821
S0006	16	655262	51602444	134	0.243616
S0006	16	51817742	54245389	14	0.340397
S0006	16	54272374	54272374	1	0.243616
S0006	16	54347314	54347314	1	0.777088
S0006	16	54422276	56874272	11	0.243616
S0006	16	57085364	89371839	126	0.310299
S0006	17	1243941	9798619	35	-0.484312
S0006	17	10202115	10601990	2	-1.342402
S0006	17	11039460	12222749	6	-0.484312
S0006	17	12257862	28118435	67	-2.090354
S0006	17	28187272	30737832	19	-1.824356
S0006	17	30822975	30822975	1	-3.367438
S0006	17	30960445	35259685	26	-1.824356
S0006	17	35428714	37046871	10	-0.347162
S0006	17	37081707	37836581	9	-0.335058
S0006	17	37863585	38652844	13	-0.347162
S0006	17	38772660	40041676	11	-1.824356
S0006	17	40127537	52947422	82	-2.090354
S0006	17	52968458	54293708	14	-1.144313
S0006	17	54368821	54468369	2	0.843524
S0006	17	54552209	55401227	11	2.449566
S0006	17	55607591	56608401	8	0.461729
S0006	17	56793676	62788220	61	-0.484312
S0006	17	63036590	63036590	1	-0.387907
S0006	17	63057029	66208108	27	-0.484312
S0006	17	66315468	66690586	4	-0.075488
S0006	17	66775971	66775971	1	3.943835
S0006	17	66865466	68623636	6	-0.075488
S0006	17	68688983	78398132	69	-0.484312
S0006	17	78484047	78880757	8	-0.988991
S0006	17	78951165	80917016	13	-0.951600
S0006	18	331827	22243885	60	0.000000
S0006	18	22322903	24576252	9	0.225879
S0006	18	24870746	46123873	66	-0.535921
S0006	18	46460732	74952696	83	-0.761800
S0006	18	75143743	77003733	8	0.000000
S0006	19	412730	1064485	8	1.349399
S0006	19	1156397	3113903	8	0.629980
S0006	19	3123113	8125342	19	1.349399
S0006	19	8235013	28828352	93	1.452472
S0006	19	28894519	29397005	4	1.974392
S0006	19	29433361	34495457	34	1.452472
S0006	19	34852881	34889549	2	2.250447
S0006	19	35061250	35061250	1	1.807601
S0006	19	35278423	48659738	62	1.452472
S0006	19	48734942	52078929	19	0.911013
S0006	19	52183884	57516070	26	1.452472
S0006	19	57621012	58852835	10	1.846880
S0006	20	545941	4944314	28	-0.171673
S0006	20	4985283	9692734	21	2.863727
S0006	20	9850820	19523316	48	-0.171673
S0006	20	19676432	19709665	2	-1.211397
S0006	20	19752844	48906321	148	-0.171673
S0006	20	49088987	49174720	2	0.296481
S0006	20	49329488	50250838	11	-0.171673
S0006	20	50486629	52786406	21	0.228502
S0006	20	52943154	56131817	38	-0.171673
S0006	20	56307417	60282962	36	0.057021
S0006	20	60343625	60343625	1	0.725969
S0006	20	60467219	62215372	17	0.057021
S0006	21	15946408	25077895	45	-0.004978
S0006	21	25217566	25217566	1	2.060807
S0006	21	25900645	37349849	55	-0.004978
S0006	21	37349976	37419038	2	1.284430
S0006	21	38038459	40155079	10	-0.004978
S0006	21	40322544	44361310	28	0.827673
S0006	21	44382826	44441325	2	1.263985
S0006	21	44539726	47323522	10	0.827673
S0006	22	17520371	33034169	52	0.000000
S0006	22	33127416	33127416	1	0.889493
S0006	22	33691520	35126937	8	0.000000
S0006	22	35360974	35442415	2	0.341586
S0006	22	35536052	49329633	71	0.000000
S0006	X	3343638	11070209	5	1.295583
S0006	X	11260526	18220669	22	0.720759
S0006	X	19311740	23803198	11	1.066551
S0006	X	23884193	85216733	152	0.720759
S0006	X	86338680	86338680	1	-0.145021
S0006	X	86709844	86807770	2	0.720759
S0006	X	87216215	88078004	4	2.075296
S0006	X	88281179	102008507	22	0.720759
S0006	X	102101280	102101280	1	1.015320
S0006	X	102474225	109265868	13	0.720759
S0006	X	110050963	118419194	17	1.152448
S0006	X	118498227	119494354	6	1.765629
S0006	X	119914327	153376055	74	1.152448
S0006	X	153392576	153689045	3	0.720759
