ID	chr	start	end	a	LogR
S0007	1	3252007	6144417	9	0.377839
S0007	1	6254460	6254460	1	0.725300
S0007	1	6569286	6569286	1	0.377839
S0007	1	7019816	7581184	3	0.710156
S0007	1	7863293	15463980	28	0.377839
S0007	1	15528334	16413265	2	-0.094927
S0007	1	16436771	18855560	13	0.377839
S0007	1	19396736	32213655	55	-0.135346
S0007	1	32223365	36777235	21	0.683408
S0007	1	37507366	41293664	17	-0.135346
S0007	1	41338665	43925768	10	0.379310
S0007	1	44034135	45175051	9	-0.135346
S0007	1	45208785	45209160	2	0.348664
S0007	1	45396919	62188969	74	-0.135346
S0007	1	62205737	62205737	1	0.257195
S0007	1	62264280	62899406	2	-0.135346
S0007	1	63106767	65248007	14	-0.144320
S0007	1	65263697	66170394	3	0.215939
S0007	1	66515081	75373251	31	-0.144320
S0007	1	75883606	87904460	46	0.040966
S0007	1	87965176	87965176	1	1.327126
S0007	1	88198343	94038131	30	0.040966
S0007	1	94117423	94145216	2	-0.331325
S0007	1	94182535	94763207	4	0.756022
S0007	1	94813457	95676518	5	1.128313
S0007	1	95857876	95857876	1	0.943027
S0007	1	96856737	100220425	9	0.470618
S0007	1	100368269	112595913	43	0.943027
S0007	1	112756453	119988111	41	-0.144320
S0007	1	120060094	182988414	131	-0.218852
S0007	1	183099560	184929602	5	1.191399
S0007	1	185341378	200555627	52	-0.218852
S0007	1	200567281	200751828	2	0.197921
S0007	1	200969743	213705895	51	-0.218852
S0007	1	214189783	215091956	4	0.252219
S0007	1	215757463	217418745	6	0.406321
S0007	1	218318460	238211712	68	-0.064750
S0007	1	238579304	244050030	26	0.064695
S0007	1	244532080	247785294	7	0.139227
S0007	2	548277	8549440	17	0.129685
S0007	2	9234687	9349055	3	0.646188
S0007	2	9697209	54171822	137	0.129685
S0007	2	54897588	71577144	43	-0.008839
S0007	2	72186361	78857030	16	-0.703795
S0007	2	78961689	82049704	7	-0.008839
S0007	2	82492283	83148496	3	0.129685
S0007	2	84327061	84327061	1	0.468990
S0007	2	84527208	101091142	25	0.129685
S0007	2	101344604	101344604	1	0.983737
S0007	2	101541270	111955485	36	0.129685
S0007	2	112398579	130525406	43	-0.378172
S0007	2	133401746	148572708	43	-0.687388
S0007	2	148775578	152677906	3	-1.131274
S0007	2	153448642	159787453	24	-0.687388
S0007	2	160023979	160023979	1	-0.434161
S0007	2	161058360	161802470	3	-0.687388
S0007	2	162013526	163943612	5	-0.179531
S0007	2	164440932	164716037	4	0.159750
S0007	2	165103331	165103331	1	0.881720
S0007	2	165123465	167748513	12	-0.179531
S0007	2	167749266	176883074	23	0.129685
S0007	2	177902066	180217502	7	3.337434
S0007	2	180518155	180518155	1	0.129685
S0007	2	180559024	187479341	20	0.681539
S0007	2	188404283	188404283	1	2.549516
S0007	2	188420238	190503961	10	0.681539
S0007	2	190654761	190654761	1	0.142054
S0007	2	190789812	191873553	6	0.681539
S0007	2	191998743	210033550	51	0.129685
S0007	2	210068373	214204933	9	0.658668
S0007	2	214267030	242217627	82	0.129685
S0007	3	3362137	7486021	11	0.000000
S0007	3	7749114	8108936	2	0.496315
S0007	3	9502812	47594981	125	0.000000
S0007	3	47753239	85384671	135	0.135248
S0007	3	85816397	85816397	1	0.576397
S0007	3	86033012	110044601	67	0.135248
S0007	3	111591110	116527238	26	1.001144
S0007	3	116985371	144624666	82	0.135248
S0007	3	145021293	154729690	28	0.000000
S0007	3	154881520	154881520	1	0.281154
S0007	3	156291332	156469799	3	0.730070
S0007	3	156535404	156732685	3	0.281154
S0007	3	156852943	174916360	49	0.000000
S0007	3	174960474	177672475	8	-0.509726
S0007	3	177771889	180066018	6	-0.215389
S0007	3	180312174	189966455	36	-0.509726
S0007	3	190519853	197212100	23	0.000000
S0007	4	1059202	6701536	24	-0.569170
S0007	4	6745008	7586302	10	1.007335
S0007	4	7797819	13279591	18	-0.569170
S0007	4	13981761	17572078	13	-0.250826
S0007	4	17855437	28023574	17	0.237616
S0007	4	28261658	29727469	3	1.062930
S0007	4	29965647	35042727	19	0.237616
S0007	4	35925732	37759944	5	0.595369
S0007	4	37934808	71372580	85	0.237616
S0007	4	71388849	103375303	101	-0.080728
S0007	4	103387345	103594198	3	1.034549
S0007	4	103742651	147974912	110	-0.080728
S0007	4	148077508	148077508	1	0.509867
S0007	4	148897030	161938828	43	-0.080728
S0007	4	162009443	166373881	9	-0.816875
S0007	4	166658637	188763651	54	-0.080728
S0007	5	1325767	23442788	64	-0.528071
S0007	5	23457763	36405462	42	-0.849404
S0007	5	36915163	37832798	7	-1.956042
S0007	5	38306904	39398942	5	-0.849404
S0007	5	39495775	99848334	134	-1.207664
S0007	5	99911855	109099010	14	-1.477168
S0007	5	109353496	132704104	50	-1.118908
S0007	5	133611026	140121428	16	-0.590836
S0007	5	140564873	140564873	1	-1.043675
S0007	5	140827234	158624569	34	-0.590836
S0007	5	158975210	162675080	11	-0.269504
S0007	5	162835656	164301661	4	0.419078
S0007	5	164494873	166551988	5	-0.269504
S0007	5	167431648	179730478	49	0.000000
S0007	6	1057482	6887631	30	0.160259
S0007	6	7023749	7023749	1	0.602449
S0007	6	7810398	18237661	54	0.160259
S0007	6	18603071	20374128	9	1.142730
S0007	6	20391083	22903019	19	0.160259
S0007	6	23002332	23722844	5	0.006051
S0007	6	24280101	24355849	2	0.268862
S0007	6	24409906	33042551	16	0.006051
S0007	6	33050279	40049217	29	-1.598143
S0007	6	40088705	42131739	11	-2.417976
S0007	6	42229279	44064694	6	-1.598143
S0007	6	44519096	54811900	36	0.006051
S0007	6	55007378	55007378	1	0.000000
S0007	6	55074274	55255927	2	0.264766
S0007	6	55264290	55520809	4	0.000000
S0007	6	55905637	56075203	3	-1.208744
S0007	6	56290542	62620097	11	0.000000
S0007	6	62624206	62624206	1	0.480530
S0007	6	62943051	79999687	61	0.000000
S0007	6	80512139	80512139	1	0.290539
S0007	6	80661844	106491032	92	0.000000
S0007	6	106573372	106573372	1	-0.622697
S0007	6	106680627	126558024	91	0.000000
S0007	6	126921856	126921856	1	-0.662529
S0007	6	126947271	132283483	20	0.000000
S0007	6	132593369	139410271	37	0.103015
S0007	6	139450838	139651758	3	-0.901753
S0007	6	139663885	147526809	29	0.103015
S0007	6	147707311	163662087	75	0.000000
S0007	6	163856782	170872572	24	-0.510394
S0007	7	863293	92460675	255	0.117465
S0007	7	92492398	103350337	27	-1.569295
S0007	7	104303913	111704053	15	0.117465
S0007	7	111873391	113191256	3	0.084788
S0007	7	113256934	113256934	1	1.096059
S0007	7	113334059	150941721	93	0.084788
S0007	7	151209774	155995315	10	1.319140
S0007	7	156323805	158215549	15	0.084788
S0007	8	618552	11232933	39	0.000000
S0007	8	13166179	18536016	40	0.398258
S0007	8	18751052	18751052	1	0.716650
S0007	8	19739243	30087861	45	0.398258
S0007	8	30099277	37217380	67	1.231239
S0007	8	37336015	38608182	19	3.049558
S0007	8	38681076	39173900	10	3.941810
S0007	8	39194915	41783169	33	3.049558
S0007	8	41810848	42789728	11	5.545171
S0007	8	42797957	50312970	12	6.120063
S0007	8	50401159	50401159	1	3.624451
S0007	8	50599283	79130237	134	1.806132
S0007	8	79261359	79734180	4	1.606536
S0007	8	79908269	82146585	13	1.806132
S0007	8	82209490	93096645	57	2.517197
S0007	8	93905907	101692878	40	2.118939
S0007	8	101975479	103058178	6	1.285958
S0007	8	103223654	103598817	2	1.031644
S0007	8	103788000	108407397	19	1.285958
S0007	8	108768390	116597192	36	0.711065
S0007	8	116695112	116858016	3	0.783467
S0007	8	117080983	117533304	5	0.711065
S0007	8	117594864	119261654	10	1.971285
S0007	8	119536005	123521573	19	0.711065
S0007	8	123592505	124473894	6	0.828473
S0007	8	124538233	135703504	59	0.117408
S0007	8	135986892	135986892	1	0.599927
S0007	8	136071383	136071383	1	0.089276
S0007	8	136091070	140531786	22	-0.393243
S0007	8	140668560	145147978	10	-0.510651
S0007	9	905450	13793592	46	0.290027
S0007	9	13921272	18349113	27	0.781910
S0007	9	18665419	29374154	54	0.243798
S0007	9	29383583	33164681	12	-0.248085
S0007	9	33217212	77989247	43	0.162611
S0007	9	78272025	104442128	67	0.700723
S0007	9	104540734	111670513	15	0.290027
S0007	9	112027488	136058306	97	-0.248085
S0007	9	136112570	136112570	1	0.180000
S0007	9	136657610	139468185	11	-0.248085
S0007	9	139512029	140599989	7	0.290027
S0007	10	466220	6398978	22	0.000000
S0007	10	6424490	26196932	58	-0.398006
S0007	10	26596798	50840698	70	0.607905
S0007	10	50932371	52669902	3	0.917597
S0007	10	52711794	60039877	16	0.607905
S0007	10	60606488	61465327	6	0.000618
S0007	10	61540166	67512289	31	0.607905
S0007	10	67527000	67527000	1	1.005911
S0007	10	67663412	71887884	14	1.376318
S0007	10	72011395	72758344	4	2.657250
S0007	10	72989145	77621520	25	2.286844
S0007	10	77637866	79530213	10	1.005911
S0007	10	79679689	89872203	49	0.000000
S0007	10	90349910	90349910	1	0.386129
S0007	10	90374057	92088126	8	0.000000
S0007	10	92523623	92842084	4	-0.424311
S0007	10	93103314	94004562	6	-0.141133
S0007	10	94845856	116654574	63	-0.424311
S0007	10	116740738	116740738	1	-0.087391
S0007	10	116782216	126891132	38	-0.424311
S0007	10	127244035	127244035	1	-1.058706
S0007	10	127308873	135124948	38	-0.424311
S0007	11	577454	2825625	9	-0.353814
S0007	11	2993283	19554506	65	0.000000
S0007	11	20169375	36832891	77	0.089610
S0007	11	37842779	37842779	1	0.385362
S0007	11	37921772	67054144	143	0.089610
S0007	11	67125451	68005723	5	1.185175
S0007	11	68022006	70195978	27	1.405733
S0007	11	70263351	70403385	3	0.310168
S0007	11	70787123	78384548	73	0.089610
S0007	11	78435946	79041100	9	0.193619
S0007	11	79244001	79631868	7	0.089610
S0007	11	79788489	125647982	170	0.000000
S0007	11	126315727	126951502	6	0.463004
S0007	11	126992504	134044100	28	0.000000
S0007	12	1287872	30818556	115	1.080704
S0007	12	31093789	31093789	1	3.000095
S0007	12	31099949	31161023	2	1.080704
S0007	12	31414473	33221491	10	3.660420
S0007	12	33282226	45284085	23	1.080704
S0007	12	45827507	60634208	66	0.000000
S0007	12	60898284	62782467	7	1.380517
S0007	12	62798992	72316166	65	0.000000
S0007	12	72374530	83978016	51	0.018863
S0007	12	84062778	84544531	4	0.922139
S0007	12	84769355	86758641	14	0.018863
S0007	12	86810898	97550444	35	0.000000
S0007	12	98035027	110108063	28	0.669196
S0007	12	110312232	110312232	1	0.206199
S0007	12	110549767	110877174	3	0.844997
S0007	12	110885663	112565679	6	1.307994
S0007	12	112764428	112861988	2	0.638798
S0007	12	113138261	113433587	3	1.582564
S0007	12	113463390	115040865	3	0.638798
S0007	12	115246128	133161346	56	0.000000
S0007	13	19538886	44142022	89	-0.613277
S0007	13	44469835	44469835	1	0.033527
S0007	13	44589229	46001441	4	-0.613277
S0007	13	46227243	67509350	61	-0.248170
S0007	13	67509992	71747051	16	-0.613277
S0007	13	71842431	100530979	92	-1.638477
S0007	13	100603888	102548688	7	-1.155577
S0007	13	102607422	114981574	55	-1.638477
S0007	14	20825965	23806190	11	0.877434
S0007	14	23904224	24407916	4	1.407615
S0007	14	24513917	32284877	37	0.877434
S0007	14	32392494	32867673	4	0.526687
S0007	14	32927323	34004507	6	0.000000
S0007	14	34093377	34093377	1	0.302585
S0007	14	34112387	34510446	2	0.000000
S0007	14	34592224	34767305	2	0.406128
S0007	14	34767590	53408379	79	0.000000
S0007	14	53731644	54093776	2	0.538377
S0007	14	54355193	58725019	20	0.000000
S0007	14	59006804	59006804	1	0.766644
S0007	14	59208542	65749785	24	0.000000
S0007	14	65775303	68911554	8	0.677997
S0007	14	68967382	74266451	19	0.000000
S0007	14	74426942	78640374	10	-1.647416
S0007	14	79463745	105690735	83	0.000000
S0007	15	23733544	48653043	62	0.355063
S0007	15	49170076	53675766	20	0.834841
S0007	15	53849690	69234860	59	0.355063
S0007	15	69520737	70936758	7	0.434839
S0007	15	72447844	93200397	73	0.079776
S0007	15	93345092	93345092	1	0.382241
S0007	15	93480423	95114403	6	0.079776
S0007	15	95437453	95819755	3	0.439103
S0007	15	95884134	101214182	21	0.079776
S0007	16	655262	27897325	96	0.000000
S0007	16	28072982	30615197	5	-0.322211
S0007	16	31083026	63968936	91	0.000000
S0007	16	64014002	64447002	2	0.338291
S0007	16	65115757	70436856	20	0.000000
S0007	16	70500120	70500120	1	-0.604167
S0007	16	70510960	74911787	12	0.000000
S0007	16	74963657	74963657	1	0.488194
S0007	16	75025548	78308940	11	0.000000
S0007	16	78496876	84943686	30	-0.142560
S0007	16	85100976	85100976	1	-0.783842
S0007	16	85567156	89371839	17	-0.142560
S0007	17	1243941	12668568	45	-0.053471
S0007	17	12677911	12677911	1	0.277404
S0007	17	12771381	13684167	8	-0.053471
S0007	17	13707817	13707817	1	-0.579718
S0007	17	15703313	17774289	15	-0.053471
S0007	17	17802779	17802779	1	0.243352
S0007	17	17817753	20605109	14	-1.519563
S0007	17	20749493	28698774	33	-1.816387
S0007	17	28905332	30606301	10	-1.038512
S0007	17	30737832	38640744	59	-1.816387
S0007	17	38652844	38916313	3	-2.953836
S0007	17	39029747	41178764	15	-1.816387
S0007	17	41197274	41197274	1	-0.707142
S0007	17	41243031	41243031	1	-1.816387
S0007	17	41628292	41831063	2	-2.215109
S0007	17	41967061	43107658	10	-0.638604
S0007	17	43511538	45644154	6	-2.758876
S0007	17	45769294	46417776	5	-2.360154
S0007	17	46525353	47703007	13	-1.816387
S0007	17	47981617	56195246	70	-0.053471
S0007	17	56261981	56261981	1	-0.050884
S0007	17	56326015	60763213	40	0.002587
S0007	17	60793399	61225577	7	1.014605
S0007	17	61235696	80917016	145	0.002587
S0007	18	331827	4127583	18	0.000000
S0007	18	4211925	7791194	10	1.255199
S0007	18	8713774	22947167	34	0.000000
S0007	18	23132572	23609095	3	-0.572525
S0007	18	24383355	32782932	30	0.000000
S0007	18	32820181	33581660	2	-0.465671
S0007	18	33611691	60126682	82	0.000000
S0007	18	60253930	72907278	35	0.284386
S0007	18	72937113	77003733	12	0.000000
S0007	19	412730	547973	2	0.000000
S0007	19	756844	3096206	13	1.429755
S0007	19	3113903	8801391	26	0.000000
S0007	19	8957564	9793351	4	0.823408
S0007	19	9868078	10008475	2	0.431313
S0007	19	10238547	15460963	32	0.000000
S0007	19	15984742	16038300	2	0.530273
S0007	19	16112911	21776332	32	0.000000
S0007	19	21883626	44888177	103	-0.519397
S0007	19	45690918	47728913	12	0.000000
S0007	19	47764571	47764571	1	0.830283
S0007	19	48131817	55807586	39	0.000000
S0007	19	55961105	56319525	3	0.688383
S0007	19	56822657	58852835	15	0.000000
S0007	20	545941	1917209	12	0.000000
S0007	20	2102193	2800915	5	0.535488
S0007	20	2833252	6421351	19	0.000000
S0007	20	6476870	9494439	11	-0.123237
S0007	20	9667956	24260602	79	0.000000
S0007	20	24310855	25849242	8	1.980214
S0007	20	29989493	43057820	71	0.000000
S0007	20	43443468	54342149	87	-0.049362
S0007	20	54353828	54353828	1	-0.526872
S0007	20	54364829	54813533	6	-0.837670
S0007	20	54877910	55452732	7	-0.526872
S0007	20	55527775	62215372	67	-0.049362
S0007	21	15946408	17842538	11	0.000000
S0007	21	17843167	17843167	1	-0.914859
S0007	21	18057646	18057646	1	0.000000
S0007	21	18061292	18132867	3	0.505706
S0007	21	18264025	47323522	137	0.000000
S0007	22	17520371	29583251	31	0.127476
S0007	22	29832235	31082795	10	0.351680
S0007	22	31449761	44745442	68	0.127476
S0007	22	45010301	45682544	5	-1.098440
S0007	22	45733199	49329633	20	0.127476
S0007	X	3343638	11070209	5	1.477413
S0007	X	11260526	14611369	13	3.448262
S0007	X	14768126	15659115	2	4.205954
S0007	X	15714955	17469583	4	3.448262
S0007	X	17947994	32661894	42	1.477413
S0007	X	32769118	49144114	32	0.000000
S0007	X	49157398	49157582	2	-0.375130
S0007	X	49459348	50054170	5	0.000000
S0007	X	50661588	54718459	7	1.161767
S0007	X	54828794	67430481	27	0.000000
S0007	X	67563500	67563500	1	2.003076
S0007	X	68029074	118696035	112	0.000000
S0007	X	118913342	132564095	31	0.838798
S0007	X	133454290	153689045	50	0.000000
