ID	chr	start	end	a	LogR
S0005	1	3252007	18855560	57	0.050988
S0005	1	19396736	21646510	10	0.596565
S0005	1	21790721	23453239	5	1.247359
S0005	1	23498024	23756287	5	0.596565
S0005	1	23785178	32136398	34	0.050988
S0005	1	32213655	32213655	1	-0.272504
S0005	1	32223365	45958085	63	0.050988
S0005	1	46289309	46289309	1	-0.729780
S0005	1	46595683	52630186	25	0.050988
S0005	1	53216595	60183019	29	0.462971
S0005	1	60421762	63491780	22	2.582129
S0005	1	63684460	64002856	4	2.170146
S0005	1	64027991	64177299	2	1.876913
S0005	1	64433543	64764545	2	2.170146
S0005	1	65177332	66881310	9	0.050988
S0005	1	66920451	70853940	10	-0.084121
S0005	1	70986488	70986488	1	0.199367
S0005	1	71022529	93772285	91	-0.084121
S0005	1	93924979	94182535	5	0.137175
S0005	1	94402263	100368269	19	-0.084121
S0005	1	100912573	100912573	1	0.222079
S0005	1	101239376	105641571	16	-0.084121
S0005	1	106465385	119269869	59	-0.860074
S0005	1	119333813	149938984	11	-1.223236
S0005	1	150725728	151535916	4	-0.860074
S0005	1	152109134	152868288	5	-1.118428
S0005	1	153172639	156101549	16	-0.860074
S0005	1	156135241	163429143	45	-1.283167
S0005	1	163472822	166139958	13	-1.641802
S0005	1	166839601	172087965	15	-1.283167
S0005	1	172129707	175263917	11	-1.148059
S0005	1	175855668	200473479	72	-0.724966
S0005	1	200524549	200751828	5	-0.361836
S0005	1	200969743	208994644	34	-0.724966
S0005	1	209123662	209123662	1	-1.531510
S0005	1	209211873	209720024	2	-0.724966
S0005	1	209727724	222787969	35	0.050988
S0005	1	222887737	223029701	2	-0.300825
S0005	1	223311566	232244722	40	0.050988
S0005	1	232321591	232321591	1	0.353441
S0005	1	232329675	247785294	47	0.050988
S0005	2	548277	52074757	150	0.144983
S0005	2	52329425	53141738	2	-0.343011
S0005	2	53177890	72186361	49	0.144983
S0005	2	73541833	73541833	1	-0.077137
S0005	2	73825150	73825150	1	0.144983
S0005	2	73849184	73849184	1	-0.165908
S0005	2	74759337	163943612	207	0.144983
S0005	2	164440932	164440932	1	0.000000
S0005	2	164444305	164444305	1	0.521232
S0005	2	164618825	208334096	131	0.000000
S0005	2	208430690	208515036	2	-1.448938
S0005	2	209894572	242217627	93	0.000000
S0005	3	3362137	14947873	39	0.000000
S0005	3	14949899	16117428	6	-0.261876
S0005	3	16233838	34598590	51	0.000000
S0005	3	34719374	45672925	34	-0.246361
S0005	3	45731451	59216687	42	1.617704
S0005	3	59373255	66526184	21	-0.246361
S0005	3	66645221	66645221	1	-0.751453
S0005	3	66744271	68708846	9	-0.246361
S0005	3	69188122	80446239	45	0.000000
S0005	3	80711349	85384671	25	-0.407756
S0005	3	85816397	86294224	5	-0.184891
S0005	3	86306259	86874511	4	-0.407756
S0005	3	86942577	87389785	4	0.000000
S0005	3	87611247	95155082	13	0.452761
S0005	3	95156018	113257213	50	0.000000
S0005	3	113333388	135926880	77	-0.661553
S0005	3	136206474	136214596	2	-0.636456
S0005	3	136544007	144624666	21	-1.246246
S0005	3	145021293	153774805	25	-0.636456
S0005	3	153898954	168129587	35	-0.661553
S0005	3	168422139	174916360	24	0.000000
S0005	3	174960474	177133282	5	-0.357397
S0005	3	177176385	178523341	6	0.000000
S0005	3	179102442	187639162	28	-0.526558
S0005	3	187865100	197212100	34	0.000000
S0005	4	1059202	17467626	61	0.000000
S0005	4	17516691	18399203	6	-0.519063
S0005	4	19114118	32811646	31	0.000000
S0005	4	33223075	41071428	19	-0.636176
S0005	4	41315660	80452832	118	0.000000
S0005	4	80640297	81294121	2	0.348981
S0005	4	81797794	82524841	3	0.000000
S0005	4	82780447	82907876	2	-0.756583
S0005	4	82927413	82927413	1	0.000000
S0005	4	82933126	86133345	8	-0.511109
S0005	4	86324115	89475730	10	0.000000
S0005	4	89828080	91263496	5	0.334571
S0005	4	91574079	94316763	10	0.000000
S0005	4	94624474	94624474	1	0.943665
S0005	4	96101333	119698635	55	0.000000
S0005	4	119939312	121769641	9	0.260932
S0005	4	123585362	132401228	22	0.000000
S0005	4	132429741	134347437	5	0.788006
S0005	4	134495715	139128562	12	0.000000
S0005	4	139611745	142920478	11	0.795998
S0005	4	143125038	162548865	63	0.000000
S0005	4	163299484	175650887	26	0.693999
S0005	4	176020166	188763651	35	0.000000
S0005	5	1325767	2011467	4	0.532803
S0005	5	2229014	10382248	32	0.916656
S0005	5	10382473	33692396	59	0.532803
S0005	5	33814173	35565361	5	0.000000
S0005	5	35698786	35698786	1	-2.556469
S0005	5	35766895	55137355	57	0.000000
S0005	5	55198686	55724047	3	-0.470330
S0005	5	55815892	76836235	55	0.000000
S0005	5	77572779	78348937	4	-0.940266
S0005	5	78791399	90083373	18	-0.105873
S0005	5	90194112	96053605	10	0.305109
S0005	5	97260766	106797311	12	-0.105873
S0005	5	106841937	107653061	4	-0.212429
S0005	5	108165123	109425444	4	1.616700
S0005	5	109945133	112380627	8	4.119092
S0005	5	112462449	116788892	9	2.289963
S0005	5	116821191	141008127	50	-0.212429
S0005	5	141501366	141501366	1	0.211906
S0005	5	141595139	145060737	4	-0.212429
S0005	5	145080340	145080340	1	0.199104
S0005	5	147713991	158577288	25	-0.212429
S0005	5	158624569	172431227	42	-0.106555
S0005	5	172624051	172870287	2	0.224574
S0005	5	172928450	179730478	26	-0.106555
S0005	6	1057482	4178912	13	0.000000
S0005	6	4660558	20424359	84	0.122210
S0005	6	20468635	20468635	1	-0.322668
S0005	6	20589370	88609496	226	0.122210
S0005	6	88619084	104963813	64	0.000000
S0005	6	105198863	105198863	1	-0.273667
S0005	6	105532843	126022296	92	0.000000
S0005	6	126090608	127457841	9	0.171030
S0005	6	128172019	151405377	105	0.000000
S0005	6	151665009	151665009	1	0.426412
S0005	6	151704694	170872572	79	0.000000
S0005	7	863293	16172259	51	0.000000
S0005	7	16626101	16626101	1	-1.060557
S0005	7	16683937	81908393	182	0.000000
S0005	7	82395339	82395339	1	-0.376204
S0005	7	82561688	87326125	9	0.000000
S0005	7	87630721	87630721	1	-0.612653
S0005	7	87871763	123016428	73	0.000000
S0005	7	123129299	123129299	1	0.401893
S0005	7	123967990	141176988	43	0.000000
S0005	7	141304960	141304960	1	-0.217204
S0005	7	141586455	145133371	9	0.000000
S0005	7	145220152	145404152	2	0.669442
S0005	7	145754971	156323805	31	0.000000
S0005	7	156356045	157260669	6	-0.674133
S0005	7	157350840	158215549	8	0.000000
S0005	8	618552	3482631	12	0.000000
S0005	8	3656008	4210140	6	0.344517
S0005	8	4266306	6460340	9	0.641984
S0005	8	8662104	17026852	32	0.344517
S0005	8	17062845	17063258	2	-0.144720
S0005	8	17221001	18025043	13	0.344517
S0005	8	18194218	30015758	48	0.000000
S0005	8	30040541	30050305	2	0.868474
S0005	8	30087861	32678531	26	0.000000
S0005	8	32841653	33199858	6	0.494183
S0005	8	33410090	35441075	15	0.862077
S0005	8	35464255	38982995	48	1.417639
S0005	8	38996089	40696404	24	0.789519
S0005	8	40751704	41637360	10	1.417639
S0005	8	41783169	68462488	111	1.242688
S0005	8	68657475	80481594	59	0.687126
S0005	8	81109804	81109804	1	0.201426
S0005	8	81140344	81423801	2	0.687126
S0005	8	81520237	85427668	22	0.778495
S0005	8	85482938	85482938	1	3.003983
S0005	8	85648661	86285926	6	5.707135
S0005	8	86949727	86949727	1	3.481647
S0005	8	87124955	89130983	10	3.656598
S0005	8	89259873	92875464	19	3.565228
S0005	8	93096645	96826168	20	0.862077
S0005	8	97343968	99585434	9	3.585448
S0005	8	100057238	105481923	29	0.862077
S0005	8	105510915	109339587	15	0.367893
S0005	8	109627683	114447904	20	0.219949
S0005	8	114511921	115438823	6	0.198785
S0005	8	115623997	116695112	6	0.842283
S0005	8	116746899	119019909	14	0.990227
S0005	8	119029871	119151423	2	2.495148
S0005	8	119261654	131286273	65	0.990227
S0005	8	131506062	145147978	54	0.622334
S0005	9	905450	16200201	62	0.000000
S0005	9	16265078	16265078	1	0.318382
S0005	9	16323276	25508135	47	0.000000
S0005	9	25640498	26634028	5	0.299224
S0005	9	27182825	86409738	88	0.000000
S0005	9	86690038	86690038	1	-0.398923
S0005	9	86822700	121289829	95	0.000000
S0005	9	121622990	121622990	1	0.257488
S0005	9	122304697	129697622	28	0.000000
S0005	9	130008654	132038784	14	-0.594551
S0005	9	132155664	132443831	2	-1.080632
S0005	9	132638265	140599989	36	-0.594551
S0005	10	466220	8220731	26	-0.858267
S0005	10	9022264	15923531	27	0.127821
S0005	10	16513482	30230968	39	1.418789
S0005	10	30571179	30571179	1	1.773904
S0005	10	30791330	44296893	46	1.418789
S0005	10	44748363	67154059	64	2.277056
S0005	10	67180121	67180121	1	2.840696
S0005	10	67186972	73928530	27	2.277056
S0005	10	74152536	110892869	138	0.986088
S0005	10	110933214	113428915	12	0.615888
S0005	10	113524715	122070550	27	0.986088
S0005	10	122317332	135124948	61	0.000000
S0005	11	577454	1332235	4	-0.029051
S0005	11	1681292	1681292	1	0.722704
S0005	11	1979118	7727326	26	-0.029051
S0005	11	7851909	9400690	9	0.515647
S0005	11	10895882	16920292	25	-0.029051
S0005	11	17127998	24171109	23	0.520412
S0005	11	24391096	39322332	74	-0.029051
S0005	11	39557130	41143575	13	-0.247588
S0005	11	41231647	41407614	2	-0.029051
S0005	11	41412014	61022155	74	-0.421270
S0005	11	61144819	67054144	44	-0.936535
S0005	11	67125451	67977276	3	-0.421270
S0005	11	67989164	69841748	24	-0.707619
S0005	11	69873977	70841890	11	-1.132094
S0005	11	70936348	70990454	3	-0.707619
S0005	11	71057464	71101371	3	-0.421270
S0005	11	71113304	71113304	1	-0.985731
S0005	11	71155352	78384548	63	-0.421270
S0005	11	78435946	79244001	10	-0.789593
S0005	11	79244715	79485137	4	-1.274101
S0005	11	79615720	85262785	39	-0.905779
S0005	11	85390406	126935277	138	-0.421270
S0005	11	126951502	126951502	1	-0.009889
S0005	11	126992504	132823545	25	-0.421270
S0005	11	133509056	134044100	3	-0.057818
S0005	12	1287872	21585614	79	1.499326
S0005	12	21588168	25745117	17	1.853232
S0005	12	26954877	28222007	10	2.220693
S0005	12	28222398	28222398	1	2.570160
S0005	12	29129874	30013127	4	2.220693
S0005	12	30079439	30818556	4	1.853232
S0005	12	31093789	31093789	1	3.262336
S0005	12	31099949	51036925	59	1.853232
S0005	12	51635992	51635992	1	1.403605
S0005	12	51740234	70082409	98	0.524730
S0005	12	70268693	99419631	122	0.974357
S0005	12	99562568	120229671	67	0.620451
S0005	12	120229942	125195426	19	0.219889
S0005	12	125471979	126711318	2	1.898545
S0005	12	127245567	128172301	4	0.219889
S0005	12	128971704	133161346	7	0.620451
S0005	13	19538886	19853308	4	-0.383529
S0005	13	19981154	22397453	12	-1.214525
S0005	13	22483744	22724818	2	-0.974214
S0005	13	23241666	69772307	145	-1.214525
S0005	13	69879945	70270009	2	-1.666025
S0005	13	70414089	71347258	3	-0.863800
S0005	13	71444995	90274647	60	-1.214525
S0005	13	90321922	111882048	80	-1.813628
S0005	13	111883432	112712849	5	-2.740901
S0005	13	112846022	113110185	3	-1.813628
S0005	13	113188574	114981574	9	-1.214525
S0005	14	20825965	23682699	9	-0.048899
S0005	14	23733725	28050041	24	-0.519951
S0005	14	28842324	29672784	7	-0.549347
S0005	14	29770896	29770896	1	-0.897186
S0005	14	30024303	50668831	97	-0.549347
S0005	14	51772581	56155994	17	1.294501
S0005	14	56314735	67968294	43	-0.549347
S0005	14	68820853	86422769	56	-2.072643
S0005	14	87488261	97288251	26	-1.601592
S0005	14	98028428	105690735	33	-0.078296
S0005	15	23733544	25725296	7	0.000000
S0005	15	26036205	41428925	34	0.382931
S0005	15	41669234	87150106	151	0.000000
S0005	15	87541923	87541923	1	0.675535
S0005	15	88073380	101214182	59	0.000000
S0005	16	655262	65221387	196	0.008561
S0005	16	65567159	79366854	49	0.395734
S0005	16	79597075	83677410	23	0.433172
S0005	16	84943686	86193544	11	-0.069292
S0005	16	86407762	86740411	2	-0.951066
S0005	16	87312926	89371839	6	-0.069292
S0005	17	1243941	9732077	33	-0.244284
S0005	17	9739738	9739738	1	-0.703635
S0005	17	9798619	12257862	10	-0.244284
S0005	17	12668568	16866075	20	0.122856
S0005	17	16919866	35606865	94	-0.244284
S0005	17	35818462	37905816	20	-0.047863
S0005	17	38128311	38271452	3	-0.244284
S0005	17	38341603	38916313	9	0.101374
S0005	17	39029747	39100001	2	-1.030509
S0005	17	39346518	39647368	2	-1.376166
S0005	17	39712584	48864179	60	-0.244284
S0005	17	48887806	49957482	6	0.099713
S0005	17	50215881	59079666	75	-0.244284
S0005	17	59106724	61013157	23	-0.012891
S0005	17	61017423	62738432	18	-0.244284
S0005	17	62788220	62788220	1	-0.507461
S0005	17	63036590	63919311	11	-0.244284
S0005	17	64092693	64092693	1	-0.518322
S0005	17	64302250	70739048	52	-0.244284
S0005	17	70872002	71643510	6	0.154833
S0005	17	71661629	73344855	5	-0.303176
S0005	17	73622989	78484047	34	0.154833
S0005	17	78524092	78524130	2	0.681978
S0005	17	78527474	80917016	18	0.154833
S0005	18	331827	1595869	3	-1.022992
S0005	18	1601017	3337001	7	-1.561310
S0005	18	3385059	3848826	5	-0.614133
S0005	18	3915046	22322903	46	-0.075814
S0005	18	22947167	24383355	5	-1.552224
S0005	18	24537404	27835741	14	-0.075814
S0005	18	28135234	56637677	88	1.213810
S0005	18	57087321	58160183	6	1.637299
S0005	18	58162916	76817231	50	1.213810
S0005	18	76862505	77003733	2	-0.075814
S0005	19	412730	10773215	51	-0.811863
S0005	19	10913354	11297434	3	-0.078334
S0005	19	11330765	33331913	107	-0.811863
S0005	19	33354335	33354335	1	-0.285907
S0005	19	33365430	55644088	103	-0.811863
S0005	19	55648055	57621012	12	-1.529150
S0005	19	57733864	58852835	9	-0.811863
S0005	20	545941	6121815	33	0.231104
S0005	20	6182577	6197030	2	-0.460846
S0005	20	6421351	14328401	33	0.231104
S0005	20	14366870	22021373	44	0.071865
S0005	20	22165427	24511784	17	-0.300715
S0005	20	24676742	36375071	45	0.071865
S0005	20	36745171	40616993	20	0.383496
S0005	20	41118016	42581440	8	0.815959
S0005	20	42712033	42712033	1	2.920111
S0005	20	42905923	43443468	3	0.504329
S0005	20	43500021	46236825	18	0.071865
S0005	20	46245260	53642387	65	0.231104
S0005	20	54113584	54113584	1	0.668571
S0005	20	54127706	57515103	43	0.231104
S0005	20	57565138	57684413	4	0.152594
S0005	20	57834275	61863641	34	0.231104
S0005	20	62170618	62215372	2	-0.501979
S0005	21	15946408	20891592	29	1.018408
S0005	21	21071558	27092645	27	0.056016
S0005	21	27274368	47323522	97	1.018408
S0005	22	17520371	17520371	1	0.888711
S0005	22	17524190	49329633	133	0.276102
S0005	X	3343638	31513228	61	1.274087
S0005	X	31517385	54718459	51	1.034580
S0005	X	54828794	55368262	3	1.310668
S0005	X	55673753	72313442	36	3.929202
S0005	X	72321245	80823282	21	1.310668
S0005	X	80872093	82459788	8	0.950222
S0005	X	82596383	82804542	4	1.310668
S0005	X	83338499	84696768	3	1.599276
S0005	X	84730984	108973841	44	1.310668
S0005	X	109264928	116688832	15	1.550175
S0005	X	117392835	121410615	16	1.274087
S0005	X	122230811	122230811	1	1.238392
S0005	X	122269401	150739222	56	1.274087
S0005	X	151389153	151389153	1	1.579560
S0005	X	151444923	153689045	13	1.274087
