ID	chr	start	end	a	LogR
S0017	1	3252007	8056354	16	-0.228602
S0017	1	8129507	15528334	27	2.630678
S0017	1	16413265	17661805	6	-0.228602
S0017	1	17833145	18233159	2	0.012273
S0017	1	18243980	18691614	4	-0.228602
S0017	1	18755346	18755346	1	-0.967654
S0017	1	18855560	19396736	2	-0.228602
S0017	1	19421596	20184538	6	-2.472279
S0017	1	20561584	30930479	41	-0.228602
S0017	1	31024709	36411977	26	-0.871231
S0017	1	36722788	37770623	4	-0.382683
S0017	1	38023390	39989251	8	-0.002282
S0017	1	40408280	45208785	27	-0.490829
S0017	1	45209160	53981882	38	-0.871231
S0017	1	54026244	65608101	56	-0.228602
S0017	1	66170394	66824860	4	0.061535
S0017	1	66881310	88226329	77	-0.228602
S0017	1	88578494	89164597	5	0.000000
S0017	1	89167882	89316412	2	0.858214
S0017	1	89465514	154822209	148	0.000000
S0017	1	155253449	157470674	17	-0.785403
S0017	1	157680114	158150056	2	-2.490239
S0017	1	158185244	172087965	61	-0.785403
S0017	1	172129707	173098846	4	-2.880294
S0017	1	173354201	187341407	36	-0.785403
S0017	1	187712102	187712102	1	-0.170256
S0017	1	187852840	189836285	12	-0.785403
S0017	1	190756004	191002796	2	0.000000
S0017	1	191532443	193121267	5	-0.090747
S0017	1	193163743	206844799	50	0.000000
S0017	1	207086194	208994644	12	0.426982
S0017	1	209123662	230075889	74	0.000000
S0017	1	230200928	247785294	54	-0.007536
S0017	2	548277	29824247	82	0.001574
S0017	2	30119222	46423447	42	0.381954
S0017	2	46556633	46556633	1	1.452858
S0017	2	46611394	99611016	122	0.381954
S0017	2	100193557	100193557	1	0.001574
S0017	2	100221694	103884567	13	0.981968
S0017	2	104196439	106179399	4	0.001574
S0017	2	106195910	106539688	2	-1.259489
S0017	2	106612452	113289701	27	0.001574
S0017	2	113825966	113825966	1	-0.417173
S0017	2	114122827	114139862	2	0.001574
S0017	2	114421357	115334928	3	0.000000
S0017	2	116804084	119677162	10	0.909711
S0017	2	119840651	121306592	3	1.494995
S0017	2	121392265	121392265	1	0.909711
S0017	2	121802396	155406625	67	0.000000
S0017	2	155413329	155413329	1	0.376966
S0017	2	155946574	167691829	44	0.000000
S0017	2	167739163	170146412	9	0.774476
S0017	2	170631928	179731839	22	0.000000
S0017	2	180217502	181511500	5	-0.455781
S0017	2	181598169	183549177	5	0.079707
S0017	2	183630592	184399531	4	-0.455781
S0017	2	184490198	208331023	72	0.000000
S0017	2	208334096	217947272	25	-0.529033
S0017	2	219513547	237532082	51	0.000000
S0017	2	237831359	242208792	19	0.390955
S0017	2	242217627	242217627	1	0.000000
S0017	3	3362137	14894140	38	0.749234
S0017	3	14947873	23458291	26	0.356300
S0017	3	24197273	24197273	1	0.869137
S0017	3	24219521	43895115	57	0.356300
S0017	3	43990451	48904258	23	1.162000
S0017	3	49717036	72230791	74	1.337509
S0017	3	72589283	73489259	5	3.002754
S0017	3	73491002	74499060	6	2.827244
S0017	3	75127552	86088197	46	1.162000
S0017	3	86149051	86149051	1	0.757425
S0017	3	86294224	94092681	19	1.162000
S0017	3	95035704	115908434	68	1.839947
S0017	3	115959369	130930654	46	1.695364
S0017	3	131464049	131612296	2	2.028622
S0017	3	131681178	131681178	1	1.695364
S0017	3	131788084	147607519	41	0.889665
S0017	3	147747105	157418703	33	-0.362060
S0017	3	157764479	168855293	25	-1.040008
S0017	3	168941700	171302402	10	0.145256
S0017	3	171307593	174450561	6	-1.040008
S0017	3	174599828	174599828	1	-0.603513
S0017	3	174659364	197212100	77	-1.040008
S0017	4	1059202	6303844	22	0.000000
S0017	4	6303991	6303991	1	0.605780
S0017	4	6701536	12901369	27	0.000000
S0017	4	13157860	13157860	1	0.406265
S0017	4	13279591	33223075	48	0.000000
S0017	4	33396364	33679914	3	-0.327584
S0017	4	34995958	59291357	60	0.000000
S0017	4	59338126	59338126	1	1.315338
S0017	4	60059373	63418183	6	0.000000
S0017	4	63456064	70859861	22	0.504245
S0017	4	71113633	74658152	25	0.000000
S0017	4	75015750	76872009	6	0.616398
S0017	4	77142852	148897030	188	0.000000
S0017	4	149431616	153099273	11	-0.015394
S0017	4	153178597	186830786	88	-0.414345
S0017	4	186862431	188763651	6	-1.379709
S0017	5	1325767	15002489	45	0.403222
S0017	5	15016627	27990208	34	1.034855
S0017	5	28006560	28752494	5	1.218228
S0017	5	29052682	71693899	116	0.586594
S0017	5	72202627	72295604	2	0.403222
S0017	5	72349984	72349984	1	-0.003099
S0017	5	73207923	73956787	5	0.403222
S0017	5	75538460	78791399	13	1.012294
S0017	5	79333911	90083373	17	1.737351
S0017	5	90194112	102047487	16	1.128279
S0017	5	102089179	102089179	1	2.054260
S0017	5	102852240	105661754	4	2.043664
S0017	5	106797311	115903185	22	1.117684
S0017	5	115948847	116788892	4	0.454365
S0017	5	116821191	133611026	32	1.068927
S0017	5	134352570	141595139	20	0.343869
S0017	5	141956242	141956242	1	0.775182
S0017	5	142225239	142225239	1	0.421584
S0017	5	145060737	156418790	23	-0.009729
S0017	5	157798884	179730478	74	0.343869
S0017	6	1057482	8967430	43	-0.136483
S0017	6	9074306	9074306	1	0.692859
S0017	6	9392644	9392644	1	-0.136483
S0017	6	9729745	10368708	4	0.114579
S0017	6	10452107	18751348	38	-0.136483
S0017	6	19128247	19128247	1	-0.593480
S0017	6	19150550	20468635	10	-0.136483
S0017	6	20589370	20745508	4	0.137072
S0017	6	20808742	33651322	37	-0.136483
S0017	6	33787506	35936802	7	-1.172773
S0017	6	36031583	36860092	7	-1.155818
S0017	6	37011511	40088705	13	-0.119528
S0017	6	40460502	41043308	3	0.386931
S0017	6	41315236	80661844	134	-0.119528
S0017	6	80726409	80726409	1	0.254102
S0017	6	81381213	85506222	14	-0.119528
S0017	6	85632631	92986450	23	0.016955
S0017	6	93172371	99073196	25	0.119621
S0017	6	99295068	103912336	14	0.016955
S0017	6	104205337	104205337	1	0.595590
S0017	6	104320791	104320791	1	0.016955
S0017	6	104690055	104745414	2	-1.055071
S0017	6	104774047	118387296	58	0.016955
S0017	6	119259688	128172019	49	1.025975
S0017	6	128375457	137531031	36	1.009020
S0017	6	137668535	137668535	1	0.326974
S0017	6	137937059	146721240	45	1.009020
S0017	6	146816019	165580199	88	0.803698
S0017	6	166049430	170872572	14	1.009020
S0017	7	863293	17932057	55	-0.382377
S0017	7	18221304	18221304	1	0.184797
S0017	7	18812414	93689033	203	-0.382377
S0017	7	94883836	94883836	1	-0.008371
S0017	7	95743918	96315905	2	-0.382377
S0017	7	96764144	108595568	30	0.000000
S0017	7	108931870	108931870	1	0.193961
S0017	7	109800360	158215549	126	0.000000
S0017	8	618552	2980878	8	0.874637
S0017	8	3158741	14555637	40	-0.256699
S0017	8	14607919	21208237	36	0.874637
S0017	8	22095260	25281360	10	0.405733
S0017	8	25489096	25658764	2	1.396466
S0017	8	26018339	27606109	8	0.405733
S0017	8	27787031	33761584	55	0.874637
S0017	8	34260273	34753533	5	1.123522
S0017	8	34775398	38838937	50	0.874637
S0017	8	38936531	79908269	203	1.806302
S0017	8	79919546	87124955	40	3.229371
S0017	8	87167184	87167184	1	2.725747
S0017	8	87780543	90398960	14	3.229371
S0017	8	91021318	93905907	15	1.806302
S0017	8	94049996	94315338	3	0.900867
S0017	8	94688890	101654392	35	1.806302
S0017	8	101692878	103223654	8	2.265202
S0017	8	103598817	108768390	21	1.806302
S0017	8	109142307	109214545	2	1.663640
S0017	8	109271426	110660658	9	1.806302
S0017	8	111218857	111980415	5	2.115878
S0017	8	112455258	114986413	12	0.874637
S0017	8	115116922	115438823	2	0.194447
S0017	8	115623997	145147978	141	0.874637
S0017	9	905450	10571493	39	0.000000
S0017	9	10649660	14592321	15	-0.773210
S0017	9	14776027	18699872	21	0.000000
S0017	9	18879082	19438279	5	-0.783863
S0017	9	19487512	21145448	11	-0.410556
S0017	9	21391364	27182825	25	0.023646
S0017	9	27228503	86690038	88	0.434202
S0017	9	86822700	86913781	2	0.255380
S0017	9	87284262	88966691	5	0.920316
S0017	9	89447319	93936968	14	0.434202
S0017	9	94448572	110977253	36	0.000000
S0017	9	111554988	113243894	8	0.137761
S0017	9	113728251	113728251	1	0.512987
S0017	9	113920798	115085848	6	0.137761
S0017	9	115197233	115197233	1	-0.125529
S0017	9	115361163	136112570	85	0.137761
S0017	9	136657610	136657610	1	-0.340894
S0017	9	136810857	140599989	17	0.137761
S0017	10	466220	53638628	158	0.000000
S0017	10	53769608	63530322	28	1.358957
S0017	10	63577644	79679689	75	2.516010
S0017	10	79684095	83168722	14	1.157053
S0017	10	83433450	88426350	20	0.879957
S0017	10	88455879	92670328	25	1.157053
S0017	10	92823350	92842084	2	0.000000
S0017	10	93103314	93103314	1	-0.793183
S0017	10	93369096	106852463	42	0.000000
S0017	10	107954079	107954079	1	-0.270199
S0017	10	108392226	135124948	103	0.000000
S0017	11	577454	12479067	47	-0.050557
S0017	11	12830876	12990240	3	0.383925
S0017	11	13204157	16882001	14	-0.050557
S0017	11	16920292	16920292	1	0.054513
S0017	11	17127998	29473150	48	-0.050557
S0017	11	29814400	29814400	1	0.248517
S0017	11	30025557	33103913	22	-0.050557
S0017	11	33634595	60935978	114	-0.302845
S0017	11	61022155	61022155	1	-1.277904
S0017	11	61144819	64409281	33	-0.302845
S0017	11	65823331	68005723	16	-1.301250
S0017	11	68022006	68257386	3	-1.250693
S0017	11	68306678	68388588	3	-0.252288
S0017	11	68490361	80476414	123	-0.253877
S0017	11	80573891	81948221	11	-0.001589
S0017	11	81973656	93730029	48	-0.101341
S0017	11	93964452	93964452	1	0.223115
S0017	11	94209348	123026823	89	-0.101341
S0017	11	123092324	123092324	1	-1.464897
S0017	11	123298088	124954652	5	-0.001589
S0017	11	124983982	124983982	1	0.702488
S0017	11	125192956	125192956	1	-0.001589
S0017	11	125279382	125279382	1	-0.315621
S0017	11	125634035	134044100	36	-0.001589
S0017	12	1287872	18237057	64	0.000000
S0017	12	18321454	23727848	24	1.157053
S0017	12	24229275	31093789	28	2.704484
S0017	12	31099949	46344891	41	1.157053
S0017	12	46460416	46460416	1	0.640633
S0017	12	46574921	56781425	40	1.157053
S0017	12	57133321	58357999	6	0.000000
S0017	12	59080855	59103316	2	0.243125
S0017	12	59227169	67308955	41	0.000000
S0017	12	67314946	68020404	7	0.716729
S0017	12	68476572	68603916	2	0.000000
S0017	12	68753849	69102115	4	0.951760
S0017	12	69244388	70015760	13	0.750552
S0017	12	70082409	70397488	4	0.660490
S0017	12	70472339	73015676	20	0.861698
S0017	12	73181807	73987514	2	1.570632
S0017	12	74467465	86746252	58	0.861698
S0017	12	86758641	86810898	2	1.226213
S0017	12	86990974	111376921	68	0.861698
S0017	12	111574728	113433587	9	0.179512
S0017	12	113463390	119047947	18	0.877378
S0017	12	119048039	121181608	11	0.179512
S0017	12	121194565	126711318	19	0.861698
S0017	12	127245567	133161346	11	-0.090062
S0017	13	19538886	65196169	150	-0.063776
S0017	13	65677031	65877595	2	0.351997
S0017	13	65912181	80310796	50	-0.063776
S0017	13	80467309	80467309	1	0.328871
S0017	13	81102179	90478941	27	-0.063776
S0017	13	90575020	90636112	2	0.294975
S0017	13	90869494	90894620	2	-0.063776
S0017	13	91072385	91072385	1	-1.977892
S0017	13	91300138	102607422	36	-0.063776
S0017	13	102628700	104844982	17	0.000000
S0017	13	105465997	105465997	1	0.333374
S0017	13	105533935	109460967	11	0.000000
S0017	13	109544273	109544273	1	-0.485725
S0017	13	109579256	114981574	24	0.000000
S0017	14	20825965	48411414	127	-0.387023
S0017	14	48642903	48642903	1	-0.616510
S0017	14	48654969	57130787	32	-0.387023
S0017	14	57383998	57383998	1	-0.778726
S0017	14	57848466	65241228	30	-0.387023
S0017	14	65254054	68967382	11	0.361698
S0017	14	68985751	85576443	46	-0.387023
S0017	14	86017922	86017922	1	0.420519
S0017	14	86022706	86229110	3	-0.387023
S0017	14	86230118	86230118	1	-0.660032
S0017	14	86422769	102349988	45	-0.387023
S0017	14	103356363	104743850	9	-0.996822
S0017	14	105139894	105420376	4	-0.387023
S0017	14	105492159	105690735	2	-0.761763
S0017	15	23733544	37238599	30	0.000000
S0017	15	38070386	39690086	6	-0.097206
S0017	15	39834197	41011738	2	-1.093398
S0017	15	41066875	64505236	87	-0.097206
S0017	15	64697929	79931669	43	0.000000
S0017	15	80234474	80686251	4	0.271942
S0017	15	80714931	101214182	80	0.000000
S0017	16	655262	1673885	4	0.319197
S0017	16	1746953	1746953	1	-0.310067
S0017	16	1772069	7643247	27	0.319197
S0017	16	7772380	49826409	91	0.126340
S0017	16	50071115	62449235	63	-0.459956
S0017	16	62631213	89371839	101	-1.441712
S0017	17	1243941	1243941	1	0.048891
S0017	17	1305579	1539540	2	-0.325389
S0017	17	1574627	36479190	158	0.048891
S0017	17	36710513	36952807	3	-0.768570
S0017	17	36953754	37046871	2	0.048891
S0017	17	37081707	38480657	18	0.459568
S0017	17	38544444	45347892	39	0.048891
S0017	17	45611074	45611074	1	0.362063
S0017	17	45644154	49844513	35	0.048891
S0017	17	49957482	51499001	7	0.432954
S0017	17	51511219	59771718	80	0.048891
S0017	17	59929104	59939798	2	-0.197243
S0017	17	59939895	69450862	79	0.048891
S0017	17	69549238	69828979	3	-0.560444
S0017	17	69883072	80917016	76	0.048891
S0017	18	331827	11250447	38	0.000000
S0017	18	11250582	23609095	27	0.191451
S0017	18	24383355	24537404	2	-0.859605
S0017	18	24550070	44674059	60	0.191451
S0017	18	44880763	46460732	9	-0.468715
S0017	18	46583734	55507349	30	0.191451
S0017	18	56459732	58160183	8	-0.183866
S0017	18	58162916	65214082	20	0.191451
S0017	18	65337899	67850774	11	0.000000
S0017	18	67973079	67973079	1	0.137510
S0017	18	68019868	77003733	20	-0.392295
S0017	19	412730	22084723	115	0.000000
S0017	19	22508499	22782076	2	-0.568581
S0017	19	23005066	32162212	37	0.000000
S0017	19	32169732	32169732	1	-0.417997
S0017	19	32259123	58852835	131	0.000000
S0017	20	545941	4944314	28	0.000000
S0017	20	4985283	4985283	1	0.635377
S0017	20	5761605	14385378	41	0.000000
S0017	20	14455497	19416594	26	0.214350
S0017	20	19523316	24676742	34	0.000000
S0017	20	25110133	36264007	42	2.020418
S0017	20	36331119	39763673	13	0.000000
S0017	20	39882940	39882940	1	0.430372
S0017	20	40003004	47913578	52	0.000000
S0017	20	47914066	47914066	1	-0.473305
S0017	20	48253975	49088987	9	0.000000
S0017	20	49174720	49788860	9	0.320354
S0017	20	49824874	52978194	26	0.000000
S0017	20	53153408	53153408	1	-1.169210
S0017	20	53168132	60689381	77	0.000000
S0017	20	60798312	62215372	12	-0.334710
S0017	21	15946408	27092645	56	-0.419968
S0017	21	27274368	27274368	1	-0.316903
S0017	21	28116614	40621569	58	-0.419968
S0017	21	40693623	41142188	4	-0.865332
S0017	21	41246730	41841444	4	-0.656284
S0017	21	41854081	44361245	17	-0.210920
S0017	21	44361310	44539726	4	2.478860
S0017	21	44935097	47323522	9	-0.210920
S0017	22	17520371	49329633	134	0.057676
S0017	X	3343638	31800413	64	2.150574
S0017	X	32223445	32661894	2	4.823532
S0017	X	32769118	78675742	94	2.875631
S0017	X	79069002	79069002	1	2.150574
S0017	X	79210534	106999565	67	1.749682
S0017	X	107303001	153689045	105	2.150574
