ID	chr	start	end	a	LogR
S0018	1	3252007	36722788	132	0.038199
S0018	1	36777235	40408280	12	-0.413777
S0018	1	40496677	48232503	42	-0.107504
S0018	1	48643336	48833552	2	-0.064405
S0018	1	48885195	57722753	36	0.387571
S0018	1	58387807	59286656	4	0.776163
S0018	1	59453334	63989744	27	0.387571
S0018	1	64002856	86836353	83	0.081298
S0018	1	87073001	87073001	1	-0.485323
S0018	1	87356690	92569195	24	0.081298
S0018	1	93066417	93066417	1	-1.212877
S0018	1	93265369	97749248	27	0.081298
S0018	1	99326344	99326344	1	0.627145
S0018	1	99532176	100368269	3	0.081298
S0018	1	100912573	109689314	33	0.674397
S0018	1	109720385	119910467	47	0.081298
S0018	1	119913684	155516192	29	0.038199
S0018	1	156017402	156101549	3	0.319807
S0018	1	156135241	159646924	22	0.038199
S0018	1	159881684	164293715	28	-0.548080
S0018	1	164469194	165449339	4	0.038199
S0018	1	165654869	166911149	6	-0.304982
S0018	1	167049690	169133441	6	0.038199
S0018	1	169686322	172087965	7	0.736572
S0018	1	172129707	188984280	50	0.038199
S0018	1	189002697	202018218	44	0.662951
S0018	1	202161713	202677178	4	0.300246
S0018	1	202839190	209720024	27	0.662951
S0018	1	209727724	219701961	28	0.038199
S0018	1	220089352	220333753	2	0.399015
S0018	1	221032867	221032867	1	0.635736
S0018	1	221773471	231143291	44	0.038199
S0018	1	231991131	239830708	27	0.448236
S0018	1	239922134	247785294	23	0.038199
S0018	2	548277	2938591	3	-0.469125
S0018	2	3641961	11175178	26	0.056252
S0018	2	11933386	22189240	28	-0.179685
S0018	2	22196303	23865176	4	-0.731896
S0018	2	23915513	29562741	19	-0.495959
S0018	2	29823652	41993726	26	-0.986733
S0018	2	42318083	60774484	76	-0.495959
S0018	2	61027891	101091142	70	0.056252
S0018	2	101344604	101344604	1	0.544557
S0018	2	101541270	134601820	88	0.056252
S0018	2	134957182	139221950	6	-1.341768
S0018	2	139228359	139801799	3	-2.054010
S0018	2	139951151	159642876	50	-1.341768
S0018	2	159670945	165123465	17	0.056252
S0018	2	165551404	165551404	1	0.488914
S0018	2	165816905	167691829	8	0.056252
S0018	2	167739163	167739163	1	0.387587
S0018	2	167748513	188404283	53	0.056252
S0018	2	188420238	188420238	1	-0.265769
S0018	2	188644006	214267030	77	0.056252
S0018	2	214521642	236265539	56	-0.400317
S0018	2	236436519	236436519	1	0.390251
S0018	2	236441875	236788618	2	0.810640
S0018	2	237092137	242217627	22	0.390251
S0018	3	3362137	46384169	134	0.297481
S0018	3	47352462	52809996	20	0.684015
S0018	3	53001295	62498378	25	0.297481
S0018	3	62630465	65597198	12	-1.171846
S0018	3	65613957	76542160	42	0.297481
S0018	3	76557789	76898181	2	-0.510647
S0018	3	76904185	104212961	86	0.297481
S0018	3	104276827	104617988	3	0.820230
S0018	3	104883170	158751601	166	0.297481
S0018	3	158756047	164198946	11	-0.059883
S0018	3	164282449	164282449	1	0.615410
S0018	3	164436431	166959430	5	-0.059883
S0018	3	167650846	196974183	96	0.297481
S0018	3	197037067	197212100	3	0.564648
S0018	4	1059202	3122222	10	0.000000
S0018	4	3279450	12901369	40	-0.019933
S0018	4	13157860	16154006	7	-0.130541
S0018	4	16154996	17562746	7	-0.304417
S0018	4	17572078	29965647	22	-0.193809
S0018	4	29985899	54542616	61	-0.019933
S0018	4	54868468	57732540	9	0.685892
S0018	4	57865815	64757237	18	-0.019933
S0018	4	65146700	65146700	1	1.380074
S0018	4	65538012	65538012	1	1.343991
S0018	4	65638274	125463025	169	-0.019933
S0018	4	125541914	143401638	49	0.000000
S0018	4	143540204	145064279	6	-0.714228
S0018	4	145978910	181315715	96	0.000000
S0018	4	182183915	188763651	19	-0.240405
S0018	5	1325767	2784589	9	0.140486
S0018	5	2788601	4528395	9	0.656118
S0018	5	4590072	5181439	4	0.140486
S0018	5	5786036	8621326	12	0.452310
S0018	5	10000817	20034682	23	0.897267
S0018	5	21319582	32464248	34	0.452310
S0018	5	32787417	37015549	17	0.140486
S0018	5	37255583	37255583	1	0.528765
S0018	5	37286617	61905212	77	0.140486
S0018	5	62004183	73956787	22	-0.489944
S0018	5	75538460	75538460	1	-0.139440
S0018	5	75642974	78791399	12	-0.489944
S0018	5	79333911	79984714	3	0.140486
S0018	5	80311191	80649866	3	0.216082
S0018	5	80798575	96053605	21	1.959820
S0018	5	97260766	104697481	9	0.216082
S0018	5	104885670	127295353	49	0.075596
S0018	5	127910534	130094296	5	-0.511069
S0018	5	130918803	151495893	39	0.075596
S0018	5	151771186	151771186	1	0.309125
S0018	5	151896509	152202156	2	0.075596
S0018	5	152548579	154911842	5	-0.253753
S0018	5	155029953	164064050	23	0.075596
S0018	5	164301661	164494873	2	-0.578136
S0018	5	164967295	164967295	1	-1.342435
S0018	5	165403746	165923647	2	-0.578136
S0018	5	166551988	179730478	50	0.075596
S0018	6	1057482	23722844	118	0.000000
S0018	6	24280101	35689719	27	0.261129
S0018	6	35936802	38031460	12	0.000000
S0018	6	38068626	38068626	1	0.535686
S0018	6	38508509	47160114	33	0.000000
S0018	6	47286786	72578985	89	0.562970
S0018	6	72642388	97312559	80	0.000000
S0018	6	97356570	97453983	3	1.964173
S0018	6	98436660	111401665	47	0.000000
S0018	6	111705944	112454245	3	0.370197
S0018	6	112588226	121625087	43	0.000000
S0018	6	122065395	131753627	48	0.028952
S0018	6	132097656	170872572	171	0.000000
S0018	7	863293	7801684	16	-0.058953
S0018	7	7842707	7842707	1	0.560021
S0018	7	7860242	27520326	72	-0.058953
S0018	7	27572233	29206775	4	-0.786929
S0018	7	29539278	39652362	46	-0.058953
S0018	7	39764943	39855567	2	0.441354
S0018	7	40061717	41416853	3	0.247513
S0018	7	41774976	70965874	69	-0.058953
S0018	7	71906122	73682352	2	-0.427059
S0018	7	75044630	98982025	54	-0.058953
S0018	7	99113505	119573529	43	-0.949630
S0018	7	120139565	123129299	7	-0.298827
S0018	7	123967990	139523225	38	-0.949630
S0018	7	139558554	145220152	16	-0.408813
S0018	7	145404152	158215549	46	-0.949630
S0018	8	618552	3482631	12	-0.000315
S0018	8	3656008	3656008	1	0.420179
S0018	8	3665576	14607919	36	-0.000315
S0018	8	15146803	27606109	55	-0.285293
S0018	8	27787031	40195639	128	-0.041082
S0018	8	40203542	56521518	76	0.669990
S0018	8	56597103	56597103	1	1.016388
S0018	8	57106654	64907701	41	0.669990
S0018	8	65272478	65757049	2	1.311537
S0018	8	65915827	66057858	2	0.938078
S0018	8	66244699	77659428	52	1.311537
S0018	8	77864399	78624559	3	0.953815
S0018	8	78709787	82383848	23	1.311537
S0018	8	82498389	82498389	1	1.958367
S0018	8	82506510	82962713	5	1.311537
S0018	8	82977998	83183692	2	1.602289
S0018	8	83670528	92412174	43	1.311537
S0018	8	92838408	101537590	39	0.669990
S0018	8	101572814	104291296	16	0.425780
S0018	8	104340719	104437065	2	2.084680
S0018	8	105227985	105763644	5	1.373608
S0018	8	105898954	111980415	25	-0.285293
S0018	8	112455258	112455258	1	-0.769894
S0018	8	112459890	117080983	22	-0.285293
S0018	8	117111532	117594864	5	1.301347
S0018	8	117620112	117673789	3	2.724055
S0018	8	117873811	120343056	9	3.092875
S0018	8	120443775	124254528	20	1.301347
S0018	8	124444496	129812382	30	-0.285293
S0018	8	130006472	130006472	1	0.221468
S0018	8	130146557	145147978	64	-0.285293
S0018	9	905450	2474066	6	0.000000
S0018	9	2569150	2569150	1	0.370800
S0018	9	2582841	15229510	49	0.000000
S0018	9	15252036	15252036	1	0.371007
S0018	9	15272462	23512634	47	0.000000
S0018	9	23620395	29374154	23	1.413961
S0018	9	29383583	29383583	1	0.784842
S0018	9	29399550	36457446	24	1.413961
S0018	9	36928926	71050695	13	1.530706
S0018	9	71079393	74878767	11	0.116745
S0018	9	75778544	91268541	42	0.000000
S0018	9	91607869	92518699	3	0.695991
S0018	9	92684432	98344608	14	0.000000
S0018	9	98585987	98585987	1	0.433641
S0018	9	99073269	136112570	126	0.000000
S0018	9	136657610	136810857	2	0.458142
S0018	9	136907514	140599989	16	0.000000
S0018	10	466220	21203132	69	1.103791
S0018	10	22538443	28734355	19	0.000000
S0018	10	29146064	29146064	1	0.684537
S0018	10	29711760	36871640	23	0.000000
S0018	10	36924314	37055073	4	2.058889
S0018	10	37367894	38682591	12	0.000000
S0018	10	38944217	53638628	30	1.321164
S0018	10	53769608	61465327	17	0.767089
S0018	10	61540166	64522498	16	1.321164
S0018	10	64569653	65182708	3	-0.036566
S0018	10	65307948	66245097	7	1.233610
S0018	10	66755828	67154059	2	1.321164
S0018	10	67180121	67663412	5	0.191720
S0018	10	67755810	78995938	51	1.321164
S0018	10	79530213	79684095	3	1.099170
S0018	10	79789536	80321977	3	1.321164
S0018	10	80434449	110892869	104	0.000000
S0018	10	110933214	110933214	1	-0.750075
S0018	10	111406513	127763363	68	0.000000
S0018	10	127864296	135124948	31	0.062756
S0018	11	577454	656940	2	0.000000
S0018	11	906708	6591157	21	-0.112004
S0018	11	6638599	18585275	46	0.000000
S0018	11	18759246	20286525	7	0.713339
S0018	11	20766552	21584439	6	0.000000
S0018	11	21636737	26650691	19	0.381170
S0018	11	26677710	39322332	61	0.666816
S0018	11	39557130	56922268	54	0.381170
S0018	11	57190420	74257508	148	0.000000
S0018	11	74307614	74746553	8	0.500908
S0018	11	74753492	75054176	3	0.979256
S0018	11	75279447	78435946	29	0.500908
S0018	11	78471926	79041100	8	-0.663160
S0018	11	79244001	88919227	58	0.500908
S0018	11	88983072	100971269	51	0.227844
S0018	11	101161048	117183632	39	0.500908
S0018	11	117661100	118354343	5	-0.083466
S0018	11	118633171	126315727	25	-0.584374
S0018	11	126461758	134044100	33	0.000000
S0018	12	1287872	1911830	2	-0.165338
S0018	12	1911860	24725652	90	0.121800
S0018	12	25234646	25234646	1	1.459550
S0018	12	25379414	31099949	24	2.973322
S0018	12	31161023	41011120	20	1.459550
S0018	12	41022751	65742539	103	0.121800
S0018	12	65779945	65779945	1	-2.806288
S0018	12	66006488	67308955	6	0.121800
S0018	12	67314946	81833380	82	-0.448609
S0018	12	81844493	81938897	2	1.776879
S0018	12	82162845	83119695	5	2.347288
S0018	12	83307571	106636097	73	0.121800
S0018	12	106723997	106723997	1	2.171309
S0018	12	106736018	120106376	52	0.121800
S0018	12	120229671	120229671	1	0.444281
S0018	12	120229942	133161346	32	0.121800
S0018	13	19538886	19538886	1	0.142415
S0018	13	19586856	19732312	2	-0.802154
S0018	13	19853308	63357351	140	0.142415
S0018	13	63382799	65167225	6	0.713170
S0018	13	65196169	65877595	3	-0.209123
S0018	13	65912181	84247280	60	-1.443163
S0018	13	84350926	85239324	5	-1.044890
S0018	13	85708459	112132258	93	-1.443163
S0018	13	112136167	113058921	5	-2.099487
S0018	13	113110185	114981574	10	-1.443163
S0018	14	20825965	27107260	27	-0.061267
S0018	14	27254762	27471083	2	0.248904
S0018	14	27493748	28999265	7	-0.061267
S0018	14	29144866	34112387	28	0.455540
S0018	14	34510446	38499792	26	0.424062
S0018	14	38582068	70690877	120	0.455540
S0018	14	71142612	72328118	5	-0.022955
S0018	14	72461160	100453128	71	-0.539761
S0018	14	100642374	105690735	27	-0.061267
S0018	15	23733544	41760862	43	0.000000
S0018	15	42263406	50523819	24	-0.264717
S0018	15	50648711	56822403	29	0.000000
S0018	15	57145780	57280495	2	1.184401
S0018	15	57285077	58546555	6	0.000000
S0018	15	59085055	60133476	7	3.207750
S0018	15	60267329	66205498	18	0.000000
S0018	15	66633277	66638707	2	-0.356538
S0018	15	66641732	86350310	59	0.000000
S0018	15	86350508	88616092	7	0.598189
S0018	15	88770374	92621667	22	0.000000
S0018	15	93006230	98112340	19	0.392567
S0018	15	98672060	101214182	14	0.000000
S0018	16	655262	14348101	61	0.000000
S0018	16	14445607	48603192	58	-0.838498
S0018	16	49519945	52895266	19	0.000000
S0018	16	52897246	54422276	13	-0.835723
S0018	16	54786557	80807662	104	0.000000
S0018	16	81036324	81277784	2	-0.773609
S0018	16	81696728	89371839	30	0.000000
S0018	17	1243941	30498012	127	0.001216
S0018	17	30606301	30737832	2	-0.290000
S0018	17	30822975	30822975	1	0.319828
S0018	17	30960445	42921668	87	0.001216
S0018	17	42972457	42972457	1	0.271486
S0018	17	43107658	47165236	18	0.001216
S0018	17	47187056	47698471	6	-1.742501
S0018	17	47703007	47703007	1	-1.320785
S0018	17	47981617	47981617	1	-1.742501
S0018	17	48030656	54896487	60	0.001216
S0018	17	54940461	54940461	1	0.657183
S0018	17	55203315	59001198	29	0.001216
S0018	17	59079666	59079666	1	0.901565
S0018	17	59106724	69549238	93	0.001216
S0018	17	69552582	69883072	3	0.877422
S0018	17	70055734	74988444	36	0.001216
S0018	17	75686959	75686959	1	0.548687
S0018	17	75822544	80917016	38	0.001216
S0018	18	331827	42359004	125	0.000000
S0018	18	42689285	46460732	11	2.793030
S0018	18	46583734	76170411	86	0.000000
S0018	18	76417793	76862505	3	0.439655
S0018	18	77003733	77003733	1	0.000000
S0018	19	412730	967584	5	0.567132
S0018	19	1014377	1201084	5	0.948338
S0018	19	1271529	48954571	224	0.567132
S0018	19	49215540	49956925	5	0.221405
S0018	19	50297459	51658453	7	0.567132
S0018	19	51711037	55209061	15	0.346799
S0018	19	55524586	58852835	25	0.567132
S0018	20	545941	18249409	90	0.000000
S0018	20	18259327	18686011	3	0.674403
S0018	20	19030786	19416594	3	0.000000
S0018	20	19523316	25180073	36	2.585380
S0018	20	25738764	37125857	44	0.000000
S0018	20	37147601	42284156	23	-0.689471
S0018	20	42422708	44176576	14	0.000000
S0018	20	44217278	44332873	2	0.283816
S0018	20	44407697	54113584	75	0.000000
S0018	20	54127706	54342149	2	-0.110128
S0018	20	54353828	54353828	1	1.503389
S0018	20	54364829	61164920	73	-0.110128
S0018	20	61382993	61786578	4	0.871305
S0018	20	61863641	62215372	3	-0.110128
S0018	21	15946408	23187602	39	0.542862
S0018	21	23201162	25217566	7	0.404124
S0018	21	25900645	31137937	28	0.000000
S0018	21	31263518	31736157	3	0.169749
S0018	21	31990098	31990098	1	0.506790
S0018	21	32541049	47323522	75	0.169749
S0018	22	17520371	36742603	74	0.182498
S0018	22	36765918	38841859	11	-0.229645
S0018	22	39196244	40652801	6	0.431590
S0018	22	40851806	43443952	9	1.811569
S0018	22	43614266	45733199	15	2.223712
S0018	22	45800173	49329633	19	0.843733
S0018	X	3343638	13348682	13	0.952610
S0018	X	13482558	17947994	12	1.753488
S0018	X	18072190	23726805	12	1.861552
S0018	X	23803198	26090837	8	1.753488
S0018	X	26901209	26913250	2	3.501901
S0018	X	26991759	29526520	8	5.002727
S0018	X	29909158	31800413	9	7.726098
S0018	X	32223445	35017408	5	5.002727
S0018	X	35539639	41396705	12	3.501901
S0018	X	44223152	49929501	23	1.753488
S0018	X	50054170	50817549	3	3.763247
S0018	X	50999987	55673753	9	3.713527
S0018	X	56813718	57635870	3	4.011703
S0018	X	57812077	57812077	1	4.290711
S0018	X	58086344	58316060	2	4.011703
S0018	X	62670192	68029074	19	3.713527
S0018	X	68379657	91452356	59	1.703768
S0018	X	92134275	95863320	6	1.323118
S0018	X	96599520	111768483	31	1.702146
S0018	X	112546431	118498227	14	1.114210
S0018	X	118696035	118913342	2	1.702146
S0018	X	119439802	120592984	6	1.323118
S0018	X	120743103	138174955	33	1.725693
S0018	X	140192836	151444923	29	1.323118
S0018	X	152766019	153689045	12	0.522241
