ID	chr	start	end	a	LogR
S0015	1	3252007	6254460	10	0.019013
S0015	1	6569286	8129507	7	0.788468
S0015	1	8284657	18755346	39	-0.508287
S0015	1	18855560	32136398	55	-0.790592
S0015	1	32213655	32223365	2	-0.508287
S0015	1	32256086	33898566	7	-0.825287
S0015	1	34181830	45209160	51	-0.508287
S0015	1	45396919	45677263	2	0.070897
S0015	1	45908263	61383717	65	-0.508287
S0015	1	61489206	62264280	9	0.353098
S0015	1	62899406	63106767	2	0.725486
S0015	1	63272551	63684460	4	0.353098
S0015	1	63830874	64002856	3	1.900529
S0015	1	64027991	71022529	25	1.039144
S0015	1	71060210	78112587	27	-0.508287
S0015	1	78455648	87356690	32	-0.153027
S0015	1	87769970	87769970	1	0.333166
S0015	1	87904460	93265369	24	-0.153027
S0015	1	93411668	95676518	19	1.906565
S0015	1	95857876	107946650	33	2.433864
S0015	1	108134160	114058280	25	0.374272
S0015	1	114098108	154818353	57	0.495215
S0015	1	154822209	157470674	18	-0.143440
S0015	1	157680114	165449339	44	0.495215
S0015	1	165654869	166035856	2	0.971330
S0015	1	166096104	170212777	13	0.495215
S0015	1	170403331	170403331	1	0.374272
S0015	1	170699149	170699149	1	1.038552
S0015	1	170960198	200473479	85	0.374272
S0015	1	200524549	200555627	3	-0.298743
S0015	1	200567281	208481249	32	0.374272
S0015	1	208666923	211016418	13	-0.024823
S0015	1	212094998	225167985	42	0.374272
S0015	1	225555602	228143582	16	0.019013
S0015	1	228202007	228807542	2	0.403939
S0015	1	229030081	229121197	2	0.105619
S0015	1	229124867	232329675	11	0.403939
S0015	1	232657870	241058446	31	0.019013
S0015	1	241964559	242401229	4	0.387981
S0015	1	242419250	247785294	11	0.019013
S0015	2	548277	4698129	10	-0.094416
S0015	2	6500686	7283591	3	-0.710686
S0015	2	8287950	9349055	7	-0.891603
S0015	2	9697209	19309546	30	-0.094416
S0015	2	19971625	47418882	82	0.267901
S0015	2	48465627	56065682	29	-0.508052
S0015	2	56216904	56225176	2	0.265798
S0015	2	56803291	59665119	13	-0.508052
S0015	2	59741108	64573601	12	-0.257571
S0015	2	64575738	64575738	1	-1.283373
S0015	2	65829712	68486582	5	-0.257571
S0015	2	68531619	68531619	1	-0.264996
S0015	2	70015181	72186361	6	0.245754
S0015	2	73541833	84327061	26	-0.264996
S0015	2	84527208	88401749	9	-0.153423
S0015	2	88774779	118716190	69	-0.563887
S0015	2	118741298	119840651	6	0.577581
S0015	2	120598746	121392265	3	0.988045
S0015	2	121802396	130509494	17	-0.153423
S0015	2	130525406	141273786	21	-0.264996
S0015	2	141387793	142043670	4	-0.848437
S0015	2	142077308	165551404	62	-0.264996
S0015	2	165816905	167680484	7	-0.984127
S0015	2	167691829	169763148	9	-0.208174
S0015	2	170146412	183549177	33	-0.200749
S0015	2	183630592	184014447	2	0.508477
S0015	2	184137091	190654761	22	-0.200749
S0015	2	190789812	226942405	95	0.518382
S0015	2	227294482	227294482	1	0.122566
S0015	2	227976331	238769680	38	0.518382
S0015	2	238903310	238903310	1	0.951048
S0015	2	238970862	242217627	13	0.518382
S0015	3	3362137	30729636	84	0.000000
S0015	3	30745369	30745369	1	0.772686
S0015	3	30821281	63956655	101	0.000000
S0015	3	64036016	84472471	83	1.511160
S0015	3	84959329	84959329	1	2.214689
S0015	3	84970006	86149051	7	1.511160
S0015	3	86294224	112390578	69	2.668213
S0015	3	113041636	131464049	65	5.264242
S0015	3	131612296	137010687	19	4.107189
S0015	3	137372132	147607519	24	1.511160
S0015	3	147747105	147747105	1	1.864414
S0015	3	147957013	152148553	15	1.511160
S0015	3	153496585	174679560	61	0.000000
S0015	3	174790418	197212100	75	0.213041
S0015	4	1059202	16154006	57	-0.184970
S0015	4	16154996	16777175	2	0.086397
S0015	4	16909080	17516691	3	-0.184970
S0015	4	17547230	26164492	16	-0.169989
S0015	4	26165467	27537855	2	0.117797
S0015	4	27784717	73355610	125	-0.169989
S0015	4	73398680	73398680	1	0.265404
S0015	4	73604409	75131443	13	-0.169989
S0015	4	76314293	90500977	45	-0.273107
S0015	4	91025850	92259485	8	-0.527125
S0015	4	92351586	136089879	101	-0.273107
S0015	4	136194693	143349764	20	-0.288089
S0015	4	143401638	143641202	3	1.588036
S0015	4	144210162	156865614	39	-0.288089
S0015	4	157024390	188763651	80	-0.184970
S0015	5	1325767	34754305	98	0.000000
S0015	5	34844835	52166412	50	0.301834
S0015	5	52532450	61768225	37	0.728953
S0015	5	61905212	72202627	16	0.032257
S0015	5	72295604	77755767	17	0.728953
S0015	5	78067565	111285766	53	0.301834
S0015	5	111686810	112380627	5	0.687876
S0015	5	112462449	115948847	6	0.301834
S0015	5	116475840	175176264	141	0.000000
S0015	5	175710695	175722910	2	-0.336478
S0015	5	176719242	179730478	11	0.000000
S0015	6	1057482	19217537	90	-0.271174
S0015	6	19789579	25847374	32	-0.533485
S0015	6	25950382	26008260	2	-0.860065
S0015	6	26027420	44802910	61	-0.533485
S0015	6	44826250	65415442	62	0.000000
S0015	6	65749649	66901023	11	-0.730328
S0015	6	66920730	68847507	9	-0.302676
S0015	6	68861893	69641096	4	-0.863107
S0015	6	70326617	90723906	62	-0.302676
S0015	6	91931446	92985361	7	0.579861
S0015	6	92986450	93517132	9	-0.302676
S0015	6	93543825	99073196	17	0.427651
S0015	6	99295068	127066224	123	0.000000
S0015	6	127457841	127457841	1	0.100428
S0015	6	128172019	133499986	20	-0.296560
S0015	6	133663636	146721240	63	0.100428
S0015	6	146816019	146816019	1	-0.574179
S0015	6	147323241	151760726	24	0.100428
S0015	6	151768135	170872572	77	0.000000
S0015	7	863293	3813884	9	-0.080442
S0015	7	4090283	4661337	3	-1.520784
S0015	7	5188317	13635957	30	-0.080442
S0015	7	13728264	14058445	4	0.900991
S0015	7	15047933	15583116	4	-0.080442
S0015	7	16172259	16683937	3	-0.592128
S0015	7	17803514	21333342	13	-0.080442
S0015	7	21686272	23538950	6	-0.514301
S0015	7	23788659	24182997	2	-0.876225
S0015	7	24302257	39407632	64	-0.514301
S0015	7	39652362	69161095	68	-0.080442
S0015	7	69194145	79931150	21	0.474418
S0015	7	79959389	91416531	26	2.915552
S0015	7	91809759	104303913	30	0.474418
S0015	7	105204085	105224740	2	0.095973
S0015	7	105710085	111546124	10	0.474418
S0015	7	111609878	114919755	9	-0.080442
S0015	7	117640952	134455276	36	-0.380817
S0015	7	134697287	134697287	1	-0.035592
S0015	7	134698388	146311185	35	-0.380817
S0015	7	147568974	158215549	43	-0.080442
S0015	8	618552	849793	3	-0.472718
S0015	8	1215166	9476645	29	0.262306
S0015	8	10377861	16650015	25	0.604410
S0015	8	16758938	18528727	21	1.057836
S0015	8	18536016	18536016	1	0.696140
S0015	8	18751052	18751052	1	1.057836
S0015	8	19739243	22095260	5	1.415452
S0015	8	22703557	31099615	53	1.057836
S0015	8	31447633	31475273	2	1.749639
S0015	8	31582364	33761584	19	1.057836
S0015	8	34260273	35935190	19	1.530554
S0015	8	35966595	37091113	10	2.905124
S0015	8	37124693	37396693	6	3.530722
S0015	8	37399290	37399290	1	2.905124
S0015	8	37466596	38402151	11	3.230143
S0015	8	38525003	38942504	10	4.040862
S0015	8	38949525	50259371	60	5.345708
S0015	8	50312970	53408414	15	6.046442
S0015	8	53766263	53933084	2	5.345708
S0015	8	54265566	54265566	1	4.733564
S0015	8	54581060	55941658	12	4.040862
S0015	8	56421762	56421762	1	4.539446
S0015	8	56521518	56521518	1	4.897614
S0015	8	56597103	80406925	114	4.539446
S0015	8	80481594	80481594	1	3.640166
S0015	8	81109804	82977998	16	4.539446
S0015	8	83183692	84183214	5	3.743916
S0015	8	84553579	84962337	3	5.210430
S0015	8	85427668	90327358	24	4.475406
S0015	8	90398960	98935189	41	3.008892
S0015	8	99192597	101537590	10	4.407223
S0015	8	101572814	101975479	5	3.908639
S0015	8	102346409	104291296	11	2.510308
S0015	8	104340719	104437065	2	4.303981
S0015	8	105227985	109644769	20	2.510308
S0015	8	110075358	116329913	28	1.135738
S0015	8	116597192	117594864	10	0.325019
S0015	8	117620112	119029871	7	2.672389
S0015	8	119151423	141441981	115	0.325019
S0015	8	141514184	141549881	2	0.000000
S0015	8	141553847	145147978	3	-0.385957
S0015	9	905450	93936968	225	0.095624
S0015	9	94448572	101858350	20	0.390244
S0015	9	103404555	113072607	22	0.894489
S0015	9	113240230	118036595	22	0.390244
S0015	9	118714293	120236173	7	0.374257
S0015	9	120423894	132443831	48	0.079636
S0015	9	132638265	140599989	36	0.607539
S0015	10	466220	2527236	6	0.000000
S0015	10	2624963	3307469	4	-0.612576
S0015	10	3350441	11163783	29	0.000000
S0015	10	11175462	17395500	18	-0.845771
S0015	10	17396213	20623776	10	0.000000
S0015	10	20726070	20726070	1	0.522536
S0015	10	21203132	26596798	13	0.000000
S0015	10	26864609	27069902	2	0.840905
S0015	10	27357572	28734355	5	1.088480
S0015	10	29146064	31537327	8	0.840905
S0015	10	31702041	44296893	43	0.000000
S0015	10	44748363	89322267	160	-0.002991
S0015	10	89324663	94968665	31	0.978446
S0015	10	95002077	99248246	14	-0.002991
S0015	10	99526507	104160959	13	2.388587
S0015	10	104202911	126891132	73	-0.002991
S0015	10	127244035	127308873	2	-0.409453
S0015	10	127413555	135124948	37	-0.002991
S0015	11	577454	16882001	64	-0.138410
S0015	11	16920292	19554506	10	0.915163
S0015	11	20169375	31701044	49	-0.138410
S0015	11	31742285	34969112	22	0.132603
S0015	11	34994059	34994059	1	0.914247
S0015	11	35588160	36153672	4	0.132603
S0015	11	36832891	43696917	36	0.417006
S0015	11	43709965	43709965	1	1.053744
S0015	11	43712254	45662035	10	0.417006
S0015	11	46202305	46771052	5	0.835471
S0015	11	47576567	61885073	55	0.417006
S0015	11	61915701	61991756	2	0.132603
S0015	11	62004945	63991801	20	0.271013
S0015	11	64007474	64039998	2	0.630977
S0015	11	64230157	70403385	49	0.271013
S0015	11	70787123	71155352	11	1.373107
S0015	11	71161063	71161063	1	1.879818
S0015	11	71279222	73001720	11	1.373107
S0015	11	73120153	74307614	12	0.271013
S0015	11	74346337	79615720	53	-0.383204
S0015	11	79631868	79631868	1	1.183613
S0015	11	79788489	86447556	43	-0.383204
S0015	11	86813118	86813118	1	0.187635
S0015	11	86816438	94368749	30	-0.383204
S0015	11	94381668	94782720	2	-0.052787
S0015	11	94819447	105046638	34	-0.383204
S0015	11	106139352	110091977	10	-0.129047
S0015	11	111567655	117985888	24	-0.383204
S0015	11	118242237	118633171	3	0.019345
S0015	11	118938826	126461758	25	-0.383204
S0015	11	126612903	132823545	29	0.271013
S0015	11	133509056	134044100	3	0.000000
S0015	12	1287872	5586425	11	2.312899
S0015	12	5704092	24725652	81	0.000000
S0015	12	25234646	29129874	16	0.461423
S0015	12	29527675	29527675	1	0.946167
S0015	12	29815195	41011120	28	0.493518
S0015	12	41022751	44222104	11	1.000457
S0015	12	44485158	57133321	51	0.493518
S0015	12	57240444	59080855	6	0.167683
S0015	12	59103316	62782467	19	0.493518
S0015	12	62798992	62798992	1	0.021109
S0015	12	63040812	63765072	8	-0.440314
S0015	12	63768062	67308955	14	0.032095
S0015	12	67314946	69495486	20	0.000000
S0015	12	69528385	69528385	1	0.362056
S0015	12	69723709	73987514	31	0.000000
S0015	12	74467465	74467465	1	0.248349
S0015	12	74487917	75880697	11	0.000000
S0015	12	76070996	81938897	20	1.059540
S0015	12	82162845	83978016	9	0.381068
S0015	12	84062778	90148072	34	1.059540
S0015	12	92008193	92436751	3	1.468233
S0015	12	92617103	94523998	7	1.059540
S0015	12	95112845	95394350	2	1.535646
S0015	12	95440001	95606031	2	0.476106
S0015	12	95700792	117093686	58	0.000000
S0015	12	117111929	117988786	4	0.413202
S0015	12	118181011	123758235	25	0.000000
S0015	12	123978134	133161346	20	-0.053272
S0015	13	19538886	81225184	205	0.117336
S0015	13	81721760	82302689	3	-0.366311
S0015	13	83095753	89306589	17	0.117336
S0015	13	89340429	90274647	3	-0.076202
S0015	13	90321922	113188574	89	0.117336
S0015	13	113413755	114263719	4	-0.573354
S0015	13	114284997	114981574	4	0.117336
S0015	14	20825965	29770896	41	-0.274591
S0015	14	30024303	30775364	2	0.242409
S0015	14	30818177	31988127	8	-0.274591
S0015	14	32284877	42528962	57	-0.108134
S0015	14	42729620	42729620	1	-1.143276
S0015	14	42958245	42958245	1	-1.309733
S0015	14	43413665	80346029	123	-0.274591
S0015	14	80416884	80416884	1	-1.065514
S0015	14	81485293	81485293	1	-0.274591
S0015	14	81782933	84017914	8	-0.470200
S0015	14	84549927	84549927	1	-0.200399
S0015	14	84699214	99493118	40	-0.470200
S0015	14	99551119	100453128	2	-0.151561
S0015	14	100642374	105690735	27	-0.470200
S0015	15	23733544	23866918	2	0.000000
S0015	15	24147728	26934542	8	0.008198
S0015	15	27062506	33684035	10	0.000000
S0015	15	34036470	34036470	1	0.629387
S0015	15	34488180	69673728	122	0.000000
S0015	15	70004352	70079542	2	0.368320
S0015	15	70385112	70936758	3	0.009738
S0015	15	72447844	84784562	36	0.368320
S0015	15	84796160	89556883	17	0.610072
S0015	15	89618559	93627639	23	0.368320
S0015	15	94278351	101214182	28	0.000000
S0015	16	655262	10563198	40	0.000000
S0015	16	10664344	10664344	1	0.653918
S0015	16	10725361	14506149	22	0.000000
S0015	16	14549779	19252763	3	0.385047
S0015	16	19505177	27446196	29	0.000000
S0015	16	27897325	28072982	2	-0.763085
S0015	16	28336736	31850299	10	0.000000
S0015	16	46668810	46668810	1	-0.285989
S0015	16	46801989	68805784	99	0.000000
S0015	16	68811379	68898187	2	0.276546
S0015	16	69259315	89371839	78	0.000000
S0015	17	1243941	1583136	5	0.014800
S0015	17	2639362	2639362	1	2.142736
S0015	17	2725555	5867758	8	2.127936
S0015	17	6091866	33252070	129	0.000000
S0015	17	33330252	36953754	22	-0.395889
S0015	17	37046871	37081707	2	0.574379
S0015	17	37160979	51499001	99	-0.395889
S0015	17	51511219	59771718	80	-0.186057
S0015	17	59929104	59929104	1	0.372273
S0015	17	59939798	59939798	1	-0.186057
S0015	17	59939895	59939895	1	0.493264
S0015	17	59985874	61017423	10	-0.186057
S0015	17	61020725	63289088	24	0.079853
S0015	17	63321572	63733091	3	0.475741
S0015	17	63870719	73622989	67	0.209832
S0015	17	73828486	73828486	1	0.522356
S0015	17	73849022	80917016	52	0.209832
S0015	18	331827	32782932	95	0.338981
S0015	18	32820181	34134665	7	0.802038
S0015	18	34567705	44880763	26	0.338981
S0015	18	45103319	45433117	2	0.738785
S0015	18	45563098	46897961	10	0.338981
S0015	18	47827943	59254399	36	-0.424173
S0015	18	59257023	77003733	50	0.338981
S0015	19	412730	3461118	19	-0.021106
S0015	19	4288205	5142473	4	-0.916456
S0015	19	5217541	50592247	218	-0.021106
S0015	19	50859353	56319525	30	-0.302465
S0015	19	56822657	56822657	1	0.004344
S0015	19	57162288	57319629	3	-0.302465
S0015	19	57516070	57516070	1	0.579056
S0015	19	57621012	58852835	10	-0.302465
S0015	20	545941	4985283	29	-0.002830
S0015	20	5761605	32489789	120	0.000000
S0015	20	32513747	32746952	2	0.325803
S0015	20	33036728	44135728	61	1.157150
S0015	20	44176576	48437832	29	0.325803
S0015	20	48440023	57837766	98	0.000000
S0015	20	57972626	58357939	2	-0.286114
S0015	20	58414453	62215372	32	0.000000
S0015	21	15946408	47323522	153	0.000000
S0015	22	17520371	30779957	37	0.000000
S0015	22	30918825	31785281	9	0.537773
S0015	22	31858029	43308475	53	0.000000
S0015	22	43443952	43614266	2	0.212895
S0015	22	43629495	49329633	33	0.000000
S0015	X	3343638	13332862	12	0.000000
S0015	X	13348682	23884193	27	0.496696
S0015	X	24066352	49459348	62	1.143712
S0015	X	49470985	49470985	1	0.647016
S0015	X	49734029	70601083	45	1.984766
S0015	X	70816449	104226151	76	0.647016
S0015	X	104338337	110050963	11	2.765016
S0015	X	110251592	110251592	1	2.118000
S0015	X	110326986	113995993	8	0.000000
S0015	X	115009319	115163060	2	-0.326581
S0015	X	116688832	153689045	88	0.000000
