ID	chr	start	end	a	LogR
S0028	1	3252007	9852699	25	0.545811
S0028	1	10365286	10650509	5	2.075106
S0028	1	10825799	22603889	40	0.545811
S0028	1	23199726	42465769	88	1.124566
S0028	1	43758912	55495744	58	0.545811
S0028	1	55497302	62205737	30	0.770644
S0028	1	62264280	64433543	13	0.371019
S0028	1	64764545	76455001	39	0.018875
S0028	1	76497711	76497711	1	0.798343
S0028	1	76530309	78112587	9	0.018875
S0028	1	78455648	78455648	1	0.174834
S0028	1	78537489	90830351	50	0.018875
S0028	1	91813362	99532176	34	0.371019
S0028	1	100220425	119269869	78	0.638898
S0028	1	119333813	119333813	1	0.371019
S0028	1	119778411	119778411	1	-0.063888
S0028	1	119836835	156101549	34	0.371019
S0028	1	156135241	183099560	103	0.084842
S0028	1	183255067	188383174	16	-0.244595
S0028	1	188503625	194026432	19	0.155030
S0028	1	195642916	206294125	44	0.441206
S0028	1	206844799	209123662	14	0.187558
S0028	1	209211873	210387562	7	0.441206
S0028	1	211016418	211016418	1	-0.147721
S0028	1	212094998	224327898	37	0.441206
S0028	1	224617385	225631467	8	0.770644
S0028	1	225732239	247785294	74	-0.044252
S0028	2	548277	4093752	9	0.000000
S0028	2	4698129	9234687	9	0.258317
S0028	2	9310529	25984888	52	0.000000
S0028	2	26331375	26331375	1	1.065606
S0028	2	26606005	47226183	59	0.000000
S0028	2	47385844	47385844	1	-0.210142
S0028	2	47418882	48465627	2	0.592929
S0028	2	48585963	62464483	52	-0.210142
S0028	2	62729674	82943700	40	-0.025778
S0028	2	83148496	84327061	2	0.551277
S0028	2	84527208	157252095	160	-0.025778
S0028	2	157722531	217947272	181	0.184364
S0028	2	219513547	219513547	1	0.712683
S0028	2	219618925	221409618	3	0.184364
S0028	2	221439475	228726714	20	-0.072141
S0028	2	228998237	231046602	5	0.184364
S0028	2	231097129	231097129	1	-0.343157
S0028	2	231224255	233460204	8	0.184364
S0028	2	233538392	235593473	6	-0.354340
S0028	2	235633700	236441875	4	0.184364
S0028	2	236788618	242217627	23	0.000000
S0028	3	3362137	12631704	26	-0.074799
S0028	3	12639994	15653471	16	0.165110
S0028	3	15656632	27876002	30	0.250148
S0028	3	28180018	29935660	8	-0.160068
S0028	3	30046640	38324020	24	0.250148
S0028	3	39488878	44187692	21	0.157835
S0028	3	44188361	47575568	12	-0.082074
S0028	3	47594981	47594981	1	0.393652
S0028	3	47753239	77850731	102	-0.082074
S0028	3	77895652	77895652	1	0.843186
S0028	3	77952741	97587959	66	-0.082074
S0028	3	97660106	97660106	1	-0.370416
S0028	3	98805403	111591110	34	-0.082074
S0028	3	111790210	131612296	70	1.239090
S0028	3	131681178	131867527	3	1.582150
S0028	3	132086825	137372132	16	1.239090
S0028	3	137441912	142602666	10	1.218805
S0028	3	142856740	142856740	1	0.732273
S0028	3	143197761	156291332	37	1.218805
S0028	3	156334430	168855293	33	-0.102359
S0028	3	168941700	168941700	1	0.743673
S0028	3	169085534	170840155	6	-0.102359
S0028	3	170945351	170945351	1	0.130450
S0028	3	171302066	196974183	83	-0.102359
S0028	3	197037067	197212100	3	0.197678
S0028	4	1059202	7475424	33	0.034950
S0028	4	7586302	7797819	2	0.366529
S0028	4	8018156	8503359	4	0.034950
S0028	4	8666662	8666662	1	-0.679153
S0028	4	9748029	9910635	2	-1.008732
S0028	4	9993858	14688990	12	-0.679153
S0028	4	15228720	30896342	36	0.034950
S0028	4	31443206	46334494	45	0.105838
S0028	4	46469770	46469770	1	0.520758
S0028	4	46632203	76776779	85	0.105838
S0028	4	76872009	92351586	52	1.607145
S0028	4	93252543	97798507	10	1.102121
S0028	4	99010336	104583821	18	0.768790
S0028	4	104683858	106297189	8	1.102121
S0028	4	106413367	109329149	10	-0.399185
S0028	4	109938230	109938230	1	-1.442938
S0028	4	110320011	187655512	192	-0.399185
S0028	4	188234912	188763651	3	0.105838
S0028	5	1325767	4358951	17	-0.001931
S0028	5	4528395	4590072	2	-0.704277
S0028	5	4901556	12331200	21	-0.001931
S0028	5	12589944	27583046	36	0.031632
S0028	5	27726308	27726308	1	-0.326357
S0028	5	27935592	39398942	41	0.031632
S0028	5	39495775	40888719	3	0.395967
S0028	5	40929003	43230616	10	0.031632
S0028	5	43429204	60827533	53	0.033563
S0028	5	61768225	62004183	3	0.933116
S0028	5	65237212	65266923	2	1.101229
S0028	5	65312181	89697579	48	0.201676
S0028	5	90083373	104885670	21	0.668436
S0028	5	105661754	118469707	30	1.557944
S0028	5	118732187	126854307	16	0.668436
S0028	5	127191705	134965171	18	0.634873
S0028	5	135723811	136882732	3	0.168114
S0028	5	137274665	179730478	111	0.000000
S0028	6	1057482	9392644	45	-0.385575
S0028	6	9729745	11074302	7	-0.406739
S0028	6	11343768	13316249	9	-0.101825
S0028	6	13383430	18204882	23	-0.406739
S0028	6	18237661	18751348	3	-0.956626
S0028	6	19128247	20468635	11	-0.406739
S0028	6	20589370	35689719	47	-0.290565
S0028	6	35936802	35936802	1	0.048854
S0028	6	36031583	45569863	42	-0.290565
S0028	6	45616443	48083008	6	-0.047819
S0028	6	48492103	56446035	39	-0.290565
S0028	6	56666367	65153756	13	0.027592
S0028	6	65415442	66555130	5	0.413882
S0028	6	66564806	88609496	73	0.027592
S0028	6	88619084	89208455	5	0.413377
S0028	6	89227148	93702141	22	0.027592
S0028	6	95841494	95841494	1	0.466391
S0028	6	95969106	121198315	102	0.027592
S0028	6	121606274	122937612	10	1.097467
S0028	6	123159176	123518994	2	0.344616
S0028	6	123673010	123836746	2	1.097467
S0028	6	124158252	124408565	2	0.412826
S0028	6	124414154	134484073	47	0.027592
S0028	6	134651992	137668535	11	0.477211
S0028	6	137937059	146721240	45	0.498375
S0028	6	146816019	152892598	33	0.048756
S0028	6	153045913	153544933	3	-0.067418
S0028	6	153728032	153728032	1	-1.188708
S0028	6	153935139	163913825	43	-0.067418
S0028	6	164114633	170872572	22	0.415489
S0028	7	863293	25680910	82	0.044059
S0028	7	25775505	30203422	16	0.000000
S0028	7	30467018	31602244	5	0.333510
S0028	7	31676275	38790947	32	0.000000
S0028	7	39091288	41774976	10	0.224552
S0028	7	42008429	52047849	29	0.000000
S0028	7	52190248	52190248	1	0.407633
S0028	7	52265138	70148486	37	0.000000
S0028	7	70965874	70965874	1	0.525924
S0028	7	71906122	135953018	136	0.000000
S0028	7	136645021	136645021	1	-0.675216
S0028	7	136937292	136937292	1	0.000000
S0028	7	136984858	136984858	1	0.582712
S0028	7	137294891	150115228	36	0.000000
S0028	7	150210148	154162380	10	-0.340724
S0028	7	154507300	158215549	21	0.000000
S0028	8	618552	3929168	17	2.216634
S0028	8	4210140	19893047	65	1.299894
S0028	8	20871759	28891287	32	2.096082
S0028	8	28901736	32841653	37	1.299894
S0028	8	32962692	41109005	97	1.206316
S0028	8	41311166	41311166	1	1.478196
S0028	8	41374341	42153509	9	1.206316
S0028	8	42224452	42356369	5	0.438592
S0028	8	42604828	56597103	46	1.206316
S0028	8	57106654	61705846	26	1.422140
S0028	8	61723895	66057858	19	1.206316
S0028	8	66244699	86114735	99	1.748989
S0028	8	86218398	90323764	17	1.206316
S0028	8	90327358	92113262	8	1.544624
S0028	8	92187766	100243413	39	1.206316
S0028	8	100557356	101058570	3	0.969447
S0028	8	101117734	102436045	9	1.206316
S0028	8	102458149	103598817	5	0.708582
S0028	8	103788000	106384832	16	-0.008726
S0028	8	106490018	106490018	1	0.324802
S0028	8	107930723	110273273	13	-0.008726
S0028	8	110660658	117376229	32	0.708582
S0028	8	117533304	117670662	4	0.996417
S0028	8	117673789	145147978	125	0.708582
S0028	9	905450	2474066	6	-0.300088
S0028	9	2569150	13301956	37	0.000000
S0028	9	13506810	14565982	10	0.412710
S0028	9	14592321	87284262	154	0.000000
S0028	9	88073146	99073269	30	-0.476099
S0028	9	99605892	117808080	51	-0.123049
S0028	9	118036595	124232141	21	0.353050
S0028	9	124376498	131264543	27	0.000000
S0028	9	131354911	132859382	10	0.635018
S0028	9	132957214	140599989	34	0.000000
S0028	10	466220	35621132	105	0.013127
S0028	10	36064232	38281614	22	-0.205483
S0028	10	38682591	38682591	1	0.082463
S0028	10	38944217	63577644	59	-0.205483
S0028	10	63678180	65369960	9	1.072580
S0028	10	65441036	67527000	11	3.971061
S0028	10	67663412	70443854	7	3.640576
S0028	10	70614102	70614102	1	3.859186
S0028	10	70990824	71351750	3	0.960705
S0028	10	71811137	88245682	76	1.291190
S0028	10	88426350	88455879	2	0.563605
S0028	10	88868671	89872203	13	1.552432
S0028	10	90349910	92823350	12	1.291190
S0028	10	92842084	129593684	131	0.013127
S0028	10	129858060	135124948	17	0.547544
S0028	11	577454	31742285	124	0.291523
S0028	11	31857581	32242706	3	0.535746
S0028	11	32385980	32795973	6	0.291523
S0028	11	33003988	34478583	10	0.569645
S0028	11	34539004	38473730	13	0.798887
S0028	11	38474313	63991801	123	0.569645
S0028	11	64007474	64261102	4	0.868510
S0028	11	64409281	67977276	15	0.569645
S0028	11	67989164	77699247	99	0.278122
S0028	11	78125246	78125246	1	1.341813
S0028	11	78179058	90682160	80	0.278122
S0028	11	90773125	104914969	48	0.000000
S0028	11	104937371	104939029	2	-1.287254
S0028	11	105046638	106370011	4	-0.963751
S0028	11	107310710	107615640	3	0.323503
S0028	11	108047949	121042627	37	0.000000
S0028	11	121136604	122712586	2	0.481624
S0028	11	122713810	134044100	49	0.000000
S0028	12	1287872	19812468	74	0.779583
S0028	12	20204782	30079439	38	2.117333
S0028	12	30358302	31414473	7	3.839373
S0028	12	31839776	32320830	4	2.501623
S0028	12	32424538	48231632	45	0.779583
S0028	12	48256090	59227606	40	0.399621
S0028	12	59234068	59234068	1	0.681811
S0028	12	59241014	63746081	23	0.399621
S0028	12	63765072	69357231	30	-0.875620
S0028	12	69367332	69382836	2	0.399621
S0028	12	69422390	69454873	2	1.149225
S0028	12	69495486	69495486	1	1.492371
S0028	12	69528385	69528385	1	1.149225
S0028	12	69723709	70397488	9	0.399621
S0028	12	70472339	70472339	1	-0.379962
S0028	12	70607067	76070996	34	0.000000
S0028	12	76318912	81844493	18	2.370463
S0028	12	81938897	99562568	67	0.000000
S0028	12	100135612	103547606	7	-0.068887
S0028	12	103754732	109974404	14	0.000000
S0028	12	109993976	113397691	17	0.307741
S0028	12	113433587	133161346	60	0.000000
S0028	13	19538886	31282130	54	0.622258
S0028	13	31285555	31371737	3	1.101043
S0028	13	31634208	48182038	42	-0.768439
S0028	13	48362973	48863994	3	-0.279165
S0028	13	48886829	51971482	10	-0.768439
S0028	13	52416279	68959626	48	-1.196292
S0028	13	69003793	69525299	2	-0.881223
S0028	13	69772307	76627944	29	-1.196292
S0028	13	76695873	78785833	6	-0.013059
S0028	13	78853056	78853056	1	-1.196292
S0028	13	79188419	79188419	1	-1.620194
S0028	13	79541517	79927881	2	-1.196292
S0028	13	80310796	81225184	4	-0.595374
S0028	13	81721760	102510055	64	-1.196292
S0028	13	102548688	109544273	32	0.194405
S0028	13	109579256	111882048	7	0.631189
S0028	13	111883432	112712849	5	0.194405
S0028	13	112846022	114981574	12	0.583666
S0028	14	20825965	23682699	9	0.000000
S0028	14	23733725	31020786	36	1.956769
S0028	14	31467838	31861361	4	3.321675
S0028	14	31861934	34093377	14	1.364906
S0028	14	34112387	36903250	16	0.000000
S0028	14	37104047	37104047	1	-0.382612
S0028	14	37423627	105690735	233	0.000000
S0028	15	23733544	42753763	45	0.111884
S0028	15	42767829	64505236	80	2.191824
S0028	15	64697929	69520737	17	0.111884
S0028	15	69673728	76035926	16	-0.560013
S0028	15	76196674	86123988	31	-4.301555
S0028	15	86350310	92516992	29	-0.560013
S0028	15	92621667	101214182	34	0.111884
S0028	16	655262	46668810	108	0.000000
S0028	16	46801989	59062722	62	0.484803
S0028	16	60167930	60167930	1	2.129304
S0028	16	60331211	63766074	20	0.771570
S0028	16	63968936	71290947	28	0.484803
S0028	16	71434795	79860514	29	0.000000
S0028	16	79868830	89371839	39	-0.773074
S0028	17	1243941	7630020	21	0.000000
S0028	17	7743099	12222749	22	-0.546507
S0028	17	12257862	12668568	2	-0.695309
S0028	17	12677911	12814925	3	0.211105
S0028	17	12866546	37863585	128	-0.546507
S0028	17	37881553	37905816	2	-1.041611
S0028	17	38128311	42628193	38	-0.495103
S0028	17	42921668	47390136	23	0.000000
S0028	17	47438624	52947422	42	-2.077719
S0028	17	52968458	52968458	1	-2.810046
S0028	17	52971318	52971318	1	-2.410210
S0028	17	52987958	52987958	1	-2.077719
S0028	17	53100168	58882589	49	0.000000
S0028	17	59001198	59106724	3	0.300433
S0028	17	59145532	64830729	55	0.000000
S0028	17	64889579	64913220	3	0.367232
S0028	17	65035960	80917016	112	0.000000
S0028	18	331827	3245671	8	0.000000
S0028	18	3334074	3337001	2	0.416333
S0028	18	3385059	9382609	21	0.000000
S0028	18	9871426	11380723	10	-0.547609
S0028	18	11384909	46852115	97	0.000000
S0028	18	46885674	65004338	53	0.946097
S0028	18	65121005	67096443	11	0.000000
S0028	18	67468388	75143743	17	1.163297
S0028	18	76034414	77003733	7	0.000000
S0028	19	412730	17989406	97	0.006090
S0028	19	18264940	18807423	5	0.717502
S0028	19	18847608	29861707	34	0.006090
S0028	19	29906561	33331913	25	0.291069
S0028	19	33354335	33624878	3	1.012209
S0028	19	33913014	39141713	26	0.599932
S0028	19	39269720	41291119	16	0.314954
S0028	19	41707819	51711037	41	0.006090
S0028	19	51890186	52183884	4	0.947810
S0028	19	52259571	58852835	35	0.006090
S0028	20	545941	5827061	31	0.000000
S0028	20	6049692	7588207	8	0.320613
S0028	20	7769391	17121061	46	0.000000
S0028	20	17264549	17641216	3	0.508507
S0028	20	17954607	44332873	127	0.000000
S0028	20	44407697	46316669	11	1.364913
S0028	20	46568206	47504596	8	1.411501
S0028	20	47634301	62215372	139	0.046588
S0028	21	15946408	16362311	4	-0.131309
S0028	21	16921886	17173058	2	0.129798
S0028	21	17334568	17822236	4	-0.131309
S0028	21	17842538	18057646	3	0.133548
S0028	21	18061292	18061292	1	-0.858958
S0028	21	18083007	19521848	10	0.133548
S0028	21	19536385	19536385	1	0.463782
S0028	21	19876683	30212718	39	0.133548
S0028	21	30233099	30864812	7	1.636437
S0028	21	30910306	32572461	9	0.133548
S0028	21	32667896	34291640	6	-0.867008
S0028	21	34534365	43203188	47	0.133548
S0028	21	43303275	43303275	1	1.273129
S0028	21	43408268	47323522	19	0.133548
S0028	22	17520371	30618439	34	0.000000
S0028	22	30715471	31785281	12	0.390254
S0028	22	31858029	32668527	4	0.000000
S0028	22	32879317	32879317	1	0.759904
S0028	22	33034169	35536052	13	0.000000
S0028	22	35545915	42775573	33	0.519929
S0028	22	43073190	49329633	37	0.000000
S0028	X	3343638	14136148	16	1.365549
S0028	X	14400221	16121634	6	3.376346
S0028	X	16511219	21434667	12	1.365549
S0028	X	21590118	31568903	29	2.589047
S0028	X	31800413	36604676	8	5.564985
S0028	X	37487594	41108897	8	2.589047
S0028	X	41217251	56881650	39	4.077523
S0028	X	57635870	62670192	5	4.277427
S0028	X	63007001	68492768	22	4.077523
S0028	X	70587449	71426422	5	3.536604
S0028	X	72313442	72313442	1	2.313106
S0028	X	72321245	75940752	5	0.824630
S0028	X	76008901	79281176	8	1.365549
S0028	X	79474101	79478285	2	1.825917
S0028	X	79484025	130989603	112	1.365549
S0028	X	131786882	132151060	2	1.790339
S0028	X	132496732	132506986	2	1.365549
S0028	X	132564095	136403613	6	2.025606
S0028	X	137005060	144733592	20	1.365549
S0028	X	144884419	146143159	5	2.150462
S0028	X	146307473	152813436	11	1.365549
S0028	X	152834160	152834160	1	1.780469
S0028	X	153016891	153689045	8	1.365549
