ID	chr	start	end	a	LogR
S0024	1	3252007	5718185	8	0.539843
S0024	1	6144417	27711044	84	0.817615
S0024	1	28090960	30569052	11	1.443705
S0024	1	30619205	32136398	8	0.817615
S0024	1	32213655	32266026	4	1.033249
S0024	1	32371097	35845505	15	0.817615
S0024	1	36411977	47491592	51	0.748933
S0024	1	47884582	60421762	50	1.445176
S0024	1	60577064	63989744	24	1.287501
S0024	1	64002856	73122262	35	1.445176
S0024	1	73150493	81995750	24	1.446558
S0024	1	82139871	88226329	31	0.750315
S0024	1	88578494	89492528	9	1.065458
S0024	1	89527660	97542797	36	0.750315
S0024	1	97749248	117039183	66	0.472543
S0024	1	117161264	117264161	3	0.541225
S0024	1	117396686	155274960	43	-0.282369
S0024	1	155467277	162420749	40	-0.075358
S0024	1	162451701	162451701	1	-0.176934
S0024	1	162695676	164293400	13	-0.075358
S0024	1	164293715	164293715	1	-0.344862
S0024	1	164469194	164469194	1	0.333062
S0024	1	164962463	170403331	19	-0.344862
S0024	1	170699149	186281957	39	0.478732
S0024	1	186883192	197889271	37	0.271722
S0024	1	198925918	198925918	1	0.568122
S0024	1	199022577	207086194	37	0.271722
S0024	1	207162961	208826450	9	0.541225
S0024	1	208874119	223468766	46	0.222720
S0024	1	223523973	225631467	10	0.541225
S0024	1	225732239	229121197	17	0.997982
S0024	1	229124867	247785294	57	0.541225
S0024	2	548277	36358568	94	0.120631
S0024	2	37012429	47385844	37	0.406066
S0024	2	47418882	49863171	7	0.120631
S0024	2	50233606	50531694	2	0.383005
S0024	2	50626192	53177890	13	0.120631
S0024	2	53466884	53466884	1	1.536218
S0024	2	53479918	53479918	1	0.551094
S0024	2	53984957	62729674	31	0.120631
S0024	2	63835872	63835872	1	0.445770
S0024	2	64573601	79785810	31	0.120631
S0024	2	80428800	82049704	5	0.816920
S0024	2	82492283	83148496	3	1.512526
S0024	2	84327061	109500929	61	0.816920
S0024	2	111760768	167122802	136	0.120631
S0024	2	167471876	167748513	5	-0.231606
S0024	2	167749266	174787933	18	0.120631
S0024	2	175042118	181815831	18	1.553174
S0024	2	182009096	190503961	26	0.120631
S0024	2	190654761	193528836	15	0.816203
S0024	2	194059818	197125148	6	0.187520
S0024	2	197287958	200320018	12	-0.508052
S0024	2	200985196	204865954	6	0.171047
S0024	2	205125606	206273962	8	-0.508052
S0024	2	206613381	242217627	102	0.120631
S0024	3	3362137	14856838	37	-1.867255
S0024	3	14894140	19481127	18	-1.639172
S0024	3	19786743	28180018	18	-1.867255
S0024	3	28182307	29189143	5	-1.878273
S0024	3	29200525	30046640	3	-3.368780
S0024	3	30074874	30074874	1	-1.878273
S0024	3	30100084	42356836	32	-0.868519
S0024	3	42454025	42461815	2	-0.489921
S0024	3	43238536	43994802	8	-0.868519
S0024	3	44187692	44187692	1	-1.878273
S0024	3	44188361	45934279	7	-0.115358
S0024	3	46073790	47352462	3	0.375274
S0024	3	47570566	48580105	7	-0.115358
S0024	3	48637232	48904258	3	0.113810
S0024	3	49717036	49903065	2	2.329360
S0024	3	50217093	65368030	42	2.100192
S0024	3	65573867	73621001	39	-0.115358
S0024	3	74155664	95428780	74	-0.203890
S0024	3	96216003	132260403	115	0.050939
S0024	3	132968294	132968294	1	-0.159946
S0024	3	133260516	133288506	2	0.655326
S0024	3	133492571	143774740	27	-0.159946
S0024	3	144456427	144624666	2	0.169304
S0024	3	145021293	146035144	2	-0.159946
S0024	3	146069880	146190898	2	0.258851
S0024	3	147607519	151976445	13	-0.159946
S0024	3	152032495	152127354	2	0.216114
S0024	3	152127377	156616684	15	-0.071414
S0024	3	156732685	159503191	9	-0.326243
S0024	3	159723903	197212100	114	-0.715831
S0024	4	1059202	11084259	48	-0.373128
S0024	4	12779652	21073003	24	0.111996
S0024	4	22264580	26165467	7	0.825955
S0024	4	27537855	29965647	7	0.000000
S0024	4	29985899	31443206	5	0.315984
S0024	4	31676985	43610300	32	0.000000
S0024	4	44284078	44552386	3	1.620698
S0024	4	44552520	65659214	52	0.000000
S0024	4	65813578	73220990	25	0.305339
S0024	4	73293189	73293189	1	0.729761
S0024	4	73355610	79345650	25	0.305339
S0024	4	79376907	79376907	1	0.978305
S0024	4	79528813	82933126	14	0.305339
S0024	4	83191927	94316763	32	0.000000
S0024	4	94624474	120253853	58	1.228123
S0024	4	120285139	120381523	2	-0.294618
S0024	4	120413966	139835609	47	1.228123
S0024	4	139998368	145064279	17	1.522411
S0024	4	145978910	148897030	10	1.228123
S0024	4	149431616	167541631	55	0.000000
S0024	4	168610601	175650887	15	-0.298119
S0024	4	176020166	188763651	35	0.000000
S0024	5	1325767	44718710	137	0.000000
S0024	5	44822200	45107661	2	1.122537
S0024	5	50161524	58040137	33	0.000000
S0024	5	58189130	59641831	9	0.561594
S0024	5	59973498	88188238	55	0.000000
S0024	5	89697579	90083373	2	-0.827077
S0024	5	90194112	98310671	12	0.000000
S0024	5	98413595	113996889	29	-0.149307
S0024	5	115894579	123498374	15	0.760195
S0024	5	124206529	124222445	2	0.909503
S0024	5	124348233	174991957	126	0.000000
S0024	5	175176264	175176264	1	-0.814187
S0024	5	175710695	179730478	13	0.000000
S0024	6	1057482	2188596	6	-0.399842
S0024	6	2511559	2650786	2	-1.042943
S0024	6	2741187	20416572	88	-0.399842
S0024	6	20424359	20647660	4	0.041800
S0024	6	20688471	21995734	7	-0.399842
S0024	6	22078499	53436597	104	0.000000
S0024	6	53508672	54185689	4	0.407280
S0024	6	54495166	68861893	53	0.000000
S0024	6	69393207	69393207	1	-0.909694
S0024	6	69605086	104962494	118	0.000000
S0024	6	104963813	105745188	4	0.679556
S0024	6	105971582	120759608	61	0.000000
S0024	6	121068286	121068286	1	0.845566
S0024	6	121198315	122065395	4	0.000000
S0024	6	122200312	122272781	2	-0.622920
S0024	6	122451903	128375457	33	0.000000
S0024	6	128636403	137965418	38	0.289163
S0024	6	138466525	138481591	2	0.518482
S0024	6	138506248	139881287	20	0.289163
S0024	6	140241946	158894523	79	0.000000
S0024	6	158918888	159535533	3	0.401843
S0024	6	159631397	164963473	23	0.000000
S0024	6	165105022	170872572	18	0.403177
S0024	7	863293	20201886	59	0.000000
S0024	7	20374270	24182997	15	-0.596797
S0024	7	24302257	29539278	20	0.000000
S0024	7	30033065	30033065	1	0.673535
S0024	7	30040865	30103808	2	0.000000
S0024	7	30203422	31206313	5	-0.433802
S0024	7	31602244	68778193	102	0.000000
S0024	7	68851521	69266079	4	0.670845
S0024	7	69429907	77389188	12	0.000000
S0024	7	77637755	78170588	2	-0.797485
S0024	7	78398500	79959389	6	0.000000
S0024	7	80401949	80873627	2	-0.596862
S0024	7	81178782	127687023	95	0.000000
S0024	7	128084145	131369710	6	0.410784
S0024	7	131860935	133475873	5	0.000000
S0024	7	134095890	140284211	23	-0.437251
S0024	7	140511133	140511133	1	0.263826
S0024	7	140511208	142623357	8	-0.437251
S0024	7	143839426	158215549	51	0.000000
S0024	8	618552	3665576	14	0.668812
S0024	8	3736348	3736348	1	1.015066
S0024	8	3737665	11083420	20	0.668812
S0024	8	11102682	11215617	3	0.198482
S0024	8	11232933	18194218	37	0.668812
S0024	8	18422235	28282583	34	0.962172
S0024	8	28334161	28334161	1	1.731879
S0024	8	28409165	33086724	43	2.434830
S0024	8	33088719	42356369	110	2.329448
S0024	8	42604828	47902866	8	2.636526
S0024	8	48710487	58133843	46	2.329448
S0024	8	58275695	58275695	1	2.084873
S0024	8	58427630	59593907	7	2.329448
S0024	8	59793985	62484574	13	3.140168
S0024	8	62517577	67760268	21	3.460148
S0024	8	67777319	78624559	50	3.140168
S0024	8	78709787	78884531	2	3.447609
S0024	8	79130237	80368058	10	2.811204
S0024	8	80406925	82146585	8	5.066872
S0024	8	82209490	82209490	1	5.265541
S0024	8	82214841	82214841	1	5.560459
S0024	8	82383848	87780543	28	5.265541
S0024	8	87862663	88545357	4	5.145176
S0024	8	88829022	91510134	12	2.889509
S0024	8	91619162	94772319	17	3.009874
S0024	8	94908574	96826168	13	2.306922
S0024	8	97343968	113617156	70	2.635885
S0024	8	113766048	117594864	23	1.866179
S0024	8	117620112	118771110	5	2.184109
S0024	8	119019909	119151423	3	1.985440
S0024	8	119261654	130447360	60	1.667509
S0024	8	130463178	137261674	37	1.374149
S0024	8	137264675	138560339	3	1.122204
S0024	8	139194393	139194393	1	1.374149
S0024	8	139462089	145147978	18	0.563430
S0024	9	905450	2993780	11	0.181473
S0024	9	3284156	4103703	5	0.000000
S0024	9	4328732	5040333	5	0.365779
S0024	9	5719212	5737923	2	0.000000
S0024	9	6124359	7534111	4	0.505447
S0024	9	8258190	120423894	270	0.000000
S0024	9	120891637	120891637	1	0.852751
S0024	9	121289829	127621644	25	0.000000
S0024	9	127661645	127864720	3	0.727739
S0024	9	127997303	140310046	52	0.000000
S0024	9	140520623	140520623	1	1.669165
S0024	9	140599989	140599989	1	0.000000
S0024	10	466220	15523017	49	1.206750
S0024	10	15702362	15702362	1	1.686160
S0024	10	15783765	15923531	3	1.399983
S0024	10	16513482	16513482	1	0.235310
S0024	10	16912622	18790503	8	1.399983
S0024	10	18939258	32951411	38	0.920574
S0024	10	33735135	33860229	2	1.409175
S0024	10	34561923	63678180	86	0.920574
S0024	10	64137067	79789536	75	1.206750
S0024	10	80097033	80097033	1	1.878514
S0024	10	80321977	89549252	38	1.206750
S0024	10	89671563	90374057	9	0.922914
S0024	10	90494574	90557191	2	1.206750
S0024	10	90689535	91126771	2	2.521437
S0024	10	91456525	99526507	30	1.206750
S0024	10	100149475	105144942	14	1.852311
S0024	10	105601582	135124948	110	1.206750
S0024	11	577454	27115945	103	-0.026069
S0024	11	27192545	28782463	5	-0.471452
S0024	11	28930932	45538879	88	1.636942
S0024	11	45662035	46771052	6	1.976051
S0024	11	47576567	58961121	24	1.636942
S0024	11	58983503	59797468	9	3.657359
S0024	11	59875452	62468450	29	4.121034
S0024	11	62565547	62618180	4	3.819346
S0024	11	62624616	64409281	16	1.798929
S0024	11	65823331	73859939	78	1.636942
S0024	11	74186770	74186770	1	1.342596
S0024	11	74257508	74518487	6	1.636942
S0024	11	74631702	74631702	1	1.047013
S0024	11	74712724	75900527	12	1.636942
S0024	11	76040463	127203964	215	-0.026069
S0024	11	128006206	128006206	1	1.347914
S0024	11	128047397	134044100	25	-0.026069
S0024	12	1287872	2500431	5	0.000000
S0024	12	3216469	16926365	51	0.775653
S0024	12	17035687	17871408	6	1.511349
S0024	12	18221564	18237057	2	1.908477
S0024	12	18321454	27389230	35	1.474917
S0024	12	27565524	28152830	6	2.765420
S0024	12	28222007	29129874	3	4.306943
S0024	12	29527675	30079439	4	2.765420
S0024	12	30358302	31161023	6	4.656537
S0024	12	31414473	32227953	4	2.765420
S0024	12	32320830	42522427	18	1.474917
S0024	12	42763826	43126980	4	1.830553
S0024	12	43209302	45827507	8	2.280137
S0024	12	45872212	55916588	43	1.830553
S0024	12	56107691	56107691	1	1.474917
S0024	12	56280892	57905687	6	1.077789
S0024	12	58231155	65779945	39	1.511349
S0024	12	66006488	67813807	10	2.224579
S0024	12	67892004	71564925	32	1.511349
S0024	12	71675002	71675002	1	1.165762
S0024	12	71730804	86676912	72	1.511349
S0024	12	86746252	86746252	1	0.970995
S0024	12	86758641	116250776	85	1.511349
S0024	12	116294127	117093686	4	0.775653
S0024	12	117111929	133161346	49	0.000000
S0024	13	19538886	31371737	57	0.000000
S0024	13	31634208	31634208	1	0.770656
S0024	13	31683271	61788961	73	0.000000
S0024	13	61820662	62461153	6	0.295228
S0024	13	62589215	62950230	4	0.000000
S0024	13	63209519	71747051	30	0.489458
S0024	13	71842431	81102179	33	0.014838
S0024	13	81225184	81721760	2	-0.394348
S0024	13	81805686	90636112	26	0.014838
S0024	13	90869494	90869494	1	0.317418
S0024	13	90894620	91072385	2	0.014838
S0024	13	91300138	98271386	19	1.440762
S0024	13	98350327	100603888	10	1.915383
S0024	13	100810558	102856506	11	0.489458
S0024	13	102882086	114981574	50	0.000000
S0024	14	20825965	32938871	58	0.569281
S0024	14	33844879	105690735	255	0.430253
S0024	15	23733544	27062506	11	0.000000
S0024	15	27703160	31409090	5	0.801532
S0024	15	31570376	33470268	2	0.314350
S0024	15	33605301	35413424	5	0.000000
S0024	15	35825777	35825777	1	0.370026
S0024	15	35924343	37120947	5	0.000000
S0024	15	37238599	41011738	9	2.895793
S0024	15	41066875	48653043	24	0.000000
S0024	15	49170076	50460166	4	-0.325348
S0024	15	50523819	62027315	50	0.000000
S0024	15	62094071	86350310	74	-0.348331
S0024	15	86350508	86350508	1	-0.743810
S0024	15	87150106	101214182	61	-0.348331
S0024	16	655262	7811187	34	0.000000
S0024	16	8804259	10563198	6	-0.273111
S0024	16	10664344	67437336	160	0.000000
S0024	16	67814865	68795374	6	0.477969
S0024	16	68805784	70435576	7	0.000000
S0024	16	70436856	74678276	13	-0.369254
S0024	16	74911787	74911787	1	0.731578
S0024	16	74963657	75335658	3	-1.400488
S0024	16	76062978	79868830	19	-0.369254
S0024	16	79889527	80023074	2	1.475282
S0024	16	80246643	89371839	36	-0.369254
S0024	17	1243941	33014555	138	0.000000
S0024	17	33023707	37863585	38	0.028536
S0024	17	37881553	37881553	1	0.539560
S0024	17	37905816	45347892	46	0.028536
S0024	17	45611074	45611074	1	-0.750652
S0024	17	45644154	48030656	21	0.028536
S0024	17	48051772	48111430	2	-0.282863
S0024	17	48223677	49242267	11	0.028536
S0024	17	49844513	63036590	120	0.306593
S0024	17	63057029	63919311	10	0.278057
S0024	17	64092693	80917016	118	0.000000
S0024	18	331827	2357547	6	0.637338
S0024	18	3010609	3800808	8	0.373997
S0024	18	3848826	5097287	8	0.637338
S0024	18	5098165	5098165	1	0.182581
S0024	18	5705516	38087719	90	0.637338
S0024	18	38091750	53714866	49	1.008693
S0024	18	54123922	77003733	64	0.637338
S0024	19	412730	18807423	102	0.000000
S0024	19	18847608	18957218	4	-0.641662
S0024	19	18975882	29433361	27	0.000000
S0024	19	29434304	32650501	26	0.215824
S0024	19	33161274	56822657	113	0.000000
S0024	19	57162288	57962714	7	0.785633
S0024	19	58050264	58852835	7	0.000000
S0024	20	545941	4775639	25	0.000000
S0024	20	4887784	4887784	1	-1.372245
S0024	20	4921153	5827061	5	0.000000
S0024	20	6049692	13390648	33	0.830007
S0024	20	13424744	14691122	9	0.765533
S0024	20	15168697	16234885	9	-0.064474
S0024	20	16555464	16555464	1	0.917147
S0024	20	16810754	34495629	81	-0.064474
S0024	20	34694984	34694984	1	-0.587290
S0024	20	35355008	42284156	34	-0.064474
S0024	20	42422708	46987303	31	-0.637679
S0024	20	47058677	55452732	76	-0.064474
S0024	20	55527775	55830117	5	0.127289
S0024	20	55857911	57644081	24	-0.064474
S0024	20	57668289	62215372	38	0.000000
S0024	21	15946408	47323522	153	0.000000
S0024	22	17520371	34086975	55	0.385604
S0024	22	34144823	34203496	2	-0.622721
S0024	22	34399432	47406764	65	0.385604
S0024	22	47407517	48009783	4	-0.003177
S0024	22	48252706	49329633	8	0.385604
S0024	X	3343638	12909005	9	0.756588
S0024	X	13037890	15714955	12	2.852441
S0024	X	16121634	26913250	26	0.756588
S0024	X	26991759	27768392	3	0.946636
S0024	X	27874829	30780372	9	0.756588
S0024	X	31482335	31482335	1	2.593650
S0024	X	31513228	31513228	1	0.756588
S0024	X	31517385	46908297	31	2.067477
S0024	X	46999552	49734029	11	0.756588
S0024	X	49929501	50054170	2	1.307758
S0024	X	50661588	68492768	40	0.756588
S0024	X	70587449	71376114	4	1.713433
S0024	X	71426422	83338499	36	0.756588
S0024	X	83847014	85216733	5	1.152375
S0024	X	86338680	87847637	6	0.756588
S0024	X	88078004	125625960	72	0.425085
S0024	X	125889024	153689045	65	0.756588
