ID	chr	start	end	a	LogR
S0021	1	3252007	13855758	36	1.003987
S0021	1	14028633	15006363	4	0.576318
S0021	1	15253724	16510522	7	-0.303465
S0021	1	17394775	19396736	11	-0.761871
S0021	1	19421596	23915669	23	-4.187462
S0021	1	24373887	32223365	32	-0.761871
S0021	1	32256086	35461836	13	-0.194600
S0021	1	35742548	55391268	89	-0.761871
S0021	1	55495744	58820399	11	0.633800
S0021	1	59014830	59286656	2	0.375011
S0021	1	59453334	65177332	33	0.633800
S0021	1	65248007	65263697	2	1.513583
S0021	1	65608101	69449173	14	2.171825
S0021	1	70604967	77547831	27	1.513583
S0021	1	77616389	83980082	17	0.117912
S0021	1	83999604	84644718	6	-0.785807
S0021	1	84732457	161894478	212	0.117912
S0021	1	162230006	162230006	1	0.392570
S0021	1	162416629	162852760	6	0.117912
S0021	1	162864313	163123762	2	-0.227789
S0021	1	163299613	184906860	65	0.117912
S0021	1	184929602	185341378	2	1.022246
S0021	1	186281957	201562604	58	0.117912
S0021	1	202018218	225167985	80	-0.583931
S0021	1	225555602	225768033	5	-0.249689
S0021	1	226397002	226886080	2	-0.872408
S0021	1	226891595	247785294	70	-0.583931
S0021	2	548277	34140179	92	0.211091
S0021	2	34434855	34434855	1	0.629354
S0021	2	36358568	108786780	191	0.211091
S0021	2	108901374	118772515	23	1.079748
S0021	2	118776345	119677162	3	1.627285
S0021	2	119840651	127492191	13	1.079748
S0021	2	127933924	134511555	14	2.215975
S0021	2	134544930	137111385	6	1.079748
S0021	2	137397441	139221950	4	1.828540
S0021	2	139228359	147344514	26	1.079748
S0021	2	148296641	177902066	79	0.211091
S0021	2	178061160	178226891	2	-0.072070
S0021	2	178658242	213998007	101	0.211091
S0021	2	214192255	214204933	2	1.316799
S0021	2	214267030	226792099	27	0.211091
S0021	2	226844854	227294482	3	0.652514
S0021	2	227976331	236788618	30	0.211091
S0021	2	237092137	237092137	1	-0.393411
S0021	2	237532082	242217627	21	0.211091
S0021	3	3362137	21436717	61	0.428672
S0021	3	21704535	21704535	1	0.129240
S0021	3	22388374	29098758	15	0.428672
S0021	3	29189143	31767028	12	1.045939
S0021	3	32409584	33805561	5	2.199154
S0021	3	34271042	41269531	17	2.203539
S0021	3	41290051	53234057	46	1.362057
S0021	3	53591109	56519323	7	0.929000
S0021	3	56831548	56831548	1	1.770482
S0021	3	56949101	59373255	8	2.004412
S0021	3	59535975	59691380	2	1.225812
S0021	3	61128017	73427609	48	2.004412
S0021	3	73489259	74499060	7	1.993375
S0021	3	75127552	76557789	4	1.583763
S0021	3	76898181	76898181	1	1.829882
S0021	3	76904185	78078355	8	1.583763
S0021	3	78265539	78265539	1	1.993375
S0021	3	79801263	82004962	16	2.216674
S0021	3	82497349	84168160	7	1.982744
S0021	3	84333246	84333246	1	1.729632
S0021	3	84472471	108276870	70	1.982744
S0021	3	108360443	108360443	1	3.140846
S0021	3	109459407	110044601	2	5.145871
S0021	3	111591110	113041636	6	5.028086
S0021	3	113091527	115533559	14	6.040885
S0021	3	115565821	115565821	1	4.035861
S0021	3	115778641	124647727	30	3.000431
S0021	3	124648820	124648820	1	3.853373
S0021	3	124789365	149964309	66	3.000431
S0021	3	150021144	152148553	11	2.383164
S0021	3	153496585	153496585	1	2.888611
S0021	3	153503057	153503057	1	2.523136
S0021	3	153625164	153774805	2	1.730508
S0021	3	153898954	156334430	6	1.225061
S0021	3	156469799	168811465	31	0.212262
S0021	3	168855293	177133282	27	0.517524
S0021	3	177176385	177581405	2	0.212262
S0021	3	177672475	177771889	2	-0.410886
S0021	3	178478969	187934849	33	0.212262
S0021	3	188067236	196128882	26	0.223298
S0021	3	196149667	196974183	2	0.547483
S0021	3	197037067	197212100	3	0.223298
S0021	4	1059202	16909080	60	0.000000
S0021	4	17467626	17467626	1	-0.356802
S0021	4	17516691	22264580	12	0.000000
S0021	4	23222053	23222053	1	0.930656
S0021	4	24035754	26165467	5	0.000000
S0021	4	27537855	29727469	6	0.258078
S0021	4	29965647	73008280	117	0.000000
S0021	4	73220990	73293189	2	0.961749
S0021	4	73355610	79376907	26	0.000000
S0021	4	79528813	79528813	1	2.581112
S0021	4	79595739	79901540	3	3.035121
S0021	4	80452832	80640297	2	2.581112
S0021	4	81294121	108199427	79	0.000000
S0021	4	108202966	108202966	1	-0.850187
S0021	4	108408212	130320729	42	0.000000
S0021	4	130456015	159762803	86	0.523554
S0021	4	160088137	188763651	71	0.000000
S0021	5	1325767	4141262	14	-0.062338
S0021	5	4208594	4590072	5	0.061273
S0021	5	4901556	5786036	4	0.250049
S0021	5	5997609	25936488	49	0.061273
S0021	5	26613311	45107661	67	-0.062338
S0021	5	50161524	55137355	19	-0.066166
S0021	5	55198686	56251777	7	0.277161
S0021	5	56819519	60827533	19	-0.066166
S0021	5	61768225	61905212	2	0.225128
S0021	5	62004183	66150737	5	-0.066166
S0021	5	67012811	68720419	2	-0.807395
S0021	5	68740021	179730478	243	-0.066166
S0021	6	1057482	8651394	41	-0.218574
S0021	6	8832745	10323734	7	-1.231970
S0021	6	10368708	45044542	139	-1.388766
S0021	6	45569863	51208657	17	-0.375370
S0021	6	52089559	53508672	8	-0.218574
S0021	6	54051799	54051799	1	0.270375
S0021	6	54179431	55255927	8	-0.218574
S0021	6	55264290	55468462	3	0.150679
S0021	6	55520809	66591447	30	-0.218574
S0021	6	66699582	66810050	2	0.736158
S0021	6	66838770	75709502	29	-0.218574
S0021	6	76107040	79608362	15	-0.001119
S0021	6	79999687	80512139	2	0.428343
S0021	6	80661844	80726409	2	-0.001119
S0021	6	81381213	106036151	89	0.731336
S0021	6	106491032	109441596	13	-0.001119
S0021	6	109665903	116707299	26	0.097552
S0021	6	116718123	119313633	12	-0.268006
S0021	6	119388861	134484073	73	-0.366677
S0021	6	134651992	150514288	73	-0.001119
S0021	6	150926499	150926499	1	0.359491
S0021	6	151011990	153544933	18	-0.001119
S0021	6	153728032	155272960	7	0.212788
S0021	6	155454790	170872572	59	-0.001119
S0021	7	863293	13635957	42	-0.000452
S0021	7	13728264	18812414	15	-0.296343
S0021	7	20154816	20201886	2	0.110191
S0021	7	20374270	20465061	2	0.406081
S0021	7	20521897	32307324	47	-0.000452
S0021	7	32367650	35170906	14	-0.342871
S0021	7	35914947	42124146	25	-0.000452
S0021	7	42163542	42163542	1	0.538731
S0021	7	42250549	46234016	13	-0.000452
S0021	7	46355343	48132166	5	0.452669
S0021	7	48371830	73682352	49	-0.000452
S0021	7	75044630	87326125	29	-0.318036
S0021	7	87630721	87871763	2	0.080323
S0021	7	87992766	97906925	20	-0.318036
S0021	7	98782750	98782750	1	0.175122
S0021	7	98881199	145404152	107	-0.318036
S0021	7	145754971	154868879	27	-0.000452
S0021	7	155555753	157260669	10	0.511751
S0021	7	157350840	158215549	8	-0.000452
S0021	8	618552	2980878	8	0.000000
S0021	8	3158741	25489096	87	0.983977
S0021	8	25658764	26018339	2	0.661464
S0021	8	26084458	27112779	4	-0.322513
S0021	8	27142598	32841653	50	0.000000
S0021	8	32962692	42153509	107	0.058121
S0021	8	42224452	50312970	19	2.053175
S0021	8	50401159	59798998	50	0.058121
S0021	8	59804500	60555006	3	0.620327
S0021	8	60813580	63467199	12	0.751532
S0021	8	63643215	64683815	7	0.189325
S0021	8	64907701	65272478	2	0.556834
S0021	8	65757049	66057858	3	0.189325
S0021	8	66244699	73156181	35	1.840291
S0021	8	73326535	77321059	15	0.189325
S0021	8	77538051	78550231	4	-0.334808
S0021	8	78624559	79630590	7	0.189325
S0021	8	79734180	81423801	11	0.131205
S0021	8	81520237	82498389	7	1.557129
S0021	8	82506510	82695743	3	1.425924
S0021	8	82864998	86285926	19	2.688724
S0021	8	86949727	89259873	12	1.262800
S0021	8	89505027	99192597	46	1.256400
S0021	8	99585434	127308157	134	2.016605
S0021	8	127371524	145147978	78	1.256400
S0021	9	905450	13531732	45	0.102226
S0021	9	13793592	14137102	5	0.100449
S0021	9	14443402	14565982	3	0.000000
S0021	9	14592321	14592321	1	0.662070
S0021	9	14776027	74248170	120	0.000000
S0021	9	74721168	86690038	30	0.271951
S0021	9	86822700	97415909	29	-0.295708
S0021	9	97618383	99605892	5	0.222774
S0021	9	100110179	103404555	8	0.271951
S0021	9	103712129	103951612	2	0.000000
S0021	9	104442128	104442128	1	0.378913
S0021	9	104540734	126127019	66	0.000000
S0021	9	126134120	127233823	6	0.829581
S0021	9	127335918	132443831	23	0.000000
S0021	9	132638265	132859382	2	1.349321
S0021	9	132957214	134658234	12	0.000000
S0021	9	135110884	135110884	1	2.456082
S0021	9	135881021	140599989	21	0.000000
S0021	10	466220	2635863	8	0.154117
S0021	10	3147192	10973316	30	0.119480
S0021	10	11163783	33735135	63	0.358500
S0021	10	33860229	61353877	73	0.119480
S0021	10	61465327	80468900	93	0.154117
S0021	10	81160717	83433450	9	-0.350649
S0021	10	83648746	83763015	2	0.321341
S0021	10	83881385	91126771	37	-0.350649
S0021	10	91456525	92670328	5	-0.026516
S0021	10	92823350	127485254	114	-0.350649
S0021	10	127555116	131495959	26	0.154117
S0021	10	131801831	132096167	2	0.682823
S0021	10	132162712	135124948	7	0.154117
S0021	11	577454	21149632	81	-0.339958
S0021	11	21584439	21584439	1	0.428322
S0021	11	21636737	21636737	1	-0.339958
S0021	11	22218125	31742285	41	0.059411
S0021	11	31857581	33103913	12	-0.272700
S0021	11	33634595	33958297	5	0.091481
S0021	11	34134297	42210343	39	-0.272700
S0021	11	42413562	43709965	7	-0.582234
S0021	11	43712254	43712254	1	-0.301994
S0021	11	44650914	44783583	2	-0.582234
S0021	11	44848050	64007474	90	-0.272700
S0021	11	64039998	64039998	1	0.565644
S0021	11	64230157	74746553	91	0.059411
S0021	11	74753492	74753492	1	1.189767
S0021	11	74950318	75554080	5	0.830038
S0021	11	75591903	75591903	1	-0.300317
S0021	11	75625849	75625849	1	0.057292
S0021	11	75769421	77037399	10	-0.300317
S0021	11	77116403	77192821	3	1.904561
S0021	11	77245814	94325963	99	-0.300317
S0021	11	94368749	123026823	86	-0.026023
S0021	11	123092324	123496902	3	-0.747734
S0021	11	123884981	131548526	35	-0.026023
S0021	11	131592324	134044100	7	0.333705
S0021	12	1287872	5704092	12	2.180550
S0021	12	6147786	9013329	9	-0.035000
S0021	12	9393282	11756686	11	-0.327254
S0021	12	11803123	24725652	60	-0.035000
S0021	12	25234646	27797905	9	2.860792
S0021	12	27826605	28222398	6	-0.035000
S0021	12	29129874	31161023	11	0.998973
S0021	12	31414473	40274602	15	2.282006
S0021	12	40336494	55861830	61	0.998973
S0021	12	55916588	56107691	2	1.552506
S0021	12	56280892	65779945	45	0.518533
S0021	12	66006488	68476572	14	0.054170
S0021	12	68603916	68957251	3	0.292351
S0021	12	68983840	69382836	6	0.054170
S0021	12	69422390	70607067	15	0.518533
S0021	12	70752968	72316166	10	0.813770
S0021	12	72374530	78425838	30	0.518533
S0021	12	78752496	78815097	2	0.052995
S0021	12	79182021	100218456	78	0.518533
S0021	12	100304376	100304376	1	1.367829
S0021	12	102439418	105030514	7	0.518533
S0021	12	106432154	106432154	1	1.072048
S0021	12	106636097	121360131	59	0.518533
S0021	12	121396420	133161346	28	-0.035000
S0021	13	19538886	21180247	7	0.373861
S0021	13	21262731	22026414	6	0.925252
S0021	13	22073023	22294117	2	-0.328039
S0021	13	22397453	30681620	35	0.373861
S0021	13	30800565	31683271	9	0.725993
S0021	13	31701807	33554505	7	0.361211
S0021	13	34147512	114981574	259	0.009079
S0021	14	20825965	64788079	187	0.008842
S0021	14	64959553	65088374	2	0.553836
S0021	14	65217224	73803662	30	0.008842
S0021	14	74266451	98129180	63	-0.480771
S0021	14	99195871	101492845	11	0.145561
S0021	14	101530336	105690735	20	0.008842
S0021	15	23733544	35413424	23	0.000000
S0021	15	35825777	41760862	20	0.445810
S0021	15	42263406	59389466	64	0.000000
S0021	15	59461475	63060925	12	0.617496
S0021	15	63296121	68567203	16	0.000000
S0021	15	68622347	75976216	22	0.582198
S0021	15	76035926	83639429	24	0.000000
S0021	15	83664641	87541923	12	-0.616748
S0021	15	88073380	101214182	59	0.000000
S0021	16	655262	31147639	103	0.000000
S0021	16	31148215	47707211	11	-0.376516
S0021	16	48046060	57085364	48	-0.036418
S0021	16	57199431	62631213	25	0.340098
S0021	16	62662325	73817834	37	0.000000
S0021	16	74040018	74040018	1	0.703116
S0021	16	74678276	89371839	62	0.000000
S0021	17	1243941	1243941	1	0.000000
S0021	17	1305579	1305579	1	-0.346668
S0021	17	1539540	12814925	46	0.000000
S0021	17	12866546	12866546	1	1.356107
S0021	17	12895984	30960445	82	0.000000
S0021	17	31099432	31099432	1	-1.795479
S0021	17	31222364	80917016	374	0.000000
S0021	18	331827	3334074	9	0.000000
S0021	18	3337001	6939846	17	0.222086
S0021	18	7509230	38287433	89	0.000000
S0021	18	38363064	41245773	6	-0.168493
S0021	18	41923379	77003733	105	0.000000
S0021	19	412730	5945671	29	-0.027610
S0021	19	5945851	5945851	1	0.443722
S0021	19	7182753	12439248	34	-0.027610
S0021	19	12844061	12844061	1	0.426462
S0021	19	13196680	14686381	9	-0.027610
S0021	19	14804836	14804836	1	-0.760063
S0021	19	14808583	16038300	6	-0.027610
S0021	19	16112911	17876535	13	-0.079092
S0021	19	17899886	17899886	1	0.493134
S0021	19	17939369	30869741	50	0.544615
S0021	19	30983881	30983881	1	0.117475
S0021	19	31077263	54890622	113	0.544615
S0021	19	55069964	58852835	27	-0.027610
S0021	20	545941	10275300	52	0.000000
S0021	20	10286217	14314253	15	1.547688
S0021	20	14328401	15168697	7	1.234688
S0021	20	15206141	24260602	52	1.547688
S0021	20	24310855	24310855	1	2.060013
S0021	20	24511393	37749072	54	1.547688
S0021	20	38470523	40175920	7	2.349157
S0021	20	40278483	42450789	13	2.838936
S0021	20	42581440	43500021	6	3.024715
S0021	20	43639392	47058677	24	1.733467
S0021	20	47061398	56307417	89	0.185779
S0021	20	56314077	62215372	53	0.166811
S0021	21	15946408	19428835	22	0.000000
S0021	21	19501020	19501020	1	-0.227483
S0021	21	19521848	37107365	75	0.000000
S0021	21	37293055	41841444	25	0.659578
S0021	21	41854081	47323522	30	0.000000
S0021	22	17520371	26563030	16	0.000000
S0021	22	26581298	26581298	1	-0.401166
S0021	22	26735813	31082795	24	0.000000
S0021	22	31449761	33691520	13	0.264689
S0021	22	34086975	35360974	8	0.000000
S0021	22	35442415	39196244	24	1.311762
S0021	22	39320890	49329633	48	0.000000
S0021	X	3343638	13348682	13	1.312485
S0021	X	13482558	46460615	73	2.745739
S0021	X	46536359	46641741	2	3.196495
S0021	X	46707548	47829019	8	1.312485
S0021	X	48742165	48742165	1	0.584068
S0021	X	49144114	79210534	65	1.227641
S0021	X	79240479	82173899	15	0.584068
S0021	X	82260756	82260756	1	1.061665
S0021	X	82262569	102474225	43	0.584068
S0021	X	103092365	103092365	1	0.473485
S0021	X	104226151	113090918	20	0.584068
S0021	X	113995993	118419194	8	0.174384
S0021	X	118498227	118696035	2	0.394952
S0021	X	118913342	132564095	31	0.174384
S0021	X	133454290	138174955	9	0.584068
S0021	X	140192836	140323861	2	0.166216
S0021	X	141252300	153689045	39	0.584068
