ID	chr	start	end	a	LogR
S0038	1	3252007	10636695	29	0.000000
S0038	1	10650509	11449745	3	-1.850178
S0038	1	11862778	35845505	98	0.000000
S0038	1	36411977	37507366	4	1.403495
S0038	1	37770623	37770623	1	1.085070
S0038	1	38023390	42074930	20	1.403495
S0038	1	42119844	49171141	35	0.000000
S0038	1	49380258	49380258	1	-0.610660
S0038	1	49599560	61650635	49	0.000000
S0038	1	61745783	61745783	1	0.507080
S0038	1	61930597	61930597	1	0.806610
S0038	1	61954826	62125719	2	1.120327
S0038	1	62188969	62899406	4	0.806610
S0038	1	63106767	65263697	15	0.507080
S0038	1	65608101	71022529	18	0.000000
S0038	1	71060210	73122262	9	-0.058306
S0038	1	73150493	77616679	16	0.000000
S0038	1	78037557	78112587	2	0.632745
S0038	1	78455648	84390011	15	0.000000
S0038	1	84516349	109158513	101	1.194241
S0038	1	109483767	152109134	63	0.000000
S0038	1	152149258	152149258	1	0.405152
S0038	1	152231378	156101549	19	0.000000
S0038	1	156135241	156275281	3	0.251653
S0038	1	156480831	157347130	6	0.000000
S0038	1	157470674	162416629	25	-1.651544
S0038	1	162420749	165654869	21	0.000000
S0038	1	166035856	172129707	19	-0.079506
S0038	1	172774067	176428685	12	0.000000
S0038	1	176788067	182855698	15	0.326086
S0038	1	182988414	202677178	70	0.000000
S0038	1	202839190	204110660	2	-0.425934
S0038	1	204307047	247785294	150	0.000000
S0038	2	548277	17026774	42	0.026108
S0038	2	17301570	50663187	100	-0.114305
S0038	2	50715006	50715006	1	0.297314
S0038	2	50789310	56065682	18	-0.114305
S0038	2	56216904	56216904	1	0.566000
S0038	2	56225176	59981123	17	-0.114305
S0038	2	59998044	68531619	16	-1.914436
S0038	2	70015181	151227237	182	-0.114305
S0038	2	152677906	156038492	7	-0.242102
S0038	2	156059573	156059573	1	0.229332
S0038	2	156872170	159180134	9	-0.242102
S0038	2	159377524	231097129	204	-0.101689
S0038	2	231224255	239679338	33	-0.825549
S0038	2	240097330	242217627	8	-0.604310
S0038	3	3362137	58385194	170	0.253214
S0038	3	59198515	59216687	2	0.814447
S0038	3	59373255	65027413	16	0.253214
S0038	3	65368030	69605550	18	1.794813
S0038	3	69732645	69732645	1	1.491738
S0038	3	70614178	70614178	1	2.558252
S0038	3	70783491	73427609	15	1.794813
S0038	3	73489259	79801263	22	0.253214
S0038	3	80263338	84333246	23	-0.253311
S0038	3	84472471	84978010	4	-0.801212
S0038	3	85384671	85816397	2	-1.063947
S0038	3	86033012	113349451	77	-0.516046
S0038	3	113355409	115908434	13	1.234876
S0038	3	115959369	119017382	13	-0.516046
S0038	3	119089008	119869509	5	-0.462155
S0038	3	120050284	124789365	12	-0.199420
S0038	3	125574996	128820495	11	0.307105
S0038	3	129690192	129690192	1	0.600508
S0038	3	130131184	143197761	37	0.307105
S0038	3	143404355	146069880	9	-0.270609
S0038	3	146190898	146190898	1	-0.729752
S0038	3	147607519	147747105	2	-0.270609
S0038	3	147957013	147957013	1	0.058244
S0038	3	149225277	149225277	1	-0.270609
S0038	3	149322985	162791039	41	-0.278679
S0038	3	162983196	162991229	2	0.372730
S0038	3	164198946	164600590	4	0.677354
S0038	3	165893446	166959430	3	0.372730
S0038	3	167650846	172846443	20	0.950444
S0038	3	174450561	185982955	40	0.299035
S0038	3	187022425	187221709	2	0.665746
S0038	3	187264570	197212100	37	0.299035
S0038	4	1059202	2211995	4	0.000000
S0038	4	2236199	6758567	22	0.250510
S0038	4	6766870	65638274	151	0.000000
S0038	4	65659214	68207163	8	0.265134
S0038	4	68209004	72881796	15	0.000000
S0038	4	72934632	75090072	18	-0.257623
S0038	4	75131443	76314293	2	-0.088442
S0038	4	76776779	76776779	1	-0.899443
S0038	4	76872009	77142852	2	-0.088442
S0038	4	77508075	78507698	2	0.242941
S0038	4	78648827	94223831	50	-0.088442
S0038	4	94316763	102032299	14	0.492955
S0038	4	102218715	130165097	68	-0.088442
S0038	4	130320729	131085096	3	0.857655
S0038	4	131603050	139611745	21	1.342525
S0038	4	139729690	142314680	8	0.857655
S0038	4	142442790	142442790	1	-0.059355
S0038	4	142920478	143125038	2	0.857655
S0038	4	143349764	147052152	12	1.115279
S0038	4	147266540	148897030	6	0.909879
S0038	4	149431616	153571180	14	-0.036218
S0038	4	153729816	154320701	4	1.253826
S0038	4	154699350	160097670	18	-0.036218
S0038	4	160137711	163961653	11	-0.205399
S0038	4	164068846	164068846	1	-0.757055
S0038	4	165080905	188763651	57	-0.205399
S0038	5	1325767	1325803	2	-0.637144
S0038	5	1951926	44652902	134	0.000000
S0038	5	44718710	44718710	1	0.977660
S0038	5	44822200	45107661	2	0.476976
S0038	5	50161524	58615497	39	0.000000
S0038	5	59108188	59240576	2	0.745267
S0038	5	59641831	84514818	52	0.000000
S0038	5	84675535	89697579	5	-0.406269
S0038	5	90083373	90083373	1	-0.134711
S0038	5	90194112	107165086	24	0.417279
S0038	5	107173281	112084587	12	-0.134711
S0038	5	112204896	112204896	1	-0.465824
S0038	5	112380627	112462449	2	-0.134711
S0038	5	113533857	152983887	79	-0.461676
S0038	5	153650262	155029953	3	-0.876281
S0038	5	155430492	172431227	49	-0.461676
S0038	5	172624051	173146887	7	-0.326965
S0038	5	173253897	174285849	4	-0.928256
S0038	5	174733628	179730478	17	-0.326965
S0038	6	1057482	3281414	11	-0.121012
S0038	6	4153297	9392644	34	-0.684609
S0038	6	9729745	16086250	26	-0.638431
S0038	6	16162508	22078499	37	-0.819762
S0038	6	22079196	26008260	16	-0.638431
S0038	6	26027420	26365493	3	-0.966479
S0038	6	26474222	34549107	15	-0.638431
S0038	6	34558120	38068626	16	-0.074835
S0038	6	38508509	38508509	1	-0.564118
S0038	6	38623000	44826250	27	-0.074835
S0038	6	45044542	47160114	5	-0.645090
S0038	6	47286786	71578558	85	-0.074835
S0038	6	72019007	93356927	70	-0.446149
S0038	6	93406605	116226977	83	-0.074835
S0038	6	116242740	116718123	4	-0.375410
S0038	6	116721475	120759608	19	-0.074835
S0038	6	121068286	138921331	87	-0.081892
S0038	6	139075844	139075844	1	0.350243
S0038	6	139076770	154533831	74	-0.081892
S0038	6	154829774	160772900	23	-0.466805
S0038	6	160908451	161210017	3	-0.081892
S0038	6	161324856	163913825	13	-0.638736
S0038	6	164114633	167047946	13	-0.081892
S0038	6	167108650	167108650	1	-0.585529
S0038	6	169503796	170872572	8	-0.081892
S0038	7	863293	3362918	7	0.000000
S0038	7	3584594	3584594	1	-0.433520
S0038	7	3813884	52534415	169	0.000000
S0038	7	52775956	55292626	8	0.186598
S0038	7	55957859	63795406	4	0.179736
S0038	7	63954791	64264741	2	0.706881
S0038	7	64422660	69266079	17	0.179736
S0038	7	69429907	69954264	3	0.578599
S0038	7	70148486	79959389	17	0.585462
S0038	7	80401949	102428840	52	0.398864
S0038	7	102714638	119411364	31	0.000000
S0038	7	119573529	119573529	1	0.924676
S0038	7	120139565	140511133	48	0.000000
S0038	7	140511208	141304960	3	-1.309992
S0038	7	141586455	158215549	56	0.000000
S0038	8	618552	14044475	46	0.000000
S0038	8	14089783	33199858	110	0.078215
S0038	8	33410090	34672827	7	0.178247
S0038	8	34753533	35693285	12	0.013634
S0038	8	35694186	38525003	32	-0.064581
S0038	8	38548619	38566740	3	0.389019
S0038	8	38608182	39422051	14	1.478026
S0038	8	39429009	41374341	26	1.791727
S0038	8	41549194	53766263	42	2.669287
S0038	8	53933084	68657475	73	2.355586
S0038	8	68689852	69963296	7	2.658456
S0038	8	70055201	75332823	27	2.355586
S0038	8	75531162	82506510	35	1.266579
S0038	8	82595966	82695743	2	1.524578
S0038	8	82864998	83670528	5	2.782085
S0038	8	83829947	84783296	5	2.288379
S0038	8	84962337	86285926	9	3.329250
S0038	8	86949727	94219473	34	1.813745
S0038	8	94315338	103223654	44	1.978357
S0038	8	103598817	104282429	4	4.151452
S0038	8	104291296	104291296	1	3.763260
S0038	8	104340719	105342645	4	4.151452
S0038	8	105481923	111980415	28	1.978357
S0038	8	112455258	116329913	18	3.469170
S0038	8	116597192	117376229	8	3.015570
S0038	8	117533304	118771110	7	4.181180
S0038	8	119019909	119604035	6	4.922939
S0038	8	120343056	120517731	3	5.261056
S0038	8	120531581	120531581	1	4.519298
S0038	8	121009824	121009824	1	3.028485
S0038	8	121358545	122379293	4	2.690367
S0038	8	122636922	123521573	8	2.590336
S0038	8	123592505	123743923	2	2.933335
S0038	8	124149159	124473894	4	2.590336
S0038	8	124538233	124538233	1	1.712776
S0038	8	124626482	127061350	10	0.547165
S0038	8	127109083	127109083	1	-0.567977
S0038	8	127242274	145147978	81	0.547165
S0038	9	905450	16706012	67	0.000000
S0038	9	17210514	17463615	3	1.523673
S0038	9	17964514	33217212	70	0.000000
S0038	9	33228189	35950495	9	0.784996
S0038	9	36009843	86409738	54	0.000000
S0038	9	86690038	86690038	1	0.244725
S0038	9	86822700	110977253	57	0.000000
S0038	9	111554988	111554988	1	-0.363542
S0038	9	111620019	129697622	66	0.000000
S0038	9	130008654	130008654	1	0.360692
S0038	9	130070549	140599989	51	0.000000
S0038	10	466220	466220	1	0.365905
S0038	10	680475	10191366	33	0.000000
S0038	10	10281161	32922749	65	0.328452
S0038	10	32951411	36856550	11	0.880505
S0038	10	36857180	36857180	1	1.056277
S0038	10	36871640	44759531	30	0.504224
S0038	10	44848921	59872752	26	0.328452
S0038	10	59969111	62973487	14	-0.092647
S0038	10	63300506	80434449	85	0.328452
S0038	10	80468900	80468900	1	-0.102074
S0038	10	81160717	89741806	38	0.328452
S0038	10	89745814	89745814	1	-0.103197
S0038	10	89755075	89755075	1	0.328452
S0038	10	89799809	105601582	53	0.000000
S0038	10	105796819	106211916	3	0.840045
S0038	10	106777612	106852463	2	-1.449517
S0038	10	107954079	107954079	1	0.539834
S0038	10	108392226	135124948	103	0.000000
S0038	11	577454	29033952	110	-0.421866
S0038	11	29062942	30217503	6	-1.013929
S0038	11	30641221	38060464	38	-0.421866
S0038	11	38337576	41407614	23	0.058299
S0038	11	41412014	41412014	1	0.337373
S0038	11	42139303	60082501	61	0.058299
S0038	11	60331763	60383467	3	0.062256
S0038	11	60385381	62004945	18	0.058299
S0038	11	62010986	62080857	2	0.908316
S0038	11	62205537	92534442	222	0.058299
S0038	11	92667730	94325963	8	0.329715
S0038	11	94368749	94368749	1	0.591628
S0038	11	94381668	121136604	80	0.329715
S0038	11	122712586	134044100	50	0.058299
S0038	12	1287872	2500431	5	0.609103
S0038	12	3216469	6832912	10	0.074261
S0038	12	7075092	15161833	37	0.609103
S0038	12	15174439	16926365	4	1.712894
S0038	12	17035687	17056798	2	2.221913
S0038	12	17625605	17871408	4	1.712894
S0038	12	18221564	47319672	99	1.132194
S0038	12	47631229	52521638	21	1.103791
S0038	12	52670660	52670660	1	1.390253
S0038	12	52788080	53019394	3	1.103791
S0038	12	53022513	60898284	32	0.000000
S0038	12	61051469	62798992	7	-0.463452
S0038	12	63040812	63207615	4	0.079942
S0038	12	63251395	63746081	3	0.543393
S0038	12	63765072	70607067	47	0.000000
S0038	12	70752968	72720012	17	-1.107173
S0038	12	73015676	76318912	17	0.000000
S0038	12	76542397	77460129	3	0.360391
S0038	12	77885365	80006693	10	0.000000
S0038	12	80040489	83307571	11	1.846080
S0038	12	83783139	87031785	24	0.000000
S0038	12	87043048	87043048	1	-0.540354
S0038	12	87472665	123758235	113	0.000000
S0038	12	123978134	125103172	5	-0.756625
S0038	12	125190731	133161346	15	0.000000
S0038	13	19538886	23584254	22	0.000000
S0038	13	23668914	25876273	6	0.253456
S0038	13	26165021	36119426	44	0.000000
S0038	13	36743404	41837657	14	-0.523288
S0038	13	43167355	43167355	1	0.000000
S0038	13	43423390	43423390	1	0.919640
S0038	13	44142022	85117899	128	0.000000
S0038	13	85239324	85239324	1	-0.311583
S0038	13	85708459	92514642	23	0.000000
S0038	13	93091086	101890435	28	0.392680
S0038	13	102510055	112846022	46	0.000000
S0038	13	113058921	114981574	11	0.750029
S0038	14	20825965	20825965	1	0.000000
S0038	14	20852817	21230576	2	0.607463
S0038	14	21695466	23348952	5	0.000000
S0038	14	23682699	25361183	11	-0.506986
S0038	14	25776613	26717884	5	0.068539
S0038	14	27066063	33844879	35	-0.506986
S0038	14	33918155	34004507	3	-1.205636
S0038	14	34093377	37104047	18	-0.506986
S0038	14	37423627	37792947	3	-0.269820
S0038	14	37943060	52377521	58	-0.506986
S0038	14	52555811	52555811	1	-0.029882
S0038	14	52623384	55652730	11	-0.506986
S0038	14	55657310	56155994	2	0.012599
S0038	14	56314735	83331262	84	-0.506986
S0038	14	83347319	83634652	2	-0.829421
S0038	14	84017718	95518840	36	-0.506986
S0038	14	96084535	96620508	2	-0.081525
S0038	14	97288251	98028428	2	0.155539
S0038	14	98129180	102349988	17	-0.506986
S0038	14	103356363	105690735	15	0.000000
S0038	15	23733544	25188893	6	0.298463
S0038	15	25725296	31570376	11	-0.343450
S0038	15	33470268	38070386	14	0.298463
S0038	15	38505670	51503005	41	0.265006
S0038	15	51660546	51660546	1	0.512896
S0038	15	51882273	52413316	6	0.265006
S0038	15	53205965	53205965	1	0.868822
S0038	15	53240824	80234474	89	0.265006
S0038	15	80480221	96203935	64	0.298463
S0038	15	96863095	97902205	3	0.751798
S0038	15	98107964	101189481	15	0.298463
S0038	15	101214182	101214182	1	0.115506
S0038	16	655262	9318907	37	0.000000
S0038	16	9800580	10664344	4	0.278069
S0038	16	10725361	25193558	40	0.000000
S0038	16	25508517	31147639	22	0.221071
S0038	16	31148215	51007359	25	0.000000
S0038	16	51037009	51817742	7	-0.364176
S0038	16	52495096	60167930	36	0.000000
S0038	16	60331211	61140452	7	-0.270799
S0038	16	61241361	89371839	109	0.000000
S0038	17	1243941	9732077	33	0.000000
S0038	17	9739738	12677911	13	-1.089833
S0038	17	12771381	13490948	7	-1.007608
S0038	17	13684167	17802779	18	-1.574932
S0038	17	17817753	19264732	9	-1.007608
S0038	17	19751484	25943706	17	-1.089833
S0038	17	25989914	25989914	1	-0.827156
S0038	17	26175872	47438624	142	-1.089833
S0038	17	47591802	57210069	81	-0.835321
S0038	17	57439409	59199476	18	-1.089833
S0038	17	59221862	59221862	1	0.971152
S0038	17	59355946	63242818	42	-1.089833
S0038	17	63289088	73905546	74	0.000000
S0038	17	74049426	74049426	1	0.587994
S0038	17	74153646	76151166	14	0.000000
S0038	17	76222588	76222588	1	-0.455444
S0038	17	76320779	78527474	17	0.000000
S0038	17	78530561	80917016	17	0.921445
S0038	18	331827	39841772	117	0.000000
S0038	18	40218068	44674059	10	-0.658625
S0038	18	44880763	45433117	3	0.000000
S0038	18	45563098	45946275	4	1.033973
S0038	18	46123873	46460732	2	1.360927
S0038	18	46583734	75143743	83	1.033973
S0038	18	76034414	77003733	7	0.000000
S0038	19	412730	5217541	24	-0.525019
S0038	19	5393748	5393748	1	-1.202321
S0038	19	5763545	5766090	2	-0.525019
S0038	19	5936689	17229996	60	0.000000
S0038	19	17281596	22084723	28	0.261888
S0038	19	22508499	40192544	84	0.000000
S0038	19	40557701	40755037	2	0.315247
S0038	19	40887018	58852835	85	0.000000
S0038	20	545941	4272404	24	0.214512
S0038	20	4775639	23265987	95	0.000000
S0038	20	23349222	24511393	9	0.738765
S0038	20	24511784	34495629	36	0.000000
S0038	20	34694984	43443468	42	0.400528
S0038	20	43500021	62215372	167	0.000000
S0038	21	15946408	44382826	142	0.000000
S0038	21	44441325	47323522	11	2.729402
S0038	22	17520371	17520371	1	0.000000
S0038	22	17524190	17948917	7	0.491622
S0038	22	17969266	31984079	40	0.000000
S0038	22	32349304	34203496	9	1.909582
S0038	22	34399432	47814553	68	0.000000
S0038	22	48009783	48367718	4	-0.301994
S0038	22	48492663	49329633	5	0.000000
S0038	X	3343638	12909005	9	0.801485
S0038	X	13037890	20815209	24	0.904061
S0038	X	21434667	31517385	29	2.630825
S0038	X	31568903	32223445	3	4.072937
S0038	X	32661894	36604676	6	2.630825
S0038	X	37487594	72313442	80	0.904061
S0038	X	72321245	72321245	1	1.331049
S0038	X	72359832	117573400	96	0.904061
S0038	X	118220720	118220720	1	1.718789
S0038	X	118419194	153689045	84	0.801485
