ID	chr	start	end	a	LogR
S0037	1	3252007	16413265	44	0.199969
S0037	1	16436771	16436771	1	-2.391016
S0037	1	16454380	26355640	42	0.199969
S0037	1	26410147	28090960	6	-0.648054
S0037	1	28305886	44778873	73	0.199969
S0037	1	44887860	45908263	8	-0.048094
S0037	1	45958085	63491780	78	0.199969
S0037	1	63684460	63989744	3	-0.837310
S0037	1	64002856	66170394	10	0.199969
S0037	1	66515081	70604967	13	2.929372
S0037	1	70853940	71060210	4	2.610383
S0037	1	71243479	72031566	3	-0.119019
S0037	1	72046396	94763207	94	0.199969
S0037	1	94813457	97542797	11	-0.263482
S0037	1	97749248	105091696	20	0.199969
S0037	1	105271741	106465385	3	1.348594
S0037	1	106647053	107946650	4	1.564543
S0037	1	108134160	117541054	44	1.218494
S0037	1	117656088	119080503	9	0.415919
S0037	1	119269869	119910467	5	1.146832
S0037	1	119913684	156830218	39	0.415919
S0037	1	157113495	158511810	8	0.757228
S0037	1	158567866	159244974	4	0.415919
S0037	1	159287781	162420749	16	0.199969
S0037	1	162451701	162695676	2	0.745983
S0037	1	162832406	170212777	32	0.199969
S0037	1	170403331	170960198	3	-0.324554
S0037	1	172087965	183099560	31	0.199969
S0037	1	183255067	183255067	1	1.561816
S0037	1	183501350	218318460	119	0.199969
S0037	1	219351142	222296975	8	0.873298
S0037	1	222751403	222787969	2	1.499152
S0037	1	222887737	226892377	22	0.873298
S0037	1	227005004	247785294	68	0.199969
S0037	2	548277	43498425	113	-0.079407
S0037	2	43780106	50233606	26	-1.055684
S0037	2	50531694	56803291	25	-0.797665
S0037	2	57380563	84327061	63	-1.499954
S0037	2	84527208	99611016	20	-1.757973
S0037	2	100193557	101634188	8	-1.813072
S0037	2	102042298	106539688	12	-1.757973
S0037	2	106612452	107692248	8	-2.356516
S0037	2	107777511	144128555	92	-1.757973
S0037	2	144453848	146471004	4	-3.441130
S0037	2	147017390	148296641	3	-2.464854
S0037	2	148572708	167122802	49	-0.781696
S0037	2	167471876	167748513	5	-0.123533
S0037	2	167749266	170705660	9	0.578756
S0037	2	171308909	171308909	1	1.043395
S0037	2	172324857	175042118	9	0.578756
S0037	2	175558804	231224255	152	-0.079407
S0037	2	231625970	231625970	1	0.710095
S0037	2	232685865	242217627	39	-0.079407
S0037	3	3362137	10960562	20	0.003745
S0037	3	11258238	11258238	1	0.032633
S0037	3	11700480	13704727	9	0.637006
S0037	3	14387170	19257258	24	0.003745
S0037	3	19481127	41269531	57	0.000000
S0037	3	41290051	49903065	36	0.372343
S0037	3	50217093	50288909	3	0.077963
S0037	3	51627868	107474866	184	0.372343
S0037	3	107576819	107576819	1	0.662414
S0037	3	107829562	137372132	96	0.372343
S0037	3	137441912	171791223	93	-1.135908
S0037	3	171820342	171820342	1	-1.658956
S0037	3	172646170	184656030	37	-1.135908
S0037	3	184906712	185982955	5	0.055984
S0037	3	187022425	196128882	34	-1.135908
S0037	3	196149667	197212100	5	0.372343
S0037	4	1059202	7279707	31	0.000000
S0037	4	7342975	16154996	27	-0.638696
S0037	4	16777175	16777175	1	-0.127672
S0037	4	16909080	29727469	26	-0.638696
S0037	4	29965647	31949227	9	-0.153436
S0037	4	32297217	60059373	70	-0.444751
S0037	4	61228770	73008280	38	-0.291315
S0037	4	73220990	74555066	12	-0.809573
S0037	4	74617243	79345650	15	-0.518259
S0037	4	79376907	96101333	49	-0.788705
S0037	4	96545793	115213965	48	-0.518259
S0037	4	115434478	115434478	1	0.179066
S0037	4	115759582	165158520	133	-0.518259
S0037	4	166373881	176055295	22	0.000000
S0037	4	176700366	176700366	1	-0.469264
S0037	4	177957938	188763651	32	0.000000
S0037	5	1325767	2229014	5	0.003588
S0037	5	2371873	2371873	1	0.526768
S0037	5	2782365	3574956	6	-0.608154
S0037	5	4114662	5059592	9	0.526768
S0037	5	5181439	6572206	7	0.003588
S0037	5	7267949	26613311	45	0.001742
S0037	5	26904191	28752494	11	-0.461709
S0037	5	29052682	37286617	26	0.001742
S0037	5	37717105	37717105	1	-0.373109
S0037	5	37721865	40641983	9	0.001742
S0037	5	40888719	40888719	1	0.443045
S0037	5	40929003	54399061	36	0.001742
S0037	5	55137355	55137355	1	0.247881
S0037	5	55198686	59973498	24	0.001742
S0037	5	60201715	73956787	26	0.063684
S0037	5	75538460	94266363	36	-0.415726
S0037	5	94931333	99848334	8	-0.971457
S0037	5	99911855	99911855	1	-1.438493
S0037	5	102047487	107653061	11	-0.971457
S0037	5	108165123	148736790	79	-0.415726
S0037	5	148846557	149582917	2	0.483463
S0037	5	150024142	163474595	35	-0.415726
S0037	5	164064050	169649830	15	0.063684
S0037	5	169799675	173146887	20	0.065530
S0037	5	173253897	173253897	1	-0.188032
S0037	5	173739901	179730478	20	-0.249973
S0037	6	1057482	9729745	46	-0.026064
S0037	6	10109191	15675263	23	0.121751
S0037	6	15932892	15932892	1	0.520786
S0037	6	16086250	24280101	49	0.121751
S0037	6	24355849	33787506	21	-0.023956
S0037	6	34386635	35689719	5	0.326657
S0037	6	35936802	62624206	95	-0.023956
S0037	6	62943051	80726409	64	-0.171771
S0037	6	81381213	81381213	1	0.211847
S0037	6	81572910	86098984	15	-0.171771
S0037	6	87230664	88609496	4	-0.653808
S0037	6	88619084	107807880	79	-0.171771
S0037	6	108432641	113516734	15	-0.145707
S0037	6	113626773	113688937	2	-1.141899
S0037	6	113832110	148242514	161	-0.145707
S0037	6	148764453	170872572	94	0.000000
S0037	7	863293	33376779	114	0.000000
S0037	7	33416012	33416012	1	0.627644
S0037	7	33518649	134785709	228	0.000000
S0037	7	134949686	144374898	28	0.019494
S0037	7	145133371	145220152	2	0.375423
S0037	7	145404152	154507300	26	0.019494
S0037	7	154519606	154519606	1	-0.440288
S0037	7	154868879	158215549	19	0.019494
S0037	8	618552	3158741	9	0.574213
S0037	8	3290516	6312223	17	1.076671
S0037	8	6460340	11215617	12	0.739363
S0037	8	11232933	13958196	7	1.076671
S0037	8	14044475	14044475	1	1.932380
S0037	8	14089783	15146803	4	1.617323
S0037	8	15238678	15238678	1	1.703743
S0037	8	15393380	16034130	4	0.213145
S0037	8	16050274	17062845	5	1.703743
S0037	8	17063258	17630589	9	1.240125
S0037	8	17753873	17809413	2	1.703743
S0037	8	17911033	19893047	11	1.201285
S0037	8	20871759	20871759	1	1.516342
S0037	8	21208237	22095260	2	0.569330
S0037	8	22703557	25658764	11	1.475120
S0037	8	26018339	26018339	1	1.778061
S0037	8	26084458	32678531	53	1.475120
S0037	8	32841653	35441075	21	2.392310
S0037	8	35464255	38996089	49	3.158057
S0037	8	39173900	39173900	1	2.903789
S0037	8	39194915	39429009	4	3.158057
S0037	8	39572146	40525033	16	2.302348
S0037	8	40630055	41903547	15	3.809026
S0037	8	42004164	51907530	28	4.273761
S0037	8	52188402	57429070	28	2.767082
S0037	8	57466859	64434129	35	3.549314
S0037	8	64516925	67828252	14	3.590536
S0037	8	68161523	73420086	30	3.504116
S0037	8	73564026	105227985	150	2.586925
S0037	8	105342645	106490018	10	1.990698
S0037	8	107930723	110097565	11	1.224951
S0037	8	110135441	116746899	29	0.442719
S0037	8	116858016	116858016	1	0.907761
S0037	8	117080983	122691742	28	0.442719
S0037	8	122723104	123457282	4	0.786987
S0037	8	123502642	123743923	4	1.383215
S0037	8	124149159	126193745	10	1.151574
S0037	8	126346270	127248378	8	0.686839
S0037	8	127308157	127490349	4	0.918481
S0037	8	127958586	135986892	42	0.574213
S0037	8	136071383	137080510	7	0.982565
S0037	8	137155181	139194393	8	0.574213
S0037	8	139462089	139462089	1	-0.205001
S0037	8	139532160	139675584	2	0.574213
S0037	8	139763000	140197800	4	0.901440
S0037	8	140531786	141549881	8	0.574213
S0037	8	141553847	141553847	1	0.623394
S0037	8	144050043	144050043	1	0.278125
S0037	8	145147978	145147978	1	0.623394
S0037	9	905450	8520467	30	-0.193975
S0037	9	9238776	36031840	121	0.182348
S0037	9	36457446	37303489	4	-0.212501
S0037	9	37334730	91017197	62	0.182348
S0037	9	91268541	92518699	4	-0.152747
S0037	9	92684432	123967760	87	0.182348
S0037	9	124232141	124232141	1	-0.760961
S0037	9	124376498	140599989	71	0.182348
S0037	10	466220	50840698	150	0.000000
S0037	10	50932371	50932371	1	-0.665031
S0037	10	51556705	62973487	30	0.000000
S0037	10	63300506	63470350	2	0.458653
S0037	10	63528522	67755810	26	0.000000
S0037	10	68939641	71887884	12	0.300420
S0037	10	72011395	72383091	3	3.131696
S0037	10	72758344	73336025	3	3.630144
S0037	10	73413555	76537811	14	4.080886
S0037	10	76614500	77011119	6	1.249610
S0037	10	77373534	77373534	1	1.539023
S0037	10	77396891	79684095	14	1.249610
S0037	10	79789536	83763015	16	0.751162
S0037	10	83881385	83881385	1	1.079876
S0037	10	84602094	89741806	26	0.751162
S0037	10	89745814	90494574	7	0.412142
S0037	10	90557191	98231747	26	0.751162
S0037	10	98354183	98859178	4	1.251401
S0037	10	99243326	122634716	69	0.450742
S0037	10	123218471	123673412	5	1.328173
S0037	10	123679684	131495959	44	0.450742
S0037	10	131801831	131801831	1	-0.581858
S0037	10	132096167	135124948	8	0.450742
S0037	11	577454	29062942	111	-0.000526
S0037	11	29067637	41231647	65	0.067297
S0037	11	41407614	41407614	1	0.515794
S0037	11	41412014	57547437	43	0.067297
S0037	11	57845257	57845257	1	0.509053
S0037	11	58150796	59265359	11	0.067297
S0037	11	59558887	59558887	1	-0.164578
S0037	11	59571595	66761463	58	0.067297
S0037	11	66910826	67054144	4	0.354860
S0037	11	67125451	70195978	32	0.067297
S0037	11	70263351	70969682	8	0.561811
S0037	11	70990454	72031480	13	0.067297
S0037	11	72053636	72053636	1	0.425454
S0037	11	72510664	76489468	38	0.067297
S0037	11	76585738	76585738	1	-0.392902
S0037	11	76741249	79873110	34	0.067297
S0037	11	79886529	81440577	14	-0.000526
S0037	11	81601292	81601292	1	0.249882
S0037	11	81810036	81973656	4	1.078863
S0037	11	82369607	82834855	3	0.249882
S0037	11	82908161	90660860	33	-0.000526
S0037	11	90682160	90682160	1	-0.435280
S0037	11	90773125	95096815	19	-0.000526
S0037	11	95266482	114388222	54	0.340022
S0037	11	114658457	114658457	1	0.720423
S0037	11	114810918	116429690	4	0.375567
S0037	11	116860456	123026823	22	0.720423
S0037	11	123092324	123092324	1	1.495325
S0037	11	123298088	125192956	7	0.720423
S0037	11	125279382	128047397	13	0.340022
S0037	11	128212718	134044100	24	-0.000526
S0037	12	1287872	1911830	2	0.000000
S0037	12	1911860	3265979	5	2.495612
S0037	12	3457931	5704092	5	2.774405
S0037	12	6147786	6206532	2	2.495612
S0037	12	6832912	10776847	11	2.165991
S0037	12	10819935	17625605	34	-0.329621
S0037	12	17660865	18562257	12	1.000137
S0037	12	18573912	20752944	5	1.622883
S0037	12	20962279	24725652	16	2.478309
S0037	12	25234646	31099949	25	2.807930
S0037	12	31161023	31161023	1	1.952504
S0037	12	31414473	33282226	11	0.622746
S0037	12	39560731	56781425	69	0.000000
S0037	12	57133321	59080855	7	0.343327
S0037	12	59103316	89891366	166	0.000000
S0037	12	90081404	94031881	10	2.004075
S0037	12	94181053	94372857	2	2.370614
S0037	12	94523998	97550444	10	2.004075
S0037	12	98035027	133161346	102	0.000000
S0037	13	19538886	21262731	8	0.000000
S0037	13	21266849	22483744	9	1.098423
S0037	13	22724818	23564568	3	0.000000
S0037	13	23577885	24109415	4	0.482279
S0037	13	24578032	53763753	92	0.000000
S0037	13	53928207	79541517	84	-1.935084
S0037	13	79927881	80310796	2	-0.894574
S0037	13	80467309	102548688	68	-1.935084
S0037	13	102607422	104844982	18	-1.823304
S0037	13	105465997	110338482	15	0.000000
S0037	13	110881085	111882048	5	0.254737
S0037	13	111883432	114981574	17	0.000000
S0037	14	20825965	91716274	264	0.120772
S0037	14	91737173	92683639	5	-0.329278
S0037	14	92958398	101530336	25	0.120772
S0037	14	101766831	103356363	5	0.632820
S0037	14	103492250	105690735	14	0.120772
S0037	15	23733544	57904826	103	0.000000
S0037	15	58546555	63737925	19	-0.636058
S0037	15	63873008	95653009	108	0.000000
S0037	15	95819755	97902205	6	0.621333
S0037	15	98107964	101214182	16	0.000000
S0037	16	655262	19581973	68	0.091824
S0037	16	19651224	23124398	6	0.830486
S0037	16	23165663	52897246	65	0.091824
S0037	16	53092425	53719254	4	0.404706
S0037	16	53795409	58417166	24	0.091824
S0037	16	58920938	61140452	11	0.299531
S0037	16	61241361	61728572	5	0.087596
S0037	16	61932680	65115757	12	-0.120110
S0037	16	65221387	70436856	19	0.246406
S0037	16	70500120	87583253	70	0.458340
S0037	16	87765157	89371839	3	0.091824
S0037	17	1243941	3132254	9	0.000000
S0037	17	3776415	4985783	2	0.939368
S0037	17	5833946	28538837	105	0.000000
S0037	17	28685949	41178764	89	-0.456573
S0037	17	41197274	41197274	1	-0.882646
S0037	17	41243031	56195246	107	-0.456573
S0037	17	56261981	57445109	10	-0.057321
S0037	17	57467073	60857517	33	-0.456573
S0037	17	60899178	61235696	6	0.000000
S0037	17	61339676	66315468	44	0.302864
S0037	17	66670546	80917016	100	0.000000
S0037	18	331827	6786443	25	-0.027351
S0037	18	6939846	30976408	66	0.818155
S0037	18	31079945	31079945	1	1.634848
S0037	18	31413448	39841772	25	0.818155
S0037	18	40218068	42689285	9	1.930936
S0037	18	44674059	46885674	13	1.085430
S0037	18	46897961	77003733	87	-0.027351
S0037	19	412730	21303143	110	0.891633
S0037	19	21355719	36603742	66	0.000000
S0037	19	36947940	36947940	1	0.250476
S0037	19	36985886	57319629	98	0.000000
S0037	19	57516070	58852835	11	0.198418
S0037	20	545941	7910372	41	0.571388
S0037	20	8021399	8600767	2	1.033493
S0037	20	8843716	9494439	4	0.156871
S0037	20	9667956	10418801	7	-0.305234
S0037	20	10538202	15216195	22	0.571388
S0037	20	15291616	15464529	2	0.979621
S0037	20	15770093	19030786	16	0.571388
S0037	20	19215642	31833764	51	2.395651
S0037	20	32055125	48440023	97	0.571388
S0037	20	48461992	48619732	3	-0.333591
S0037	20	48854184	49088987	3	0.571388
S0037	20	49174720	52051443	26	0.834345
S0037	20	52130441	53168132	11	0.625766
S0037	20	53203426	54775682	13	0.362809
S0037	20	54813533	54877910	2	0.901819
S0037	20	54933446	56426387	25	0.571388
S0037	20	56487389	57972626	15	-0.260123
S0037	20	58357939	62215372	33	0.571388
S0037	21	15946408	17843167	12	0.000000
S0037	21	18057646	19521848	12	0.461858
S0037	21	19536385	19876683	2	0.955329
S0037	21	20562856	22413602	9	0.493471
S0037	21	22756084	22756084	1	1.121453
S0037	21	22900281	23587903	6	0.493471
S0037	21	24926289	36203669	54	0.000000
S0037	21	36420786	36420786	1	-1.145937
S0037	21	37107365	47323522	56	0.000000
S0037	22	17520371	49329633	134	0.401343
S0037	X	3343638	11260526	6	1.498252
S0037	X	12440077	17947994	19	3.246666
S0037	X	18072190	25692582	17	1.852929
S0037	X	25815680	29273201	12	0.104515
S0037	X	29526520	29909158	2	1.827722
S0037	X	30493231	31482335	4	3.063118
S0037	X	31513228	31513228	1	1.339911
S0037	X	31517385	50999987	47	0.104515
S0037	X	51002231	54718459	4	0.739499
S0037	X	54828794	55673753	4	0.929983
S0037	X	56813718	68492768	29	0.294999
S0037	X	70587449	93090984	57	0.505853
S0037	X	93340313	94201641	3	0.294999
S0037	X	95863320	96599520	2	0.469981
S0037	X	96693058	102101280	13	0.104515
S0037	X	102474225	103092365	2	-0.037866
S0037	X	104226151	124463203	43	0.565546
S0037	X	124682745	125625551	2	-0.285811
S0037	X	125625960	145167102	44	0.565546
S0037	X	145996920	145996920	1	-0.238198
S0037	X	146143159	153689045	21	0.565546
