ID	chr	start	end	a	LogR
S0034	1	3252007	23907434	80	0.117850
S0034	1	23915669	30619205	24	0.000000
S0034	1	30930479	35461836	22	0.451888
S0034	1	35742548	45209160	45	0.000000
S0034	1	45396919	45677263	2	-0.365557
S0034	1	45908263	60421762	58	0.000000
S0034	1	60577064	61149867	3	0.784489
S0034	1	61248310	61650635	6	0.000000
S0034	1	61745783	83057803	76	1.710549
S0034	1	83100438	84591002	9	2.024010
S0034	1	84594399	89914985	31	0.987442
S0034	1	90238372	90238372	1	1.348272
S0034	1	90285190	94117423	17	0.987442
S0034	1	94145216	94145216	1	1.287972
S0034	1	94182535	100368269	20	0.987442
S0034	1	100912573	109938325	36	0.974420
S0034	1	110918901	114058280	11	1.468632
S0034	1	114098108	151428605	43	1.661042
S0034	1	151535916	152149258	3	1.126071
S0034	1	152231378	152868288	3	1.294369
S0034	1	153172639	158185244	29	1.661042
S0034	1	158253744	161894478	19	1.166830
S0034	1	162230006	178731088	59	0.974420
S0034	1	179339415	180562544	6	0.660959
S0034	1	180740024	180740024	1	-0.103969
S0034	1	182070471	190756004	29	0.660959
S0034	1	191002796	191002796	1	1.366048
S0034	1	191532443	191532443	1	0.692067
S0034	1	192370899	214577898	85	-0.013022
S0034	1	214746907	247785294	109	0.000000
S0034	2	548277	8287950	14	-0.244782
S0034	2	8319409	8549440	3	-0.921887
S0034	2	9234687	32215079	73	-0.244782
S0034	2	32546873	43780106	24	0.317762
S0034	2	44016885	46045959	5	-0.244782
S0034	2	46172236	58472110	53	-1.227410
S0034	2	59197814	62729674	14	-2.639899
S0034	2	63835872	68486582	8	-1.227410
S0034	2	68531619	81281204	27	-0.851396
S0034	2	81615539	82492283	3	-0.458948
S0034	2	82943700	100193557	24	-0.851396
S0034	2	100221694	100221694	1	-1.255473
S0034	2	100601598	174739073	196	-0.851396
S0034	2	174787933	223396672	133	0.131232
S0034	2	223504935	223504935	1	0.524181
S0034	2	223531553	235593473	33	0.131232
S0034	2	235633700	235633700	1	0.543972
S0034	2	236265539	242217627	26	0.131232
S0034	3	3362137	7749114	12	-0.241729
S0034	3	8108936	29189143	66	-0.044633
S0034	3	29200525	29200525	1	-0.784309
S0034	3	29935660	31006125	8	-0.044633
S0034	3	31677989	59198515	84	0.348456
S0034	3	59216687	59216687	1	-1.329601
S0034	3	59373255	80446239	76	0.348456
S0034	3	80711349	80830848	2	0.928673
S0034	3	81076292	104278582	73	0.348456
S0034	3	104617988	114738372	36	2.047347
S0034	3	114791072	126326116	39	0.348456
S0034	3	127590174	142856740	44	-0.215141
S0034	3	143197761	143197761	1	-0.537508
S0034	3	143404355	146190898	10	-0.215141
S0034	3	147607519	174599828	76	-1.605837
S0034	3	174659364	176963521	8	-1.042241
S0034	3	177133282	181883086	15	-0.251902
S0034	3	181904297	197212100	54	-1.042241
S0034	4	1059202	7342975	32	0.031762
S0034	4	7475424	7475424	1	-0.336054
S0034	4	7586302	37525276	75	0.031762
S0034	4	37759944	37759944	1	0.385143
S0034	4	37934808	37934808	1	0.031762
S0034	4	38026389	38026389	1	0.585823
S0034	4	38061174	46632203	26	0.031762
S0034	4	46654922	73008280	65	0.681184
S0034	4	73220990	127024013	150	0.031762
S0034	4	127357576	134495715	17	0.351397
S0034	4	134836983	142920478	22	0.031762
S0034	4	143125038	143125038	1	-0.431138
S0034	4	143349764	144757842	7	0.031762
S0034	4	145064279	150784182	17	0.461382
S0034	4	150933554	153729816	9	0.031762
S0034	4	153883458	154161797	2	0.142767
S0034	4	154320701	161802451	24	0.031762
S0034	4	161938828	161938828	1	0.556263
S0034	4	162009443	188763651	63	0.031762
S0034	5	1325767	58189130	173	-0.452486
S0034	5	58190453	58190453	1	-0.139957
S0034	5	58378690	58535922	3	-0.452486
S0034	5	58615497	59240576	3	1.488049
S0034	5	59641831	70668192	16	-0.452486
S0034	5	70702913	77572779	21	-0.693312
S0034	5	77755767	108165123	48	-0.452486
S0034	5	109099010	112084587	9	2.443307
S0034	5	112204896	122999412	18	-0.452486
S0034	5	123369821	130094296	19	-0.293608
S0034	5	130918803	131679018	2	-0.452486
S0034	5	131972588	136098043	11	-0.039980
S0034	5	136882732	179730478	112	-0.454836
S0034	6	1057482	19150550	89	0.000000
S0034	6	19217537	19217537	1	0.517632
S0034	6	19789579	54179431	124	0.000000
S0034	6	54185689	55468462	10	0.658026
S0034	6	55520809	55520809	1	0.000000
S0034	6	55905637	93702141	126	0.189388
S0034	6	95841494	95841494	1	-0.237077
S0034	6	95969106	113832110	69	0.189388
S0034	6	114009667	114807936	5	0.921231
S0034	6	115708803	119783000	21	0.189388
S0034	6	120133537	126022296	34	0.000000
S0034	6	126090608	126132684	2	-0.680230
S0034	6	126302201	144358117	85	-0.456573
S0034	6	144406564	154829774	47	0.144204
S0034	6	155272960	158894523	16	-0.101220
S0034	6	158918888	160964652	8	0.144204
S0034	6	161210017	161324856	2	-0.868892
S0034	6	161571151	165105022	17	0.144204
S0034	6	165423716	166352212	5	0.537980
S0034	6	166592832	170872572	12	0.144204
S0034	7	863293	24182997	74	0.531603
S0034	7	24302257	24302257	1	1.118141
S0034	7	24313025	27520326	14	0.531603
S0034	7	27572233	27572233	1	-0.007010
S0034	7	28745313	46694520	74	0.531603
S0034	7	48057781	49577991	8	0.853246
S0034	7	50999204	50999204	1	1.143202
S0034	7	52047849	67032811	24	0.853246
S0034	7	67280255	79333386	28	0.531603
S0034	7	79768978	125249884	96	0.000000
S0034	7	126938834	128084145	5	1.028846
S0034	7	128525671	158215549	93	0.000000
S0034	8	618552	31657854	142	0.036075
S0034	8	31779265	31779265	1	-0.364669
S0034	8	32028139	42604828	121	0.036075
S0034	8	42789728	52466713	22	1.770237
S0034	8	52579238	58427630	33	0.036075
S0034	8	58595165	59593907	6	-0.224821
S0034	8	59793985	61723895	11	0.036075
S0034	8	62011683	67511338	22	0.425969
S0034	8	67760268	68161523	4	2.864860
S0034	8	68326072	68326072	1	3.400696
S0034	8	68462488	71062379	17	2.864860
S0034	8	71338750	73326535	10	0.425969
S0034	8	73420086	78709787	20	0.036075
S0034	8	78884531	82146585	19	0.618913
S0034	8	82209490	82695743	7	1.274169
S0034	8	82864998	85482938	13	3.486024
S0034	8	85648661	97343968	57	1.274169
S0034	8	97399572	97399572	1	2.299601
S0034	8	97402408	100192002	9	1.274169
S0034	8	100243413	101651991	8	1.962606
S0034	8	101654392	105953741	24	1.274169
S0034	8	106207406	116597192	41	0.618913
S0034	8	116695112	117533304	8	-1.155397
S0034	8	117594864	119019909	7	0.036075
S0034	8	119029871	119536005	4	3.244581
S0034	8	119604035	145147978	117	0.036075
S0034	9	905450	17964514	71	-0.106685
S0034	9	18069475	18069475	1	0.391686
S0034	9	18349113	31343975	60	0.705623
S0034	9	31456605	33992629	11	0.748425
S0034	9	34113638	36009843	7	1.077905
S0034	9	36031840	72667462	20	0.748425
S0034	9	72739449	76264223	9	0.169565
S0034	9	77817114	80446995	9	-0.144371
S0034	9	80569716	101858350	57	-0.642743
S0034	9	103404555	104442128	4	-0.063883
S0034	9	104540734	104540734	1	0.264970
S0034	9	105477660	107735807	4	-0.063883
S0034	9	107810900	107810900	1	0.825338
S0034	9	108651382	122354571	47	-0.063883
S0034	9	122894457	122894457	1	0.577652
S0034	9	122899526	124376498	7	-0.063883
S0034	9	124701269	126134120	6	-0.620391
S0034	9	126506917	130844744	18	-0.663193
S0034	9	131237894	131264543	2	-0.106685
S0034	9	131354911	140599989	44	-0.332082
S0034	10	466220	12258705	41	0.000000
S0034	10	12809737	12850236	2	-0.367409
S0034	10	13158364	22570419	28	0.000000
S0034	10	22683378	30791330	23	0.342593
S0034	10	30974763	31702041	3	0.833382
S0034	10	31983429	38944217	32	0.342593
S0034	10	39045746	60039877	40	0.000000
S0034	10	60606488	60606488	1	0.217671
S0034	10	61116678	61338267	3	0.000000
S0034	10	61353877	62201684	5	1.265022
S0034	10	62900602	62900602	1	2.468228
S0034	10	62929081	67663412	29	1.265022
S0034	10	67755810	69789384	3	0.768687
S0034	10	70086909	83881385	68	1.265022
S0034	10	84602094	88455879	17	1.140662
S0034	10	88868671	91456525	20	-0.124360
S0034	10	91598850	91598850	1	0.195060
S0034	10	92088126	98381191	24	-0.124360
S0034	10	98859178	102734778	12	-0.844954
S0034	10	102838119	106777612	11	-0.720595
S0034	10	106852463	113094605	15	-1.179969
S0034	10	113224156	116782216	14	-0.459374
S0034	10	117568584	129399204	56	-1.086960
S0034	10	129479727	129858060	4	-0.459374
S0034	10	129973303	132162712	10	-1.089025
S0034	10	132957703	135124948	6	-0.629651
S0034	11	577454	18759246	70	-0.800857
S0034	11	19455826	35879571	78	0.000000
S0034	11	36117340	38337576	7	-0.187220
S0034	11	38473730	38474313	2	0.000000
S0034	11	38741510	38742268	2	-0.440368
S0034	11	38861351	38937274	2	-0.090936
S0034	11	39322332	43709965	26	-0.440368
S0034	11	43712254	61144819	65	0.000000
S0034	11	61469728	61494804	2	-0.637779
S0034	11	61657707	71113304	86	0.000000
S0034	11	71155352	71155352	1	3.201839
S0034	11	71161063	71279222	2	0.000000
S0034	11	71352139	73386388	16	0.411645
S0034	11	73665787	108047949	177	0.000000
S0034	11	108097333	108097333	1	0.322765
S0034	11	108530960	119254137	32	0.000000
S0034	11	120235277	122971458	7	0.390837
S0034	11	122986326	134044100	47	0.000000
S0034	12	1287872	10776847	25	0.044978
S0034	12	10819935	11083677	4	0.486457
S0034	12	11095835	11095835	1	0.044978
S0034	12	11467455	17676797	31	1.334602
S0034	12	17871408	18321454	4	0.949575
S0034	12	18341824	18466892	4	1.671139
S0034	12	18540171	30499387	45	2.056165
S0034	12	30818556	46204491	42	2.980390
S0034	12	46344891	50927881	18	2.258827
S0034	12	51036925	64263327	61	0.969203
S0034	12	64272607	64793997	2	1.738910
S0034	12	65116723	67969929	16	1.130629
S0034	12	68020404	69244388	8	0.314133
S0034	12	69357231	74866713	44	1.130629
S0034	12	75139253	75139253	1	0.762788
S0034	12	75187700	84918749	40	1.130629
S0034	12	85048219	94031881	35	0.637558
S0034	12	94181053	94181053	1	0.011209
S0034	12	94372857	105030514	25	0.637558
S0034	12	106432154	124107015	70	1.130629
S0034	12	124499882	124499882	1	0.740262
S0034	12	124998565	133161346	17	1.809423
S0034	13	19538886	21266849	9	-0.145864
S0034	13	21586044	21926969	3	-0.451971
S0034	13	22026414	26165021	17	-0.802530
S0034	13	26384580	29749067	10	-2.061557
S0034	13	29883507	43423390	49	-0.802530
S0034	13	44142022	73001140	90	-0.886240
S0034	13	73577728	74395492	4	-0.252667
S0034	13	75306096	90274647	46	-0.886240
S0034	13	90321922	100203573	33	-0.535680
S0034	13	100508767	100530979	2	-0.187673
S0034	13	100603888	100810558	2	-1.396417
S0034	13	101473697	101473697	1	-1.744424
S0034	13	101591831	114981574	59	-0.535680
S0034	14	20825965	21695466	4	0.002280
S0034	14	21813355	23348952	4	-0.414738
S0034	14	23682699	34004507	54	0.002280
S0034	14	34093377	34510446	3	1.465220
S0034	14	34592224	37423627	16	0.002280
S0034	14	37635652	37792947	2	-0.805849
S0034	14	37943060	38621125	11	0.002280
S0034	14	38683747	39765709	8	-0.157783
S0034	14	39982427	47654534	20	0.484270
S0034	14	47827449	47827449	1	1.020077
S0034	14	48056816	48654969	6	0.484270
S0034	14	48711250	48711250	1	0.948386
S0034	14	48718707	49441957	5	0.484270
S0034	14	50276028	69493178	73	-0.157783
S0034	14	70109029	72123008	6	0.805416
S0034	14	72328118	92192590	52	-0.157783
S0034	14	92407247	92551329	2	-0.421872
S0034	14	92683639	105690735	45	-0.157783
S0034	15	23733544	24288324	4	-0.154502
S0034	15	24935811	47063289	52	-0.016614
S0034	15	47082070	70899256	91	-0.154502
S0034	15	70936758	73666721	5	0.359118
S0034	15	73966960	80480221	18	-0.154502
S0034	15	80665955	82680099	7	0.257404
S0034	15	83254708	91543240	33	-0.154502
S0034	15	91681424	91716130	3	0.194943
S0034	15	92310299	101214182	39	-0.154502
S0034	16	655262	19505177	67	0.000000
S0034	16	19581973	19745980	4	0.749927
S0034	16	20707291	27010707	23	0.000000
S0034	16	27446196	56376688	64	0.401935
S0034	16	56664966	80246643	94	0.000000
S0034	16	80722556	82655660	11	0.454141
S0034	16	82867755	89371839	24	0.781616
S0034	17	1243941	2898095	8	0.009079
S0034	17	3132254	3776415	2	-0.233254
S0034	17	4985783	5867758	4	-0.557175
S0034	17	6091866	6683215	3	-0.233254
S0034	17	6739629	7310822	2	-1.879098
S0034	17	7404991	12814925	29	-0.233254
S0034	17	12866546	16117862	12	0.009079
S0034	17	16263496	16408615	2	0.334415
S0034	17	16554971	17426009	5	0.009079
S0034	17	17537203	17734509	2	0.415175
S0034	17	17774289	19751484	12	0.009079
S0034	17	19859688	19859688	1	0.305551
S0034	17	19864787	28053780	27	0.009079
S0034	17	28118435	47438624	131	-0.814276
S0034	17	47591802	48030656	5	-0.823355
S0034	17	48051772	48111430	2	0.053674
S0034	17	48223677	53316913	41	-0.823355
S0034	17	53352352	56195246	25	0.000000
S0034	17	56261981	56793800	5	0.223673
S0034	17	56794811	61565192	49	0.576763
S0034	17	61839918	62016520	2	0.923250
S0034	17	62067186	63226374	12	0.576763
S0034	17	63242818	69215994	45	0.353090
S0034	17	69450862	78398132	59	0.000000
S0034	17	78484047	79256220	11	0.881063
S0034	17	79390013	79390013	1	0.825470
S0034	17	79671935	79671935	1	2.043741
S0034	17	80226571	80226571	1	0.825470
S0034	17	80452664	80917016	7	-0.055593
S0034	18	331827	4700983	20	0.000000
S0034	18	4710695	5097287	2	-0.680339
S0034	18	5098165	72073604	190	0.000000
S0034	18	72844575	72844575	1	-0.407782
S0034	18	72907278	77003733	13	0.000000
S0034	19	412730	5393748	25	-0.195441
S0034	19	5763545	5945671	4	-0.454118
S0034	19	5945851	7545987	4	0.115081
S0034	19	7825104	29433361	100	-0.454118
S0034	19	29434304	36985886	45	0.000000
S0034	19	37239016	37239016	1	-1.051185
S0034	19	37334598	58852835	107	0.000000
S0034	20	545941	1759469	10	-0.110446
S0034	20	1815062	11469092	48	0.279558
S0034	20	11470255	11470255	1	0.684456
S0034	20	11510559	15464529	19	0.279558
S0034	20	15770093	22021373	34	0.255806
S0034	20	22165427	22351433	4	2.839889
S0034	20	22810308	23938338	8	0.255806
S0034	20	23956894	25110133	7	0.279558
S0034	20	25180073	25180073	1	-0.187404
S0034	20	25738764	33625901	26	0.279558
S0034	20	33626216	40606121	35	0.568080
S0034	20	40616993	42450789	8	0.178076
S0034	20	42581440	51346472	67	-0.110446
S0034	20	51392006	61558301	101	0.299716
S0034	20	61786578	62215372	4	-0.110446
S0034	21	15946408	18061292	14	0.000000
S0034	21	18083007	18083007	1	-0.402427
S0034	21	18132867	30585507	54	0.000000
S0034	21	30832471	31277168	7	0.745122
S0034	21	31736157	47323522	77	0.000000
S0034	22	17520371	17969266	9	0.000000
S0034	22	18040160	35855804	59	0.427536
S0034	22	35866497	44745442	41	0.000000
S0034	22	45010301	45010301	1	0.541414
S0034	22	45373986	49329633	24	0.000000
S0034	X	3343638	32661894	66	0.629282
S0034	X	32769118	32769118	1	1.145755
S0034	X	34730501	67430481	72	0.629282
S0034	X	67563500	68029074	2	2.140442
S0034	X	68379657	84730984	47	0.629282
S0034	X	84866299	84866299	1	0.953863
S0034	X	85216733	134079072	97	0.629282
S0034	X	135390172	137438429	4	0.905278
S0034	X	137614076	143778621	14	2.091001
S0034	X	144303700	153689045	29	0.629282
