ID	chr	start	end	a	LogR
S0033	1	3252007	31332492	108	0.000000
S0033	1	31341006	31341006	1	-3.151402
S0033	1	31981543	45064759	59	0.000000
S0033	1	45175051	45175051	1	0.863951
S0033	1	45208785	50699438	25	0.000000
S0033	1	50765340	71243479	89	0.124799
S0033	1	71975017	72031566	2	-0.698943
S0033	1	72046396	84918166	44	0.124799
S0033	1	85611991	87073001	10	2.917828
S0033	1	87356690	87356690	1	3.224550
S0033	1	87769970	87769970	1	0.431520
S0033	1	87904460	118738933	126	0.124799
S0033	1	118907505	118907505	1	0.588342
S0033	1	119048181	119988111	10	0.124799
S0033	1	120060094	120085845	2	0.781416
S0033	1	120509855	151535916	6	0.124799
S0033	1	152109134	160548263	46	-0.449750
S0033	1	160803718	160803718	1	-0.828649
S0033	1	161344255	162230006	7	-0.449750
S0033	1	162416629	162420749	2	-0.082034
S0033	1	162451701	188503625	85	-0.449750
S0033	1	188535029	188535029	1	0.720152
S0033	1	188655474	207086194	63	-0.449750
S0033	1	207162961	207389499	2	-0.824043
S0033	1	207587364	228202007	77	-0.449750
S0033	1	228807542	240231725	42	-0.574549
S0033	1	240820516	247785294	18	0.000000
S0033	2	548277	20690249	54	0.116724
S0033	2	20760365	40458140	45	-0.193547
S0033	2	40764167	40764167	1	-0.593372
S0033	2	40922298	48465627	33	-0.193547
S0033	2	48585963	48585963	1	-0.858769
S0033	2	49202585	68486582	60	-0.193547
S0033	2	68531619	97594142	50	-0.561824
S0033	2	99410419	99410419	1	0.604761
S0033	2	99478502	108681068	38	-0.561824
S0033	2	108786780	139436436	66	-0.384012
S0033	2	139801799	144739769	20	-0.561824
S0033	2	145042536	148572708	6	-1.484968
S0033	2	148775578	152677906	3	-1.227595
S0033	2	153448642	155946574	5	-1.484968
S0033	2	156038492	166024128	38	-0.561824
S0033	2	166980728	197123050	89	-0.251553
S0033	2	197125148	217947272	58	-0.718195
S0033	2	219513547	242217627	71	-0.729232
S0033	3	3362137	14452800	32	0.145364
S0033	3	14499020	14499020	1	0.719190
S0033	3	14582923	30745369	52	0.145364
S0033	3	30821281	47575568	52	-0.211371
S0033	3	47594981	47835783	3	0.370660
S0033	3	48336607	48904258	5	0.727395
S0033	3	49717036	58089516	24	0.145364
S0033	3	58385194	58385194	1	-0.143131
S0033	3	59198515	59198515	1	0.130846
S0033	3	59216687	62789179	11	-0.143131
S0033	3	63271746	63681623	2	2.752661
S0033	3	63802871	65597198	7	3.041156
S0033	3	65613957	69605550	15	0.145364
S0033	3	69732645	70783491	3	0.687403
S0033	3	70960046	73427609	14	0.145364
S0033	3	73489259	81946755	35	1.693052
S0033	3	81947123	82554056	4	3.536999
S0033	3	82855737	96216003	41	1.693052
S0033	3	96346915	103593272	16	1.035220
S0033	3	104150513	112390578	27	1.693052
S0033	3	113041636	113257213	3	2.983142
S0033	3	113333388	122939157	39	1.693052
S0033	3	123080916	123080916	1	0.829521
S0033	3	123275398	127844950	13	1.693052
S0033	3	128143734	143438014	44	0.145364
S0033	3	143774740	143774740	1	0.538203
S0033	3	144456427	153503057	25	0.145364
S0033	3	153625164	154881520	6	0.966403
S0033	3	156291332	171307593	45	0.145364
S0033	3	171791223	174916360	10	-0.026986
S0033	3	174960474	174960474	1	0.248158
S0033	3	176380744	176963521	3	0.787648
S0033	3	177133282	182050907	17	0.512504
S0033	3	182322914	187865100	19	0.145364
S0033	3	187925892	189966455	10	-0.123411
S0033	3	190519853	190519853	1	0.173973
S0033	3	190618661	190793040	4	-0.123411
S0033	3	190988277	192346557	4	0.167555
S0033	3	192660718	195018324	7	-0.123411
S0033	3	195979421	197212100	7	0.145364
S0033	4	1059202	37759944	109	-0.011120
S0033	4	37934808	53263522	34	0.468352
S0033	4	53726099	53971792	2	1.415574
S0033	4	54417674	57938289	13	0.468352
S0033	4	58341598	65146700	17	-0.011120
S0033	4	65538012	65538012	1	0.361016
S0033	4	65638274	71372580	18	-0.011120
S0033	4	71388849	71388849	1	0.999085
S0033	4	71427724	80640297	41	-0.011120
S0033	4	81294121	94624474	41	0.437225
S0033	4	96101333	142442790	113	-0.011120
S0033	4	142920478	142920478	1	0.912660
S0033	4	143125038	168610601	75	-0.011120
S0033	4	168994093	179706626	23	0.022277
S0033	4	179855893	179855893	1	-0.154020
S0033	4	180289086	180289086	1	0.596636
S0033	4	180348448	186422579	15	-0.154020
S0033	4	186526185	188763651	9	0.022277
S0033	5	1325767	5181439	22	-0.342216
S0033	5	5786036	36405462	84	0.000000
S0033	5	36915163	37717105	5	-0.360182
S0033	5	37721865	40929003	11	0.000000
S0033	5	41061871	58535922	55	-0.073130
S0033	5	58615497	107653061	87	-0.434961
S0033	5	108165123	111860961	9	2.288411
S0033	5	112084587	112204896	2	-0.434961
S0033	5	112380627	173875607	143	-0.073130
S0033	5	174285849	174733628	2	0.010661
S0033	5	174922076	177608450	11	-0.073130
S0033	5	177830814	177830814	1	1.374190
S0033	5	179054501	179054501	1	-0.073130
S0033	5	179210804	179730478	3	0.000000
S0033	6	1057482	21215421	106	0.000000
S0033	6	21995734	21995734	1	-0.360522
S0033	6	22078499	25847374	15	0.000000
S0033	6	25950382	25950382	1	-0.263964
S0033	6	26008260	28678138	11	0.000000
S0033	6	29274613	35936802	12	-1.950092
S0033	6	36031583	72578985	134	0.000000
S0033	6	72642388	72642388	1	-0.367817
S0033	6	73531644	119388861	164	0.000000
S0033	6	119419127	119419127	1	0.382021
S0033	6	119783000	121625087	10	0.000000
S0033	6	122065395	123518994	10	-0.786021
S0033	6	123673010	124797902	8	0.000000
S0033	6	124887359	131542098	29	0.318732
S0033	6	131753627	133663636	8	0.000000
S0033	6	133666171	137937059	18	0.397316
S0033	6	137965418	140241946	24	0.117796
S0033	6	140474248	155502213	66	-0.279519
S0033	6	156836456	156836456	1	0.555466
S0033	6	156873315	162095633	25	0.834986
S0033	6	162237472	162317877	2	0.000000
S0033	6	162332106	166918490	18	-0.272347
S0033	6	167047946	167047946	1	0.136388
S0033	6	167108650	170872572	9	-0.272347
S0033	7	863293	863293	1	0.179748
S0033	7	1497115	1497115	1	0.616599
S0033	7	1821278	90318056	246	0.179748
S0033	7	90641330	111873391	50	-0.294313
S0033	7	113187360	132665555	35	0.179748
S0033	7	132675948	134384117	6	-0.285591
S0033	7	134455276	158215549	80	0.179748
S0033	8	618552	17504188	66	-0.010551
S0033	8	17548292	32678531	84	-0.351142
S0033	8	32841653	33461311	8	0.425591
S0033	8	33761584	35966595	21	0.766182
S0033	8	36022676	37336015	14	2.476608
S0033	8	37396693	37396693	1	2.085279
S0033	8	37399290	39698408	33	2.476608
S0033	8	39775754	39890169	3	1.571173
S0033	8	40163513	41549194	21	2.476608
S0033	8	41613496	50312970	26	4.951195
S0033	8	50401159	53225780	13	2.476608
S0033	8	53408414	57106654	20	0.766182
S0033	8	57347126	57347126	1	1.384321
S0033	8	57429070	58822602	10	2.778224
S0033	8	58901430	59567885	3	2.448327
S0033	8	59593907	61016691	9	2.778224
S0033	8	61276247	61276247	1	3.065951
S0033	8	61705846	63659635	10	2.778224
S0033	8	63800190	69728632	25	1.384321
S0033	8	69735030	83183692	71	2.927982
S0033	8	83670528	83829947	2	2.841949
S0033	8	84136017	86285926	13	2.927982
S0033	8	86949727	87124955	2	1.384321
S0033	8	87167184	87780543	2	0.406985
S0033	8	87862663	89259873	8	1.384321
S0033	8	89505027	93905907	20	2.266336
S0033	8	94049996	94688890	4	1.384321
S0033	8	94772319	95166321	3	0.607588
S0033	8	95206269	96018682	4	-0.102897
S0033	8	96089420	96089420	1	0.447527
S0033	8	96229266	96464386	4	-0.102897
S0033	8	96825294	97343968	3	0.650238
S0033	8	97399572	101651991	18	-0.102897
S0033	8	101654392	101692878	2	0.444256
S0033	8	101975479	104083786	10	-0.102897
S0033	8	104282429	104282429	1	-0.399995
S0033	8	104291296	136907134	161	-0.102897
S0033	8	137080510	137080510	1	-0.391179
S0033	8	137155181	138464848	6	-0.102897
S0033	8	138560339	139194393	2	-0.721036
S0033	8	139462089	139763000	4	0.039259
S0033	8	139782873	145147978	14	-0.721036
S0033	9	905450	5737923	23	0.229956
S0033	9	6124359	19423762	56	0.011429
S0033	9	19438279	21993964	15	-0.099817
S0033	9	22003260	22003686	2	0.521680
S0033	9	22023963	31456605	37	-0.099817
S0033	9	31539592	71711987	36	0.011429
S0033	9	72667462	83854816	24	-0.411832
S0033	9	84204244	84204244	1	0.011429
S0033	9	84385038	84958202	4	0.653875
S0033	9	85738892	132155664	145	0.011429
S0033	9	132443831	138406565	28	0.416997
S0033	9	138460167	139468185	2	-0.038725
S0033	9	139512029	140599989	7	0.416997
S0033	10	466220	6398978	22	1.247801
S0033	10	6424490	9022680	6	1.646375
S0033	10	9025038	15195329	20	1.247801
S0033	10	15523017	17289721	8	1.785230
S0033	10	17395500	31702041	41	1.247801
S0033	10	31983429	36635409	12	0.666313
S0033	10	36856550	63529023	76	1.247801
S0033	10	63530322	63577644	2	2.069462
S0033	10	63678180	77901849	66	1.247801
S0033	10	77951103	80097033	11	1.473079
S0033	10	80321977	80321977	1	1.247801
S0033	10	80434449	92088126	53	1.245816
S0033	10	92523623	98231747	20	1.337774
S0033	10	98354183	98380137	2	1.084889
S0033	10	98381191	112865677	36	1.337774
S0033	10	113028531	113903840	8	0.138622
S0033	10	113966486	116654574	7	0.564138
S0033	10	116740738	119210375	10	0.138622
S0033	10	119533757	135124948	68	0.046664
S0033	11	577454	24397729	90	0.454196
S0033	11	24695829	31048683	29	0.954589
S0033	11	31185912	34539004	25	0.454196
S0033	11	34969112	58943749	81	0.000000
S0033	11	58961121	59265359	7	-0.529931
S0033	11	59558887	60366513	9	0.000000
S0033	11	60383467	60383467	1	0.748943
S0033	11	60385381	62624616	27	0.000000
S0033	11	62774379	62774379	1	-0.396447
S0033	11	63033268	69830436	51	0.000000
S0033	11	69841748	70048455	4	0.568159
S0033	11	70163034	70362207	4	0.000000
S0033	11	70403385	71161063	13	0.405284
S0033	11	71279222	74712724	29	0.000000
S0033	11	74746553	74746553	1	-0.234346
S0033	11	74753492	81440577	64	0.000000
S0033	11	81601292	88360772	32	0.320946
S0033	11	88642081	134044100	155	0.000000
S0033	12	1287872	2500431	5	0.877223
S0033	12	3216469	6832912	10	-0.154379
S0033	12	7075092	8307968	4	0.402644
S0033	12	8838023	9013329	2	1.434247
S0033	12	9393282	10421192	3	0.877223
S0033	12	10776847	13772993	19	0.438607
S0033	12	13885445	59227169	164	0.877223
S0033	12	59227606	59350153	4	0.007157
S0033	12	59399575	83915258	128	0.000000
S0033	12	83978016	84382245	3	-1.066115
S0033	12	84382650	110885663	84	0.000000
S0033	12	111376921	111574728	2	1.899052
S0033	12	111750629	133161346	67	0.000000
S0033	13	19538886	30067933	43	-0.165635
S0033	13	30157252	30681620	7	0.248828
S0033	13	30800565	31263697	3	2.565465
S0033	13	31282130	34594457	15	2.151002
S0033	13	34957014	53997778	50	-0.165635
S0033	13	54056192	54056192	1	-0.554583
S0033	13	54600126	72367447	57	-0.165635
S0033	13	72611502	72611502	1	-0.008472
S0033	13	73001140	114981574	148	-0.165635
S0033	14	20825965	32284877	52	-0.229996
S0033	14	32392494	32392494	1	0.168134
S0033	14	32653527	32656403	2	-0.229996
S0033	14	32867673	32938871	3	0.327174
S0033	14	33844879	33844879	1	-0.078387
S0033	14	33918155	33921142	2	0.327174
S0033	14	34004507	39652801	40	-0.229996
S0033	14	39765709	42134430	4	-0.938739
S0033	14	42233590	48711250	25	-0.708744
S0033	14	48718707	49439584	4	0.084755
S0033	14	49441957	50276028	2	-0.465751
S0033	14	50292137	50668831	2	0.084755
S0033	14	51772581	65254054	54	-0.708744
S0033	14	65749785	73803662	27	-1.651771
S0033	14	74266451	74266451	1	-1.026248
S0033	14	74426942	79463745	11	-1.651771
S0033	14	79823990	90375611	30	-0.708744
S0033	14	90761754	90761754	1	-1.311671
S0033	14	91626078	94375102	12	-0.708744
S0033	14	94679389	96620508	5	-0.470048
S0033	14	97288251	105268228	31	-0.708744
S0033	14	105420376	105690735	3	0.000000
S0033	15	23733544	73966960	153	0.000000
S0033	15	74760733	76196674	6	0.306868
S0033	15	76196803	82680099	18	0.000000
S0033	15	83254708	93200397	44	0.317600
S0033	15	93345092	101214182	31	0.000000
S0033	16	655262	24436474	79	-0.019775
S0033	16	25138026	25138026	1	0.485607
S0033	16	25193558	49519945	40	-0.019775
S0033	16	49808684	49808684	1	-0.455809
S0033	16	49814175	50091335	4	-0.019775
S0033	16	50156271	89371839	162	0.000000
S0033	17	1243941	5867758	14	-0.363970
S0033	17	6091866	10202115	22	-0.719813
S0033	17	10601990	17426009	31	-1.326609
S0033	17	17537203	17537203	1	-2.313866
S0033	17	17734509	26200813	32	-1.326609
S0033	17	26265688	28404581	13	-2.855400
S0033	17	28410772	30822975	17	-3.101295
S0033	17	30960445	31372309	4	-4.742915
S0033	17	31825116	33971208	13	-3.101295
S0033	17	34108080	40518157	56	-2.745452
S0033	17	41130547	42311869	9	-2.138657
S0033	17	42332587	48030656	33	-1.767840
S0033	17	48051772	51670019	23	-0.239048
S0033	17	51792862	53650205	23	1.198455
S0033	17	54040608	63242818	91	-0.239048
S0033	17	63289088	67169410	30	-0.110931
S0033	17	67420741	67420741	1	0.370897
S0033	17	67978370	68153619	2	-0.110931
S0033	17	68623636	71169383	29	0.134963
S0033	17	71428905	73849022	11	-1.198349
S0033	17	73905546	80917016	51	0.134963
S0033	18	331827	1595869	3	-0.489355
S0033	18	1601017	5098165	20	-0.152483
S0033	18	5705516	6786443	2	0.045131
S0033	18	6939846	22947167	37	0.534589
S0033	18	23132572	24870746	8	0.926736
S0033	18	24886068	52516339	89	0.336976
S0033	18	53302321	57087321	10	-0.152483
S0033	18	57087623	59942625	9	0.276509
S0033	18	60126682	76417793	45	-0.152483
S0033	18	76817231	77003733	3	0.337774
S0033	19	412730	9059808	43	0.000000
S0033	19	9404306	9404306	1	0.511193
S0033	19	9793351	17229996	43	0.000000
S0033	19	17281596	17517369	4	0.481447
S0033	19	17561454	18524386	10	0.000000
S0033	19	18807423	18847608	2	0.351272
S0033	19	18855724	36573381	72	0.000000
S0033	19	36603742	36947940	2	0.679431
S0033	19	36985886	58852835	109	0.000000
S0033	20	545941	750004	3	0.000000
S0033	20	865107	865107	1	0.294155
S0033	20	895325	47504596	230	0.000000
S0033	20	47634301	49544083	20	-0.842327
S0033	20	49626017	54127706	37	0.000000
S0033	20	54342149	58618251	53	0.232626
S0033	20	58629775	62215372	29	0.427859
S0033	21	15946408	25217566	46	0.059703
S0033	21	25900645	25981155	2	0.539800
S0033	21	25989419	47323522	105	0.059703
S0033	22	17520371	27338819	24	-0.381072
S0033	22	27435613	27435613	1	-0.128491
S0033	22	28541998	34800120	35	-0.381072
S0033	22	35126937	35891195	10	-1.186264
S0033	22	36409115	36526962	3	-0.381072
S0033	22	36742603	38653875	10	-0.739767
S0033	22	38708606	45010301	27	-0.381072
S0033	22	45373986	45479804	2	0.132476
S0033	22	45573450	49329633	22	-0.381072
S0033	X	3343638	14136148	16	1.042853
S0033	X	14400221	14611369	2	3.633687
S0033	X	14768126	31482335	42	1.042853
S0033	X	31513228	31800413	4	2.547511
S0033	X	32223445	87847637	132	1.042853
S0033	X	88078004	91452356	4	1.846669
S0033	X	92134275	101450621	17	1.042853
S0033	X	101631916	102101280	3	1.925296
S0033	X	102474225	108973841	11	1.042853
S0033	X	109264928	122230811	32	-0.021793
S0033	X	122269401	126167070	8	-0.269857
S0033	X	127081438	153689045	62	-0.021793
