ID	chr	start	end	a	LogR
S0057	1	3252007	3252007	1	-0.166154
S0057	1	3714033	21790721	67	0.252503
S0057	1	21880141	26410147	20	-0.166154
S0057	1	26433267	27408134	2	0.658609
S0057	1	27704890	40636579	58	-0.166154
S0057	1	40837481	42119844	8	-0.114787
S0057	1	42209089	43758912	3	-0.977895
S0057	1	43925768	45396919	13	-0.114787
S0057	1	45677263	47155219	6	-2.358464
S0057	1	47265273	58820399	48	-0.114787
S0057	1	59014830	83792559	93	-0.241146
S0057	1	83964804	84594399	7	1.134526
S0057	1	84644718	85797698	5	0.770362
S0057	1	85798038	105091696	79	1.134526
S0057	1	105271741	117039183	46	1.260886
S0057	1	117161264	150725728	27	1.413791
S0057	1	151316593	151535916	3	1.260886
S0057	1	152109134	156615194	27	-0.114787
S0057	1	156830218	161709317	25	-0.464224
S0057	1	161894478	162230006	2	0.198845
S0057	1	162416629	172129707	41	-0.464224
S0057	1	172774067	176428685	12	-0.114787
S0057	1	176788067	200550958	72	-0.166154
S0057	1	200555627	200969743	4	-0.124647
S0057	1	201024395	202387276	7	-0.166154
S0057	1	202512246	202677178	2	-0.569644
S0057	1	202839190	222887737	63	-0.166154
S0057	1	223029701	234526332	47	-0.321759
S0057	1	234852230	234852230	1	0.004832
S0057	1	234915914	234930171	2	0.894017
S0057	1	235125182	236911751	3	0.425730
S0057	1	237401050	238855281	8	-0.463455
S0057	1	239057708	247785294	28	0.004832
S0057	2	548277	3786525	7	0.000000
S0057	2	3819767	3819767	1	1.229766
S0057	2	4093752	8520508	8	0.000000
S0057	2	8549440	8549440	1	0.741870
S0057	2	9234687	26606005	55	0.000000
S0057	2	26676395	57771807	95	0.472673
S0057	2	57813797	58214883	4	0.072520
S0057	2	58472110	78608304	44	-0.400153
S0057	2	78857030	78961689	2	-0.117072
S0057	2	79785810	103865288	43	-0.400153
S0057	2	103884567	106179399	5	-0.734103
S0057	2	106195910	112864410	26	-0.400153
S0057	2	113008938	142109239	68	0.000000
S0057	2	142204803	142204803	1	0.732992
S0057	2	142204811	146471004	11	0.000000
S0057	2	147017390	210033550	177	-0.305366
S0057	2	210068373	214267030	10	0.364764
S0057	2	214521642	242217627	81	-0.305366
S0057	3	3362137	16233838	46	0.000000
S0057	3	18018959	19481127	9	-1.000644
S0057	3	19786743	37795282	48	-0.320123
S0057	3	38324020	41269531	8	-0.911379
S0057	3	41290051	43238536	6	0.335470
S0057	3	43303725	48336607	24	-0.320123
S0057	3	48580105	53591109	17	1.040879
S0057	3	53877149	55927681	5	1.361002
S0057	3	56519323	56949101	3	2.329657
S0057	3	57393243	65597198	25	1.361002
S0057	3	65613957	68528427	11	1.605252
S0057	3	68708846	103120384	115	1.192501
S0057	3	103404080	104276827	5	0.853556
S0057	3	104278582	108360443	17	1.192501
S0057	3	109459407	118573083	37	2.519238
S0057	3	119017382	143404355	68	2.274988
S0057	3	143434835	143438014	2	2.687740
S0057	3	143774740	180312174	102	1.361002
S0057	3	180464749	197212100	58	0.000000
S0057	4	1059202	24911680	77	0.000000
S0057	4	26164492	31930676	16	-0.565315
S0057	4	31949227	32576604	3	-0.206636
S0057	4	32715643	46654922	42	-0.565315
S0057	4	47289588	59338126	25	0.000000
S0057	4	60059373	64569807	10	-0.518312
S0057	4	64757237	65146700	2	-0.309879
S0057	4	65538012	74617243	40	-0.518312
S0057	4	74658152	75131443	4	1.610731
S0057	4	76314293	82524841	21	-0.518312
S0057	4	82780447	87166256	15	-0.073701
S0057	4	87188215	93252543	19	-0.518312
S0057	4	94223831	154705836	156	0.000000
S0057	4	154772946	156197346	3	-0.330412
S0057	4	156649457	188763651	82	0.000000
S0057	5	1325767	20034682	57	-1.016492
S0057	5	21319582	21319582	1	-0.357178
S0057	5	21976487	55897014	106	-1.016492
S0057	5	56251777	70923358	35	-0.167788
S0057	5	71693899	73392666	7	0.485007
S0057	5	73840051	80649866	21	3.081036
S0057	5	80798575	107653061	37	2.428241
S0057	5	108165123	111285766	7	5.318948
S0057	5	111686810	116821191	15	2.428241
S0057	5	117770328	117770328	1	3.364678
S0057	5	118469707	121610952	3	2.428241
S0057	5	122600585	154911842	68	-0.167788
S0057	5	155029953	155745905	3	-0.848675
S0057	5	156418790	174991957	61	-0.167788
S0057	5	175176264	175710695	2	-0.859699
S0057	5	175722910	179730478	12	-0.167788
S0057	6	1057482	2511559	7	0.000000
S0057	6	2650786	5036195	10	0.410982
S0057	6	5427274	6887631	13	0.000000
S0057	6	7023749	7023749	1	1.814837
S0057	6	7810398	8622278	7	0.000000
S0057	6	8641828	34558120	105	-0.834428
S0057	6	35321704	35689719	2	-0.679175
S0057	6	35936802	49191974	53	-0.834428
S0057	6	49836078	55520809	27	-1.118617
S0057	6	55905637	67923159	38	-1.946105
S0057	6	68061429	68061429	1	-0.773698
S0057	6	68399382	68861893	4	-1.193190
S0057	6	69393207	71578558	8	-0.440309
S0057	6	72019007	75709502	9	-1.193190
S0057	6	76107040	97201926	73	-1.946105
S0057	6	97312171	100434879	13	-1.118617
S0057	6	100681405	126090608	111	-0.834428
S0057	6	126132684	126302201	2	-1.277511
S0057	6	126372365	137965418	46	-0.834428
S0057	6	138466525	138466525	1	-0.274945
S0057	6	138481591	138481591	1	-2.175030
S0057	6	138506248	138639476	2	-0.274945
S0057	6	138691483	138691483	1	0.559483
S0057	6	138728220	139832151	14	0.000000
S0057	6	139834012	143515699	14	1.323831
S0057	6	143539550	150514288	27	0.000000
S0057	6	150926499	150926499	1	-0.480076
S0057	6	151011990	170872572	84	0.000000
S0057	7	863293	9671213	24	-0.130368
S0057	7	10165487	10279603	2	0.607472
S0057	7	10855212	14038626	19	-0.130368
S0057	7	14058445	14058445	1	0.395393
S0057	7	15047933	26227855	40	-0.130368
S0057	7	26488551	28745313	5	0.516964
S0057	7	29099952	33376779	23	-0.130368
S0057	7	33416012	33518649	2	1.866136
S0057	7	33674501	68445075	86	-0.130368
S0057	7	68684145	81178782	29	0.872649
S0057	7	81372346	81908393	3	0.941331
S0057	7	82395339	85682920	9	-0.061685
S0057	7	87326125	87326125	1	0.153753
S0057	7	87630721	100479811	30	-0.061685
S0057	7	100715874	102428840	6	0.416284
S0057	7	102714638	158027993	136	-0.061685
S0057	7	158041122	158215549	3	0.579408
S0057	8	618552	633110	2	0.706521
S0057	8	849793	13244335	39	0.329961
S0057	8	13302699	13958196	4	1.170566
S0057	8	14044475	24550474	46	0.329961
S0057	8	25115240	28409165	20	1.382259
S0057	8	28412463	34875614	56	0.329961
S0057	8	34929459	35798219	10	1.815339
S0057	8	35935190	38167649	26	0.329961
S0057	8	38204652	38942504	13	0.239899
S0057	8	38949525	38960779	2	2.058218
S0057	8	38982995	39429009	7	2.434778
S0057	8	39572146	47460945	44	3.117824
S0057	8	47471767	50312970	8	3.738359
S0057	8	50401159	55654711	25	4.272776
S0057	8	55654888	57106654	8	2.454457
S0057	8	57347126	58427630	9	3.135715
S0057	8	58595165	59804500	9	5.934822
S0057	8	59875307	67760268	31	5.315665
S0057	8	67777319	78550231	49	3.135715
S0057	8	78624559	82146585	21	3.634117
S0057	8	82209490	82595966	6	3.135715
S0057	8	82695743	84553579	10	3.938493
S0057	8	84783296	92838408	39	3.135715
S0057	8	92875464	94772319	8	4.084162
S0057	8	94908574	102436045	37	3.463626
S0057	8	102458149	103598817	5	3.553688
S0057	8	103788000	104437065	6	3.810661
S0057	8	105227985	109339587	18	2.862214
S0057	8	109627683	119261654	49	2.605241
S0057	8	119536005	121358545	8	1.922195
S0057	8	121848281	122367142	2	2.666296
S0057	8	122379293	122723104	4	1.922195
S0057	8	122904905	144050043	103	1.240938
S0057	8	145147978	145147978	1	0.706521
S0057	9	905450	7245009	26	0.000000
S0057	9	7534111	14592321	28	0.419839
S0057	9	14776027	19438279	26	0.000000
S0057	9	19487512	19487512	1	-0.484412
S0057	9	19615354	33164681	58	0.000000
S0057	9	33217212	33217212	1	0.387242
S0057	9	33228189	38010763	21	0.000000
S0057	9	38058424	87284262	46	-0.258842
S0057	9	88073146	91268541	11	0.587528
S0057	9	91607869	97618383	16	-0.258842
S0057	9	98344608	113728251	36	0.140715
S0057	9	113920798	115361163	8	0.399557
S0057	9	115754404	115754404	1	0.818002
S0057	9	116124844	117691558	7	0.399557
S0057	9	117736205	118036595	3	0.000000
S0057	9	118714293	119730256	6	1.183233
S0057	9	120236173	137419818	72	0.000000
S0057	9	137684206	137684206	1	0.595650
S0057	9	138091244	140599989	12	0.000000
S0057	10	466220	1882390	4	0.000000
S0057	10	2067391	2527236	2	0.106457
S0057	10	2624963	20391808	60	0.000000
S0057	10	20623776	22683378	6	-0.488440
S0057	10	23283229	49650017	74	0.000000
S0057	10	49805368	49805368	1	-0.514224
S0057	10	49944249	59969111	21	0.000000
S0057	10	60039877	60039877	1	0.254123
S0057	10	60606488	90689535	145	0.000000
S0057	10	91126771	93527604	12	-0.774505
S0057	10	93955851	105601582	34	0.000000
S0057	10	105796819	115168922	29	0.283125
S0057	10	115488889	135124948	80	0.000000
S0057	11	577454	22218125	84	0.056585
S0057	11	23268679	31857581	41	-0.102077
S0057	11	31987384	34134297	17	-0.689545
S0057	11	34478583	35588160	5	-0.165181
S0057	11	35879571	42787485	35	-0.689545
S0057	11	42865978	44926820	10	0.101023
S0057	11	44992053	44992053	1	0.477598
S0057	11	45096369	57534089	26	0.101023
S0057	11	57547437	61144819	33	-0.689545
S0057	11	61469728	61469728	1	0.069195
S0057	11	61494804	62205537	10	-0.689545
S0057	11	62468450	62597717	4	0.094589
S0057	11	62618180	62618180	1	0.536223
S0057	11	62624616	70936348	66	-0.689545
S0057	11	70969682	75554080	44	-0.102077
S0057	11	75591903	75625849	2	2.023160
S0057	11	75769421	77116403	11	-0.102077
S0057	11	77139047	77699247	6	0.514321
S0057	11	78125246	85208955	58	-0.102077
S0057	11	85262785	89407391	17	0.221806
S0057	11	89833736	90682160	6	0.310569
S0057	11	90773125	134044100	145	-0.013314
S0057	12	1287872	12443632	41	-0.116676
S0057	12	12745873	13772993	2	0.426447
S0057	12	13885445	30499387	71	-0.116676
S0057	12	30818556	31093789	2	1.489472
S0057	12	31099949	32846983	10	-0.116676
S0057	12	33071290	33071290	1	-0.538529
S0057	12	33221491	57307241	74	-0.116676
S0057	12	57905687	59227606	7	0.360990
S0057	12	59234068	60145269	6	0.500171
S0057	12	60489522	69921168	58	0.022506
S0057	12	70015760	70015760	1	0.278290
S0057	12	70082409	86676912	83	0.022506
S0057	12	86746252	119249573	102	0.057225
S0057	12	119316699	133114840	36	-0.333067
S0057	12	133161346	133161346	1	-0.367786
S0057	13	19538886	19586856	2	0.176299
S0057	13	19732312	21262731	6	-0.249066
S0057	13	21266849	21266849	1	0.058233
S0057	13	21586044	40554922	72	-0.249066
S0057	13	40963235	46927069	17	0.176299
S0057	13	48182038	48182038	1	-0.684729
S0057	13	48362973	75968785	89	0.176299
S0057	13	76353233	76578811	2	1.012446
S0057	13	76627944	77720171	6	0.567220
S0057	13	78785833	78785833	1	1.309079
S0057	13	78853056	79188419	2	1.012446
S0057	13	79541517	98133825	53	0.176299
S0057	13	98136934	98350327	3	-1.353445
S0057	13	98754943	100103895	4	0.176299
S0057	13	100117793	100508767	3	0.528595
S0057	13	100530979	114981574	63	0.176299
S0057	14	20825965	24407916	15	0.317538
S0057	14	24513917	24513917	1	-0.303461
S0057	14	24908117	36816368	62	0.317538
S0057	14	36903250	42958245	32	0.727661
S0057	14	43413665	43416592	2	1.159386
S0057	14	44794647	47223945	7	0.727661
S0057	14	47316504	54727235	32	0.082624
S0057	14	54903842	61386052	25	0.727661
S0057	14	61736420	71552692	36	0.369522
S0057	14	72120350	75773873	14	-0.040600
S0057	14	76330600	105690735	87	0.317538
S0057	15	23733544	37012821	27	0.035203
S0057	15	37046537	37120947	2	0.344827
S0057	15	37238599	45619523	21	0.035203
S0057	15	45813300	45813300	1	-0.875071
S0057	15	45994581	75976216	106	0.035203
S0057	15	76035926	76035926	1	0.661012
S0057	15	76196674	82193782	17	0.035203
S0057	15	82574618	86118477	13	-0.287856
S0057	15	86123988	91716130	25	-0.688419
S0057	15	92310299	101214182	39	-0.287856
S0057	16	655262	9867387	39	-0.001172
S0057	16	10563198	10725361	3	0.579270
S0057	16	10823122	30615197	59	-0.001172
S0057	16	31083026	56713503	59	0.445383
S0057	16	56874272	56874272	1	0.110763
S0057	16	57085364	78308940	78	0.445383
S0057	16	78496876	89371839	48	-0.001172
S0057	17	1243941	17774289	70	0.105143
S0057	17	17802779	25662274	24	0.000000
S0057	17	25685052	25943706	3	0.568214
S0057	17	25989914	35818462	62	0.000000
S0057	17	35939050	35939050	1	0.326548
S0057	17	36479190	36710513	2	0.000000
S0057	17	36781921	37160979	6	0.337246
S0057	17	37333396	37333396	1	-1.274584
S0057	17	37569665	37619818	2	0.337246
S0057	17	37662394	38128311	8	0.000000
S0057	17	38265591	38271452	2	0.408279
S0057	17	38341603	52931473	99	0.000000
S0057	17	52947422	52971318	3	0.352699
S0057	17	52987958	80917016	223	0.000000
S0057	18	331827	3800808	14	0.000000
S0057	18	3848826	4700983	6	0.620553
S0057	18	4710695	11380723	21	0.000000
S0057	18	11384909	24886068	30	0.704173
S0057	18	25125940	45433117	59	0.000000
S0057	18	45563098	46897961	10	0.891822
S0057	18	47827943	53428347	21	0.000000
S0057	18	53714866	68019868	46	0.498446
S0057	18	68141512	68141512	1	0.245077
S0057	18	68833455	68833455	1	0.498446
S0057	18	71838859	76043336	12	0.000000
S0057	18	76170411	76170411	1	0.354600
S0057	18	76417793	77003733	4	0.000000
S0057	19	412730	22084723	115	0.000000
S0057	19	22508499	32259123	41	0.213801
S0057	19	32463104	33624878	8	0.000000
S0057	19	33913014	34889549	4	-1.144058
S0057	19	35061250	51711037	79	0.000000
S0057	19	51890186	52078929	3	0.349559
S0057	19	52183884	58852835	36	0.000000
S0057	20	545941	545941	1	0.235976
S0057	20	594693	865107	3	0.804463
S0057	20	895325	1543333	4	1.114938
S0057	20	1621686	24676742	122	0.235976
S0057	20	25110133	25110133	1	0.490604
S0057	20	25180073	51599042	139	0.235976
S0057	20	51658003	55830117	41	0.641543
S0057	20	55857911	57310727	20	0.235976
S0057	20	57421544	60649934	28	-0.191714
S0057	20	60680278	62215372	14	0.235976
S0057	21	15946408	41854081	124	0.000000
S0057	21	42069068	45007956	22	2.850730
S0057	21	45356487	47323522	7	0.000000
S0057	22	17520371	17605824	5	0.890451
S0057	22	17615385	31454627	38	0.484421
S0057	22	31510572	31641236	2	0.899095
S0057	22	31785281	34086975	10	0.484421
S0057	22	34144823	49329633	79	0.000000
S0057	X	3343638	11070209	5	0.257410
S0057	X	11260526	25957826	39	1.151441
S0057	X	26090837	28070464	8	0.257410
S0057	X	28349311	30780372	7	-0.481487
S0057	X	31482335	31482335	1	1.278881
S0057	X	31513228	31568903	3	-0.481487
S0057	X	31800413	38141794	10	0.073699
S0057	X	38634722	46460615	13	2.659079
S0057	X	46536359	49459348	15	3.397977
S0057	X	49470985	50999987	7	3.146551
S0057	X	51002231	51002231	1	2.425231
S0057	X	52683372	58086344	12	-0.160149
S0057	X	58316060	65414617	12	-0.715335
S0057	X	65459223	66945740	4	1.659988
S0057	X	67036378	67036378	1	2.928143
S0057	X	67430481	68492768	7	1.659988
S0057	X	70587449	70587449	1	2.123898
S0057	X	70601083	79210534	16	1.486811
S0057	X	79240479	133636334	123	-0.888513
S0057	X	134079072	137005060	4	-0.147140
S0057	X	137438429	145167102	22	-0.888513
S0057	X	145996920	153689045	22	-0.251426
