chr	pos	strand	context	ratio	eff_CT_count	C_count	CT_count
chr1	10934	+	GCCGG	1.000	5.00	5	5
chr1	10937	+	GGCGC	1.000	12.00	12	12
chr1	10939	+	CGCAG	0.000	12.00	0	12
chr1	10943	+	GGCGC	1.000	12.00	12	12
chr1	10945	+	CGCAG	1.000	12.00	12	12
chr1	10951	-	GACAC	1.000	12.00	12	12
chr1	10953	+	CACAT	0.000	17.00	0	17
chr1	10957	-	TACTA	0.000	17.00	0	17
chr1	10961	+	AGCGC	1.000	17.00	17	17
chr1	10963	-	CGCGT	1.000	17.00	17	17
chr1	10966	+	GTCCA	0.000	17.00	0	17
chr1	10967	+	TCCAG	1.000	17.00	0	17
chr1	10979	-	GGCGT	1.000	17.00	17	17
chr1	10984	-	AACGC	1.000	14.00	14	14
chr1	10987	-	GGCGC	1.000	14.00	14	14
chr1	10990	+	GGCGC	0.000	5.00	0	5
