#chrom	sites	strand	control.tsv vs tumor1.tsv	control.tsv vs tumor2.tsv	tumor1.tsv vs tumor2.tsv
chr1	10469	+	-0.171445132026826	-1.77417491799323e-14	0.171445132026808
chr1	10471	+	-0.000164013327208444	-1.2152181177256e-14	0.000164013327196292
chr1	10482	+	0.99999998561016	1	1.43898416097291e-08
chr1	10484	+	-0.000204506466909628	-1.65962282160712e-13	0.000204506466743665
chr1	10486	+	0.00152194979027354	3.99680288865056e-15	-0.00152194979026954
chr1	10489	+	-0.999999591276092	-1	-4.08723908718045e-07
chr1	10493	+	-0.000255703905004592	-1	-0.999744296094997
chr1	10497	+	-0.00237756893391058	-6.20121788193669e-16	0.00237756893390996
chr1	10521	+	0.0634008215006682	0	-0.0634008215006682
chr1	10525	+	-5.36616839091696e-05	-3.53747840237903e-13	5.36616835554218e-05
chr1	10542	+	-0.0270173681709567	-7.92218748480806e-14	0.0270173681708774
chr1	10552	+	0.00579234250103566	0	-0.00579234250103566
chr1	10563	+	-0.000976650981824896	-1.80516353449877e-14	0.000976650981806845
chr1	10567	+	0.0335557771760958	0	-0.0335557771760958
chr1	10571	+	-0.996945350379312	-1.32807100583006e-21	0.996945350379312
chr1	10577	+	-0.0029794126061036	-7.92218748480804e-14	0.00297941260602437
chr1	10579	+	-0.0037227108898599	-5.80082753636416e-15	0.0037227108898541
chr1	10583	+	0.00238417045590689	0	-0.00238417045590689
chr1	10589	+	-0.00723231472469658	-7.41068031877184e-13	0.00723231472395551
chr1	10598	+	0.0112311061090763	7.41073868937292e-13	-0.0112311061083352
chr1	10609	+	-0.000499791629053525	-1	-0.999500208370948
chr1	10617	+	-0.0174496870434411	-0.999999999999999	-0.982550312956558
chr1	10620	+	-0.386786499492508	-1	-0.613213500507494
chr1	10624	+	0.000399742103931566	0	-0.000399742103931566
chr1	10630	+	0.0414981704200845	4.44089209850063e-16	-0.0414981704200841
chr1	10632	+	0.000623133180897351	0	-0.000623133180897351
chr1	10634	+	0.998741228426137	1	0.00125877157386383
chr1	10636	+	-0.990695350765509	-0.999999999999997	-0.00930464923448715
chr1	10638	+	-0.00237098564740498	-3.38288148103965e-18	0.00237098564740498
chr1	10641	+	-0.243417233422234	-1.32178673613075e-15	0.243417233422233
chr1	10643	+	0.99616216090676	1	0.0038378390932427
chr1	10645	+	0.000497022517043866	0	-0.000497022517043866
chr1	10649	+	1.40010026061788e-05	0	-1.40010026061788e-05
chr1	10651	+	0.000497022517043977	0.999999999999965	0.999502977482921
chr1	10659	+	0.00025428682501949	1.11022302462516e-16	-0.000254286825019379
chr1	10661	+	5.33642376076005e-05	0	-5.33642376076005e-05
chr1	10663	+	0.0630715389100073	0	-0.0630715389100073
chr1	10665	+	-0.0630715389100072	-1.48462013659744e-17	0.0630715389100072
chr1	10667	+	-0.999668526543021	-1.00000000000001	-0.000331473456985587
chr1	10670	+	-6.6726302547441e-05	-6.62924435835817e-17	6.67263025473747e-05
chr1	10672	+	0.0003975270991462	0	-0.0003975270991462
chr1	10674	+	0.00151352595308851	8.88178419700125e-16	-0.00151352595308762
chr1	10678	+	0.0111695442370789	1	0.988830455762924
chr1	10680	+	7.16150737256616e-06	0	-7.16150737256616e-06
chr1	10688	+	0.000776890035203204	1	0.999223109964798
chr1	10690	+	0.000776890035203204	0	-0.000776890035203204
chr1	10692	+	0.000163104302368544	0	-0.000163104302368544
chr1	10694	+	-0.000203938975836306	-4.93888577421591e-18	0.000203938975836301
chr1	10696	+	-0.000203938975836306	-8.65789223173825e-21	0.000203938975836306
chr1	10699	+	-2.18907589560703e-05	-1	-0.999978109241045
chr1	10701	+	0.999999995266229	0	-0.999999995266229
chr1	10703	+	6.67263025474485e-05	0	-6.67263025474485e-05
chr1	10707	+	5.33642376076005e-05	0	-5.33642376076005e-05
chr1	10709	+	2.72963116108027e-05	0	-2.72963116108027e-05
chr1	10717	+	1.5026093188597e-06	0	-1.5026093188597e-06
chr1	10719	+	0.999988326167225	1.00000000000001	1.16738327797138e-05
chr1	10721	+	8.34338642091703e-05	2.66453525910038e-15	-8.34338642065058e-05
chr1	10723	+	-0.00369191385910992	-4.85410163455377e-18	0.00369191385910991
chr1	10725	+	-0.00576041883672177	-9.05355595564563e-16	0.00576041883672086
chr1	10728	+	-0.0268716275454724	-2.96014311536579e-16	0.0268716275454722
chr1	10730	+	0.000971242382198034	1.24344978758018e-14	-0.0009712423821856
chr1	10732	+	1.12283216348041e-05	1.24344978758018e-14	-1.12283216223696e-05
chr1	10736	+	0.00370215122858275	0	-0.00370215122858275
chr1	10738	+	0.000104614713855922	0	-0.000104614713855922
chr1	10746	+	0.999736359847105	0.999999999999997	0.000263640152892153
chr1	10748	+	0.00237756893391061	0.999999999999999	0.997622431066088
chr1	10750	+	0.0140041062101557	1	0.985995893789846
chr1	10752	+	-0.00190233674338217	-1.72627323660691e-19	0.00190233674338217
chr1	10754	+	-6.70982225093471e-05	-7.74494118807065e-25	6.70982225093471e-05
chr1	10757	+	-0.000779050607023083	-7.24487817822828e-24	0.000779050607023083
chr1	10759	+	0.00577635874335714	0	-0.00577635874335714
chr1	10761	+	0.00370215122858275	0	-0.00370215122858275
chr1	10765	+	0.00462492059218322	0	-0.00462492059218322
chr1	10767	+	0.0269444020491727	0	-0.0269444020491727
chr1	10775	+	0.0216653532294526	0	-0.0216653532294526
chr1	10777	+	0.000623133180897351	0	-0.000623133180897351
chr1	10779	+	0.00370215122858275	0	-0.00370215122858275
chr1	10781	+	-0.116588275046251	-5.30488440401828e-25	0.116588275046251
chr1	10783	+	-0.116588275046251	-0.999999999999998	-0.883411724953747
chr1	10786	+	-0.000779050607023083	-1.41302038249153e-16	0.000779050607022942
chr1	10788	+	1.40399699374294e-05	0	-1.40399699374294e-05
chr1	10790	+	6.6912004138775e-05	0	-6.6912004138775e-05
chr1	10794	+	0.0112002833557338	0	-0.0112002833557338
chr1	10796	+	0.000498405150881953	1	0.99950159484912
chr1	10806	+	0.000399742103931566	0	-0.000399742103931566
chr1	10810	+	0.440934934685183	0	-0.440934934685183
chr1	10812	+	0.440934934685183	0	-0.440934934685183
chr1	10816	+	-0.000319714333845502	-6.77710243923012e-23	0.000319714333845502
chr1	10826	+	0.0414981704200849	0	-0.0414981704200849
chr1	10831	+	0.000623133180897351	4.44089209850063e-16	-0.000623133180896907
chr1	10833	+	0.000498405150881842	0	-0.000498405150881842
chr1	10837	+	8.97972975044681e-06	1	0.999991020270253
chr1	10839	+	8.97972975055783e-06	0	-8.97972975055783e-06
chr1	10847	+	0.000254994380872842	2.22044604925031e-16	-0.00025499438087262
chr1	10849	+	5.35127541034797e-05	4.44089209850063e-16	-5.35127541030356e-05
chr1	10851	+	8.97972975055783e-06	2.22044604925031e-16	-8.97972975033579e-06
chr1	10853	+	-0.000318827250985962	-1	-0.999681172749014
chr1	10855	+	-0.000398633063695959	-2.42298986533802e-13	0.00039863306345366
chr1	10858	+	-0.999998437770371	-0.999999999999995	-1.56222962444108e-06
chr1	10860	+	0.000398633063695919	0	-0.000398633063695919
