#chrom	sites	strand	control.tsv	tumor1.tsv	tumor2.tsv
chr1	10469	+	0	0	0
chr1	10471	+	0	0	0
chr1	10482	+	1	0	0
chr1	10484	+	0	0	0
chr1	10486	+	1	1	1
chr1	10489	+	0	1	1
chr1	10493	+	0	0	1
chr1	10497	+	0	0	0
chr1	10521	+	1	1	1
chr1	10525	+	0	0	0
chr1	10542	+	0	0	0
chr1	10552	+	1	1	1
chr1	10563	+	0	0	0
chr1	10567	+	1	1	1
chr1	10571	+	0	1	0
chr1	10577	+	0	0	0
chr1	10579	+	0	0	0
chr1	10583	+	1	1	1
chr1	10589	+	0	0	0
chr1	10598	+	1	1	1
chr1	10609	+	0	0	1
chr1	10617	+	0	0	1
chr1	10620	+	0	0	1
chr1	10624	+	1	1	1
chr1	10630	+	1	1	1
chr1	10632	+	1	1	1
chr1	10634	+	1	0	0
chr1	10636	+	0	1	1
chr1	10638	+	0	0	0
chr1	10641	+	0	0	0
chr1	10643	+	1	0	0
chr1	10645	+	1	1	1
chr1	10649	+	1	1	1
chr1	10651	+	1	1	0
chr1	10659	+	1	1	1
chr1	10661	+	1	1	1
chr1	10663	+	1	1	1
chr1	10665	+	0	0	0
chr1	10667	+	0	1	1
chr1	10670	+	0	0	0
chr1	10672	+	1	1	1
chr1	10674	+	1	1	1
chr1	10678	+	1	1	0
chr1	10680	+	1	1	1
chr1	10688	+	1	1	0
chr1	10690	+	1	1	1
chr1	10692	+	1	1	1
chr1	10694	+	0	0	0
chr1	10696	+	0	0	0
chr1	10699	+	0	0	1
chr1	10701	+	1	0	1
chr1	10703	+	1	1	1
chr1	10707	+	1	1	1
chr1	10709	+	1	1	1
chr1	10717	+	1	1	1
chr1	10719	+	1	0	0
chr1	10721	+	1	1	1
chr1	10723	+	0	0	0
chr1	10725	+	0	0	0
chr1	10728	+	0	0	0
chr1	10730	+	1	1	1
chr1	10732	+	1	1	1
chr1	10736	+	1	1	1
chr1	10738	+	1	1	1
chr1	10746	+	1	0	0
chr1	10748	+	1	1	0
chr1	10750	+	1	1	0
chr1	10752	+	0	0	0
chr1	10754	+	0	0	0
chr1	10757	+	0	0	0
chr1	10759	+	1	1	1
chr1	10761	+	1	1	1
chr1	10765	+	1	1	1
chr1	10767	+	1	1	1
chr1	10775	+	1	1	1
chr1	10777	+	1	1	1
chr1	10779	+	1	1	1
chr1	10781	+	0	0	0
chr1	10783	+	0	0	1
chr1	10786	+	0	0	0
chr1	10788	+	1	1	1
chr1	10790	+	1	1	1
chr1	10794	+	1	1	1
chr1	10796	+	1	1	0
chr1	10806	+	1	1	1
chr1	10810	+	1	1	1
chr1	10812	+	1	1	1
chr1	10816	+	0	0	0
chr1	10826	+	1	1	1
chr1	10831	+	1	1	1
chr1	10833	+	1	1	1
chr1	10837	+	1	1	0
chr1	10839	+	1	1	1
chr1	10847	+	1	1	1
chr1	10849	+	1	1	1
chr1	10851	+	1	1	1
chr1	10853	+	0	0	1
chr1	10855	+	0	0	0
chr1	10858	+	0	1	1
chr1	10860	+	1	1	1
