"ID"	"A_mean"	"A_median"	"A_sdev"	"B_mean"	"B_median"	"B_sdev"
"gene1"	12.9130046077	12.9130046077	0.386647590115349	13.22277892045	13.22277892045	0.0937313178340385
"gene2"	6.3389706117	6.3389706117	1.19227263226823	5.79640726495	5.79640726495	0.791532837106736
"gene3"	13.92999892505	13.92999892505	0.372510218764978	14.22911626595	14.22911626595	0.0880087442317751
