Sheet	Row	Column	Bold	Condition	BGColor	Format
*	1	*	true	NA	NA	NA
1	-1	pFDR	NA	< 0.10	#ffaaaa	NA
1	-1	pFDR	NA	>= 1	#cccccc	NA
1	-1	NumPatients	NA	<= 1	#cccccc	NA
1	-1	p,pFDR,MutationRate,BackgroundRate	NA	NA	NA	0.00E+0
1	-1	RateRatio	NA	> 5	#ffaaaa	NA
1	-1	RateRatio	NA	< 2	#cccccc	NA
