#site	read	value	cookie
21	1	0	0
22	1	0	0
23	1	0	0
24	1	1	0
25	1	0	0
26	1	1	0
27	1	1	0
28	1	0	0
29	1	1	0
30	1	0	0
31	1	0	0
32	1	1	0
33	1	1	0
34	1	1	0
35	1	1	0
36	1	1	0
37	1	1	0
38	1	0	0
39	1	0	0
40	1	0	0
41	1	1	0
42	1	1	0
43	1	1	0
44	1	1	0
45	1	1	0
46	1	1	0
47	1	1	0
48	1	0	0
49	1	0	0
50	1	0	0
51	1	1	0
52	1	1	0
53	1	1	0
39	2	0	0
40	2	0	0
41	2	1	0
42	2	1	0
43	2	1	0
44	2	1	0
45	2	1	0
46	2	1	0
47	2	0	0
48	2	0	0
49	2	0	0
50	2	1	0
51	2	1	0
52	2	1	0
53	2	1	0
54	2	1	0
55	2	1	0
56	2	1	0
57	2	1	0
58	2	0	0
59	2	1	0
60	2	0	0
61	2	1	0
62	2	1	0
63	2	1	0
64	2	1	0
65	2	1	0
66	2	1	0
67	2	1	0
68	2	0	0
69	2	0	0
70	2	0	0
71	2	1	0
72	2	1	0
73	2	1	0
30	3	0	0
31	3	1	0
32	3	1	0
33	3	1	0
34	3	1	0
35	3	1	0
36	3	1	0
37	3	1	0
38	3	0	0
39	3	0	0
40	3	0	0
41	3	1	0
42	3	1	0
43	3	1	0
44	3	1	0
45	3	1	0
46	3	1	0
47	3	1	0
48	3	0	0
49	3	0	0
50	3	0	0
51	3	1	0
52	3	0	0
53	3	1	0
54	3	1	0
55	3	1	0
56	3	1	0
57	3	1	0
58	3	0	0
59	3	0	0
60	3	0	0
61	3	1	0
62	3	1	0
63	3	1	0
64	3	1	0
89	4	1	0
90	4	1	0
91	4	1	0
92	4	1	0
93	4	1	0
94	4	1	0
95	4	0	0
96	4	1	0
97	4	0	0
98	4	0	0
99	4	0	0
100	4	1	0
89	5	1	0
90	5	1	0
91	5	1	0
92	5	1	0
93	5	1	0
94	5	1	0
95	5	1	0
96	5	1	0
97	5	1	0
98	5	0	0
99	5	0	0
100	5	0	0
13	6	0	0
14	6	1	0
15	6	0	0
16	6	0	0
17	6	1	0
18	6	1	0
19	6	0	0
20	6	1	0
21	6	0	0
22	6	0	0
23	6	0	0
24	6	1	0
25	6	1	0
26	6	1	0
27	6	1	0
28	6	0	0
29	6	0	0
30	6	0	0
31	6	1	0
32	6	1	0
33	6	1	0
34	6	1	0
35	6	1	0
36	6	1	0
94	7	1	0
95	7	1	0
96	7	1	0
97	7	0	0
98	7	0	0
99	7	0	0
100	7	1	0
1	8	1	0
2	8	0	0
3	8	1	0
4	8	0	0
5	8	1	0
6	8	0	0
7	8	0	0
8	8	0	0
9	8	1	0
10	8	0	0
11	8	0	0
12	8	1	0
1	9	0	0
2	9	0	0
3	9	1	0
4	9	0	0
5	9	1	0
6	9	0	0
7	9	0	0
8	9	0	0
9	9	1	0
10	9	0	0
1	10	0	0
2	10	0	0
3	10	1	0
4	10	0	0
5	10	1	0
6	10	0	0
7	10	0	0
8	10	0	0
9	10	1	0
10	10	0	0
23	11	0	0
24	11	1	0
25	11	1	0
26	11	1	0
27	11	1	0
28	11	0	0
29	11	0	0
30	11	0	0
31	11	1	0
32	11	1	0
33	11	1	0
34	11	1	0
35	11	1	0
36	11	1	0
37	11	1	0
38	11	0	0
39	11	0	0
40	11	0	0
41	11	1	0
42	11	1	0
43	11	1	0
44	11	1	0
45	11	1	0
46	11	1	0
47	11	0	0
48	11	0	0
49	11	0	0
50	11	0	0
51	11	1	0
52	11	1	0
53	11	1	0
54	11	1	0
55	11	1	0
1	12	0	0
2	12	0	0
92	13	1	0
93	13	1	0
94	13	1	0
95	13	1	0
96	13	1	0
97	13	0	0
98	13	0	0
99	13	1	0
100	13	1	0
76	14	1	0
77	14	1	0
78	14	0	0
79	14	0	0
80	14	0	0
81	14	1	0
82	14	1	0
83	14	1	0
84	14	1	0
85	14	1	0
86	14	0	0
87	14	1	0
88	14	0	0
89	14	1	0
90	14	1	0
91	14	1	0
92	14	1	0
93	14	1	0
94	14	1	0
95	14	1	0
96	14	1	0
97	14	0	0
98	14	0	0
99	14	0	0
100	14	1	0
1	15	0	0
2	15	0	0
1	16	0	0
2	16	0	0
3	16	1	0
4	16	0	0
5	16	1	0
6	16	0	0
7	16	0	0
8	16	0	0
9	16	1	0
10	16	0	0
11	16	0	0
12	16	1	0
11	17	0	0
12	17	1	0
13	17	0	0
14	17	1	0
15	17	0	0
16	17	0	0
17	17	0	0
18	17	1	0
19	17	0	0
20	17	1	0
21	17	0	0
22	17	0	0
23	17	0	0
24	17	1	0
25	17	1	0
26	17	1	0
1	18	1	0
2	18	0	0
3	18	1	0
4	18	0	0
5	18	1	0
6	18	1	0
7	18	0	0
8	18	0	0
9	18	1	0
10	18	0	0
74	19	1	0
75	19	1	0
76	19	1	0
77	19	1	0
78	19	0	0
79	19	0	0
80	19	0	0
81	19	1	0
82	19	1	0
83	19	1	0
84	19	1	0
85	19	1	0
86	19	1	0
87	19	1	0
88	19	0	0
89	19	0	0
90	19	1	0
91	19	1	0
92	19	1	0
93	19	1	0
94	19	1	0
95	19	1	0
96	19	1	0
97	19	0	0
98	19	0	0
99	19	0	0
100	19	1	0
11	20	0	0
12	20	1	0
13	20	0	0
14	20	1	0
15	20	0	0
16	20	0	0
17	20	0	0
18	20	1	0
19	20	0	0
20	20	1	0
21	20	0	0
22	20	0	0
23	20	0	0
24	20	1	0
25	20	1	0
26	20	1	0
27	20	1	0
28	20	0	0
29	20	0	0
90	21	1	0
91	21	1	0
92	21	1	0
93	21	1	0
94	21	1	0
95	21	1	0
96	21	1	0
97	21	0	0
98	21	0	0
99	21	0	0
100	21	1	0
35	22	0	0
36	22	1	0
37	22	1	0
38	22	0	0
39	22	0	0
40	22	0	0
41	22	1	0
42	22	1	0
43	22	1	0
44	22	1	0
45	22	1	0
46	22	1	0
47	22	1	0
48	22	0	0
49	22	0	0
50	22	0	0
51	22	1	0
52	22	1	0
53	22	1	0
54	22	1	0
55	22	1	0
56	22	1	0
57	22	1	0
58	22	0	0
59	22	0	0
60	22	0	0
61	22	1	0
62	22	1	0
63	22	1	0
64	22	1	0
65	22	1	0
66	22	1	0
67	22	1	0
68	22	0	0
69	22	0	0
85	23	1	0
86	23	1	0
87	23	1	0
88	23	0	0
89	23	1	0
90	23	1	0
91	23	1	0
92	23	1	0
93	23	1	0
94	23	1	0
95	23	1	0
96	23	1	0
97	23	0	0
98	23	0	0
99	23	0	0
100	23	1	0
80	24	0	0
81	24	1	0
82	24	1	0
83	24	1	0
84	24	1	0
85	24	1	0
86	24	1	0
87	24	1	0
88	24	0	0
89	24	1	0
90	24	1	0
91	24	1	0
92	24	0	0
93	24	1	0
94	24	1	0
95	24	1	0
96	24	1	0
97	24	0	0
98	24	0	0
99	24	0	0
100	24	1	0
88	25	0	0
89	25	1	0
90	25	0	0
91	25	1	0
92	25	1	0
93	25	1	0
94	25	1	0
95	25	1	0
96	25	1	0
97	25	0	0
98	25	0	0
99	25	0	0
100	25	1	0
20	26	1	0
21	26	0	0
22	26	0	0
23	26	1	0
24	26	1	0
25	26	1	0
26	26	1	0
27	26	1	0
28	26	0	0
29	26	0	0
30	26	1	0
31	26	1	0
32	26	1	0
33	26	1	0
34	26	1	0
35	26	1	0
36	26	1	0
37	26	1	0
38	26	0	0
39	26	0	0
40	26	0	0
41	26	1	0
42	26	1	0
43	26	1	0
44	26	1	0
45	26	1	0
46	26	1	0
47	26	1	0
48	26	0	0
29	27	0	0
30	27	0	0
31	27	1	0
32	27	0	0
33	27	1	0
34	27	1	0
35	27	1	0
36	27	1	0
37	27	1	0
38	27	0	0
39	27	0	0
40	27	0	0
41	27	1	0
42	27	1	0
43	27	1	0
44	27	1	0
45	27	1	0
46	27	1	0
47	27	1	0
48	27	1	0
49	27	0	0
50	27	0	0
51	27	1	0
52	27	1	0
53	27	1	0
54	27	0	0
55	27	1	0
56	27	1	0
57	27	1	0
58	27	0	0
59	27	0	0
60	27	0	0
61	27	1	0
62	27	1	0
63	27	1	0
73	28	1	0
74	28	1	0
75	28	1	0
76	28	1	0
77	28	1	0
78	28	0	0
79	28	0	0
80	28	0	0
81	28	1	0
82	28	1	0
83	28	1	0
84	28	1	0
85	28	1	0
86	28	1	0
87	28	1	0
88	28	0	0
89	28	1	0
90	28	1	0
91	28	1	0
92	28	1	0
93	28	1	0
94	28	1	0
95	28	1	0
96	28	1	0
97	28	0	0
98	28	0	0
99	28	0	0
100	28	1	0
9	29	1	0
10	29	0	0
11	29	0	0
12	29	1	0
13	29	0	0
14	29	1	0
15	29	0	0
16	29	0	0
17	29	0	0
18	29	1	0
19	29	0	0
20	29	1	0
21	29	1	0
22	30	1	0
23	30	0	0
24	30	1	0
25	30	1	0
26	30	1	0
27	30	1	0
28	30	1	0
29	30	0	0
30	30	0	0
31	30	1	0
32	30	1	0
33	30	1	0
34	30	1	0
35	30	1	0
36	30	1	0
37	30	1	0
38	30	0	0
39	30	1	0
40	30	0	0
41	30	1	0
42	30	1	0
43	30	1	0
44	30	1	0
45	30	1	0
46	30	1	0
47	30	1	0
48	30	0	0
49	30	0	0
50	30	0	0
51	30	1	0
52	30	1	0
53	30	1	0
54	30	0	0
38	31	0	0
39	31	0	0
40	31	0	0
41	31	1	0
42	31	1	0
43	31	1	0
44	31	1	0
45	31	1	0
46	31	1	0
47	31	1	0
48	31	0	0
49	31	0	0
50	31	0	0
51	31	1	0
52	31	1	0
53	31	1	0
54	31	1	0
55	31	1	0
56	31	1	0
57	31	1	0
58	31	0	0
59	31	0	0
60	31	0	0
61	31	1	0
62	31	1	0
63	31	1	0
64	31	1	0
65	31	1	0
66	31	1	0
67	31	1	0
68	31	0	0
69	31	0	0
70	31	0	0
71	31	1	0
72	31	1	0
1	32	0	0
2	32	0	0
36	33	1	0
37	33	1	0
38	33	0	0
39	33	0	0
40	33	0	0
41	33	1	0
42	33	1	0
43	33	1	0
44	33	1	0
45	33	1	0
46	33	1	0
47	33	1	0
48	33	0	0
49	33	0	0
50	33	0	0
51	33	1	0
52	33	1	0
53	33	1	0
54	33	1	0
55	33	1	0
56	33	1	0
57	33	0	0
58	33	0	0
59	33	0	0
60	33	0	0
61	33	1	0
62	33	1	0
63	33	1	0
64	33	1	0
65	33	1	0
66	33	1	0
67	33	1	0
68	33	0	0
69	33	0	0
70	33	0	0
71	33	0	0
18	34	1	0
19	34	1	0
20	34	1	0
21	34	1	0
22	34	0	0
23	34	0	0
24	34	1	0
25	34	1	0
26	34	1	0
27	34	1	0
28	34	0	0
29	34	0	0
30	34	0	0
31	34	1	0
32	34	1	0
33	34	1	0
34	34	1	0
35	34	1	0
36	34	1	0
37	34	1	0
38	34	0	0
39	34	0	0
40	34	0	0
41	34	1	0
42	34	1	0
43	34	1	0
44	34	1	0
74	35	1	0
75	35	1	0
76	35	1	0
77	35	1	0
78	35	0	0
79	35	0	0
80	35	0	0
81	35	1	0
82	35	1	0
83	35	1	0
84	35	1	0
85	35	1	0
86	35	1	0
87	35	1	0
88	35	0	0
89	35	1	0
90	35	1	0
91	35	1	0
92	35	1	0
93	35	1	0
94	35	1	0
95	35	1	0
96	35	1	0
97	35	0	0
98	35	0	0
99	35	0	0
100	35	1	0
10	36	0	0
11	36	0	0
12	36	1	0
13	36	0	0
14	36	1	0
15	36	0	0
16	36	0	0
17	36	0	0
18	36	1	0
19	36	0	0
20	36	1	0
21	36	0	0
22	36	0	0
23	36	0	0
86	37	1	0
87	37	1	0
88	37	0	0
89	37	1	0
90	37	1	0
91	37	1	0
92	37	1	0
93	37	1	0
94	37	1	0
95	37	1	0
96	37	1	0
97	37	0	0
98	37	0	0
99	37	0	0
100	37	1	0
35	38	1	0
36	38	1	0
37	38	1	0
38	38	0	0
39	38	0	0
40	38	0	0
41	38	1	0
42	38	1	0
43	38	1	0
44	38	1	0
45	38	1	0
46	38	1	0
47	38	1	0
48	38	0	0
49	38	0	0
50	38	0	0
51	38	1	0
52	38	1	0
53	38	1	0
54	38	1	0
55	38	1	0
56	38	1	0
57	38	1	0
58	38	1	0
59	38	0	0
60	38	0	0
61	38	1	0
62	38	1	0
63	38	1	0
64	38	1	0
65	38	1	0
66	38	1	0
67	38	1	0
68	38	0	0
1	39	0	0
2	39	0	0
3	39	1	0
4	39	0	0
5	39	1	0
6	39	0	0
7	39	0	0
8	39	0	0
9	39	1	0
10	39	0	0
11	39	0	0
12	39	1	0
70	40	0	0
71	40	1	0
72	40	1	0
73	40	1	0
74	40	1	0
75	40	1	0
76	40	1	0
77	40	1	0
78	40	0	0
79	40	0	0
80	40	0	0
81	40	1	0
82	40	1	0
83	40	1	0
84	40	1	0
85	40	1	0
86	40	1	0
87	40	1	0
88	40	0	0
89	40	1	0
90	40	1	0
91	40	1	0
92	40	1	0
93	40	1	0
94	40	1	0
95	40	1	0
96	40	1	0
97	40	0	0
98	40	0	0
40	41	1	0
41	41	1	0
42	41	1	0
43	41	1	0
44	41	1	0
45	41	1	0
46	41	1	0
47	41	1	0
48	41	0	0
49	41	0	0
50	41	0	0
51	41	1	0
52	41	1	0
53	41	1	0
54	41	1	0
55	41	1	0
56	41	1	0
57	41	1	0
58	41	0	0
59	41	0	0
60	41	0	0
61	41	1	0
62	41	1	0
63	41	1	0
64	41	1	0
65	41	1	0
66	41	1	0
67	41	1	0
68	41	0	0
69	41	0	0
70	41	0	0
71	41	1	0
72	41	1	0
73	41	1	0
74	41	1	0
1	42	0	0
2	42	0	0
3	42	1	0
4	42	0	0
5	42	1	0
6	42	0	0
7	42	0	0
16	43	0	0
17	43	0	0
18	43	1	0
19	43	0	0
20	43	1	0
21	43	0	0
22	43	0	0
23	43	0	0
24	43	1	0
25	43	1	0
26	43	1	0
27	43	1	0
28	43	0	0
29	43	0	0
30	43	0	0
31	43	1	0
32	43	1	0
33	43	1	0
34	43	1	0
35	43	1	0
36	43	1	0
37	43	1	0
38	43	0	0
39	43	1	0
40	43	0	0
41	43	1	0
42	43	0	0
52	44	1	0
53	44	1	0
54	44	1	0
55	44	1	0
56	44	1	0
57	44	1	0
58	44	0	0
59	44	0	0
60	44	0	0
61	44	1	0
62	44	1	0
63	44	1	0
64	44	1	0
65	44	1	0
66	44	1	0
67	44	1	0
68	44	0	0
69	44	0	0
70	44	0	0
71	44	0	0
72	44	1	0
73	44	1	0
74	44	1	0
75	44	1	0
76	44	1	0
77	44	1	0
78	44	0	0
79	44	0	0
80	44	0	0
81	44	1	0
82	44	0	0
83	44	1	0
84	44	1	0
89	45	1	0
90	45	1	0
91	45	1	0
92	45	1	0
93	45	1	0
94	45	1	0
95	45	1	0
96	45	1	0
97	45	0	0
98	45	0	0
99	45	0	0
100	45	1	0
1	46	0	0
95	47	1	0
96	47	1	0
97	47	0	0
98	47	0	0
99	47	0	0
100	47	1	0
13	48	0	0
14	48	1	0
15	48	0	0
16	48	0	0
17	48	0	0
18	48	1	0
19	48	0	0
20	48	0	0
21	48	0	0
22	48	1	0
23	48	0	0
24	48	1	0
25	48	1	0
26	48	1	0
27	48	1	0
28	48	0	0
29	48	0	0
30	48	0	0
31	48	1	0
32	48	1	0
33	48	1	0
34	48	1	0
95	49	1	0
96	49	1	0
97	49	0	0
98	49	0	0
99	49	0	0
100	49	1	0
39	50	0	0
40	50	0	0
41	50	1	0
42	50	1	0
43	50	1	0
44	50	1	0
45	50	1	0
46	50	1	0
47	50	1	0
48	50	0	0
49	50	0	0
50	50	0	0
51	50	1	0
52	50	1	0
53	50	1	0
54	50	1	0
55	50	1	0
56	50	1	0
57	50	0	0
58	50	0	0
59	50	0	0
60	50	0	0
61	50	0	0
62	50	1	0
63	50	1	0
64	50	0	0
65	50	0	0
66	50	1	0
67	50	0	0
68	50	0	0
69	50	0	0
70	50	0	0
71	50	1	0
72	50	1	0
73	50	1	0
76	51	1	0
77	51	1	0
78	51	0	0
79	51	0	0
80	51	0	0
81	51	1	0
82	51	1	0
83	51	1	0
84	51	1	0
85	51	1	0
86	51	1	0
87	51	1	0
88	51	0	0
89	51	1	0
90	51	1	0
91	51	1	0
92	51	1	0
93	51	1	0
94	51	1	0
95	51	1	0
96	51	1	0
97	51	0	0
98	51	0	0
99	51	0	0
100	51	1	0
35	52	1	0
36	52	1	0
37	52	1	0
38	52	0	0
39	52	0	0
40	52	0	0
41	52	1	0
42	52	1	0
43	52	1	0
44	52	1	0
45	52	1	0
46	52	1	0
47	52	1	0
48	52	0	0
49	52	0	0
50	52	0	0
51	52	1	0
52	52	1	0
53	52	1	0
54	52	1	0
55	52	1	0
56	52	1	0
57	52	1	0
58	52	0	0
59	52	1	0
60	52	0	0
61	52	0	0
62	52	1	0
63	52	1	0
64	52	1	0
65	52	1	0
66	52	1	0
67	52	1	0
43	53	1	0
44	53	1	0
45	53	1	0
46	53	1	0
47	53	1	0
48	53	0	0
49	53	1	0
50	53	0	0
51	53	1	0
52	53	1	0
53	53	1	0
54	53	0	0
55	53	1	0
56	53	1	0
57	53	1	0
58	53	0	0
59	53	0	0
60	53	0	0
61	53	1	0
62	53	1	0
63	53	1	0
64	53	1	0
65	53	1	0
66	53	1	0
67	53	1	0
68	53	0	0
69	53	0	0
70	53	0	0
71	53	1	0
72	53	1	0
73	53	1	0
74	53	1	0
75	53	1	0
76	53	1	0
9	54	1	0
10	54	0	0
11	54	0	0
12	54	1	0
13	54	0	0
14	54	1	0
15	54	0	0
16	54	0	0
17	54	0	0
18	54	1	0
19	54	0	0
20	54	1	0
21	54	0	0
35	55	1	0
36	55	1	0
37	55	1	0
38	55	0	0
39	55	0	0
40	55	0	0
41	55	1	0
42	55	1	0
43	55	1	0
44	55	1	0
45	55	1	0
46	55	1	0
47	55	1	0
48	55	0	0
49	55	1	0
50	55	0	0
51	55	1	0
52	55	1	0
53	55	1	0
54	55	1	0
55	55	1	0
56	55	1	0
57	55	0	0
58	55	0	0
59	55	0	0
60	55	0	0
61	55	1	0
62	55	1	0
63	55	1	0
64	55	0	0
65	55	1	0
66	55	1	0
67	55	1	0
68	55	0	0
69	55	0	0
70	55	0	0
64	56	1	0
65	56	1	0
66	56	1	0
67	56	1	0
68	56	0	0
69	56	0	0
70	56	0	0
71	56	1	0
72	56	1	0
73	56	1	0
74	56	1	0
75	56	1	0
76	56	1	0
77	56	1	0
78	56	0	0
79	56	0	0
80	56	0	0
81	56	1	0
82	56	1	0
83	56	1	0
84	56	1	0
85	56	1	0
86	56	1	0
87	56	1	0
88	56	0	0
89	56	1	0
90	56	1	0
91	56	1	0
92	56	1	0
83	57	1	0
84	57	1	0
85	57	1	0
86	57	1	0
87	57	1	0
88	57	0	0
89	57	1	0
90	57	1	0
91	57	1	0
92	57	1	0
93	57	1	0
94	57	1	0
95	57	1	0
96	57	1	0
97	57	0	0
98	57	0	0
99	57	0	0
100	57	1	0
65	58	1	0
66	58	1	0
67	58	1	0
68	58	0	0
69	58	0	0
70	58	0	0
71	58	1	0
72	58	1	0
73	58	1	0
74	58	1	0
75	58	1	0
76	58	1	0
77	58	1	0
78	58	0	0
79	58	1	0
80	58	0	0
81	58	1	0
82	58	1	0
83	58	1	0
84	58	1	0
85	58	0	0
86	58	1	0
87	58	1	0
88	58	0	0
89	58	1	0
90	58	1	0
91	58	1	0
92	58	1	0
93	58	1	0
55	59	1	0
56	59	1	0
57	59	0	0
58	59	0	0
59	59	0	0
60	59	0	0
61	59	1	0
62	59	1	0
63	59	1	0
64	59	1	0
65	59	1	0
66	59	1	0
67	59	1	0
68	59	0	0
69	59	0	0
70	59	0	0
71	59	1	0
72	59	1	0
73	59	1	0
74	59	0	0
75	59	1	0
76	59	1	0
77	59	1	0
78	59	0	0
79	59	0	0
80	59	0	0
81	59	1	0
82	59	1	0
83	59	1	0
84	59	1	0
85	59	1	0
86	59	1	0
83	60	1	0
84	60	1	0
85	60	1	0
86	60	1	0
87	60	0	0
88	60	0	0
89	60	1	0
90	60	1	0
91	60	1	0
92	60	1	0
93	60	1	0
94	60	1	0
95	60	1	0
96	60	1	0
97	60	0	0
98	60	0	0
99	60	0	0
100	60	1	0
11	61	0	0
12	61	1	0
13	61	0	0
14	61	0	0
15	61	1	0
16	61	0	0
17	61	0	0
18	61	1	0
19	61	0	0
20	61	1	0
21	61	0	0
22	61	0	0
23	61	0	0
24	61	1	0
50	62	0	0
51	62	1	0
52	62	1	0
53	62	1	0
54	62	1	0
55	62	1	0
56	62	1	0
57	62	1	0
58	62	0	0
59	62	0	0
60	62	0	0
61	62	1	0
62	62	1	0
63	62	1	0
64	62	1	0
65	62	1	0
66	62	1	0
67	62	1	0
68	62	0	0
69	62	0	0
70	62	0	0
71	62	1	0
72	62	1	0
73	62	1	0
74	62	1	0
75	62	1	0
76	62	1	0
77	62	1	0
78	62	0	0
79	62	0	0
80	62	0	0
81	62	1	0
82	62	1	0
83	62	1	0
84	62	1	0
20	63	1	0
21	63	1	0
22	63	0	0
23	63	0	0
24	63	1	0
25	63	1	0
26	63	1	0
27	63	1	0
28	63	0	0
29	63	0	0
30	63	0	0
31	63	1	0
32	63	1	0
33	63	1	0
34	63	1	0
35	63	1	0
36	63	1	0
37	63	1	0
38	63	1	0
39	63	0	0
40	63	0	0
41	63	1	0
42	63	1	0
43	63	1	0
44	63	1	0
45	63	1	0
46	63	1	0
13	64	0	0
14	64	1	0
15	64	0	0
16	64	0	0
17	64	0	0
18	64	1	0
19	64	0	0
20	64	1	0
21	64	0	0
22	64	0	0
23	64	0	0
24	64	1	0
25	64	1	0
26	64	1	0
27	64	1	0
28	64	0	0
29	64	0	0
30	64	0	0
31	64	1	0
32	64	1	0
33	64	1	0
34	64	1	0
15	65	1	0
16	65	0	0
17	65	0	0
18	65	0	0
19	65	0	0
20	65	1	0
21	65	0	0
22	65	0	0
23	65	0	0
24	65	1	0
25	65	1	0
26	65	1	0
27	65	1	0
28	65	0	0
29	65	0	0
30	65	0	0
31	65	1	0
32	65	1	0
33	65	1	0
34	65	1	0
35	65	1	0
36	65	1	0
37	65	1	0
38	65	0	0
39	65	0	0
40	65	0	0
14	66	1	0
15	66	0	0
16	66	0	0
17	66	0	0
18	66	1	0
19	66	0	0
20	66	1	0
21	66	0	0
22	66	0	0
23	66	1	0
24	66	1	0
25	66	1	0
26	66	1	0
27	66	1	0
28	66	0	0
29	66	0	0
30	66	0	0
31	66	1	0
32	66	1	0
33	66	1	0
34	66	1	0
35	66	1	0
36	66	1	0
37	66	1	0
38	66	0	0
10	67	0	0
11	67	0	0
12	67	1	0
13	67	0	0
14	67	1	0
15	67	0	0
16	67	0	0
17	67	0	0
18	67	1	0
19	67	0	0
20	67	1	0
21	67	0	0
22	67	0	0
23	67	0	0
24	67	1	0
43	68	0	0
44	68	1	0
45	68	1	0
46	68	1	0
47	68	1	0
48	68	0	0
49	68	0	0
50	68	0	0
51	68	1	0
52	68	1	0
53	68	1	0
54	68	1	0
55	68	1	0
56	68	1	0
57	68	1	0
58	68	0	0
59	68	1	0
60	68	0	0
61	68	1	0
62	68	1	0
63	68	1	0
64	68	1	0
65	68	1	0
66	68	1	0
67	68	1	0
68	68	0	0
69	68	0	0
70	68	0	0
71	68	1	0
72	68	1	0
73	68	1	0
74	68	1	0
18	69	1	0
19	69	0	0
20	69	1	0
21	69	0	0
22	69	0	0
23	69	0	0
24	69	1	0
25	69	1	0
26	69	1	0
27	69	1	0
28	69	0	0
29	69	0	0
30	69	0	0
31	69	1	0
32	69	1	0
33	69	1	0
34	69	1	0
35	69	1	0
36	69	0	0
37	69	1	0
38	69	0	0
39	69	0	0
40	69	0	0
41	69	1	0
42	69	1	0
43	69	1	0
44	69	1	0
95	70	1	0
96	70	1	0
97	70	0	0
98	70	0	0
99	70	0	0
100	70	1	0
52	71	1	0
53	71	1	0
54	71	1	0
55	71	1	0
56	71	1	0
57	71	0	0
58	71	0	0
59	71	0	0
60	71	0	0
61	71	1	0
62	71	1	0
63	71	1	0
64	71	1	0
65	71	1	0
66	71	1	0
67	71	1	0
68	71	0	0
69	71	0	0
70	71	0	0
71	71	1	0
72	71	1	0
73	71	1	0
74	71	1	0
75	71	1	0
76	71	1	0
77	71	1	0
78	71	0	0
79	71	0	0
80	71	0	0
81	71	1	0
82	71	1	0
83	71	1	0
84	71	1	0
1	72	0	0
2	72	0	0
3	72	1	0
4	72	0	0
5	72	1	0
6	72	0	0
7	72	0	0
8	72	0	0
9	72	1	0
10	72	0	0
11	72	0	0
12	72	0	0
13	72	0	0
17	73	0	0
18	73	1	0
19	73	0	0
20	73	1	0
21	73	0	0
22	73	0	0
23	73	0	0
24	73	1	0
25	73	1	0
26	73	1	0
27	73	1	0
28	73	0	0
29	73	0	0
30	73	0	0
31	73	1	0
32	73	1	0
33	73	1	0
34	73	1	0
35	73	1	0
36	73	0	0
37	73	1	0
38	73	0	0
39	73	0	0
40	73	0	0
41	73	0	0
42	73	1	0
43	73	1	0
11	74	0	0
12	74	1	0
13	74	0	0
14	74	1	0
15	74	0	0
16	74	0	0
17	74	0	0
18	74	1	0
19	74	0	0
20	74	1	0
21	74	0	0
22	74	0	0
23	74	0	0
24	74	1	0
25	74	1	0
26	74	1	0
27	74	1	0
28	74	0	0
72	75	1	0
73	75	1	0
74	75	1	0
75	75	1	0
76	75	1	0
77	75	1	0
78	75	0	0
79	75	0	0
80	75	0	0
81	75	1	0
82	75	1	0
83	75	1	0
84	75	1	0
85	75	1	0
86	75	1	0
87	75	1	0
88	75	0	0
89	75	1	0
90	75	1	0
91	75	1	0
92	75	1	0
93	75	1	0
94	75	1	0
95	75	1	0
96	75	1	0
97	75	0	0
98	75	0	0
99	75	0	0
100	75	1	0
85	76	1	0
86	76	1	0
87	76	1	0
88	76	0	0
89	76	1	0
90	76	1	0
91	76	1	0
92	76	1	0
93	76	1	0
94	76	1	0
95	76	1	0
96	76	1	0
97	76	0	0
98	76	0	0
99	76	1	0
100	76	1	0
88	77	0	0
89	77	1	0
90	77	1	0
91	77	1	0
92	77	1	0
93	77	1	0
94	77	1	0
95	77	1	0
96	77	1	0
97	77	0	0
98	77	0	0
99	77	1	0
100	77	1	0
49	78	0	0
50	78	0	0
51	78	1	0
52	78	1	0
53	78	1	0
54	78	1	0
55	78	1	0
56	78	0	0
57	78	1	0
58	78	0	0
59	78	0	0
60	78	0	0
61	78	1	0
62	78	1	0
63	78	1	0
64	78	1	0
65	78	1	0
66	78	1	0
67	78	1	0
68	78	0	0
69	78	0	0
70	78	0	0
71	78	1	0
72	78	1	0
73	78	1	0
74	78	1	0
75	78	1	0
76	78	0	0
77	78	1	0
78	78	0	0
79	78	0	0
80	78	0	0
81	78	1	0
82	78	1	0
83	78	1	0
9	79	1	0
10	79	0	0
11	79	0	0
12	79	1	0
13	79	0	0
14	79	1	0
15	79	0	0
16	79	1	0
17	79	0	0
18	79	1	0
19	79	0	0
20	79	0	0
7	80	0	0
8	80	0	0
9	80	1	0
10	80	0	0
11	80	0	0
12	80	1	0
13	80	0	0
14	80	1	0
15	80	0	0
16	80	0	0
17	80	0	0
18	80	1	0
19	80	0	0
82	81	1	0
83	81	1	0
84	81	1	0
85	81	1	0
86	81	1	0
87	81	1	0
88	81	0	0
89	81	1	0
90	81	1	0
91	81	1	0
92	81	1	0
93	81	1	0
94	81	1	0
95	81	0	0
96	81	1	0
97	81	0	0
98	81	1	0
99	81	0	0
100	81	1	0
25	82	1	0
26	82	1	0
27	82	1	0
28	82	0	0
29	82	0	0
30	82	0	0
31	82	1	0
32	82	1	0
33	82	1	0
34	82	1	0
35	82	0	0
36	82	1	0
37	82	1	0
38	82	0	0
39	82	0	0
40	82	0	0
41	82	1	0
42	82	1	0
43	82	1	0
44	82	1	0
45	82	1	0
46	82	1	0
47	82	1	0
48	82	0	0
49	82	0	0
50	82	0	0
51	82	1	0
52	82	1	0
53	82	1	0
54	82	1	0
55	82	1	0
56	82	1	0
57	82	1	0
58	82	0	0
59	82	0	0
60	82	0	0
73	83	0	0
74	83	1	0
75	83	1	0
76	83	1	0
77	83	1	0
78	83	0	0
79	83	0	0
80	83	0	0
81	83	1	0
82	83	1	0
83	83	1	0
84	83	1	0
85	83	1	0
86	83	1	0
87	83	1	0
88	83	0	0
89	83	1	0
90	83	1	0
91	83	1	0
92	83	1	0
93	83	1	0
94	83	1	0
95	83	1	0
96	83	1	0
97	83	1	0
98	83	0	0
99	83	1	0
100	83	1	0
34	84	1	0
35	84	1	0
36	84	1	0
37	84	1	0
38	84	0	0
39	84	0	0
40	84	0	0
41	84	1	0
42	84	1	0
43	84	1	0
44	84	1	0
45	84	1	0
46	84	1	0
47	84	1	0
48	84	0	0
49	84	0	0
50	84	0	0
51	84	1	0
52	84	1	0
53	84	1	0
54	84	1	0
55	84	1	0
56	84	1	0
57	84	1	0
58	84	0	0
59	84	0	0
60	84	0	0
61	84	1	0
62	84	1	0
63	84	1	0
64	84	1	0
65	84	0	0
66	84	1	0
67	84	1	0
61	85	1	0
62	85	1	0
63	85	1	0
64	85	1	0
65	85	1	0
66	85	1	0
67	85	1	0
68	85	0	0
69	85	0	0
70	85	0	0
71	85	1	0
72	85	1	0
73	85	1	0
74	85	1	0
75	85	1	0
76	85	1	0
77	85	1	0
78	85	0	0
79	85	0	0
80	85	0	0
81	85	1	0
82	85	1	0
83	85	1	0
84	85	0	0
85	85	1	0
86	85	1	0
87	85	1	0
88	85	0	0
89	85	1	0
24	86	1	0
25	86	1	0
26	86	1	0
27	86	1	0
28	86	0	0
29	86	0	0
30	86	0	0
31	86	0	0
32	86	1	0
33	86	1	0
34	86	0	0
35	86	1	0
36	86	1	0
37	86	1	0
38	86	0	0
39	86	0	0
40	86	0	0
41	86	0	0
42	86	1	0
43	86	1	0
44	86	1	0
45	86	0	0
46	86	1	0
47	86	1	0
48	86	0	0
49	86	0	0
50	86	0	0
51	86	1	0
52	86	1	0
53	86	1	0
54	86	1	0
55	86	1	0
56	86	1	0
57	86	0	0
58	86	1	0
66	87	1	0
67	87	1	0
68	87	0	0
69	87	0	0
70	87	0	0
71	87	1	0
72	87	1	0
73	87	1	0
74	87	1	0
75	87	1	0
76	87	1	0
77	87	1	0
78	87	0	0
79	87	0	0
80	87	0	0
81	87	1	0
82	87	1	0
83	87	1	0
84	87	1	0
85	87	1	0
86	87	1	0
87	87	0	0
88	87	1	0
89	87	1	0
90	87	1	0
91	87	1	0
92	87	1	0
93	87	0	0
94	87	1	0
33	88	1	0
34	88	1	0
35	88	1	0
36	88	1	0
37	88	1	0
38	88	0	0
39	88	0	0
40	88	0	0
41	88	1	0
42	88	1	0
43	88	1	0
44	88	0	0
45	88	1	0
46	88	1	0
47	88	1	0
48	88	0	0
49	88	0	0
50	88	0	0
51	88	1	0
52	88	1	0
53	88	1	0
54	88	1	0
55	88	1	0
56	88	1	0
57	88	1	0
58	88	0	0
59	88	0	0
60	88	0	0
61	88	1	0
62	88	1	0
63	88	1	0
64	88	1	0
65	88	1	0
66	88	1	0
20	89	1	0
21	89	0	0
22	89	0	0
23	89	0	0
24	89	1	0
25	89	1	0
26	89	1	0
27	89	1	0
28	89	0	0
29	89	0	0
30	89	0	0
31	89	1	0
32	89	1	0
33	89	1	0
34	89	1	0
35	89	1	0
36	89	0	0
37	89	1	0
38	89	0	0
39	89	0	0
40	89	0	0
41	89	1	0
42	89	1	0
43	89	1	0
44	89	1	0
45	89	1	0
46	89	1	0
47	89	1	0
48	89	0	0
49	89	0	0
11	90	0	0
12	90	1	0
13	90	0	0
14	90	1	0
15	90	0	0
16	90	0	0
17	90	0	0
18	90	1	0
19	90	0	0
20	90	1	0
21	90	0	0
22	90	0	0
23	90	0	0
24	90	1	0
25	90	1	0
26	90	1	0
27	90	1	0
28	90	0	0
1	91	0	0
2	91	0	0
3	91	1	0
4	91	0	0
5	91	1	0
6	91	0	0
7	91	0	0
8	91	0	0
13	92	0	0
14	92	1	0
15	92	0	0
16	92	0	0
17	92	0	0
18	92	1	0
19	92	0	0
20	92	1	0
21	92	0	0
22	92	0	0
23	92	0	0
24	92	1	0
25	92	1	0
26	92	1	0
27	92	1	0
28	92	0	0
29	92	0	0
30	92	0	0
31	92	1	0
32	92	1	0
33	92	1	0
34	92	1	0
1	93	0	0
2	93	0	0
3	93	1	0
4	93	0	0
5	93	1	0
6	93	0	0
7	93	0	0
8	93	0	0
97	94	0	0
98	94	0	0
99	94	0	0
100	94	1	0
1	95	0	0
2	95	0	0
3	95	1	0
4	95	0	0
5	95	1	0
6	95	1	0
7	95	0	0
8	95	0	0
9	95	1	0
10	95	0	0
11	95	0	0
12	95	1	0
75	96	1	0
76	96	1	0
77	96	1	0
78	96	0	0
79	96	1	0
80	96	1	0
81	96	1	0
82	96	1	0
83	96	1	0
84	96	1	0
85	96	1	0
86	96	1	0
87	96	1	0
88	96	0	0
89	96	1	0
90	96	0	0
91	96	0	0
92	96	1	0
93	96	1	0
94	96	1	0
95	96	1	0
96	96	1	0
97	96	0	0
98	96	0	0
99	96	0	0
100	96	1	0
85	97	1	0
86	97	1	0
87	97	1	0
88	97	0	0
89	97	1	0
90	97	1	0
91	97	1	0
92	97	1	0
93	97	1	0
94	97	1	0
95	97	1	0
96	97	1	0
97	97	0	0
98	97	0	0
99	97	0	0
100	97	1	0
54	98	1	0
55	98	1	0
56	98	1	0
57	98	1	0
58	98	0	0
59	98	0	0
60	98	0	0
61	98	1	0
62	98	1	0
63	98	1	0
64	98	1	0
65	98	1	0
66	98	1	0
67	98	1	0
68	98	0	0
69	98	0	0
70	98	0	0
71	98	1	0
72	98	1	0
73	98	1	0
74	98	1	0
75	98	1	0
76	98	1	0
77	98	1	0
78	98	0	0
79	98	0	0
80	98	1	0
81	98	1	0
82	98	1	0
83	98	1	0
84	98	1	0
85	98	1	0
33	99	1	0
34	99	1	0
35	99	1	0
36	99	1	0
37	99	1	0
38	99	0	0
39	99	0	0
40	99	0	0
41	99	1	0
42	99	1	0
43	99	1	0
44	99	1	0
45	99	1	0
46	99	1	0
47	99	1	0
48	99	0	0
49	99	0	0
50	99	0	0
51	99	1	0
52	99	1	0
53	99	1	0
54	99	1	0
55	99	1	0
56	99	1	0
57	99	1	0
58	99	0	0
59	99	0	0
60	99	1	0
61	99	1	0
62	99	1	0
63	99	1	0
64	99	1	0
65	99	1	0
66	99	1	0
1	100	0	0
2	100	1	0
3	100	1	0
4	100	0	0
5	100	1	0
6	100	0	0
7	100	0	0
8	100	0	0
9	100	1	0
10	100	0	0
11	100	0	0
21	101	0	0
22	101	0	0
23	101	0	0
24	101	1	0
25	101	1	0
26	101	1	0
27	101	1	0
28	101	0	0
29	101	0	0
30	101	0	0
31	101	1	0
32	101	1	0
33	101	1	0
34	101	1	0
35	101	1	0
36	101	1	0
37	101	1	0
38	101	0	0
39	101	0	0
40	101	0	0
41	101	1	0
42	101	1	0
43	101	1	0
44	101	1	0
45	101	1	0
46	101	1	0
47	101	1	0
48	101	1	0
49	101	0	0
11	102	0	0
12	102	1	0
13	102	0	0
14	102	1	0
15	102	0	0
16	102	0	0
17	102	0	0
18	102	1	0
19	102	0	0
20	102	1	0
21	102	0	0
22	102	0	0
23	102	0	0
24	102	1	0
25	102	0	0
26	102	1	0
27	102	1	0
28	102	0	0
29	102	0	0
3	103	1	0
4	103	1	0
5	103	1	0
6	103	0	0
7	103	0	0
8	103	0	0
9	103	1	0
10	103	0	0
11	103	0	0
12	103	1	0
13	103	0	0
14	103	1	0
15	103	0	0
16	103	0	0
17	103	0	0
36	104	1	0
37	104	1	0
38	104	0	0
39	104	0	0
40	104	0	0
41	104	1	0
42	104	1	0
43	104	1	0
44	104	1	0
45	104	1	0
46	104	1	0
47	104	1	0
48	104	0	0
49	104	0	0
50	104	0	0
51	104	1	0
52	104	1	0
53	104	1	0
54	104	0	0
55	104	1	0
56	104	1	0
57	104	1	0
58	104	0	0
59	104	0	0
60	104	0	0
61	104	1	0
62	104	1	0
63	104	1	0
64	104	1	0
65	104	1	0
66	104	0	0
67	104	1	0
68	104	0	0
69	104	0	0
70	104	0	0
71	104	1	0
10	105	0	0
11	105	0	0
12	105	1	0
13	105	0	0
14	105	1	0
15	105	0	0
16	105	0	0
17	105	1	0
18	105	1	0
19	105	1	0
20	105	1	0
21	105	0	0
22	105	0	0
23	105	1	0
89	106	1	0
90	106	1	0
91	106	1	0
92	106	1	0
93	106	1	0
94	106	1	0
95	106	1	0
96	106	1	0
97	106	0	0
98	106	1	0
99	106	0	0
100	106	1	0
88	107	0	0
89	107	1	0
90	107	1	0
91	107	1	0
92	107	1	0
93	107	1	0
94	107	1	0
95	107	1	0
96	107	1	0
97	107	0	0
98	107	0	0
99	107	0	0
100	107	1	0
8	108	0	0
9	108	1	0
10	108	0	0
11	108	0	0
12	108	1	0
13	108	0	0
14	108	0	0
15	108	0	0
16	108	0	0
17	108	0	0
18	108	1	0
19	108	0	0
1	109	1	0
2	109	0	0
3	109	1	0
4	109	0	0
5	109	1	0
6	109	0	0
7	109	0	0
8	109	0	0
9	109	1	0
1	110	0	0
2	110	0	0
3	110	1	0
4	110	0	0
5	110	1	0
6	110	1	0
7	110	0	0
8	110	0	0
9	110	1	0
10	110	0	0
11	110	0	0
12	110	1	0
13	110	0	0
22	111	0	0
23	111	0	0
24	111	1	0
25	111	1	0
26	111	1	0
27	111	1	0
28	111	0	0
29	111	0	0
30	111	0	0
31	111	1	0
32	111	1	0
33	111	1	0
34	111	1	0
35	111	0	0
36	111	1	0
37	111	1	0
38	111	0	0
39	111	0	0
40	111	0	0
41	111	1	0
42	111	0	0
43	111	1	0
44	111	1	0
45	111	1	0
46	111	1	0
47	111	1	0
48	111	0	0
49	111	0	0
50	111	0	0
51	111	0	0
52	111	1	0
53	111	1	0
54	111	0	0
60	112	0	0
61	112	1	0
62	112	1	0
63	112	1	0
64	112	1	0
65	112	1	0
66	112	1	0
67	112	1	0
68	112	0	0
69	112	0	0
70	112	0	0
71	112	1	0
72	112	1	0
73	112	1	0
74	112	1	0
75	112	0	0
76	112	1	0
77	112	1	0
78	112	0	0
79	112	0	0
80	112	0	0
81	112	1	0
82	112	1	0
83	112	1	0
84	112	1	0
85	112	1	0
86	112	1	0
87	112	1	0
88	112	0	0
89	112	1	0
3	113	0	0
4	113	0	0
5	113	1	0
6	113	0	0
7	113	0	0
8	113	0	0
9	113	1	0
10	113	0	0
11	113	0	0
12	113	1	0
13	113	0	0
14	113	1	0
15	113	0	0
7	114	0	0
8	114	0	0
9	114	1	0
10	114	0	0
11	114	0	0
12	114	1	0
13	114	0	0
14	114	1	0
15	114	0	0
16	114	0	0
17	114	0	0
18	114	1	0
19	114	0	0
81	115	1	0
82	115	1	0
83	115	1	0
84	115	1	0
85	115	1	0
86	115	1	0
87	115	1	0
88	115	0	0
89	115	1	0
90	115	1	0
91	115	1	0
92	115	1	0
93	115	1	0
94	115	1	0
95	115	1	0
96	115	1	0
97	115	0	0
98	115	0	0
99	115	0	0
100	115	1	0
16	116	0	0
17	116	0	0
18	116	1	0
19	116	0	0
20	116	1	0
21	116	0	0
22	116	0	0
23	116	0	0
24	116	0	0
25	116	1	0
26	116	1	0
27	116	1	0
28	116	0	0
29	116	0	0
30	116	0	0
31	116	1	0
32	116	1	0
33	116	1	0
34	116	0	0
35	116	1	0
36	116	1	0
37	116	1	0
38	116	0	0
39	116	0	0
40	116	0	0
41	116	1	0
41	117	0	0
42	117	1	0
43	117	1	0
44	117	1	0
45	117	1	0
46	117	1	0
47	117	1	0
48	117	0	0
49	117	0	0
50	117	0	0
51	117	1	0
52	117	1	0
53	117	1	0
54	117	1	0
55	117	1	0
56	117	1	0
57	117	1	0
58	117	0	0
59	117	0	0
60	117	0	0
61	117	1	0
62	117	1	0
63	117	1	0
64	117	1	0
65	117	1	0
66	117	1	0
67	117	0	0
68	117	0	0
69	117	0	0
70	117	0	0
71	117	1	0
72	117	1	0
73	117	1	0
74	117	1	0
4	118	0	0
5	118	1	0
6	118	0	0
7	118	0	0
8	118	0	0
9	118	1	0
10	118	0	0
11	118	0	0
12	118	1	0
13	118	0	0
14	118	1	0
15	118	0	0
16	118	0	0
17	118	0	0
18	118	1	0
1	119	0	0
2	119	0	0
3	119	1	0
4	119	0	0
5	119	1	0
6	119	0	0
7	119	0	0
8	119	0	0
24	120	1	0
25	120	1	0
26	120	1	0
27	120	1	0
28	120	0	0
29	120	0	0
30	120	0	0
31	120	1	0
32	120	1	0
33	120	1	0
34	120	1	0
35	120	0	0
36	120	1	0
37	120	1	0
38	120	0	0
39	120	0	0
40	120	0	0
41	120	1	0
42	120	1	0
43	120	1	0
44	120	1	0
45	120	1	0
46	120	1	0
47	120	1	0
48	120	0	0
49	120	0	0
50	120	0	0
51	120	1	0
52	120	1	0
53	120	1	0
54	120	1	0
55	120	1	0
56	120	1	0
57	120	1	0
21	121	0	0
22	121	0	0
23	121	0	0
24	121	1	0
25	121	1	0
26	121	1	0
27	121	1	0
28	121	0	0
29	121	0	0
30	121	0	0
31	121	0	0
32	121	1	0
33	121	1	0
34	121	0	0
35	121	1	0
36	121	1	0
37	121	1	0
38	121	1	0
39	121	0	0
40	121	0	0
41	121	1	0
42	121	1	0
43	121	1	0
44	121	1	0
45	121	1	0
46	121	1	0
47	121	1	0
48	121	0	0
49	121	0	0
50	121	0	0
51	121	1	0
52	121	1	0
1	122	0	0
2	122	0	0
3	122	1	0
4	122	0	0
5	122	1	0
6	122	0	0
7	122	0	0
8	122	0	0
9	122	1	0
10	122	0	0
11	122	0	0
43	123	1	0
44	123	1	0
45	123	1	0
46	123	1	0
47	123	1	0
48	123	1	0
49	123	0	0
50	123	0	0
51	123	1	0
52	123	1	0
53	123	1	0
54	123	1	0
55	123	1	0
56	123	1	0
57	123	1	0
58	123	0	0
59	123	0	0
60	123	0	0
61	123	1	0
62	123	1	0
63	123	1	0
64	123	1	0
65	123	1	0
66	123	1	0
67	123	1	0
68	123	0	0
69	123	0	0
70	123	0	0
71	123	1	0
72	123	1	0
73	123	1	0
74	123	1	0
29	124	0	0
30	124	0	0
31	124	1	0
32	124	1	0
33	124	1	0
34	124	1	0
35	124	1	0
36	124	1	0
37	124	1	0
38	124	0	0
39	124	0	0
40	124	0	0
41	124	1	0
42	124	1	0
43	124	1	0
44	124	1	0
45	124	1	0
46	124	1	0
47	124	1	0
48	124	0	0
49	124	0	0
50	124	0	0
51	124	1	0
52	124	1	0
53	124	1	0
54	124	1	0
55	124	1	0
56	124	1	0
57	124	1	0
58	124	0	0
59	124	0	0
60	124	0	0
61	124	1	0
62	124	1	0
63	124	1	0
47	125	0	0
48	125	0	0
49	125	1	0
50	125	0	0
51	125	1	0
52	125	1	0
53	125	1	0
54	125	1	0
55	125	1	0
56	125	1	0
57	125	1	0
58	125	0	0
59	125	0	0
60	125	0	0
61	125	1	0
62	125	1	0
63	125	1	0
64	125	1	0
65	125	1	0
66	125	1	0
67	125	1	0
68	125	0	0
69	125	0	0
70	125	0	0
71	125	1	0
72	125	1	0
73	125	1	0
74	125	1	0
75	125	1	0
76	125	1	0
77	125	1	0
78	125	0	0
79	125	0	0
80	125	0	0
81	125	1	0
82	125	1	0
1	126	0	0
2	126	0	0
3	126	1	0
4	126	0	0
5	126	1	0
6	126	1	0
7	126	0	0
8	126	0	0
9	126	0	0
10	126	0	0
65	127	0	0
66	127	1	0
67	127	1	0
68	127	0	0
69	127	0	0
70	127	0	0
71	127	1	0
72	127	1	0
73	127	1	0
74	127	1	0
75	127	1	0
76	127	1	0
77	127	1	0
78	127	0	0
79	127	0	0
80	127	0	0
81	127	1	0
82	127	1	0
83	127	1	0
84	127	1	0
85	127	1	0
86	127	1	0
87	127	1	0
88	127	0	0
89	127	1	0
90	127	1	0
91	127	1	0
92	127	0	0
3	128	1	0
4	128	0	0
5	128	1	0
6	128	0	0
7	128	0	0
8	128	0	0
9	128	1	0
10	128	0	0
11	128	0	0
12	128	1	0
13	128	0	0
14	128	1	0
15	128	0	0
16	128	0	0
25	129	1	0
26	129	1	0
27	129	1	0
28	129	0	0
29	129	0	0
30	129	0	0
31	129	1	0
32	129	1	0
33	129	1	0
34	129	1	0
35	129	1	0
36	129	1	0
37	129	1	0
38	129	0	0
39	129	0	0
40	129	0	0
41	129	1	0
42	129	1	0
43	129	1	0
44	129	1	0
45	129	1	0
46	129	1	0
47	129	1	0
48	129	0	0
49	129	0	0
50	129	0	0
51	129	1	0
52	129	1	0
53	129	1	0
54	129	1	0
55	129	1	0
56	129	1	0
57	129	1	0
58	129	0	0
70	130	0	0
71	130	1	0
72	130	1	0
73	130	1	0
74	130	1	0
75	130	0	0
76	130	1	0
77	130	1	0
78	130	0	0
79	130	0	0
80	130	0	0
81	130	1	0
82	130	1	0
83	130	1	0
84	130	1	0
85	130	0	0
86	130	1	0
87	130	1	0
88	130	0	0
89	130	1	0
90	130	1	0
91	130	1	0
92	130	1	0
93	130	1	0
94	130	1	0
95	130	1	0
96	130	0	0
97	130	0	0
1	131	0	0
2	131	0	0
11	132	0	0
12	132	1	0
13	132	1	0
14	132	1	0
15	132	0	0
16	132	0	0
17	132	0	0
18	132	1	0
19	132	0	0
20	132	1	0
21	132	0	0
22	132	0	0
23	132	0	0
24	132	1	0
85	133	1	0
86	133	1	0
87	133	1	0
88	133	0	0
89	133	1	0
90	133	1	0
91	133	1	0
92	133	1	0
93	133	1	0
94	133	1	0
95	133	1	0
96	133	1	0
97	133	0	0
98	133	0	0
99	133	0	0
100	133	1	0
80	134	0	0
81	134	1	0
82	134	1	0
83	134	1	0
84	134	1	0
85	134	1	0
86	134	1	0
87	134	1	0
88	134	0	0
89	134	1	0
90	134	1	0
91	134	1	0
92	134	1	0
93	134	1	0
94	134	1	0
95	134	1	0
96	134	1	0
97	134	0	0
98	134	0	0
99	134	0	0
100	134	1	0
27	135	1	0
28	135	0	0
29	135	0	0
30	135	0	0
31	135	1	0
32	135	1	0
33	135	1	0
34	135	1	0
35	135	1	0
36	135	1	0
37	135	1	0
38	135	0	0
39	135	0	0
40	135	0	0
41	135	1	0
42	135	1	0
43	135	1	0
44	135	1	0
45	135	1	0
46	135	1	0
47	135	1	0
48	135	0	0
49	135	0	0
50	135	0	0
51	135	1	0
52	135	1	0
53	135	1	0
54	135	1	0
55	135	1	0
56	135	1	0
57	135	1	0
58	135	0	0
59	135	0	0
60	135	0	0
61	135	1	0
62	135	1	0
84	136	1	0
85	136	1	0
86	136	1	0
87	136	1	0
88	136	0	0
89	136	1	0
90	136	1	0
91	136	1	0
92	136	1	0
93	136	1	0
94	136	1	0
95	136	1	0
96	136	1	0
97	136	0	0
98	136	0	0
99	136	0	0
100	136	1	0
92	137	1	0
93	137	1	0
94	137	1	0
95	137	1	0
96	137	1	0
97	137	0	0
98	137	0	0
99	137	0	0
100	137	1	0
75	138	1	0
76	138	1	0
77	138	1	0
78	138	0	0
79	138	0	0
80	138	0	0
81	138	1	0
82	138	1	0
83	138	1	0
84	138	1	0
85	138	1	0
86	138	1	0
87	138	1	0
88	138	0	0
89	138	1	0
90	138	1	0
91	138	1	0
92	138	1	0
93	138	1	0
94	138	1	0
95	138	1	0
96	138	1	0
97	138	1	0
98	138	0	0
99	138	0	0
100	138	1	0
82	139	1	0
83	139	1	0
84	139	1	0
85	139	1	0
86	139	1	0
87	139	1	0
88	139	0	0
89	139	1	0
90	139	1	0
91	139	1	0
92	139	1	0
93	139	1	0
94	139	1	0
95	139	1	0
96	139	0	0
97	139	0	0
98	139	0	0
99	139	0	0
100	139	1	0
1	140	0	0
2	140	0	0
3	140	1	0
4	140	0	0
5	140	1	0
6	140	0	0
7	140	0	0
8	140	1	0
46	141	1	0
47	141	1	0
48	141	0	0
49	141	0	0
50	141	1	0
51	141	1	0
52	141	0	0
53	141	1	0
54	141	1	0
55	141	0	0
56	141	1	0
57	141	0	0
58	141	0	0
59	141	0	0
60	141	0	0
61	141	1	0
62	141	1	0
63	141	1	0
64	141	1	0
65	141	1	0
66	141	1	0
67	141	1	0
68	141	0	0
69	141	0	0
70	141	0	0
71	141	1	0
72	141	1	0
73	141	1	0
74	141	1	0
75	141	1	0
76	141	1	0
77	141	1	0
78	141	0	0
79	141	0	0
80	141	0	0
81	141	1	0
55	142	0	0
56	142	1	0
57	142	1	0
58	142	0	0
59	142	0	0
60	142	0	0
61	142	1	0
62	142	1	0
63	142	1	0
64	142	1	0
65	142	1	0
66	142	1	0
67	142	1	0
68	142	0	0
69	142	0	0
70	142	0	0
71	142	1	0
72	142	1	0
73	142	1	0
74	142	1	0
75	142	1	0
76	142	1	0
77	142	1	0
78	142	0	0
79	142	0	0
80	142	0	0
81	142	1	0
82	142	1	0
83	142	1	0
84	142	1	0
85	142	1	0
86	142	1	0
87	142	1	0
40	143	0	0
41	143	1	0
42	143	1	0
43	143	1	0
44	143	1	0
45	143	0	0
46	143	1	0
47	143	1	0
48	143	0	0
49	143	0	0
50	143	0	0
51	143	1	0
52	143	0	0
53	143	1	0
54	143	1	0
55	143	1	0
56	143	1	0
57	143	1	0
58	143	0	0
59	143	0	0
60	143	0	0
61	143	1	0
62	143	1	0
63	143	1	0
64	143	1	0
65	143	1	0
66	143	1	0
67	143	1	0
68	143	0	0
69	143	0	0
70	143	0	0
71	143	1	0
72	143	1	0
73	143	1	0
74	143	1	0
73	144	0	0
74	144	1	0
75	144	1	0
76	144	1	0
77	144	1	0
78	144	0	0
79	144	0	0
80	144	0	0
81	144	1	0
82	144	1	0
83	144	1	0
84	144	1	0
85	144	1	0
86	144	0	0
87	144	1	0
88	144	0	0
89	144	1	0
90	144	1	0
91	144	1	0
92	144	1	0
93	144	1	0
94	144	1	0
95	144	1	0
96	144	1	0
97	144	0	0
98	144	0	0
99	144	0	0
100	144	1	0
1	145	0	0
2	145	0	0
3	145	1	0
4	145	0	0
66	146	1	0
67	146	1	0
68	146	0	0
69	146	0	0
70	146	0	0
71	146	1	0
72	146	1	0
73	146	1	0
74	146	1	0
75	146	1	0
76	146	1	0
77	146	1	0
78	146	0	0
79	146	1	0
80	146	0	0
81	146	1	0
82	146	1	0
83	146	1	0
84	146	1	0
85	146	1	0
86	146	1	0
87	146	1	0
88	146	0	0
89	146	1	0
90	146	1	0
91	146	1	0
92	146	1	0
93	146	1	0
94	146	0	0
61	147	1	0
62	147	1	0
63	147	1	0
64	147	1	0
65	147	1	0
66	147	1	0
67	147	1	0
68	147	0	0
69	147	0	0
70	147	0	0
71	147	1	0
72	147	1	0
73	147	1	0
74	147	1	0
75	147	1	0
76	147	1	0
77	147	1	0
78	147	0	0
79	147	0	0
80	147	0	0
81	147	1	0
82	147	1	0
83	147	1	0
84	147	1	0
85	147	1	0
86	147	1	0
87	147	1	0
88	147	0	0
89	147	1	0
8	148	0	0
9	148	1	0
10	148	0	0
11	148	0	0
12	148	1	0
13	148	0	0
14	148	1	0
15	148	0	0
16	148	0	0
17	148	0	0
18	148	1	0
19	148	0	0
8	149	0	0
9	149	1	0
10	149	0	0
11	149	0	0
12	149	1	0
13	149	0	0
14	149	1	0
15	149	0	0
16	149	1	0
17	149	0	0
18	149	1	0
19	149	0	0
44	150	1	0
45	150	1	0
46	150	1	0
47	150	1	0
48	150	0	0
49	150	0	0
50	150	0	0
51	150	1	0
52	150	1	0
53	150	1	0
54	150	1	0
55	150	1	0
56	150	1	0
57	150	1	0
58	150	0	0
59	150	0	0
60	150	0	0
61	150	1	0
62	150	1	0
63	150	1	0
64	150	1	0
65	150	1	0
66	150	1	0
67	150	1	0
68	150	0	0
69	150	0	0
70	150	0	0
71	150	1	0
72	150	1	0
73	150	1	0
74	150	1	0
75	150	1	0
76	150	1	0
77	150	1	0
11	151	0	0
12	151	1	0
13	151	0	0
14	151	1	0
15	151	0	0
16	151	0	0
17	151	0	0
18	151	1	0
19	151	0	0
20	151	1	0
21	151	0	0
22	151	0	0
23	151	0	0
24	151	1	0
25	151	1	0
26	151	1	0
27	151	1	0
28	151	0	0
29	151	0	0
72	152	1	0
73	152	1	0
74	152	1	0
75	152	1	0
76	152	1	0
77	152	1	0
78	152	0	0
79	152	0	0
80	152	0	0
81	152	1	0
82	152	1	0
83	152	1	0
84	152	1	0
85	152	1	0
86	152	1	0
87	152	1	0
88	152	0	0
89	152	1	0
90	152	1	0
91	152	1	0
92	152	1	0
93	152	1	0
94	152	1	0
95	152	1	0
96	152	1	0
97	152	0	0
98	152	0	0
99	152	1	0
100	152	1	0
19	153	0	0
20	153	1	0
21	153	0	0
22	153	1	0
23	153	0	0
24	153	1	0
25	153	1	0
26	153	1	0
27	153	1	0
28	153	0	0
29	153	0	0
30	153	0	0
31	153	1	0
32	153	1	0
33	153	1	0
34	153	1	0
35	153	1	0
36	153	1	0
37	153	1	0
38	153	0	0
39	153	0	0
40	153	0	0
41	153	1	0
42	153	1	0
43	153	1	0
44	153	1	0
45	153	1	0
69	154	0	0
70	154	0	0
71	154	1	0
72	154	1	0
73	154	1	0
74	154	1	0
75	154	1	0
76	154	1	0
77	154	1	0
78	154	0	0
79	154	0	0
80	154	0	0
81	154	1	0
82	154	1	0
83	154	1	0
84	154	1	0
85	154	1	0
86	154	1	0
87	154	1	0
88	154	0	0
89	154	1	0
90	154	1	0
91	154	0	0
92	154	1	0
93	154	1	0
94	154	1	0
95	154	1	0
96	154	1	0
97	154	0	0
99	155	0	0
100	155	1	0
9	156	1	0
10	156	0	0
11	156	0	0
12	156	1	0
13	156	0	0
14	156	1	0
15	156	0	0
16	156	1	0
17	156	0	0
18	156	1	0
19	156	1	0
20	156	1	0
21	156	0	0
1	157	0	0
2	157	0	0
3	157	1	0
4	157	0	0
5	157	1	0
6	157	0	0
7	157	0	0
8	157	0	0
9	157	1	0
10	157	0	0
87	158	1	0
88	158	1	0
89	158	1	0
90	158	0	0
91	158	1	0
92	158	0	0
93	158	1	0
94	158	1	0
95	158	1	0
96	158	1	0
97	158	0	0
98	158	0	0
99	158	0	0
100	158	1	0
28	159	0	0
29	159	0	0
30	159	0	0
31	159	1	0
32	159	1	0
33	159	1	0
34	159	1	0
35	159	1	0
36	159	1	0
37	159	1	0
38	159	0	0
39	159	0	0
40	159	0	0
41	159	1	0
42	159	1	0
43	159	1	0
44	159	1	0
45	159	1	0
46	159	1	0
47	159	1	0
48	159	0	0
49	159	0	0
50	159	0	0
51	159	1	0
52	159	1	0
53	159	1	0
54	159	1	0
55	159	0	0
56	159	1	0
57	159	1	0
58	159	0	0
59	159	0	0
60	159	0	0
61	159	1	0
62	159	1	0
95	160	1	0
96	160	1	0
97	160	0	0
98	160	0	0
99	160	0	0
100	160	1	0
45	161	1	0
46	161	1	0
47	161	1	0
48	161	0	0
49	161	0	0
50	161	0	0
51	161	1	0
52	161	1	0
53	161	1	0
54	161	1	0
55	161	1	0
56	161	1	0
57	161	0	0
58	161	0	0
59	161	0	0
60	161	0	0
61	161	1	0
62	161	1	0
63	161	1	0
64	161	1	0
65	161	1	0
66	161	0	0
67	161	0	0
68	161	1	0
69	161	0	0
70	161	0	0
71	161	1	0
72	161	1	0
73	161	1	0
74	161	1	0
75	161	1	0
76	161	1	0
77	161	1	0
78	161	0	0
99	162	0	0
100	162	1	0
29	163	0	0
30	163	0	0
31	163	1	0
32	163	1	0
33	163	1	0
34	163	1	0
35	163	1	0
36	163	1	0
37	163	1	0
38	163	0	0
39	163	0	0
40	163	0	0
41	163	1	0
42	163	1	0
43	163	1	0
44	163	1	0
45	163	1	0
46	163	1	0
47	163	1	0
48	163	0	0
49	163	0	0
50	163	0	0
51	163	1	0
52	163	1	0
53	163	1	0
54	163	1	0
55	163	1	0
56	163	1	0
57	163	1	0
58	163	0	0
59	163	0	0
60	163	0	0
61	163	1	0
62	163	1	0
63	163	1	0
25	164	1	0
26	164	1	0
27	164	1	0
28	164	0	0
29	164	0	0
30	164	0	0
31	164	1	0
32	164	1	0
33	164	0	0
34	164	1	0
35	164	1	0
36	164	1	0
37	164	1	0
38	164	0	0
39	164	1	0
40	164	0	0
41	164	1	0
42	164	1	0
43	164	1	0
44	164	1	0
45	164	1	0
46	164	1	0
47	164	1	0
48	164	0	0
49	164	0	0
50	164	0	0
51	164	1	0
52	164	1	0
53	164	1	0
54	164	1	0
55	164	1	0
56	164	1	0
57	164	1	0
58	164	0	0
59	164	0	0
1	165	0	0
2	165	0	0
3	165	1	0
4	165	0	0
5	165	1	0
6	165	0	0
7	165	0	0
8	165	0	0
9	165	1	0
10	165	0	0
12	166	0	0
13	166	0	0
14	166	0	0
15	166	0	0
16	166	0	0
17	166	0	0
18	166	1	0
19	166	0	0
20	166	1	0
21	166	0	0
22	166	0	0
23	166	0	0
24	166	1	0
25	166	1	0
26	166	1	0
27	166	1	0
28	166	0	0
29	166	0	0
30	166	0	0
31	166	1	0
1	167	0	0
2	167	0	0
1	168	0	0
2	168	0	0
3	168	1	0
4	168	0	0
5	168	1	0
6	168	0	0
7	168	0	0
8	168	1	0
9	168	1	0
10	168	0	0
11	168	0	0
63	169	1	0
64	169	1	0
65	169	1	0
66	169	1	0
67	169	1	0
68	169	0	0
69	169	0	0
70	169	0	0
71	169	1	0
72	169	1	0
73	169	1	0
74	169	1	0
75	169	1	0
76	169	1	0
77	169	0	0
78	169	0	0
79	169	0	0
80	169	0	0
81	169	1	0
82	169	1	0
83	169	1	0
84	169	1	0
85	169	1	0
86	169	1	0
87	169	1	0
88	169	1	0
89	169	1	0
90	169	1	0
91	169	1	0
1	170	0	0
2	170	0	0
3	170	1	0
12	171	0	0
13	171	0	0
14	171	0	0
15	171	0	0
16	171	0	0
17	171	0	0
18	171	1	0
19	171	0	0
20	171	1	0
21	171	0	0
22	171	0	0
23	171	0	0
24	171	1	0
25	171	1	0
26	171	1	0
27	171	1	0
28	171	1	0
29	171	0	0
30	171	0	0
31	171	1	0
32	171	1	0
83	172	1	0
84	172	1	0
85	172	1	0
86	172	1	0
87	172	1	0
88	172	0	0
89	172	1	0
90	172	1	0
91	172	1	0
92	172	1	0
93	172	1	0
94	172	1	0
95	172	1	0
96	172	0	0
97	172	0	0
98	172	0	0
99	172	0	0
100	172	1	0
55	173	1	0
56	173	1	0
57	173	1	0
58	173	0	0
59	173	0	0
60	173	0	0
61	173	1	0
62	173	1	0
63	173	1	0
64	173	1	0
65	173	1	0
66	173	1	0
67	173	1	0
68	173	0	0
69	173	0	0
70	173	0	0
71	173	1	0
72	173	1	0
73	173	1	0
74	173	1	0
75	173	1	0
76	173	1	0
77	173	1	0
78	173	0	0
79	173	0	0
80	173	0	0
81	173	1	0
82	173	1	0
83	173	0	0
84	173	1	0
85	173	1	0
54	174	1	0
55	174	1	0
56	174	1	0
57	174	1	0
58	174	0	0
59	174	0	0
60	174	1	0
61	174	1	0
62	174	1	0
63	174	1	0
64	174	1	0
65	174	1	0
66	174	1	0
67	174	1	0
68	174	0	0
69	174	0	0
70	174	0	0
71	174	1	0
72	174	1	0
73	174	1	0
74	174	0	0
75	174	1	0
76	174	1	0
77	174	1	0
78	174	0	0
79	174	0	0
80	174	0	0
81	174	1	0
82	174	1	0
83	174	1	0
84	174	1	0
85	174	1	0
1	175	0	0
2	175	0	0
3	175	1	0
4	175	0	0
5	175	1	0
6	175	0	0
7	175	0	0
8	175	0	0
9	175	1	0
10	175	0	0
11	175	0	0
12	175	1	0
19	176	0	0
20	176	1	0
21	176	0	0
22	176	0	0
23	176	0	0
24	176	1	0
25	176	1	0
26	176	1	0
27	176	1	0
28	176	0	0
29	176	0	0
30	176	0	0
31	176	1	0
32	176	1	0
33	176	1	0
34	176	1	0
35	176	1	0
36	176	1	0
37	176	0	0
38	176	0	0
39	176	0	0
40	176	0	0
41	176	1	0
42	176	1	0
43	176	1	0
44	176	1	0
35	177	1	0
36	177	1	0
37	177	1	0
38	177	0	0
39	177	0	0
40	177	0	0
41	177	1	0
42	177	0	0
43	177	1	0
44	177	1	0
45	177	1	0
46	177	1	0
47	177	1	0
48	177	1	0
49	177	0	0
50	177	0	0
51	177	1	0
52	177	1	0
53	177	1	0
54	177	1	0
55	177	1	0
56	177	0	0
57	177	1	0
58	177	0	0
59	177	0	0
60	177	0	0
61	177	1	0
62	177	1	0
63	177	1	0
64	177	1	0
65	177	1	0
66	177	1	0
67	177	1	0
68	177	0	0
69	177	0	0
98	178	0	0
99	178	0	0
100	178	1	0
2	179	0	0
3	179	1	0
4	179	0	0
5	179	1	0
6	179	0	0
7	179	0	0
8	179	0	0
9	179	1	0
10	179	0	0
11	179	0	0
12	179	1	0
13	179	0	0
14	179	0	0
7	180	0	0
8	180	0	0
9	180	1	0
10	180	0	0
11	180	0	0
12	180	1	0
13	180	0	0
14	180	1	0
15	180	0	0
16	180	0	0
17	180	0	0
18	180	1	0
19	180	0	0
9	181	1	0
10	181	0	0
11	181	0	0
12	181	1	0
13	181	0	0
14	181	1	0
15	181	1	0
16	181	0	0
17	181	0	0
18	181	1	0
19	181	0	0
64	182	1	0
65	182	1	0
66	182	0	0
67	182	1	0
68	182	0	0
69	182	0	0
70	182	0	0
71	182	1	0
72	182	1	0
73	182	0	0
74	182	1	0
75	182	1	0
76	182	1	0
77	182	1	0
78	182	1	0
79	182	0	0
80	182	0	0
81	182	1	0
82	182	1	0
83	182	1	0
84	182	1	0
85	182	1	0
86	182	1	0
87	182	0	0
88	182	0	0
89	182	1	0
90	182	1	0
91	182	1	0
92	182	1	0
20	183	1	0
21	183	0	0
22	183	0	0
23	183	0	0
24	183	1	0
25	183	1	0
26	183	1	0
27	183	1	0
28	183	0	0
29	183	0	0
30	183	0	0
31	183	1	0
32	183	1	0
33	183	1	0
34	183	1	0
35	183	1	0
36	183	1	0
37	183	1	0
38	183	0	0
39	183	0	0
40	183	0	0
41	183	1	0
42	183	1	0
43	183	1	0
44	183	1	0
45	183	1	0
46	183	1	0
47	183	1	0
1	184	0	0
2	184	0	0
3	184	1	0
4	184	0	0
5	184	0	0
6	184	0	0
7	184	0	0
23	185	0	0
24	185	1	0
25	185	1	0
26	185	0	0
27	185	1	0
28	185	0	0
29	185	0	0
30	185	0	0
31	185	1	0
32	185	1	0
33	185	1	0
34	185	1	0
35	185	1	0
36	185	1	0
37	185	1	0
38	185	0	0
39	185	0	0
40	185	0	0
41	185	1	0
42	185	0	0
43	185	1	0
44	185	1	0
45	185	1	0
46	185	1	0
47	185	0	0
48	185	0	0
49	185	0	0
50	185	0	0
51	185	1	0
52	185	1	0
53	185	1	0
54	185	1	0
55	185	0	0
3	186	1	0
4	186	0	0
5	186	1	0
6	186	0	0
7	186	0	0
8	186	0	0
9	186	1	0
10	186	0	0
11	186	0	0
12	186	1	0
13	186	0	0
14	186	1	0
15	186	0	0
73	187	1	0
74	187	1	0
75	187	1	0
76	187	1	0
77	187	1	0
78	187	0	0
79	187	0	0
80	187	0	0
81	187	1	0
82	187	1	0
83	187	1	0
84	187	1	0
85	187	1	0
86	187	1	0
87	187	1	0
88	187	0	0
89	187	1	0
90	187	1	0
91	187	1	0
92	187	1	0
93	187	1	0
94	187	1	0
95	187	1	0
96	187	0	0
97	187	0	0
98	187	0	0
99	187	0	0
100	187	1	0
9	188	1	0
10	188	0	0
11	188	0	0
12	188	1	0
13	188	0	0
14	188	1	0
15	188	0	0
16	188	0	0
17	188	0	0
18	188	1	0
19	188	0	0
20	188	1	0
21	188	0	0
1	189	0	0
2	189	0	0
3	189	1	0
36	190	1	0
37	190	1	0
38	190	0	0
39	190	0	0
40	190	0	0
41	190	1	0
42	190	1	0
43	190	1	0
44	190	0	0
45	190	1	0
46	190	1	0
47	190	1	0
48	190	0	0
49	190	1	0
50	190	0	0
51	190	1	0
52	190	1	0
53	190	1	0
54	190	1	0
55	190	1	0
56	190	1	0
57	190	1	0
58	190	0	0
59	190	0	0
60	190	0	0
61	190	1	0
62	190	1	0
63	190	1	0
64	190	1	0
65	190	1	0
66	190	1	0
67	190	1	0
68	190	0	0
69	190	0	0
70	190	0	0
71	190	1	0
80	191	0	0
81	191	1	0
82	191	1	0
83	191	1	0
84	191	1	0
85	191	1	0
86	191	1	0
87	191	1	0
88	191	0	0
89	191	1	0
90	191	1	0
91	191	1	0
92	191	1	0
93	191	1	0
94	191	1	0
95	191	1	0
96	191	1	0
97	191	1	0
98	191	0	0
99	191	0	0
100	191	1	0
13	192	0	0
14	192	1	0
15	192	0	0
16	192	0	0
17	192	0	0
18	192	1	0
19	192	0	0
20	192	1	0
21	192	0	0
22	192	0	0
23	192	0	0
24	192	1	0
25	192	1	0
26	192	1	0
27	192	1	0
28	192	0	0
29	192	0	0
30	192	0	0
31	192	1	0
32	192	1	0
33	192	1	0
34	192	1	0
64	193	1	0
65	193	1	0
66	193	1	0
67	193	1	0
68	193	0	0
69	193	0	0
70	193	0	0
71	193	1	0
72	193	1	0
73	193	1	0
74	193	0	0
75	193	1	0
76	193	1	0
77	193	1	0
78	193	0	0
79	193	0	0
80	193	0	0
81	193	1	0
82	193	1	0
83	193	1	0
84	193	1	0
85	193	1	0
86	193	1	0
87	193	1	0
88	193	0	0
89	193	1	0
90	193	1	0
91	193	1	0
92	193	1	0
23	194	1	0
24	194	1	0
25	194	1	0
26	194	1	0
27	194	1	0
28	194	0	0
29	194	0	0
30	194	0	0
31	194	1	0
32	194	1	0
33	194	1	0
34	194	1	0
35	194	1	0
36	194	1	0
37	194	1	0
38	194	0	0
39	194	0	0
40	194	0	0
41	194	1	0
42	194	0	0
43	194	1	0
44	194	1	0
45	194	1	0
46	194	1	0
47	194	1	0
48	194	0	0
49	194	0	0
50	194	0	0
51	194	1	0
52	194	1	0
53	194	1	0
54	194	1	0
55	194	1	0
56	194	1	0
28	195	0	0
29	195	0	0
30	195	0	0
31	195	1	0
32	195	1	0
33	195	1	0
34	195	1	0
35	195	1	0
36	195	1	0
37	195	1	0
38	195	0	0
39	195	0	0
40	195	0	0
41	195	1	0
42	195	1	0
43	195	1	0
44	195	1	0
45	195	1	0
46	195	1	0
47	195	1	0
48	195	0	0
49	195	0	0
50	195	0	0
51	195	1	0
52	195	1	0
53	195	1	0
54	195	1	0
55	195	1	0
56	195	1	0
57	195	1	0
58	195	0	0
59	195	0	0
60	195	0	0
61	195	1	0
62	195	1	0
94	196	1	0
95	196	1	0
96	196	1	0
97	196	0	0
98	196	0	0
99	196	0	0
100	196	1	0
73	197	1	0
74	197	1	0
75	197	1	0
76	197	1	0
77	197	1	0
78	197	0	0
79	197	0	0
80	197	0	0
81	197	1	0
82	197	1	0
83	197	1	0
84	197	1	0
85	197	1	0
86	197	1	0
87	197	1	0
88	197	0	0
89	197	1	0
90	197	1	0
91	197	1	0
92	197	1	0
93	197	1	0
94	197	1	0
95	197	1	0
96	197	1	0
97	197	0	0
98	197	0	0
99	197	0	0
100	197	1	0
1	198	1	0
2	198	0	0
3	198	1	0
4	198	0	0
56	199	1	0
57	199	1	0
58	199	0	0
59	199	0	0
60	199	0	0
61	199	1	0
62	199	1	0
63	199	1	0
64	199	1	0
65	199	1	0
66	199	1	0
67	199	1	0
68	199	0	0
69	199	0	0
70	199	0	0
71	199	1	0
72	199	1	0
73	199	0	0
74	199	1	0
75	199	1	0
76	199	1	0
77	199	1	0
78	199	0	0
79	199	0	0
80	199	0	0
81	199	1	0
82	199	1	0
83	199	1	0
84	199	0	0
85	199	1	0
86	199	1	0
87	199	1	0
88	199	0	0
20	200	1	0
21	200	0	0
22	200	0	0
23	200	0	0
24	200	1	0
25	200	1	0
26	200	1	0
27	200	1	0
28	200	0	0
29	200	0	0
30	200	0	0
31	200	1	0
32	200	1	0
33	200	1	0
34	200	1	0
35	200	1	0
36	200	1	0
37	200	1	0
38	200	0	0
39	200	0	0
40	200	0	0
41	200	1	0
42	200	1	0
43	200	1	0
44	200	1	0
45	200	1	0
46	200	1	0
47	200	1	0
48	200	0	0
49	200	0	0
92	201	1	0
93	201	1	0
94	201	1	0
95	201	1	0
96	201	1	0
97	201	0	0
98	201	0	0
99	201	0	0
100	201	1	0
3	202	1	0
4	202	0	0
5	202	1	0
6	202	1	0
7	202	0	0
8	202	0	0
9	202	1	0
10	202	0	0
11	202	0	0
12	202	1	0
13	202	0	0
14	202	1	0
15	202	0	0
16	202	0	0
9	203	0	0
10	203	0	0
11	203	0	0
12	203	1	0
13	203	0	0
14	203	1	0
15	203	0	0
16	203	0	0
17	203	0	0
18	203	1	0
19	203	0	0
20	203	1	0
1	204	0	0
2	204	0	0
3	204	1	0
4	204	0	0
5	204	1	0
6	204	1	0
7	204	0	0
8	204	0	0
18	205	1	0
19	205	0	0
20	205	1	0
21	205	0	0
22	205	0	0
23	205	0	0
24	205	1	0
25	205	1	0
26	205	1	0
27	205	1	0
28	205	0	0
29	205	1	0
30	205	0	0
31	205	1	0
32	205	1	0
33	205	1	0
34	205	1	0
35	205	1	0
36	205	1	0
37	205	1	0
38	205	0	0
39	205	0	0
40	205	0	0
41	205	1	0
42	205	1	0
43	205	1	0
1	206	1	0
2	206	0	0
3	206	1	0
4	206	0	0
5	206	1	0
6	206	0	0
7	206	0	0
8	206	0	0
9	206	0	0
45	207	1	0
46	207	1	0
47	207	1	0
48	207	0	0
49	207	0	0
50	207	0	0
51	207	1	0
52	207	1	0
53	207	1	0
54	207	1	0
55	207	1	0
56	207	1	0
57	207	1	0
58	207	0	0
59	207	0	0
60	207	0	0
61	207	1	0
62	207	1	0
63	207	1	0
64	207	1	0
65	207	1	0
66	207	1	0
67	207	1	0
68	207	0	0
69	207	0	0
70	207	0	0
71	207	1	0
72	207	1	0
73	207	1	0
74	207	1	0
75	207	0	0
76	207	1	0
77	207	1	0
73	208	1	0
74	208	1	0
75	208	1	0
76	208	1	0
77	208	1	0
78	208	0	0
79	208	1	0
80	208	1	0
81	208	1	0
82	208	1	0
83	208	1	0
84	208	1	0
85	208	1	0
86	208	1	0
87	208	1	0
88	208	0	0
89	208	0	0
90	208	1	0
91	208	1	0
92	208	1	0
93	208	1	0
94	208	0	0
95	208	1	0
96	208	1	0
97	208	0	0
98	208	0	0
99	208	0	0
100	208	1	0
55	209	1	0
56	209	1	0
57	209	1	0
58	209	0	0
59	209	0	0
60	209	0	0
61	209	1	0
62	209	0	0
63	209	1	0
64	209	1	0
65	209	1	0
66	209	1	0
67	209	1	0
68	209	0	0
69	209	0	0
70	209	0	0
71	209	1	0
72	209	1	0
73	209	1	0
74	209	1	0
75	209	1	0
76	209	1	0
77	209	0	0
78	209	0	0
79	209	0	0
80	209	0	0
81	209	1	0
82	209	1	0
83	209	1	0
84	209	1	0
85	209	1	0
86	209	1	0
65	210	1	0
66	210	1	0
67	210	1	0
68	210	1	0
69	210	0	0
70	210	0	0
71	210	1	0
72	210	1	0
73	210	1	0
74	210	1	0
75	210	1	0
76	210	1	0
77	210	1	0
78	210	0	0
79	210	0	0
80	210	1	0
81	210	1	0
82	210	1	0
83	210	1	0
84	210	1	0
85	210	1	0
86	210	1	0
87	210	1	0
88	210	0	0
89	210	0	0
90	210	1	0
91	210	1	0
92	210	1	0
93	210	1	0
11	211	1	0
12	211	1	0
13	211	0	0
14	211	1	0
15	211	0	0
16	211	0	0
17	211	0	0
18	211	1	0
19	211	0	0
20	211	1	0
21	211	0	0
22	211	0	0
23	211	0	0
24	211	1	0
25	211	1	0
26	211	1	0
27	211	0	0
28	211	0	0
80	212	0	0
81	212	1	0
82	212	1	0
83	212	1	0
84	212	1	0
85	212	1	0
86	212	1	0
87	212	1	0
88	212	0	0
89	212	1	0
90	212	1	0
91	212	1	0
92	212	1	0
93	212	1	0
94	212	1	0
95	212	0	0
96	212	1	0
97	212	0	0
98	212	0	0
99	212	0	0
100	212	1	0
18	213	1	0
19	213	0	0
20	213	1	0
21	213	0	0
22	213	0	0
23	213	0	0
24	213	1	0
25	213	1	0
26	213	0	0
27	213	1	0
28	213	0	0
29	213	0	0
30	213	0	0
31	213	1	0
32	213	1	0
33	213	1	0
34	213	1	0
35	213	1	0
36	213	1	0
37	213	1	0
38	213	0	0
39	213	0	0
40	213	0	0
41	213	0	0
42	213	1	0
43	213	1	0
75	214	1	0
76	214	1	0
77	214	1	0
78	214	0	0
79	214	0	0
80	214	0	0
81	214	1	0
82	214	1	0
83	214	0	0
84	214	1	0
85	214	1	0
86	214	1	0
87	214	1	0
88	214	0	0
89	214	1	0
90	214	1	0
91	214	1	0
92	214	1	0
93	214	1	0
94	214	1	0
95	214	1	0
96	214	1	0
97	214	0	0
98	214	0	0
99	214	0	0
100	214	1	0
43	215	1	0
44	215	1	0
45	215	1	0
46	215	1	0
47	215	1	0
48	215	0	0
49	215	0	0
50	215	0	0
51	215	1	0
52	215	1	0
53	215	1	0
54	215	1	0
55	215	0	0
56	215	1	0
57	215	1	0
58	215	0	0
59	215	0	0
60	215	0	0
61	215	1	0
62	215	1	0
63	215	1	0
64	215	1	0
65	215	1	0
66	215	1	0
67	215	1	0
68	215	0	0
69	215	0	0
70	215	0	0
71	215	1	0
72	215	1	0
73	215	1	0
74	215	1	0
75	215	1	0
1	216	0	0
2	216	0	0
3	216	1	0
4	216	0	0
5	216	1	0
6	216	0	0
7	216	0	0
8	216	0	0
9	216	1	0
10	216	0	0
1	217	0	0
2	217	0	0
3	217	1	0
4	217	0	0
5	217	1	0
6	217	0	0
7	217	0	0
8	217	0	0
1	218	0	0
2	218	0	0
1	219	0	0
2	219	0	0
3	219	1	0
4	219	0	0
5	219	1	0
6	219	0	0
7	219	0	0
8	219	0	0
20	220	1	0
21	220	0	0
22	220	0	0
23	220	0	0
24	220	1	0
25	220	1	0
26	220	1	0
27	220	1	0
28	220	0	0
29	220	0	0
30	220	0	0
31	220	1	0
32	220	1	0
33	220	1	0
34	220	1	0
35	220	1	0
36	220	1	0
37	220	1	0
38	220	0	0
39	220	0	0
40	220	0	0
41	220	1	0
42	220	1	0
43	220	1	0
44	220	1	0
45	220	1	0
46	220	1	0
47	220	1	0
48	220	0	0
1	221	0	0
2	221	0	0
3	221	1	0
4	221	0	0
5	221	1	0
6	221	0	0
7	221	0	0
8	221	0	0
9	221	1	0
1	222	0	0
2	222	0	0
3	222	1	0
65	223	1	0
66	223	1	0
67	223	1	0
68	223	0	0
69	223	0	0
70	223	0	0
71	223	1	0
72	223	1	0
73	223	1	0
74	223	1	0
75	223	1	0
76	223	1	0
77	223	1	0
78	223	0	0
79	223	0	0
80	223	0	0
81	223	1	0
82	223	1	0
83	223	1	0
84	223	1	0
85	223	1	0
86	223	1	0
87	223	1	0
88	223	0	0
89	223	1	0
90	223	1	0
91	223	1	0
92	223	1	0
93	223	1	0
13	224	0	0
14	224	1	0
15	224	0	0
16	224	0	0
17	224	0	0
18	224	1	0
19	224	0	0
20	224	1	0
21	224	0	0
22	224	0	0
23	224	0	0
24	224	1	0
25	224	1	0
26	224	0	0
27	224	1	0
28	224	0	0
29	224	0	0
30	224	0	0
31	224	1	0
32	224	1	0
33	224	1	0
34	224	1	0
35	224	1	0
36	224	1	0
63	225	1	0
64	225	1	0
65	225	1	0
66	225	1	0
67	225	1	0
68	225	0	0
69	225	0	0
70	225	0	0
71	225	1	0
72	225	0	0
73	225	1	0
74	225	0	0
75	225	1	0
76	225	1	0
77	225	1	0
78	225	0	0
79	225	1	0
80	225	0	0
81	225	1	0
82	225	1	0
83	225	1	0
84	225	1	0
85	225	1	0
86	225	1	0
87	225	0	0
88	225	0	0
89	225	1	0
90	225	0	0
91	225	1	0
20	226	1	0
21	226	0	0
22	226	0	0
23	226	0	0
24	226	1	0
25	226	1	0
26	226	1	0
27	226	1	0
28	226	0	0
29	226	0	0
30	226	0	0
31	226	1	0
32	226	1	0
33	226	1	0
34	226	1	0
35	226	1	0
36	226	1	0
37	226	1	0
38	226	0	0
39	226	0	0
40	226	0	0
41	226	1	0
42	226	1	0
43	226	1	0
44	226	1	0
45	226	1	0
46	226	1	0
20	227	1	0
21	227	0	0
22	227	0	0
23	227	0	0
24	227	1	0
25	227	1	0
26	227	1	0
27	227	1	0
28	227	0	0
29	227	0	0
30	227	0	0
31	227	1	0
32	227	1	0
33	227	1	0
34	227	1	0
35	227	0	0
36	227	1	0
37	227	0	0
38	227	0	0
39	227	0	0
40	227	0	0
41	227	1	0
42	227	1	0
43	227	1	0
44	227	0	0
45	227	1	0
