chr	pos	strand	coverage	freqC
chr1	10499	-	15.00	0.200
chr1	10500	-	17.00	0.010
chr1	10504	-	17.00	0.013
chr1	10509	-	17.00	1.000
chr1	10511	-	17.00	0.900
chr1	10512	-	17.00	0.870
chr1	10514	-	17.00	1.000
chr1	10519	-	17.00	0.950
chr1	10521	-	2.00	0.876
chr2	10526	-	16.00	0.000
chr2	10533	-	16.00	0.120
chr2	10535	-	29.00	0.290
chr2	10543	-	29.00	0.500
chr2	10550	-	29.00	0.300
chr2	10552	-	29.00	0.983
chr2	10555	-	29.00	0.988
chr2	10557	-	29.00	0.754
chr2	10558	-	29.00	0.895
chr3	10564	-	8.00	1.000
chr3	10567	-	25.00	0.000
chr3	10572	-	25.00	1.000
chr3	10578	-	25.00	1.000
chr3	10580	-	25.00	1.000
chr3	10581	-	25.00	0.000
chr3	10583	-	25.00	0.000
chr3	10590	-	17.00	1.000
chr3	10934	+	17.00	1.000
