composition 1	composition 3
5.34596850554001e-61	7.21829157655162e-08
2.0266828390205e-77	1.43006851922061e-12
0.999999999999998	3.93597266876943e-27
7.59250367507129e-74	6.33356351921908e-12
0.999999999999999	0.999999999990377
5.21277167479811e-31	0.999999999999998
7.84412555109099e-56	0.999999999999998
3.68763755160949e-73	3.0761771964182e-11
1	0.999999999773022
4.74898508004859e-79	1.33288835118303e-11
1.20159901876366e-73	2.05877117696703e-08
1	0.999999999998193
1.81324688693405e-76	1.10241870131833e-09
1	0.999999998897584
6.4203986593732e-66	4.856622118889e-07
7.38236986422206e-68	2.01418439768982e-09
8.14361705856869e-70	4.14701885741019e-10
1	0.999999999989448
5.51459086163894e-71	9.78278349426864e-09
0.999999999999999	0.999999991079472
1.51586458402368e-57	0.999999999999977
5.28069257461528e-55	0.999999999999998
2.78346428544698e-54	0.999999999999998
0.999999999999999	0.999999999999852
0.999999999999999	0.999999992582685
1	0.999999999999867
0.999999999999998	1.37269833200272e-24
3.95421038477814e-62	0.999999999999998
4.61125046471197e-88	4.80211248197995e-12
4.30147514030583e-82	7.5815057996027e-08
0.999999999999998	7.59844362892774e-20
0.999999999999999	0.999999999999813
1	1
0.999999999999998	2.99015735832927e-07
1	0.99999999999992
1	0.999999999999998
1	0.999999999946175
1.62627761707939e-89	3.54327071232378e-11
2.15344867595512e-65	0.999999999999998
9.45640799347594e-101	1.65597266845308e-14
0.999999999999998	0.999999999999987
1	0.999999999993347
0.999999999999998	8.33290786316379e-20
1	1
1	1.99861224456857e-15
0.999999999999999	0.999999999999998
0.999999999999997	0.999999999999828
1.14447162633185e-86	3.90642598856588e-13
5.59453678278203e-88	4.72309630000176e-15
2.36976172665237e-63	0.999999999999998
1.00000000000001	0.00106478858696793
0.999999999999999	0.999999999999998
1	1
0.999999999999999	0.999999999999998
1	1
0.999999999999998	2.46673351182775e-27
1	0.999999999999721
7.00531228224744e-88	6.5081914878171e-13
8.21084447704817e-80	8.177525563936e-11
1.14477613056463e-81	3.97177948547495e-10
1	0.999999999946175
0.999999999999999	0.999999999999796
1	0.999999999999982
1	0.999999999999867
0.999999999999998	1.15897587555431e-32
0.999999999999998	2.38931576123762e-22
0.999999999999998	5.72325560177204e-29
4.06342664279807e-85	7.29526574363303e-12
1.15500281832652e-97	4.12227676606373e-17
6.89211814014401e-96	1.47731249327259e-15
1	0.99999999999684
1	0.99999999999992
1	0.999999999999408
1	0.99999999998465
1	0.999999999995621
1	0.999999999995621
1	0.999999999989894
4.32810511891053e-89	1.85623927987533e-13
9.36516645618291e-49	0.999999999999998
9.05752140244214e-82	1.68367666373807e-11
1	1
0.999999999999999	0.999999999999941
0.999999999999998	0.999999999999973
0.999999999999998	6.04732149790203e-22
1	0.999999999999959
1	0.999999916856675
1	0.999999988731778
5.80981666995878e-95	1.62010926088538e-15
1	0.999999999910321
1	0.999999999983165
0.999999999999999	0.999999999999998
0.999999999999998	3.42153871036787e-16
1	1
0.999999999999999	0.99999999999901
1	0.999999999999867
0.999999999999998	0.999999999999995
5.22891983443065e-65	0.999999999999955
2.44768565387321e-89	2.8050422977754e-11
3.75724183227145e-57	0.999999999999998
1	0.999999999999995
