"source"	"trace"	"a"	"b"	"c"	"lag"
"alpha"	"alpha"	-5.565234755535139	2.119877703807697	15.551541108590882	6.350586053284245
"precision"	"precision"	-2.1638588149590987	1.0	999.8989329963134	2.995732273553991
"s1.cellular_prevalence"	"mut2"	0.09005839977950647	1.0	0.748469408219109	2.995732273553991
"s1.cellular_prevalence"	"mut4"	-0.06629551040750825	2.5	0.9903858685011955	7.489330683884977
"s1.cellular_prevalence"	"mut3"	0.21691586891935793	2.119877703807697	0.46699304140327075	6.350586053284245
"s1.cellular_prevalence"	"mut20"	-0.21825690020189947	1.0468802349768656	0.7162690780480319	3.1361729064659816
"s1.cellular_prevalence"	"mut5"	0.19728599644238004	2.5	0.48662291388024864	7.489330683884977
"s1.cellular_prevalence"	"mut10"	-0.06629547845600092	2.5	0.9903858365496881	7.489330683884977
"s1.cellular_prevalence"	"mut11"	0.027776146497739185	2.5	0.896314211595948	7.489330683884977
"s1.cellular_prevalence"	"mut12"	-0.06629555569433987	2.5	0.9903859137880271	7.489330683884977
"s1.cellular_prevalence"	"mut13"	-0.06629549005884317	2.5	0.9903858481525304	7.489330683884977
"s1.cellular_prevalence"	"mut6"	-0.06721823167066932	2.5	0.9913085897643565	7.489330683884977
"s1.cellular_prevalence"	"mut7"	-0.06704777458220001	2.5	0.5650599524283324	7.489330683884977
"s1.cellular_prevalence"	"mut16"	-0.06721823167066932	2.5	0.9913085897643565	7.489330683884977
"s1.cellular_prevalence"	"mut17"	-0.1196264427595316	1.0	0.12537831664875607	2.995732273553991
"s1.cellular_prevalence"	"mut18"	0.014992597530247287	1.0	0.8235352104683682	2.995732273553991
"s1.cellular_prevalence"	"mut19"	-0.052759936565719645	2.5	0.9918200182754493	7.489330683884977
"s1.cellular_prevalence"	"mut1"	0.04942741822600211	2.5	0.4485847596201303	7.489330683884977
"s1.cellular_prevalence"	"mut9"	-0.005674042710648974	2.5	0.6895829530332777	7.489330683884977
"s1.cellular_prevalence"	"mut8"	0.11884895835312237	1.0	0.5650599519695063	2.995732273553991
"s1.cellular_prevalence"	"mut14"	0.0	1.0	0.8037903601865728	2.995732273553991
"s1.cellular_prevalence"	"mut15"	-0.06075838516949117	2.5	0.7446672954921199	7.489330683884977
"s2.cellular_prevalence"	"mut2"	-0.1369212234701217	1.0	0.9791110912473332	2.995732273553991
"s2.cellular_prevalence"	"mut4"	0.11535334471170011	2.5	0.6917587821181519	7.489330683884977
"s2.cellular_prevalence"	"mut3"	-0.23244443060153797	1.0184947628383505	0.9949539038556046	3.0511376314805645
"s2.cellular_prevalence"	"mut20"	-0.009210120368766894	1.0	0.7115685374811777	2.995732273553991
"s2.cellular_prevalence"	"mut5"	-0.23244443060153797	1.0184947628383505	0.9949539038556046	3.0511376314805645
"s2.cellular_prevalence"	"mut10"	0.13120385621366704	2.5	0.675908270616185	7.489330683884977
"s2.cellular_prevalence"	"mut11"	0.0	1.0	0.807112126829852	2.995732273553991
"s2.cellular_prevalence"	"mut12"	0.11535131001948407	2.5	0.6917608168103679	7.489330683884977
"s2.cellular_prevalence"	"mut13"	0.11535622872543294	2.5	0.6917558981044191	7.489330683884977
"s2.cellular_prevalence"	"mut6"	-0.13081942238251776	2.5	0.9379315492123698	7.489330683884977
"s2.cellular_prevalence"	"mut7"	-0.044422521040649476	2.5	0.7467809381530602	7.489330683884977
"s2.cellular_prevalence"	"mut16"	-0.1307736655318118	2.5	0.9378857923616638	7.489330683884977
"s2.cellular_prevalence"	"mut17"	-0.02834752973484922	2.5	0.5630055030958262	7.489330683884977
"s2.cellular_prevalence"	"mut18"	-0.11986707668665253	1.0	0.962056944463864	2.995732273553991
"s2.cellular_prevalence"	"mut19"	-0.2130324576466972	2.5	0.5320065937857071	7.489330683884977
"s2.cellular_prevalence"	"mut1"	0.055176351119452405	2.5	0.6471820659929584	7.489330683884977
"s2.cellular_prevalence"	"mut9"	0.030627835963992767	2.5	0.7318816372900738	7.489330683884977
"s2.cellular_prevalence"	"mut8"	-0.1027619002885668	2.17895874348904	0.8652713735426334	6.527577030612768
"s2.cellular_prevalence"	"mut14"	0.04616866617333981	2.5	0.6725835104877065	7.489330683884977
"s2.cellular_prevalence"	"mut15"	-0.2166016179932666	1.0	0.9791110912473332	2.995732273553991
