#site	read	value	cookie
73	228	1	0
74	228	1	0
75	228	1	0
76	228	1	0
77	228	1	0
78	228	0	0
79	228	0	0
80	228	0	0
81	228	1	0
82	228	1	0
83	228	0	0
84	228	1	0
85	228	1	0
86	228	1	0
87	228	1	0
88	228	0	0
89	228	1	0
90	228	1	0
91	228	1	0
92	228	1	0
93	228	1	0
94	228	1	0
95	228	1	0
96	228	1	0
97	228	0	0
98	228	0	0
99	228	0	0
100	228	1	0
1	229	0	0
2	229	0	0
3	229	1	0
4	229	0	0
5	229	1	0
6	229	0	0
7	229	0	0
8	229	0	0
9	229	1	0
10	229	0	0
11	229	0	0
12	229	1	0
50	230	0	0
51	230	1	0
52	230	1	0
53	230	1	0
54	230	1	0
55	230	1	0
56	230	1	0
57	230	1	0
58	230	0	0
59	230	0	0
60	230	0	0
61	230	1	0
62	230	1	0
63	230	1	0
64	230	1	0
65	230	1	0
66	230	1	0
67	230	1	0
68	230	0	0
69	230	0	0
70	230	1	0
71	230	1	0
72	230	1	0
73	230	1	0
74	230	1	0
75	230	1	0
76	230	1	0
77	230	1	0
78	230	0	0
79	230	0	0
80	230	0	0
81	230	1	0
82	230	1	0
83	230	1	0
84	230	1	0
78	231	0	0
79	231	0	0
80	231	0	0
81	231	1	0
82	231	1	0
83	231	1	0
84	231	1	0
85	231	1	0
86	231	0	0
87	231	0	0
88	231	0	0
89	231	0	0
90	231	1	0
91	231	0	0
92	231	1	0
93	231	1	0
94	231	1	0
95	231	1	0
96	231	1	0
97	231	0	0
98	231	0	0
99	231	0	0
100	231	1	0
94	232	1	0
95	232	1	0
96	232	1	0
97	232	0	0
98	232	0	0
99	232	0	0
100	232	1	0
1	233	0	0
2	233	0	0
3	233	1	0
4	233	0	0
5	233	1	0
6	233	0	0
7	233	0	0
8	233	0	0
9	233	1	0
10	233	0	0
25	234	1	0
26	234	1	0
27	234	1	0
28	234	0	0
29	234	0	0
30	234	0	0
31	234	1	0
32	234	1	0
33	234	1	0
34	234	1	0
35	234	1	0
36	234	1	0
37	234	0	0
38	234	0	0
39	234	0	0
40	234	0	0
41	234	1	0
42	234	1	0
43	234	1	0
44	234	1	0
45	234	1	0
46	234	1	0
47	234	1	0
48	234	0	0
49	234	0	0
50	234	0	0
51	234	1	0
52	234	1	0
53	234	1	0
54	234	1	0
55	234	1	0
56	234	1	0
57	234	1	0
58	234	0	0
59	234	0	0
81	235	1	0
82	235	1	0
83	235	1	0
84	235	1	0
85	235	1	0
86	235	1	0
87	235	1	0
88	235	0	0
89	235	1	0
90	235	1	0
91	235	1	0
92	235	1	0
93	235	1	0
94	235	1	0
95	235	1	0
96	235	1	0
97	235	0	0
98	235	0	0
99	235	0	0
100	235	1	0
27	236	1	0
28	236	0	0
29	236	0	0
30	236	0	0
31	236	1	0
32	236	1	0
33	236	1	0
34	236	0	0
35	236	1	0
36	236	1	0
37	236	1	0
38	236	0	0
39	236	0	0
40	236	0	0
41	236	1	0
42	236	1	0
43	236	1	0
44	236	1	0
45	236	1	0
46	236	1	0
47	236	1	0
48	236	0	0
49	236	0	0
50	236	0	0
51	236	1	0
52	236	1	0
53	236	1	0
54	236	1	0
55	236	1	0
56	236	1	0
57	236	1	0
58	236	0	0
59	236	1	0
60	236	0	0
61	236	0	0
62	236	1	0
60	237	0	0
61	237	1	0
62	237	1	0
63	237	1	0
64	237	1	0
65	237	0	0
66	237	1	0
67	237	1	0
68	237	0	0
69	237	0	0
70	237	0	0
71	237	1	0
72	237	1	0
73	237	1	0
74	237	1	0
75	237	1	0
76	237	1	0
77	237	1	0
78	237	0	0
79	237	0	0
80	237	0	0
81	237	1	0
82	237	1	0
83	237	1	0
84	237	1	0
85	237	1	0
86	237	1	0
87	237	1	0
88	237	0	0
89	237	1	0
70	238	0	0
71	238	1	0
72	238	1	0
73	238	1	0
74	238	1	0
75	238	1	0
76	238	1	0
77	238	1	0
78	238	0	0
79	238	1	0
80	238	0	0
81	238	1	0
82	238	1	0
83	238	1	0
84	238	1	0
85	238	1	0
86	238	1	0
87	238	1	0
88	238	0	0
89	238	1	0
90	238	1	0
91	238	1	0
92	238	1	0
93	238	1	0
94	238	1	0
95	238	1	0
96	238	1	0
97	238	0	0
78	239	0	0
79	239	0	0
80	239	0	0
81	239	1	0
82	239	1	0
83	239	1	0
84	239	1	0
85	239	1	0
86	239	1	0
87	239	1	0
88	239	0	0
89	239	1	0
90	239	1	0
91	239	1	0
92	239	1	0
93	239	1	0
94	239	1	0
95	239	1	0
96	239	1	0
97	239	0	0
98	239	1	0
99	239	1	0
100	239	1	0
50	240	0	0
51	240	1	0
52	240	1	0
53	240	1	0
54	240	1	0
55	240	1	0
56	240	1	0
57	240	0	0
58	240	0	0
59	240	1	0
60	240	0	0
61	240	1	0
62	240	1	0
63	240	1	0
64	240	1	0
65	240	1	0
66	240	1	0
67	240	1	0
68	240	0	0
69	240	0	0
70	240	0	0
71	240	1	0
72	240	1	0
73	240	1	0
74	240	1	0
75	240	1	0
76	240	1	0
77	240	1	0
78	240	0	0
79	240	0	0
80	240	0	0
81	240	1	0
82	240	0	0
83	240	1	0
84	240	0	0
86	241	1	0
87	241	1	0
88	241	0	0
89	241	1	0
90	241	1	0
91	241	1	0
92	241	1	0
93	241	1	0
94	241	1	0
95	241	1	0
96	241	1	0
97	241	0	0
98	241	0	0
99	241	0	0
100	241	1	0
45	242	1	0
46	242	1	0
47	242	1	0
48	242	0	0
49	242	0	0
50	242	0	0
51	242	1	0
52	242	1	0
53	242	1	0
54	242	1	0
55	242	1	0
56	242	1	0
57	242	1	0
58	242	0	0
59	242	0	0
60	242	0	0
61	242	1	0
62	242	1	0
63	242	1	0
64	242	1	0
65	242	1	0
66	242	1	0
67	242	1	0
68	242	0	0
69	242	0	0
70	242	0	0
71	242	1	0
72	242	1	0
73	242	1	0
74	242	0	0
75	242	1	0
76	242	1	0
77	242	1	0
78	242	0	0
79	242	0	0
80	242	0	0
91	243	1	0
92	243	1	0
93	243	1	0
94	243	1	0
95	243	1	0
96	243	1	0
97	243	0	0
98	243	0	0
99	243	0	0
100	243	1	0
43	244	1	0
44	244	1	0
45	244	1	0
46	244	1	0
47	244	1	0
48	244	1	0
49	244	0	0
50	244	0	0
51	244	0	0
52	244	1	0
53	244	1	0
54	244	1	0
55	244	1	0
56	244	0	0
57	244	1	0
58	244	0	0
59	244	0	0
60	244	0	0
61	244	1	0
62	244	1	0
63	244	0	0
64	244	1	0
65	244	0	0
66	244	1	0
67	244	1	0
68	244	0	0
69	244	0	0
70	244	0	0
71	244	1	0
72	244	1	0
73	244	1	0
74	244	1	0
75	244	1	0
76	244	1	0
85	245	1	0
86	245	1	0
87	245	1	0
88	245	0	0
89	245	1	0
90	245	1	0
91	245	1	0
92	245	1	0
93	245	1	0
94	245	1	0
95	245	0	0
96	245	1	0
97	245	0	0
98	245	0	0
99	245	0	0
100	245	0	0
37	246	1	0
38	246	0	0
39	246	1	0
40	246	0	0
41	246	1	0
42	246	1	0
43	246	1	0
44	246	1	0
45	246	1	0
46	246	1	0
47	246	1	0
48	246	0	0
49	246	0	0
50	246	0	0
51	246	0	0
52	246	1	0
53	246	1	0
54	246	1	0
55	246	1	0
56	246	1	0
57	246	1	0
58	246	0	0
59	246	0	0
60	246	0	0
61	246	1	0
62	246	1	0
63	246	0	0
64	246	1	0
65	246	0	0
66	246	1	0
67	246	1	0
68	246	0	0
69	246	0	0
70	246	0	0
71	246	1	0
72	246	0	0
11	247	0	0
12	247	1	0
13	247	0	0
14	247	0	0
15	247	0	0
16	247	0	0
17	247	0	0
18	247	1	0
19	247	0	0
20	247	1	0
21	247	0	0
22	247	0	0
23	247	0	0
24	247	1	0
25	247	1	0
26	247	1	0
27	247	0	0
28	247	1	0
29	247	0	0
75	248	1	0
76	248	1	0
77	248	1	0
78	248	1	0
79	248	0	0
80	248	0	0
81	248	1	0
82	248	1	0
83	248	1	0
84	248	0	0
85	248	1	0
86	248	1	0
87	248	1	0
88	248	0	0
89	248	1	0
90	248	1	0
91	248	1	0
92	248	1	0
93	248	1	0
94	248	1	0
95	248	1	0
96	248	1	0
97	248	0	0
98	248	0	0
99	248	0	0
100	248	1	0
18	249	1	0
19	249	0	0
20	249	1	0
21	249	1	0
22	249	0	0
23	249	0	0
24	249	1	0
25	249	0	0
26	249	1	0
27	249	0	0
28	249	1	0
29	249	0	0
30	249	0	0
31	249	0	0
32	249	1	0
33	249	1	0
34	249	1	0
35	249	1	0
36	249	1	0
37	249	1	0
38	249	0	0
39	249	1	0
40	249	0	0
41	249	1	0
42	249	0	0
43	249	1	0
44	249	1	0
1	250	0	0
2	250	0	0
3	250	1	0
4	250	0	0
5	250	1	0
6	250	0	0
7	250	0	0
8	250	0	0
9	250	1	0
10	250	0	0
94	251	1	0
95	251	1	0
96	251	1	0
97	251	0	0
98	251	0	0
99	251	0	0
100	251	1	0
81	252	1	0
82	252	1	0
83	252	1	0
84	252	1	0
85	252	1	0
86	252	1	0
87	252	0	0
88	252	0	0
89	252	1	0
90	252	1	0
91	252	1	0
92	252	1	0
93	252	1	0
94	252	1	0
95	252	1	0
96	252	1	0
97	252	0	0
98	252	0	0
99	252	0	0
100	252	1	0
32	253	1	0
33	253	1	0
34	253	1	0
35	253	1	0
36	253	1	0
37	253	1	0
38	253	0	0
39	253	0	0
40	253	0	0
41	253	0	0
42	253	1	0
43	253	1	0
44	253	1	0
45	253	1	0
46	253	1	0
47	253	0	0
48	253	0	0
49	253	0	0
50	253	0	0
51	253	1	0
52	253	1	0
53	253	1	0
54	253	1	0
55	253	1	0
56	253	1	0
57	253	1	0
58	253	0	0
59	253	0	0
60	253	0	0
61	253	1	0
62	253	1	0
63	253	1	0
64	253	1	0
50	254	0	0
51	254	0	0
52	254	1	0
53	254	1	0
54	254	1	0
55	254	1	0
56	254	0	0
57	254	1	0
58	254	0	0
59	254	0	0
60	254	1	0
61	254	1	0
62	254	1	0
63	254	1	0
64	254	1	0
65	254	0	0
66	254	1	0
67	254	1	0
68	254	0	0
69	254	0	0
70	254	0	0
71	254	1	0
72	254	1	0
73	254	0	0
74	254	1	0
75	254	1	0
76	254	1	0
77	254	1	0
78	254	0	0
79	254	0	0
80	254	0	0
81	254	1	0
82	254	1	0
83	254	1	0
84	254	1	0
100	255	1	0
1	256	0	0
2	256	0	0
3	256	1	0
4	256	0	0
5	256	1	0
6	256	0	0
7	256	0	0
8	256	0	0
9	256	1	0
10	256	0	0
11	256	0	0
26	257	1	0
27	257	1	0
28	257	0	0
29	257	0	0
30	257	0	0
31	257	1	0
32	257	1	0
33	257	1	0
34	257	1	0
35	257	1	0
36	257	1	0
37	257	1	0
38	257	0	0
39	257	0	0
40	257	0	0
41	257	1	0
42	257	1	0
43	257	1	0
44	257	1	0
45	257	1	0
46	257	1	0
47	257	1	0
48	257	0	0
49	257	0	0
50	257	0	0
51	257	1	0
52	257	1	0
53	257	1	0
54	257	0	0
55	257	1	0
56	257	1	0
57	257	1	0
58	257	0	0
59	257	0	0
60	257	1	0
61	257	1	0
13	258	0	0
14	258	1	0
15	258	0	0
16	258	0	0
17	258	0	0
18	258	1	0
19	258	1	0
20	258	1	0
21	258	0	0
22	258	0	0
23	258	0	0
24	258	1	0
25	258	1	0
26	258	1	0
27	258	1	0
28	258	0	0
29	258	0	0
30	258	0	0
31	258	1	0
32	258	1	0
33	258	1	0
34	258	1	0
35	258	1	0
28	259	0	0
29	259	0	0
30	259	0	0
31	259	1	0
32	259	1	0
33	259	1	0
34	259	1	0
35	259	1	0
36	259	1	0
37	259	1	0
38	259	0	0
39	259	0	0
40	259	0	0
41	259	1	0
42	259	1	0
43	259	1	0
44	259	1	0
45	259	1	0
46	259	1	0
47	259	1	0
48	259	0	0
49	259	0	0
50	259	0	0
51	259	1	0
52	259	1	0
53	259	1	0
54	259	1	0
55	259	1	0
56	259	1	0
57	259	1	0
58	259	0	0
59	259	0	0
60	259	0	0
61	259	1	0
62	259	1	0
1	260	1	0
2	260	0	0
3	260	0	0
4	260	0	0
5	260	1	0
6	260	1	0
7	260	0	0
8	260	0	0
19	261	0	0
20	261	1	0
21	261	0	0
22	261	0	0
23	261	1	0
24	261	1	0
25	261	1	0
26	261	1	0
27	261	1	0
28	261	0	0
29	261	0	0
30	261	0	0
31	261	1	0
32	261	0	0
33	261	1	0
34	261	1	0
35	261	0	0
36	261	1	0
37	261	1	0
38	261	0	0
39	261	1	0
40	261	0	0
41	261	1	0
42	261	1	0
43	261	1	0
44	261	1	0
20	262	1	0
21	262	0	0
22	262	0	0
23	262	0	0
24	262	1	0
25	262	1	0
26	262	1	0
27	262	1	0
28	262	0	0
29	262	0	0
30	262	0	0
31	262	1	0
32	262	1	0
33	262	1	0
34	262	1	0
35	262	1	0
36	262	1	0
37	262	1	0
38	262	1	0
39	262	0	0
40	262	0	0
41	262	1	0
42	262	1	0
43	262	1	0
44	262	1	0
45	262	1	0
46	262	1	0
47	262	1	0
48	262	0	0
37	263	1	0
38	263	0	0
39	263	0	0
40	263	0	0
41	263	1	0
42	263	0	0
43	263	1	0
44	263	1	0
45	263	1	0
46	263	1	0
47	263	1	0
48	263	0	0
49	263	0	0
50	263	0	0
51	263	1	0
52	263	1	0
53	263	1	0
54	263	1	0
55	263	1	0
56	263	0	0
57	263	1	0
58	263	1	0
59	263	0	0
60	263	0	0
61	263	1	0
62	263	1	0
63	263	1	0
64	263	1	0
65	263	1	0
66	263	1	0
67	263	1	0
68	263	0	0
69	263	0	0
70	263	0	0
71	263	1	0
72	263	1	0
49	264	0	0
50	264	0	0
51	264	1	0
52	264	0	0
53	264	1	0
54	264	0	0
55	264	1	0
56	264	0	0
57	264	1	0
58	264	0	0
59	264	0	0
60	264	0	0
61	264	1	0
62	264	1	0
63	264	1	0
64	264	1	0
65	264	1	0
66	264	0	0
67	264	1	0
68	264	0	0
69	264	0	0
70	264	0	0
71	264	1	0
72	264	1	0
73	264	1	0
74	264	1	0
75	264	1	0
76	264	1	0
77	264	1	0
78	264	0	0
79	264	0	0
80	264	0	0
81	264	1	0
82	264	1	0
83	264	1	0
35	265	1	0
36	265	1	0
37	265	0	0
38	265	0	0
39	265	0	0
40	265	0	0
41	265	1	0
42	265	1	0
43	265	1	0
44	265	1	0
45	265	1	0
46	265	1	0
47	265	1	0
48	265	0	0
49	265	0	0
50	265	0	0
51	265	1	0
52	265	1	0
53	265	1	0
54	265	1	0
55	265	1	0
56	265	1	0
57	265	1	0
58	265	0	0
59	265	0	0
60	265	0	0
61	265	1	0
62	265	1	0
63	265	1	0
64	265	1	0
65	265	1	0
66	265	1	0
67	265	1	0
68	265	0	0
69	265	0	0
70	265	0	0
60	266	0	0
61	266	1	0
62	266	1	0
63	266	1	0
64	266	1	0
65	266	1	0
66	266	1	0
67	266	1	0
68	266	0	0
69	266	0	0
70	266	0	0
71	266	1	0
72	266	1	0
73	266	1	0
74	266	1	0
75	266	1	0
76	266	1	0
77	266	1	0
78	266	0	0
79	266	0	0
80	266	0	0
81	266	1	0
82	266	1	0
83	266	0	0
84	266	1	0
85	266	1	0
86	266	1	0
87	266	1	0
88	266	0	0
89	266	1	0
35	267	1	0
36	267	1	0
37	267	1	0
38	267	0	0
39	267	1	0
40	267	0	0
41	267	1	0
42	267	1	0
43	267	1	0
44	267	1	0
45	267	1	0
46	267	1	0
47	267	1	0
48	267	0	0
49	267	0	0
50	267	0	0
51	267	0	0
52	267	0	0
53	267	1	0
54	267	1	0
55	267	1	0
56	267	0	0
57	267	1	0
58	267	0	0
59	267	0	0
60	267	1	0
61	267	1	0
62	267	1	0
63	267	1	0
64	267	1	0
65	267	0	0
66	267	1	0
67	267	1	0
68	267	0	0
69	267	0	0
19	268	0	0
20	268	1	0
21	268	0	0
22	268	0	0
23	268	0	0
24	268	1	0
25	268	1	0
26	268	1	0
27	268	1	0
28	268	0	0
29	268	0	0
30	268	0	0
31	268	1	0
32	268	1	0
33	268	1	0
34	268	1	0
35	268	1	0
36	268	1	0
37	268	1	0
38	268	0	0
39	268	0	0
40	268	0	0
41	268	1	0
42	268	1	0
43	268	1	0
44	268	1	0
22	269	0	0
23	269	0	0
24	269	1	0
25	269	1	0
26	269	1	0
27	269	1	0
28	269	0	0
29	269	0	0
30	269	0	0
31	269	1	0
32	269	1	0
33	269	1	0
34	269	1	0
35	269	1	0
36	269	1	0
37	269	1	0
38	269	1	0
39	269	0	0
40	269	0	0
41	269	1	0
42	269	1	0
43	269	1	0
44	269	1	0
45	269	1	0
46	269	1	0
47	269	1	0
48	269	0	0
49	269	0	0
50	269	0	0
51	269	0	0
52	269	1	0
53	269	1	0
54	269	1	0
18	270	1	0
19	270	0	0
20	270	1	0
21	270	0	0
22	270	0	0
23	270	0	0
24	270	1	0
25	270	1	0
26	270	1	0
27	270	1	0
28	270	0	0
29	270	0	0
30	270	0	0
31	270	1	0
32	270	1	0
33	270	1	0
34	270	1	0
35	270	1	0
36	270	1	0
37	270	1	0
38	270	1	0
39	270	0	0
40	270	0	0
41	270	1	0
42	270	1	0
43	270	1	0
44	270	1	0
3	271	1	0
4	271	0	0
5	271	1	0
6	271	0	0
7	271	0	0
8	271	0	0
9	271	0	0
10	271	0	0
11	271	0	0
12	271	1	0
13	271	0	0
14	271	1	0
15	271	0	0
3	272	1	0
4	272	0	0
5	272	1	0
6	272	1	0
7	272	0	0
8	272	0	0
9	272	1	0
10	272	0	0
11	272	0	0
12	272	1	0
13	272	0	0
14	272	1	0
15	272	0	0
16	272	0	0
17	272	0	0
20	273	1	0
21	273	0	0
22	273	1	0
23	273	1	0
24	273	1	0
25	273	1	0
26	273	1	0
27	273	1	0
28	273	0	0
29	273	0	0
30	273	0	0
31	273	1	0
32	273	1	0
33	273	1	0
34	273	1	0
35	273	1	0
36	273	1	0
37	273	0	0
38	273	0	0
39	273	0	0
40	273	0	0
41	273	1	0
42	273	1	0
43	273	1	0
44	273	1	0
45	273	1	0
46	273	1	0
47	273	1	0
18	274	1	0
19	274	1	0
20	274	1	0
21	274	0	0
22	274	0	0
23	274	1	0
24	274	1	0
25	274	1	0
26	274	1	0
27	274	0	0
28	274	0	0
29	274	0	0
30	274	0	0
31	274	0	0
32	274	1	0
33	274	1	0
34	274	1	0
35	274	1	0
36	274	1	0
37	274	1	0
38	274	0	0
39	274	1	0
40	274	0	0
41	274	1	0
42	274	1	0
43	274	1	0
44	274	1	0
68	275	0	0
69	275	0	0
70	275	0	0
71	275	1	0
72	275	1	0
73	275	1	0
74	275	1	0
75	275	1	0
76	275	0	0
77	275	1	0
78	275	0	0
79	275	0	0
80	275	0	0
81	275	1	0
82	275	1	0
83	275	1	0
84	275	1	0
85	275	1	0
86	275	1	0
87	275	0	0
88	275	0	0
89	275	1	0
90	275	1	0
91	275	1	0
92	275	1	0
93	275	1	0
94	275	1	0
95	275	1	0
96	275	1	0
16	276	0	0
17	276	0	0
18	276	1	0
19	276	0	0
20	276	1	0
21	276	0	0
22	276	0	0
23	276	0	0
24	276	1	0
25	276	1	0
26	276	1	0
27	276	1	0
28	276	0	0
29	276	0	0
30	276	0	0
31	276	1	0
32	276	0	0
33	276	1	0
34	276	1	0
35	276	1	0
36	276	1	0
37	276	0	0
38	276	0	0
39	276	0	0
40	276	0	0
41	276	1	0
42	276	1	0
51	277	1	0
52	277	1	0
53	277	1	0
54	277	1	0
55	277	1	0
56	277	1	0
57	277	1	0
58	277	0	0
59	277	0	0
60	277	0	0
61	277	1	0
62	277	1	0
63	277	1	0
64	277	1	0
65	277	1	0
66	277	1	0
67	277	1	0
68	277	0	0
69	277	0	0
70	277	0	0
71	277	1	0
72	277	1	0
73	277	1	0
74	277	1	0
75	277	1	0
76	277	1	0
77	277	1	0
78	277	0	0
79	277	0	0
80	277	0	0
81	277	1	0
82	277	1	0
83	277	1	0
84	277	1	0
1	278	0	0
2	278	0	0
3	278	1	0
4	278	0	0
5	278	1	0
6	278	0	0
7	278	0	0
8	278	0	0
9	278	1	0
10	278	0	0
11	278	0	0
75	279	1	0
76	279	1	0
77	279	1	0
78	279	0	0
79	279	0	0
80	279	1	0
81	279	1	0
82	279	1	0
83	279	1	0
84	279	1	0
85	279	1	0
86	279	0	0
87	279	1	0
88	279	0	0
89	279	1	0
90	279	1	0
91	279	1	0
92	279	1	0
93	279	1	0
94	279	1	0
95	279	1	0
96	279	1	0
97	279	0	0
98	279	0	0
99	279	0	0
100	279	1	0
53	280	1	0
54	280	1	0
55	280	1	0
56	280	0	0
57	280	0	0
58	280	0	0
59	280	0	0
60	280	0	0
61	280	1	0
62	280	1	0
63	280	1	0
64	280	1	0
65	280	0	0
66	280	1	0
67	280	1	0
68	280	1	0
69	280	0	0
70	280	0	0
71	280	1	0
72	280	1	0
73	280	1	0
74	280	1	0
75	280	1	0
76	280	1	0
77	280	1	0
78	280	0	0
79	280	0	0
80	280	0	0
81	280	1	0
82	280	1	0
83	280	1	0
84	280	1	0
70	281	0	0
71	281	1	0
72	281	1	0
73	281	1	0
74	281	1	0
75	281	1	0
76	281	0	0
77	281	1	0
78	281	0	0
79	281	0	0
80	281	0	0
81	281	1	0
82	281	1	0
83	281	1	0
84	281	1	0
85	281	1	0
86	281	1	0
87	281	0	0
88	281	0	0
89	281	1	0
90	281	1	0
91	281	1	0
92	281	1	0
93	281	1	0
94	281	1	0
95	281	1	0
96	281	1	0
97	281	0	0
98	281	0	0
12	282	1	0
13	282	0	0
14	282	1	0
15	282	0	0
16	282	0	0
17	282	0	0
18	282	1	0
19	282	0	0
20	282	1	0
21	282	0	0
22	282	0	0
23	282	0	0
24	282	1	0
25	282	0	0
26	282	1	0
27	282	1	0
28	282	0	0
29	282	1	0
30	282	0	0
31	282	1	0
32	282	1	0
49	283	0	0
50	283	0	0
51	283	0	0
52	283	1	0
53	283	1	0
54	283	1	0
55	283	1	0
56	283	0	0
57	283	1	0
58	283	0	0
59	283	0	0
60	283	0	0
61	283	1	0
62	283	1	0
63	283	1	0
64	283	1	0
65	283	0	0
66	283	1	0
67	283	1	0
68	283	0	0
69	283	0	0
70	283	0	0
71	283	1	0
72	283	0	0
73	283	1	0
74	283	1	0
75	283	1	0
76	283	1	0
77	283	1	0
78	283	0	0
79	283	1	0
80	283	0	0
81	283	1	0
82	283	1	0
83	283	1	0
3	284	1	0
4	284	0	0
5	284	1	0
6	284	0	0
7	284	0	0
8	284	0	0
9	284	0	0
10	284	0	0
11	284	0	0
12	284	1	0
13	284	0	0
14	284	1	0
15	284	0	0
3	285	0	0
4	285	0	0
5	285	1	0
6	285	1	0
7	285	0	0
8	285	0	0
9	285	1	0
10	285	0	0
11	285	0	0
12	285	1	0
13	285	0	0
14	285	1	0
15	285	1	0
16	285	0	0
6	286	1	0
7	286	0	0
8	286	0	0
9	286	1	0
10	286	0	0
11	286	0	0
12	286	1	0
13	286	0	0
14	286	1	0
15	286	1	0
16	286	0	0
17	286	0	0
18	286	1	0
9	287	1	0
10	287	0	0
11	287	0	0
12	287	1	0
13	287	0	0
14	287	1	0
15	287	0	0
16	287	0	0
17	287	0	0
18	287	1	0
19	287	0	0
20	287	1	0
15	288	0	0
16	288	0	0
17	288	0	0
18	288	1	0
19	288	0	0
20	288	1	0
21	288	0	0
22	288	0	0
23	288	0	0
24	288	1	0
25	288	1	0
26	288	1	0
27	288	1	0
28	288	0	0
29	288	0	0
30	288	0	0
31	288	1	0
32	288	1	0
33	288	1	0
34	288	1	0
35	288	1	0
36	288	1	0
37	288	1	0
38	288	0	0
39	288	0	0
76	289	1	0
77	289	1	0
78	289	0	0
79	289	0	0
80	289	0	0
81	289	1	0
82	289	1	0
83	289	1	0
84	289	1	0
85	289	1	0
86	289	1	0
87	289	1	0
88	289	0	0
89	289	0	0
90	289	1	0
91	289	0	0
92	289	1	0
93	289	1	0
94	289	1	0
95	289	1	0
96	289	1	0
97	289	0	0
98	289	0	0
99	289	0	0
100	289	1	0
92	290	1	0
93	290	1	0
94	290	1	0
95	290	1	0
96	290	1	0
97	290	0	0
98	290	0	0
99	290	1	0
100	290	1	0
44	291	1	0
45	291	1	0
46	291	0	0
47	291	1	0
48	291	0	0
49	291	0	0
50	291	0	0
51	291	1	0
52	291	1	0
53	291	1	0
54	291	1	0
55	291	1	0
56	291	1	0
57	291	1	0
58	291	0	0
59	291	0	0
60	291	0	0
61	291	1	0
62	291	1	0
63	291	1	0
64	291	1	0
65	291	1	0
66	291	1	0
67	291	1	0
68	291	0	0
69	291	0	0
70	291	0	0
71	291	1	0
72	291	1	0
73	291	1	0
74	291	1	0
75	291	1	0
76	291	1	0
77	291	1	0
1	292	0	0
2	292	0	0
3	292	0	0
4	292	0	0
5	292	1	0
6	292	1	0
7	292	0	0
8	292	0	0
9	292	1	0
10	292	0	0
16	293	0	0
17	293	0	0
18	293	1	0
19	293	0	0
20	293	1	0
21	293	0	0
22	293	0	0
23	293	0	0
24	293	1	0
25	293	1	0
26	293	1	0
27	293	0	0
28	293	1	0
29	293	0	0
30	293	0	0
31	293	0	0
32	293	1	0
33	293	1	0
34	293	1	0
35	293	1	0
36	293	1	0
37	293	1	0
38	293	0	0
39	293	1	0
40	293	0	0
41	293	1	0
42	293	1	0
90	294	1	0
91	294	1	0
92	294	1	0
93	294	1	0
94	294	1	0
95	294	1	0
96	294	1	0
97	294	0	0
98	294	0	0
99	294	0	0
100	294	1	0
11	295	0	0
12	295	1	0
13	295	0	0
14	295	1	0
15	295	0	0
16	295	0	0
17	295	0	0
18	295	1	0
19	295	0	0
20	295	1	0
21	295	0	0
22	295	0	0
23	295	0	0
24	295	1	0
42	296	1	0
43	296	1	0
44	296	1	0
45	296	1	0
46	296	1	0
47	296	1	0
48	296	0	0
49	296	0	0
50	296	0	0
51	296	1	0
52	296	1	0
53	296	1	0
54	296	1	0
55	296	1	0
56	296	1	0
57	296	1	0
58	296	0	0
59	296	0	0
60	296	0	0
61	296	1	0
62	296	1	0
63	296	1	0
64	296	1	0
65	296	1	0
66	296	1	0
67	296	1	0
68	296	0	0
69	296	0	0
70	296	0	0
71	296	1	0
72	296	1	0
73	296	1	0
74	296	1	0
90	297	1	0
91	297	1	0
92	297	1	0
93	297	1	0
94	297	1	0
95	297	1	0
96	297	1	0
97	297	0	0
98	297	0	0
99	297	0	0
100	297	1	0
20	298	1	0
21	298	0	0
22	298	0	0
23	298	0	0
24	298	1	0
25	298	1	0
26	298	1	0
27	298	1	0
28	298	0	0
29	298	0	0
30	298	0	0
31	298	1	0
32	298	1	0
33	298	1	0
34	298	1	0
35	298	1	0
36	298	1	0
37	298	1	0
38	298	0	0
39	298	0	0
40	298	0	0
41	298	0	0
42	298	1	0
43	298	0	0
44	298	1	0
45	298	1	0
46	298	1	0
47	298	1	0
48	298	0	0
22	299	0	0
23	299	0	0
24	299	1	0
25	299	1	0
26	299	1	0
27	299	0	0
28	299	0	0
29	299	0	0
30	299	0	0
31	299	0	0
32	299	1	0
33	299	1	0
34	299	1	0
35	299	1	0
36	299	1	0
37	299	1	0
38	299	0	0
39	299	1	0
40	299	0	0
41	299	1	0
42	299	1	0
43	299	1	0
44	299	1	0
45	299	1	0
46	299	1	0
47	299	1	0
48	299	0	0
49	299	0	0
50	299	0	0
51	299	0	0
52	299	1	0
53	299	1	0
54	299	1	0
89	300	1	0
90	300	1	0
91	300	1	0
92	300	1	0
93	300	1	0
94	300	1	0
95	300	1	0
96	300	1	0
97	300	0	0
98	300	0	0
99	300	1	0
100	300	1	0
89	301	1	0
90	301	1	0
91	301	1	0
92	301	1	0
93	301	1	0
94	301	1	0
95	301	1	0
96	301	1	0
97	301	0	0
98	301	0	0
99	301	0	0
100	301	1	0
88	302	0	0
89	302	1	0
90	302	1	0
91	302	1	0
92	302	1	0
93	302	1	0
94	302	0	0
95	302	1	0
96	302	1	0
97	302	0	0
98	302	0	0
99	302	0	0
100	302	0	0
24	303	1	0
25	303	1	0
26	303	1	0
27	303	0	0
28	303	1	0
29	303	0	0
30	303	0	0
31	303	0	0
32	303	1	0
33	303	1	0
34	303	1	0
35	303	1	0
36	303	1	0
37	303	1	0
38	303	1	0
39	303	1	0
40	303	0	0
41	303	1	0
42	303	1	0
43	303	1	0
44	303	0	0
45	303	1	0
46	303	1	0
47	303	1	0
48	303	0	0
49	303	0	0
50	303	0	0
51	303	0	0
52	303	1	0
53	303	1	0
54	303	1	0
55	303	1	0
56	303	0	0
57	303	1	0
45	304	1	0
46	304	1	0
47	304	1	0
48	304	0	0
49	304	0	0
50	304	0	0
51	304	0	0
52	304	1	0
53	304	1	0
54	304	1	0
55	304	1	0
56	304	0	0
57	304	1	0
58	304	0	0
59	304	0	0
60	304	0	0
61	304	1	0
62	304	1	0
63	304	1	0
64	304	1	0
65	304	0	0
66	304	1	0
67	304	1	0
68	304	0	0
69	304	0	0
70	304	0	0
71	304	1	0
72	304	1	0
73	304	1	0
74	304	1	0
75	304	0	0
76	304	1	0
77	304	1	0
78	304	0	0
79	304	0	0
35	305	1	0
36	305	1	0
37	305	1	0
38	305	0	0
39	305	0	0
40	305	0	0
41	305	1	0
42	305	1	0
43	305	1	0
44	305	1	0
45	305	1	0
46	305	1	0
47	305	1	0
48	305	0	0
49	305	0	0
50	305	0	0
51	305	1	0
52	305	1	0
53	305	1	0
54	305	1	0
55	305	1	0
56	305	1	0
57	305	1	0
58	305	0	0
59	305	0	0
60	305	0	0
61	305	1	0
62	305	1	0
63	305	1	0
64	305	1	0
65	305	1	0
66	305	1	0
67	305	1	0
68	305	0	0
69	305	0	0
70	305	0	0
1	306	0	0
2	306	0	0
3	306	0	0
4	306	0	0
5	306	1	0
6	306	1	0
7	306	0	0
8	306	0	0
9	306	1	0
10	306	0	0
11	306	0	0
43	307	1	0
44	307	1	0
45	307	1	0
46	307	1	0
47	307	1	0
48	307	0	0
49	307	0	0
50	307	0	0
51	307	1	0
52	307	1	0
53	307	1	0
54	307	1	0
55	307	1	0
56	307	1	0
57	307	1	0
58	307	0	0
59	307	0	0
60	307	0	0
61	307	1	0
62	307	1	0
63	307	1	0
64	307	1	0
65	307	1	0
66	307	1	0
67	307	1	0
68	307	0	0
69	307	0	0
70	307	0	0
71	307	1	0
72	307	0	0
73	307	1	0
74	307	1	0
75	307	1	0
11	308	0	0
12	308	1	0
13	308	0	0
14	308	1	0
15	308	0	0
16	308	0	0
17	308	0	0
18	308	1	0
19	308	0	0
20	308	1	0
21	308	0	0
22	308	1	0
23	308	0	0
24	308	1	0
1	309	0	0
2	309	0	0
3	309	1	0
4	309	0	0
5	309	1	0
6	309	0	0
7	309	0	0
8	309	0	0
9	309	1	0
10	309	0	0
3	310	1	0
4	310	0	0
5	310	1	0
6	310	0	0
7	310	0	0
8	310	0	0
9	310	1	0
10	310	0	0
11	310	0	0
12	310	1	0
13	310	0	0
14	310	1	0
15	310	0	0
10	311	0	0
11	311	1	0
12	311	1	0
13	311	0	0
14	311	1	0
15	311	0	0
16	311	0	0
17	311	0	0
18	311	1	0
19	311	0	0
20	311	1	0
21	311	0	0
22	311	0	0
23	311	0	0
92	312	1	0
93	312	1	0
94	312	1	0
95	312	1	0
96	312	1	0
97	312	0	0
98	312	0	0
99	312	1	0
100	312	1	0
99	313	0	0
100	313	1	0
84	314	1	0
85	314	1	0
86	314	1	0
87	314	1	0
88	314	0	0
89	314	1	0
90	314	0	0
91	314	1	0
92	314	1	0
93	314	1	0
94	314	1	0
95	314	1	0
96	314	1	0
97	314	0	0
98	314	0	0
99	314	1	0
100	314	1	0
20	315	0	0
21	315	0	0
22	315	0	0
23	315	0	0
24	315	1	0
25	315	1	0
26	315	1	0
27	315	1	0
28	315	0	0
29	315	1	0
30	315	0	0
31	315	1	0
32	315	1	0
33	315	1	0
34	315	1	0
35	315	1	0
36	315	1	0
37	315	1	0
38	315	0	0
39	315	0	0
40	315	0	0
41	315	1	0
42	315	1	0
43	315	1	0
44	315	1	0
45	315	1	0
46	315	1	0
47	315	1	0
48	315	0	0
20	316	1	0
21	316	0	0
22	316	0	0
23	316	0	0
24	316	1	0
25	316	1	0
26	316	1	0
27	316	1	0
28	316	0	0
29	316	0	0
30	316	0	0
31	316	1	0
32	316	1	0
33	316	1	0
34	316	1	0
35	316	1	0
36	316	1	0
37	316	1	0
38	316	0	0
39	316	0	0
40	316	0	0
41	316	1	0
42	316	1	0
43	316	1	0
44	316	1	0
45	316	1	0
46	316	1	0
47	316	1	0
48	316	0	0
49	316	0	0
65	317	1	0
66	317	1	0
67	317	1	0
68	317	0	0
69	317	0	0
70	317	0	0
71	317	1	0
72	317	1	0
73	317	1	0
74	317	1	0
75	317	1	0
76	317	1	0
77	317	1	0
78	317	1	0
79	317	0	0
80	317	0	0
81	317	1	0
82	317	1	0
83	317	1	0
84	317	1	0
85	317	1	0
86	317	1	0
87	317	1	0
88	317	0	0
89	317	1	0
90	317	1	0
91	317	1	0
92	317	1	0
93	317	1	0
1	318	1	0
2	318	0	0
3	318	1	0
4	318	0	0
5	318	1	0
6	318	0	0
7	318	0	0
8	318	0	0
99	319	0	0
100	319	1	0
54	320	1	0
55	320	1	0
56	320	1	0
57	320	1	0
58	320	0	0
59	320	0	0
60	320	0	0
61	320	1	0
62	320	1	0
63	320	1	0
64	320	1	0
65	320	1	0
66	320	1	0
67	320	1	0
68	320	0	0
69	320	0	0
70	320	1	0
71	320	1	0
72	320	1	0
73	320	1	0
74	320	1	0
75	320	1	0
76	320	1	0
77	320	1	0
78	320	0	0
79	320	0	0
80	320	0	0
81	320	1	0
82	320	1	0
83	320	1	0
84	320	1	0
85	320	1	0
9	321	1	0
10	321	0	0
11	321	0	0
12	321	1	0
13	321	0	0
14	321	1	0
15	321	0	0
16	321	0	0
17	321	0	0
18	321	1	0
19	321	0	0
20	321	1	0
21	321	0	0
88	322	0	0
89	322	1	0
90	322	1	0
91	322	1	0
92	322	1	0
93	322	1	0
94	322	1	0
95	322	1	0
96	322	1	0
97	322	0	0
98	322	0	0
99	322	0	0
100	322	1	0
30	323	1	0
31	323	1	0
32	323	1	0
33	323	1	0
34	323	1	0
35	323	1	0
36	323	0	0
37	323	1	0
38	323	0	0
39	323	0	0
40	323	0	0
41	323	1	0
42	323	1	0
43	323	1	0
44	323	1	0
45	323	1	0
46	323	1	0
47	323	1	0
48	323	0	0
49	323	0	0
50	323	0	0
51	323	1	0
52	323	1	0
53	323	1	0
54	323	1	0
55	323	1	0
56	323	1	0
57	323	1	0
58	323	1	0
59	323	0	0
60	323	0	0
61	323	1	0
62	323	1	0
63	323	1	0
64	323	1	0
1	324	0	0
2	324	0	0
3	324	1	0
4	324	0	0
5	324	1	0
6	324	1	0
7	324	1	0
8	324	0	0
1	325	0	0
2	325	0	0
3	325	1	0
4	325	0	0
5	325	1	0
6	325	0	0
7	325	0	0
8	325	0	0
9	325	1	0
1	326	0	0
2	326	0	0
3	326	0	0
4	326	0	0
3	327	1	0
4	327	0	0
5	327	1	0
6	327	0	0
7	327	0	0
8	327	0	0
9	327	1	0
10	327	0	0
11	327	0	0
12	327	1	0
13	327	0	0
14	327	1	0
15	327	0	0
1	328	0	0
2	328	0	0
3	328	0	0
4	328	0	0
5	328	1	0
6	328	1	0
7	328	0	0
23	329	0	0
24	329	1	0
25	329	1	0
26	329	1	0
27	329	1	0
28	329	0	0
29	329	0	0
30	329	0	0
31	329	1	0
32	329	1	0
33	329	1	0
34	329	1	0
35	329	1	0
36	329	1	0
37	329	1	0
38	329	1	0
39	329	0	0
40	329	0	0
41	329	1	0
42	329	1	0
43	329	1	0
44	329	1	0
45	329	1	0
46	329	0	0
47	329	0	0
48	329	0	0
49	329	0	0
50	329	0	0
51	329	1	0
52	329	1	0
53	329	1	0
54	329	1	0
55	329	1	0
56	329	1	0
1	330	0	0
2	330	0	0
3	330	0	0
4	330	1	0
5	330	1	0
6	330	1	0
7	330	0	0
8	330	0	0
19	331	0	0
20	331	1	0
21	331	0	0
22	331	0	0
23	331	0	0
24	331	1	0
25	331	1	0
26	331	1	0
27	331	1	0
28	331	0	0
29	331	0	0
30	331	0	0
31	331	1	0
32	331	1	0
33	331	1	0
34	331	1	0
35	331	1	0
36	331	1	0
37	331	1	0
38	331	1	0
39	331	0	0
40	331	0	0
41	331	1	0
42	331	1	0
43	331	1	0
44	331	1	0
5	332	1	0
6	332	0	0
7	332	0	0
8	332	0	0
9	332	1	0
10	332	0	0
11	332	0	0
12	332	1	0
13	332	0	0
14	332	1	0
15	332	1	0
16	332	0	0
17	332	1	0
18	332	1	0
32	333	1	0
33	333	1	0
34	333	1	0
35	333	0	0
36	333	1	0
37	333	1	0
38	333	0	0
39	333	0	0
40	333	0	0
41	333	1	0
42	333	1	0
43	333	1	0
44	333	1	0
45	333	1	0
46	333	1	0
47	333	1	0
48	333	0	0
49	333	0	0
50	333	0	0
51	333	1	0
52	333	1	0
53	333	1	0
54	333	1	0
55	333	1	0
56	333	1	0
57	333	1	0
58	333	0	0
59	333	0	0
60	333	0	0
61	333	1	0
62	333	1	0
63	333	1	0
64	333	1	0
19	334	0	0
20	334	1	0
21	334	0	0
22	334	0	0
23	334	0	0
24	334	1	0
25	334	1	0
26	334	1	0
27	334	1	0
28	334	0	0
29	334	0	0
30	334	0	0
31	334	1	0
32	334	1	0
33	334	1	0
34	334	1	0
35	334	1	0
36	334	1	0
37	334	1	0
38	334	0	0
39	334	0	0
40	334	0	0
41	334	1	0
42	334	1	0
43	334	0	0
44	334	1	0
78	335	0	0
79	335	0	0
80	335	0	0
81	335	1	0
82	335	1	0
83	335	1	0
84	335	1	0
85	335	1	0
86	335	1	0
87	335	1	0
88	335	0	0
89	335	1	0
90	335	1	0
91	335	1	0
92	335	1	0
93	335	1	0
94	335	1	0
95	335	1	0
96	335	1	0
97	335	0	0
98	335	0	0
99	335	0	0
100	335	1	0
11	336	1	0
12	336	1	0
13	336	0	0
14	336	1	0
15	336	0	0
16	336	0	0
17	336	0	0
18	336	1	0
19	336	0	0
20	336	1	0
21	336	0	0
22	336	0	0
23	336	0	0
24	336	1	0
25	336	1	0
26	336	1	0
27	336	1	0
4	337	0	0
5	337	1	0
6	337	0	0
7	337	0	0
8	337	0	0
9	337	1	0
10	337	0	0
11	337	0	0
12	337	1	0
13	337	0	0
14	337	1	0
15	337	0	0
16	337	0	0
17	337	0	0
90	338	1	0
91	338	1	0
92	338	1	0
93	338	1	0
94	338	1	0
95	338	1	0
96	338	1	0
97	338	0	0
98	338	0	0
99	338	0	0
100	338	1	0
20	339	1	0
21	339	0	0
22	339	0	0
23	339	0	0
24	339	1	0
25	339	1	0
26	339	1	0
27	339	1	0
28	339	0	0
29	339	0	0
30	339	0	0
31	339	1	0
32	339	1	0
33	339	1	0
34	339	1	0
35	339	1	0
36	339	1	0
37	339	1	0
38	339	0	0
39	339	0	0
40	339	0	0
41	339	1	0
42	339	1	0
43	339	1	0
44	339	1	0
45	339	0	0
46	339	1	0
47	339	1	0
48	339	0	0
49	339	0	0
1	340	0	0
2	340	0	0
3	340	0	0
1	341	0	0
2	341	0	0
3	341	1	0
4	341	0	0
5	341	1	0
6	341	0	0
7	341	0	0
8	341	1	0
31	342	1	0
32	342	1	0
33	342	1	0
34	342	1	0
35	342	1	0
36	342	1	0
37	342	1	0
38	342	0	0
39	342	0	0
40	342	1	0
41	342	1	0
42	342	1	0
43	342	1	0
44	342	1	0
45	342	1	0
46	342	1	0
47	342	1	0
48	342	0	0
49	342	0	0
50	342	0	0
51	342	1	0
52	342	1	0
53	342	1	0
54	342	1	0
55	342	1	0
56	342	1	0
57	342	1	0
58	342	0	0
59	342	0	0
60	342	0	0
61	342	1	0
62	342	1	0
63	342	1	0
64	342	1	0
3	343	1	0
4	343	0	0
5	343	1	0
6	343	0	0
7	343	0	0
8	343	0	0
9	343	1	0
10	343	0	0
11	343	0	0
12	343	1	0
13	343	0	0
14	343	1	0
15	343	1	0
1	344	0	0
2	344	0	0
3	344	0	0
4	344	0	0
5	344	1	0
6	344	1	0
7	344	0	0
8	344	0	0
9	344	1	0
10	344	0	0
1	345	1	0
2	345	0	0
3	345	1	0
4	345	0	0
5	345	1	0
6	345	0	0
7	345	0	0
8	345	0	0
9	345	1	0
10	345	0	0
11	345	0	0
12	345	1	0
13	345	0	0
63	346	1	0
64	346	1	0
65	346	1	0
66	346	1	0
67	346	1	0
68	346	0	0
69	346	0	0
70	346	0	0
71	346	1	0
72	346	1	0
73	346	1	0
74	346	1	0
75	346	1	0
76	346	1	0
77	346	1	0
78	346	0	0
79	346	0	0
80	346	0	0
81	346	1	0
82	346	1	0
83	346	1	0
84	346	1	0
85	346	1	0
86	346	0	0
87	346	1	0
88	346	0	0
89	346	1	0
90	346	1	0
91	346	1	0
92	347	1	0
93	347	1	0
94	347	1	0
95	347	1	0
96	347	1	0
97	347	0	0
98	347	0	0
99	347	1	0
100	347	1	0
1	348	0	0
2	348	0	0
3	348	1	0
4	348	0	0
5	348	1	0
6	348	0	0
7	348	0	0
8	348	0	0
9	348	1	0
10	348	0	0
85	349	1	0
86	349	1	0
87	349	1	0
88	349	0	0
89	349	1	0
90	349	1	0
91	349	1	0
92	349	1	0
93	349	1	0
94	349	1	0
95	349	1	0
96	349	1	0
97	349	0	0
98	349	0	0
99	349	0	0
100	349	1	0
56	350	1	0
57	350	1	0
58	350	0	0
59	350	0	0
60	350	0	0
61	350	0	0
62	350	1	0
63	350	1	0
64	350	1	0
65	350	1	0
66	350	1	0
67	350	1	0
68	350	0	0
69	350	0	0
70	350	0	0
71	350	1	0
72	350	1	0
73	350	1	0
74	350	1	0
75	350	1	0
76	350	1	0
77	350	1	0
78	350	0	0
79	350	0	0
80	350	0	0
81	350	1	0
82	350	1	0
83	350	1	0
84	350	1	0
85	350	1	0
86	350	1	0
87	350	1	0
88	350	0	0
31	351	0	0
32	351	1	0
33	351	0	0
34	351	1	0
35	351	1	0
36	351	1	0
37	351	1	0
38	351	0	0
39	351	1	0
40	351	0	0
41	351	1	0
42	351	1	0
43	351	1	0
44	351	1	0
45	351	1	0
46	351	1	0
47	351	1	0
48	351	0	0
49	351	0	0
50	351	0	0
51	351	0	0
52	351	1	0
53	351	1	0
54	351	1	0
55	351	1	0
56	351	0	0
57	351	1	0
58	351	0	0
59	351	0	0
60	351	1	0
61	351	1	0
62	351	1	0
63	351	1	0
64	351	1	0
1	352	0	0
2	352	0	0
3	352	0	0
4	352	0	0
5	352	1	0
6	352	0	0
7	352	0	0
8	352	0	0
70	353	0	0
71	353	1	0
72	353	1	0
73	353	1	0
74	353	1	0
75	353	1	0
76	353	1	0
77	353	1	0
78	353	0	0
79	353	0	0
80	353	0	0
81	353	1	0
82	353	1	0
83	353	1	0
84	353	1	0
85	353	1	0
86	353	1	0
87	353	1	0
88	353	0	0
89	353	1	0
90	353	1	0
91	353	1	0
92	353	1	0
93	353	1	0
94	353	1	0
95	353	1	0
96	353	1	0
97	353	0	0
98	353	0	0
75	354	1	0
76	354	1	0
77	354	1	0
78	354	0	0
79	354	0	0
80	354	0	0
81	354	1	0
82	354	1	0
83	354	1	0
84	354	1	0
85	354	1	0
86	354	1	0
87	354	1	0
88	354	1	0
89	354	1	0
90	354	1	0
91	354	1	0
92	354	1	0
93	354	1	0
94	354	1	0
95	354	1	0
96	354	1	0
97	354	0	0
98	354	0	0
99	354	0	0
100	354	1	0
65	355	0	0
66	355	1	0
67	355	1	0
68	355	0	0
69	355	0	0
70	355	0	0
71	355	1	0
72	355	1	0
73	355	1	0
74	355	1	0
75	355	1	0
76	355	1	0
77	355	1	0
78	355	0	0
79	355	0	0
80	355	0	0
81	355	1	0
82	355	1	0
83	355	1	0
84	355	1	0
85	355	1	0
86	355	1	0
87	355	1	0
88	355	0	0
89	355	1	0
90	355	1	0
91	355	1	0
92	355	1	0
93	355	1	0
30	356	1	0
31	356	1	0
32	356	1	0
33	356	1	0
34	356	1	0
35	356	1	0
36	356	1	0
37	356	1	0
38	356	0	0
39	356	0	0
40	356	0	0
41	356	1	0
42	356	0	0
43	356	1	0
44	356	1	0
45	356	1	0
46	356	1	0
47	356	1	0
48	356	0	0
49	356	0	0
50	356	0	0
51	356	1	0
52	356	1	0
53	356	1	0
54	356	1	0
55	356	1	0
56	356	1	0
57	356	1	0
58	356	0	0
59	356	0	0
60	356	0	0
61	356	1	0
62	356	1	0
63	356	1	0
64	356	1	0
44	357	1	0
45	357	1	0
46	357	1	0
47	357	1	0
48	357	0	0
49	357	0	0
50	357	0	0
51	357	0	0
52	357	1	0
53	357	1	0
54	357	1	0
55	357	1	0
56	357	0	0
57	357	1	0
58	357	0	0
59	357	0	0
60	357	0	0
61	357	1	0
62	357	1	0
63	357	1	0
64	357	1	0
65	357	1	0
66	357	1	0
67	357	1	0
68	357	0	0
69	357	0	0
70	357	0	0
71	357	0	0
72	357	1	0
73	357	1	0
74	357	0	0
75	357	0	0
76	357	1	0
77	357	1	0
19	358	0	0
20	358	1	0
21	358	0	0
22	358	0	0
23	358	1	0
24	358	1	0
25	358	1	0
26	358	1	0
27	358	1	0
28	358	0	0
29	358	0	0
30	358	0	0
31	358	1	0
32	358	1	0
33	358	1	0
34	358	1	0
35	358	1	0
36	358	1	0
37	358	1	0
38	358	0	0
39	358	0	0
40	358	1	0
41	358	1	0
42	358	1	0
43	358	1	0
44	358	1	0
9	359	1	0
10	359	0	0
11	359	0	0
12	359	1	0
13	359	0	0
14	359	1	0
15	359	0	0
16	359	0	0
17	359	0	0
18	359	0	0
19	359	0	0
20	359	1	0
21	359	0	0
22	359	0	0
23	359	0	0
2	360	0	0
3	360	1	0
4	360	0	0
5	360	1	0
6	360	0	0
7	360	0	0
8	360	0	0
9	360	1	0
10	360	0	0
11	360	0	0
12	360	1	0
13	360	1	0
14	360	1	0
66	361	1	0
67	361	1	0
68	361	0	0
69	361	0	0
70	361	0	0
71	361	1	0
72	361	1	0
73	361	1	0
74	361	1	0
75	361	1	0
76	361	1	0
77	361	0	0
78	361	0	0
79	361	0	0
80	361	0	0
81	361	1	0
82	361	1	0
83	361	1	0
84	361	1	0
85	361	1	0
86	361	1	0
87	361	1	0
88	361	0	0
89	361	1	0
90	361	1	0
91	361	1	0
92	361	1	0
93	361	1	0
94	361	1	0
90	362	1	0
91	362	1	0
92	362	1	0
93	362	1	0
94	362	1	0
95	362	1	0
96	362	1	0
97	362	1	0
98	362	0	0
99	362	0	0
100	362	1	0
43	363	1	0
44	363	1	0
45	363	1	0
46	363	1	0
47	363	1	0
48	363	0	0
49	363	0	0
50	363	0	0
51	363	1	0
52	363	1	0
53	363	1	0
54	363	1	0
55	363	1	0
56	363	1	0
57	363	1	0
58	363	0	0
59	363	0	0
60	363	0	0
61	363	1	0
62	363	1	0
63	363	1	0
64	363	1	0
65	363	1	0
66	363	1	0
67	363	1	0
68	363	0	0
69	363	0	0
70	363	0	0
71	363	1	0
72	363	1	0
73	363	1	0
74	363	1	0
26	364	1	0
27	364	0	0
28	364	1	0
29	364	0	0
30	364	1	0
31	364	0	0
32	364	1	0
33	364	1	0
34	364	1	0
35	364	1	0
36	364	1	0
37	364	1	0
38	364	0	0
39	364	1	0
40	364	0	0
41	364	1	0
42	364	1	0
43	364	1	0
44	364	1	0
45	364	1	0
46	364	1	0
47	364	1	0
48	364	0	0
49	364	0	0
50	364	0	0
51	364	0	0
52	364	1	0
53	364	1	0
54	364	1	0
55	364	1	0
56	364	0	0
57	364	1	0
58	364	0	0
59	364	0	0
60	364	0	0
61	364	1	0
85	365	0	0
86	365	1	0
87	365	1	0
88	365	0	0
89	365	1	0
90	365	1	0
91	365	1	0
92	365	1	0
93	365	1	0
94	365	1	0
95	365	1	0
96	365	1	0
97	365	0	0
98	365	0	0
99	365	1	0
100	365	1	0
1	366	0	0
2	366	0	0
3	366	0	0
4	366	0	0
5	366	0	0
6	366	0	0
9	367	1	0
10	367	0	0
11	367	0	0
12	367	1	0
13	367	0	0
14	367	1	0
15	367	0	0
16	367	0	0
17	367	0	0
18	367	1	0
19	367	0	0
20	367	1	0
21	367	0	0
22	367	0	0
13	368	0	0
14	368	1	0
15	368	0	0
16	368	0	0
17	368	0	0
18	368	1	0
19	368	0	0
20	368	1	0
21	368	0	0
22	368	0	0
23	368	0	0
24	368	0	0
25	368	1	0
26	368	0	0
27	368	1	0
28	368	0	0
29	368	0	0
30	368	0	0
31	368	1	0
32	368	1	0
33	368	1	0
34	368	1	0
1	369	0	0
2	369	0	0
3	369	0	0
4	369	0	0
25	370	1	0
26	370	1	0
27	370	1	0
28	370	0	0
29	370	0	0
30	370	0	0
31	370	1	0
32	370	1	0
33	370	1	0
34	370	1	0
35	370	1	0
36	370	1	0
37	370	1	0
38	370	0	0
39	370	1	0
40	370	0	0
41	370	1	0
42	370	1	0
43	370	1	0
44	370	1	0
45	370	1	0
46	370	1	0
47	370	1	0
48	370	0	0
49	370	0	0
50	370	0	0
51	370	0	0
52	370	1	0
53	370	0	0
54	370	1	0
55	370	1	0
56	370	1	0
57	370	1	0
58	370	0	0
90	371	1	0
91	371	1	0
92	371	1	0
93	371	1	0
94	371	1	0
95	371	1	0
96	371	1	0
97	371	0	0
98	371	0	0
99	371	0	0
100	371	1	0
72	372	1	0
73	372	1	0
74	372	1	0
75	372	1	0
76	372	1	0
77	372	1	0
78	372	0	0
79	372	0	0
80	372	0	0
81	372	1	0
82	372	1	0
83	372	1	0
84	372	1	0
85	372	1	0
86	372	1	0
87	372	1	0
88	372	0	0
89	372	1	0
90	372	1	0
91	372	1	0
92	372	1	0
93	372	1	0
94	372	1	0
95	372	1	0
96	372	1	0
97	372	0	0
98	372	0	0
99	372	1	0
100	372	1	0
26	373	1	0
27	373	1	0
28	373	0	0
29	373	0	0
30	373	1	0
31	373	1	0
32	373	1	0
33	373	1	0
34	373	1	0
35	373	1	0
36	373	1	0
37	373	0	0
38	373	0	0
39	373	0	0
40	373	0	0
41	373	1	0
42	373	1	0
43	373	1	0
44	373	1	0
45	373	1	0
46	373	1	0
47	373	1	0
48	373	0	0
49	373	0	0
50	373	0	0
51	373	1	0
52	373	1	0
53	373	1	0
54	373	1	0
55	373	1	0
56	373	0	0
57	373	1	0
58	373	0	0
59	373	0	0
60	373	0	0
61	373	1	0
52	374	1	0
53	374	1	0
54	374	1	0
55	374	1	0
56	374	1	0
57	374	1	0
58	374	0	0
59	374	0	0
60	374	0	0
61	374	1	0
62	374	1	0
63	374	1	0
64	374	1	0
65	374	1	0
66	374	1	0
67	374	1	0
68	374	0	0
69	374	0	0
70	374	0	0
71	374	1	0
72	374	1	0
73	374	1	0
74	374	0	0
75	374	1	0
76	374	1	0
77	374	1	0
78	374	0	0
79	374	0	0
80	374	0	0
81	374	1	0
82	374	1	0
83	374	1	0
84	374	1	0
70	375	0	0
71	375	1	0
72	375	1	0
73	375	1	0
74	375	1	0
75	375	1	0
76	375	1	0
77	375	1	0
78	375	0	0
79	375	0	0
80	375	0	0
81	375	1	0
82	375	1	0
83	375	0	0
84	375	1	0
85	375	1	0
86	375	1	0
87	375	1	0
88	375	0	0
89	375	1	0
90	375	1	0
91	375	1	0
92	375	1	0
93	375	1	0
94	375	1	0
95	375	1	0
96	375	1	0
97	375	0	0
9	376	1	0
10	376	0	0
11	376	0	0
12	376	0	0
13	376	0	0
14	376	1	0
15	376	0	0
16	376	0	0
17	376	0	0
18	376	1	0
19	376	0	0
9	377	1	0
10	377	0	0
11	377	0	0
12	377	1	0
13	377	0	0
14	377	1	0
15	377	1	0
16	377	0	0
17	377	0	0
18	377	1	0
19	377	0	0
20	377	1	0
39	378	0	0
40	378	0	0
41	378	1	0
42	378	1	0
43	378	1	0
44	378	1	0
45	378	0	0
46	378	1	0
47	378	1	0
48	378	0	0
49	378	0	0
50	378	0	0
51	378	1	0
52	378	1	0
53	378	1	0
54	378	1	0
55	378	1	0
56	378	1	0
57	378	1	0
58	378	0	0
59	378	0	0
60	378	0	0
61	378	1	0
62	378	1	0
63	378	1	0
64	378	1	0
65	378	1	0
66	378	1	0
67	378	1	0
68	378	0	0
69	378	0	0
70	378	0	0
71	378	1	0
72	378	1	0
73	378	1	0
51	379	1	0
52	379	1	0
53	379	1	0
54	379	1	0
55	379	1	0
56	379	1	0
57	379	1	0
58	379	0	0
59	379	0	0
60	379	0	0
61	379	1	0
62	379	1	0
63	379	1	0
64	379	1	0
65	379	1	0
66	379	0	0
67	379	1	0
68	379	0	0
69	379	0	0
70	379	0	0
71	379	0	0
72	379	1	0
73	379	1	0
74	379	1	0
75	379	1	0
76	379	1	0
77	379	1	0
78	379	0	0
79	379	0	0
80	379	0	0
81	379	1	0
82	379	1	0
83	379	1	0
84	379	1	0
1	380	0	0
82	381	1	0
83	381	1	0
84	381	1	0
85	381	1	0
86	381	0	0
87	381	1	0
88	381	0	0
89	381	1	0
90	381	1	0
91	381	1	0
92	381	1	0
93	381	1	0
94	381	1	0
95	381	1	0
96	381	1	0
97	381	0	0
98	381	0	0
99	381	0	0
100	381	1	0
1	382	0	0
2	382	0	0
3	382	1	0
4	382	0	0
5	382	1	0
6	382	0	0
7	382	0	0
8	382	0	0
9	382	1	0
10	382	0	0
24	383	1	0
25	383	1	0
26	383	0	0
27	383	1	0
28	383	0	0
29	383	0	0
30	383	0	0
31	383	1	0
32	383	1	0
33	383	1	0
34	383	1	0
35	383	1	0
36	383	1	0
37	383	1	0
38	383	0	0
39	383	0	0
40	383	0	0
41	383	1	0
42	383	1	0
43	383	1	0
44	383	1	0
45	383	1	0
46	383	1	0
47	383	1	0
48	383	0	0
49	383	0	0
50	383	0	0
51	383	1	0
52	383	1	0
53	383	1	0
54	383	1	0
55	383	1	0
56	383	1	0
33	384	1	0
34	384	1	0
35	384	1	0
36	384	1	0
37	384	1	0
38	384	0	0
39	384	0	0
40	384	0	0
41	384	1	0
42	384	1	0
43	384	1	0
44	384	1	0
45	384	1	0
46	384	1	0
47	384	1	0
48	384	0	0
49	384	0	0
50	384	0	0
51	384	0	0
52	384	1	0
53	384	1	0
54	384	1	0
55	384	1	0
56	384	1	0
57	384	1	0
58	384	1	0
59	384	0	0
60	384	0	0
61	384	1	0
62	384	1	0
63	384	1	0
64	384	1	0
1	385	0	0
2	385	0	0
18	386	1	0
19	386	0	0
20	386	1	0
21	386	0	0
22	386	1	0
23	386	0	0
24	386	1	0
25	386	1	0
26	386	1	0
27	386	1	0
28	386	0	0
29	386	0	0
30	386	1	0
31	386	1	0
32	386	1	0
33	386	1	0
34	386	1	0
35	386	1	0
36	386	1	0
37	386	1	0
38	386	0	0
39	386	0	0
40	386	0	0
41	386	0	0
42	386	1	0
43	386	1	0
26	387	1	0
27	387	1	0
28	387	0	0
29	387	0	0
30	387	0	0
31	387	1	0
32	387	1	0
33	387	1	0
34	387	1	0
35	387	1	0
36	387	1	0
37	387	1	0
38	387	0	0
39	387	0	0
40	387	0	0
41	387	1	0
42	387	1	0
43	387	1	0
44	387	1	0
45	387	1	0
46	387	1	0
47	387	1	0
48	387	0	0
49	387	0	0
50	387	0	0
51	387	0	0
52	387	1	0
53	387	1	0
54	387	1	0
55	387	1	0
56	387	1	0
57	387	1	0
58	387	0	0
59	387	0	0
60	387	1	0
61	387	1	0
54	388	1	0
55	388	1	0
56	388	1	0
57	388	1	0
58	388	0	0
59	388	0	0
60	388	0	0
61	388	1	0
62	388	1	0
63	388	1	0
64	388	1	0
65	388	1	0
66	388	1	0
67	388	0	0
68	388	0	0
69	388	0	0
70	388	0	0
71	388	1	0
72	388	1	0
73	388	1	0
74	388	1	0
75	388	1	0
76	388	1	0
77	388	1	0
78	388	0	0
79	388	0	0
80	388	0	0
81	388	1	0
82	388	1	0
83	388	1	0
84	388	1	0
85	388	1	0
88	389	0	0
89	389	1	0
90	389	1	0
91	389	1	0
92	389	1	0
93	389	1	0
94	389	1	0
95	389	1	0
96	389	1	0
97	389	0	0
98	389	0	0
99	389	0	0
100	389	1	0
1	390	0	0
2	390	0	0
3	390	1	0
4	390	0	0
5	390	1	0
6	390	0	0
7	390	0	0
8	390	0	0
9	391	1	0
10	391	0	0
11	391	0	0
12	391	1	0
13	391	0	0
14	391	1	0
15	391	1	0
16	391	0	0
17	391	0	0
18	391	1	0
19	391	0	0
20	391	1	0
25	392	1	0
26	392	1	0
27	392	1	0
28	392	0	0
29	392	0	0
30	392	0	0
31	392	1	0
32	392	1	0
33	392	1	0
34	392	1	0
35	392	1	0
36	392	1	0
37	392	1	0
38	392	0	0
39	392	0	0
40	392	0	0
41	392	1	0
42	392	1	0
43	392	1	0
44	392	1	0
45	392	1	0
46	392	1	0
47	392	1	0
48	392	0	0
49	392	0	0
50	392	0	0
51	392	0	0
52	392	1	0
53	392	1	0
54	392	1	0
55	392	1	0
56	392	1	0
57	392	1	0
58	392	0	0
59	392	1	0
60	392	0	0
9	393	0	0
10	393	0	0
11	393	0	0
12	393	1	0
13	393	0	0
14	393	1	0
15	393	0	0
16	393	0	0
17	393	0	0
18	393	1	0
19	393	0	0
20	393	1	0
21	393	0	0
16	394	0	0
17	394	0	0
18	394	1	0
19	394	0	0
20	394	0	0
21	394	0	0
22	394	0	0
23	394	0	0
24	394	1	0
25	394	1	0
26	394	1	0
27	394	1	0
28	394	0	0
29	394	0	0
30	394	0	0
31	394	1	0
32	394	1	0
33	394	1	0
34	394	1	0
35	394	1	0
36	394	1	0
37	394	1	0
38	394	0	0
39	394	0	0
40	394	0	0
41	394	1	0
42	394	1	0
97	395	0	0
98	395	0	0
99	395	0	0
100	395	1	0
1	396	0	0
2	396	0	0
3	396	1	0
4	396	0	0
5	396	1	0
6	396	0	0
7	396	0	0
89	397	0	0
90	397	1	0
91	397	1	0
92	397	1	0
93	397	1	0
94	397	1	0
95	397	1	0
96	397	1	0
97	397	0	0
98	397	0	0
99	397	0	0
100	397	1	0
50	398	0	0
51	398	1	0
52	398	1	0
53	398	1	0
54	398	1	0
55	398	1	0
56	398	1	0
57	398	1	0
58	398	0	0
59	398	0	0
60	398	0	0
61	398	1	0
62	398	1	0
63	398	1	0
64	398	1	0
65	398	0	0
66	398	1	0
67	398	0	0
68	398	0	0
69	398	0	0
70	398	0	0
71	398	1	0
72	398	1	0
73	398	1	0
74	398	1	0
75	398	1	0
76	398	1	0
77	398	1	0
78	398	1	0
79	398	0	0
80	398	0	0
81	398	1	0
82	398	1	0
83	398	1	0
84	398	1	0
22	399	0	0
23	399	0	0
24	399	1	0
25	399	0	0
26	399	1	0
27	399	0	0
28	399	1	0
29	399	0	0
30	399	0	0
31	399	0	0
32	399	1	0
33	399	1	0
34	399	1	0
35	399	1	0
36	399	1	0
37	399	1	0
38	399	0	0
39	399	0	0
40	399	0	0
41	399	1	0
42	399	1	0
43	399	1	0
44	399	1	0
45	399	1	0
46	399	1	0
47	399	1	0
48	399	0	0
49	399	1	0
50	399	0	0
51	399	0	0
52	399	1	0
53	399	1	0
54	399	1	0
20	400	1	0
21	400	0	0
22	400	0	0
23	400	0	0
24	400	1	0
25	400	1	0
26	400	1	0
27	400	1	0
28	400	0	0
29	400	0	0
30	400	0	0
31	400	1	0
32	400	1	0
33	400	1	0
34	400	1	0
35	400	0	0
36	400	1	0
37	400	1	0
38	400	0	0
39	400	0	0
40	400	0	0
41	400	1	0
42	400	1	0
43	400	1	0
44	400	1	0
45	400	1	0
46	400	1	0
47	400	1	0
48	400	0	0
49	400	0	0
32	401	1	0
33	401	1	0
34	401	1	0
35	401	1	0
36	401	1	0
37	401	1	0
38	401	0	0
39	401	0	0
40	401	0	0
41	401	1	0
42	401	1	0
43	401	1	0
44	401	1	0
45	401	1	0
46	401	1	0
47	401	1	0
48	401	0	0
49	401	0	0
50	401	0	0
51	401	1	0
52	401	1	0
53	401	1	0
54	401	1	0
55	401	1	0
56	401	1	0
57	401	1	0
58	401	0	0
59	401	0	0
60	401	0	0
61	401	1	0
62	401	1	0
63	401	1	0
64	401	1	0
9	402	1	0
10	402	0	0
11	402	0	0
12	402	1	0
13	402	0	0
14	402	1	0
15	402	0	0
16	402	0	0
17	402	0	0
18	402	1	0
19	402	0	0
20	402	1	0
21	402	0	0
1	403	0	0
2	403	0	0
3	403	1	0
4	403	0	0
5	403	1	0
6	403	0	0
7	403	0	0
8	403	0	0
9	403	1	0
10	403	0	0
11	403	0	0
12	403	1	0
42	404	1	0
43	404	1	0
44	404	1	0
45	404	1	0
46	404	1	0
47	404	1	0
48	404	0	0
49	404	1	0
50	404	0	0
51	404	1	0
52	404	1	0
53	404	1	0
54	404	1	0
55	404	1	0
56	404	1	0
57	404	1	0
58	404	0	0
59	404	0	0
60	404	0	0
61	404	1	0
62	404	1	0
63	404	1	0
64	404	1	0
65	404	1	0
66	404	1	0
67	404	1	0
68	404	0	0
69	404	0	0
70	404	0	0
71	404	1	0
72	404	1	0
73	404	1	0
74	404	1	0
98	405	0	0
99	405	0	0
100	405	1	0
24	406	1	0
25	406	1	0
26	406	1	0
27	406	1	0
28	406	0	0
29	406	1	0
30	406	0	0
31	406	1	0
32	406	1	0
33	406	1	0
34	406	1	0
35	406	1	0
36	406	1	0
37	406	1	0
38	406	0	0
39	406	0	0
40	406	0	0
41	406	1	0
42	406	0	0
43	406	0	0
44	406	1	0
45	406	1	0
46	406	1	0
47	406	1	0
48	406	0	0
49	406	0	0
50	406	0	0
51	406	1	0
52	406	1	0
53	406	1	0
54	406	1	0
55	406	1	0
56	406	1	0
57	406	1	0
50	407	0	0
51	407	1	0
52	407	1	0
53	407	1	0
54	407	1	0
55	407	1	0
56	407	1	0
57	407	1	0
58	407	0	0
59	407	0	0
60	407	0	0
61	407	1	0
62	407	1	0
63	407	1	0
64	407	1	0
65	407	1	0
66	407	1	0
67	407	1	0
68	407	0	0
69	407	0	0
70	407	0	0
71	407	1	0
72	407	1	0
73	407	1	0
74	407	1	0
75	407	1	0
76	407	1	0
77	407	1	0
78	407	1	0
79	407	0	0
80	407	0	0
81	407	1	0
82	407	1	0
83	407	1	0
84	407	1	0
25	408	1	0
26	408	1	0
27	408	1	0
28	408	0	0
29	408	0	0
30	408	0	0
31	408	1	0
32	408	1	0
33	408	1	0
34	408	0	0
35	408	1	0
36	408	0	0
37	408	0	0
38	408	0	0
39	408	0	0
40	408	0	0
41	408	1	0
42	408	1	0
43	408	1	0
44	408	1	0
45	408	1	0
46	408	1	0
47	408	1	0
48	408	0	0
49	408	0	0
50	408	0	0
51	408	1	0
52	408	1	0
53	408	1	0
54	408	1	0
55	408	1	0
56	408	1	0
57	408	1	0
58	408	0	0
1	409	0	0
2	409	0	0
3	409	0	0
4	409	0	0
5	409	1	0
6	409	1	0
7	409	0	0
8	409	0	0
9	409	1	0
10	409	0	0
11	409	0	0
12	409	1	0
13	409	0	0
14	409	1	0
35	410	1	0
36	410	1	0
37	410	1	0
38	410	0	0
39	410	0	0
40	410	0	0
41	410	1	0
42	410	1	0
43	410	1	0
44	410	1	0
45	410	1	0
46	410	1	0
47	410	1	0
48	410	0	0
49	410	0	0
50	410	0	0
51	410	1	0
52	410	1	0
53	410	1	0
54	410	1	0
55	410	1	0
56	410	1	0
57	410	1	0
58	410	0	0
59	410	0	0
60	410	0	0
61	410	1	0
62	410	1	0
63	410	1	0
64	410	1	0
65	410	1	0
66	410	1	0
67	410	1	0
68	410	0	0
94	411	1	0
95	411	1	0
96	411	1	0
97	411	0	0
98	411	0	0
99	411	0	0
100	411	1	0
54	412	1	0
55	412	1	0
56	412	1	0
57	412	1	0
58	412	0	0
59	412	0	0
60	412	0	0
61	412	1	0
62	412	1	0
63	412	1	0
64	412	0	0
65	412	1	0
66	412	1	0
67	412	1	0
68	412	0	0
69	412	0	0
70	412	0	0
71	412	1	0
72	412	1	0
73	412	1	0
74	412	1	0
75	412	1	0
76	412	1	0
77	412	1	0
78	412	0	0
79	412	0	0
80	412	0	0
81	412	1	0
82	412	1	0
83	412	1	0
84	412	1	0
85	412	1	0
1	413	0	0
2	413	0	0
3	413	1	0
12	414	1	0
13	414	0	0
14	414	1	0
15	414	0	0
16	414	0	0
17	414	0	0
18	414	1	0
19	414	0	0
20	414	1	0
21	414	0	0
22	414	0	0
23	414	0	0
24	414	1	0
25	414	1	0
26	414	1	0
27	414	1	0
28	414	0	0
29	414	0	0
30	414	0	0
31	414	1	0
32	414	1	0
45	415	1	0
46	415	1	0
47	415	1	0
48	415	0	0
49	415	0	0
50	415	0	0
51	415	1	0
52	415	1	0
53	415	1	0
54	415	1	0
55	415	1	0
56	415	1	0
57	415	1	0
58	415	0	0
59	415	0	0
60	415	0	0
61	415	1	0
62	415	1	0
63	415	1	0
64	415	1	0
65	415	1	0
66	415	1	0
67	415	1	0
68	415	0	0
69	415	0	0
70	415	0	0
71	415	1	0
72	415	1	0
73	415	1	0
74	415	1	0
75	415	1	0
76	415	1	0
77	415	1	0
33	416	1	0
34	416	1	0
35	416	1	0
36	416	1	0
37	416	1	0
38	416	0	0
39	416	0	0
40	416	0	0
41	416	1	0
42	416	1	0
43	416	1	0
44	416	1	0
45	416	1	0
46	416	0	0
47	416	1	0
48	416	0	0
49	416	0	0
50	416	0	0
51	416	1	0
52	416	1	0
53	416	1	0
54	416	1	0
55	416	1	0
56	416	1	0
57	416	1	0
58	416	0	0
59	416	0	0
60	416	0	0
61	416	1	0
62	416	1	0
63	416	1	0
64	416	1	0
65	416	1	0
1	417	0	0
2	417	0	0
3	417	0	0
4	417	0	0
5	417	1	0
6	417	1	0
7	417	0	0
8	417	0	0
9	417	1	0
10	417	0	0
90	418	1	0
91	418	1	0
92	418	1	0
93	418	1	0
94	418	1	0
95	418	1	0
96	418	1	0
97	418	0	0
98	418	0	0
99	418	0	0
100	418	1	0
13	419	0	0
14	419	1	0
15	419	0	0
16	419	0	0
17	419	0	0
18	419	1	0
19	419	0	0
20	419	1	0
21	419	0	0
22	419	0	0
23	419	0	0
24	419	1	0
25	419	1	0
26	419	1	0
27	419	1	0
28	419	0	0
29	419	0	0
30	419	0	0
31	419	1	0
32	419	1	0
33	419	1	0
34	419	1	0
35	419	1	0
36	419	1	0
60	420	0	0
61	420	1	0
62	420	1	0
63	420	1	0
64	420	1	0
65	420	1	0
66	420	1	0
67	420	1	0
68	420	0	0
69	420	0	0
70	420	0	0
71	420	0	0
72	420	1	0
73	420	1	0
74	420	1	0
75	420	1	0
76	420	1	0
77	420	1	0
78	420	0	0
79	420	0	0
80	420	0	0
81	420	1	0
82	420	1	0
83	420	1	0
84	420	1	0
85	420	1	0
86	420	1	0
87	420	1	0
88	420	0	0
89	420	1	0
70	421	0	0
71	421	1	0
72	421	1	0
73	421	1	0
74	421	1	0
75	421	1	0
76	421	1	0
77	421	1	0
78	421	1	0
79	421	0	0
80	421	0	0
81	421	1	0
82	421	1	0
83	421	1	0
84	421	1	0
85	421	1	0
86	421	1	0
87	421	1	0
88	421	0	0
89	421	1	0
90	421	1	0
91	421	1	0
92	421	1	0
93	421	1	0
94	421	1	0
95	421	1	0
96	421	1	0
97	421	0	0
3	422	1	0
4	422	0	0
5	422	1	0
6	422	0	0
7	422	0	0
8	422	0	0
9	422	0	0
10	422	0	0
11	422	1	0
12	422	1	0
13	422	0	0
14	422	1	0
15	422	0	0
49	423	0	0
50	423	1	0
51	423	1	0
52	423	1	0
53	423	0	0
54	423	1	0
55	423	1	0
56	423	1	0
57	423	1	0
58	423	0	0
59	423	0	0
60	423	0	0
61	423	1	0
62	423	1	0
63	423	1	0
64	423	1	0
65	423	1	0
66	423	1	0
67	423	1	0
68	423	0	0
69	423	0	0
70	423	0	0
71	423	1	0
72	423	1	0
73	423	1	0
74	423	1	0
75	423	1	0
76	423	1	0
77	423	1	0
78	423	0	0
79	423	0	0
80	423	0	0
81	423	1	0
82	423	1	0
83	423	1	0
25	424	1	0
26	424	1	0
27	424	1	0
28	424	0	0
29	424	0	0
30	424	0	0
31	424	1	0
32	424	1	0
33	424	1	0
34	424	1	0
35	424	1	0
36	424	1	0
37	424	1	0
38	424	0	0
39	424	0	0
40	424	0	0
41	424	1	0
42	424	1	0
43	424	1	0
44	424	1	0
45	424	1	0
46	424	1	0
47	424	1	0
48	424	0	0
49	424	0	0
50	424	0	0
51	424	1	0
52	424	1	0
53	424	1	0
54	424	1	0
55	424	1	0
56	424	1	0
57	424	1	0
58	424	0	0
59	424	1	0
1	425	0	0
2	425	0	0
3	425	1	0
4	425	0	0
5	425	1	0
6	425	0	0
7	425	0	0
8	425	0	0
9	425	1	0
10	425	0	0
11	425	0	0
12	425	1	0
58	426	0	0
59	426	0	0
60	426	0	0
61	426	0	0
62	426	1	0
63	426	0	0
64	426	1	0
65	426	1	0
66	426	1	0
67	426	0	0
68	426	1	0
69	426	0	0
70	426	0	0
71	426	1	0
72	426	1	0
73	426	1	0
74	426	1	0
75	426	0	0
76	426	1	0
77	426	0	0
78	426	0	0
79	426	0	0
80	426	0	0
81	426	1	0
82	426	1	0
83	426	1	0
84	426	1	0
85	426	1	0
86	426	1	0
87	426	1	0
88	426	0	0
28	427	0	0
29	427	0	0
30	427	1	0
31	427	1	0
32	427	1	0
33	427	1	0
34	427	1	0
35	427	1	0
36	427	1	0
37	427	1	0
38	427	0	0
39	427	0	0
40	427	0	0
41	427	1	0
42	427	1	0
43	427	0	0
44	427	1	0
45	427	0	0
46	427	1	0
47	427	1	0
48	427	0	0
49	427	0	0
50	427	0	0
51	427	1	0
52	427	1	0
53	427	1	0
54	427	1	0
55	427	1	0
56	427	1	0
57	427	1	0
58	427	1	0
59	427	0	0
60	427	0	0
61	427	1	0
62	427	1	0
3	428	1	0
4	428	0	0
5	428	1	0
6	428	0	0
7	428	0	0
8	428	0	0
9	428	1	0
10	428	0	0
11	428	0	0
12	428	1	0
13	428	0	0
14	428	0	0
15	428	0	0
16	429	0	0
17	429	0	0
18	429	1	0
19	429	0	0
20	429	1	0
21	429	0	0
22	429	0	0
23	429	0	0
24	429	1	0
25	429	1	0
26	429	1	0
27	429	1	0
28	429	0	0
29	429	0	0
30	429	0	0
31	429	1	0
32	429	1	0
33	429	1	0
34	429	1	0
35	429	1	0
36	429	1	0
37	429	1	0
38	429	0	0
39	429	0	0
40	429	0	0
41	429	1	0
42	429	1	0
53	430	1	0
54	430	1	0
55	430	1	0
56	430	1	0
57	430	1	0
58	430	0	0
59	430	0	0
60	430	0	0
61	430	1	0
62	430	1	0
63	430	1	0
64	430	1	0
65	430	1	0
66	430	1	0
67	430	1	0
68	430	0	0
69	430	0	0
70	430	0	0
71	430	1	0
72	430	1	0
73	430	1	0
74	430	1	0
75	430	1	0
76	430	1	0
77	430	1	0
78	430	0	0
79	430	1	0
80	430	0	0
81	430	1	0
82	430	1	0
83	430	0	0
84	430	1	0
99	431	0	0
100	431	1	0
30	432	0	0
31	432	1	0
32	432	1	0
33	432	1	0
34	432	1	0
35	432	1	0
36	432	1	0
37	432	1	0
38	432	0	0
39	432	0	0
40	432	0	0
41	432	1	0
42	432	1	0
43	432	1	0
44	432	1	0
45	432	1	0
46	432	1	0
47	432	1	0
48	432	0	0
49	432	0	0
50	432	0	0
51	432	1	0
52	432	1	0
53	432	1	0
54	432	1	0
55	432	1	0
56	432	1	0
57	432	1	0
58	432	0	0
59	432	0	0
60	432	0	0
61	432	1	0
62	432	1	0
63	432	1	0
64	432	1	0
71	433	1	0
72	433	1	0
73	433	0	0
74	433	1	0
75	433	1	0
76	433	1	0
77	433	1	0
78	433	0	0
79	433	1	0
80	433	0	0
81	433	1	0
82	433	1	0
83	433	1	0
84	433	1	0
85	433	1	0
86	433	1	0
87	433	1	0
88	433	0	0
89	433	1	0
90	433	1	0
91	433	1	0
92	433	1	0
93	433	1	0
94	433	1	0
95	433	1	0
96	433	1	0
97	433	0	0
98	433	0	0
99	433	1	0
11	434	0	0
12	434	1	0
13	434	0	0
14	434	1	0
15	434	0	0
16	434	0	0
17	434	0	0
18	434	1	0
19	434	0	0
20	434	0	0
21	434	0	0
22	434	0	0
23	434	0	0
24	434	1	0
25	434	1	0
24	435	1	0
25	435	1	0
26	435	1	0
27	435	0	0
28	435	1	0
29	435	0	0
30	435	0	0
31	435	0	0
32	435	1	0
33	435	1	0
34	435	0	0
35	435	1	0
36	435	1	0
37	435	1	0
38	435	0	0
39	435	1	0
40	435	0	0
41	435	1	0
42	435	1	0
43	435	1	0
44	435	1	0
45	435	1	0
46	435	1	0
47	435	1	0
48	435	1	0
49	435	0	0
50	435	0	0
51	435	0	0
52	435	1	0
53	435	1	0
54	435	1	0
55	435	1	0
56	435	0	0
77	436	1	0
78	436	0	0
79	436	0	0
80	436	0	0
81	436	1	0
82	436	1	0
83	436	1	0
84	436	1	0
85	436	1	0
86	436	1	0
87	436	1	0
88	436	0	0
89	436	1	0
90	436	1	0
91	436	1	0
92	436	1	0
93	436	1	0
94	436	1	0
95	436	1	0
96	436	1	0
97	436	1	0
98	436	0	0
99	436	0	0
100	436	1	0
94	437	0	0
95	437	1	0
96	437	1	0
97	437	0	0
98	437	0	0
99	437	0	0
100	437	1	0
1	438	0	0
2	438	0	0
3	438	1	0
4	438	0	0
5	438	0	0
6	438	0	0
7	438	0	0
8	438	0	0
9	438	1	0
10	438	0	0
11	438	0	0
12	438	1	0
81	439	1	0
82	439	1	0
83	439	1	0
84	439	1	0
85	439	1	0
86	439	1	0
87	439	1	0
88	439	0	0
89	439	0	0
90	439	1	0
91	439	1	0
92	439	1	0
93	439	1	0
94	439	1	0
95	439	1	0
96	439	1	0
97	439	0	0
98	439	0	0
99	439	1	0
100	439	1	0
98	440	0	0
99	440	0	0
100	440	1	0
20	441	1	0
21	441	0	0
22	441	0	0
23	441	0	0
24	441	1	0
25	441	0	0
26	441	1	0
27	441	1	0
28	441	1	0
29	441	0	0
30	441	0	0
31	441	1	0
32	441	1	0
33	441	1	0
34	441	1	0
35	441	1	0
36	441	1	0
37	441	1	0
38	441	0	0
39	441	0	0
40	441	0	0
41	441	1	0
42	441	1	0
43	441	0	0
44	441	1	0
45	441	1	0
46	441	1	0
9	442	1	0
10	442	0	0
11	442	0	0
12	442	1	0
13	442	0	0
14	442	0	0
15	442	0	0
16	442	0	0
17	442	0	0
18	442	1	0
19	442	0	0
20	442	1	0
21	442	0	0
22	442	0	0
23	442	1	0
89	443	1	0
90	443	1	0
91	443	1	0
92	443	1	0
93	443	1	0
94	443	1	0
95	443	1	0
96	443	1	0
97	443	0	0
98	443	1	0
99	443	1	0
100	443	1	0
3	444	0	0
4	444	0	0
5	444	1	0
6	444	1	0
7	444	0	0
8	444	0	0
9	444	1	0
10	444	0	0
11	444	0	0
12	444	1	0
13	444	0	0
14	444	1	0
15	444	1	0
98	445	0	0
99	445	1	0
100	445	1	0
14	446	1	0
15	446	1	0
16	446	0	0
17	446	0	0
18	446	1	0
19	446	0	0
20	446	1	0
21	446	0	0
22	446	0	0
23	446	0	0
24	446	1	0
25	446	1	0
26	446	1	0
27	446	0	0
28	446	1	0
29	446	0	0
30	446	0	0
31	446	0	0
32	446	0	0
33	446	1	0
34	446	1	0
35	446	1	0
36	446	1	0
37	446	1	0
38	446	0	0
1	447	0	0
2	447	0	0
3	447	1	0
4	447	0	0
5	447	1	0
6	447	0	0
7	447	0	0
8	447	0	0
1	448	0	0
2	448	0	0
3	448	1	0
4	448	0	0
5	448	1	0
6	448	0	0
7	448	0	0
8	448	1	0
9	448	1	0
10	448	0	0
21	449	0	0
22	449	0	0
23	449	0	0
24	449	1	0
25	449	1	0
26	449	1	0
27	449	1	0
28	449	0	0
29	449	0	0
30	449	0	0
31	449	1	0
32	449	1	0
33	449	1	0
34	449	1	0
35	449	1	0
36	449	1	0
37	449	1	0
38	449	0	0
39	449	0	0
40	449	0	0
41	449	1	0
42	449	1	0
43	449	1	0
44	449	1	0
45	449	1	0
46	449	1	0
47	449	1	0
48	449	0	0
49	449	0	0
50	449	0	0
51	449	1	0
52	449	1	0
1	450	0	0
2	450	0	0
3	450	1	0
4	450	0	0
5	450	1	0
6	450	0	0
7	450	0	0
8	450	0	0
7	451	0	0
8	451	0	0
9	451	1	0
10	451	0	0
11	451	0	0
12	451	0	0
13	451	0	0
14	451	1	0
15	451	0	0
16	451	1	0
17	451	0	0
18	451	1	0
19	451	0	0
72	452	1	0
73	452	1	0
74	452	1	0
75	452	1	0
76	452	1	0
77	452	1	0
78	452	0	0
79	452	0	0
80	452	1	0
81	452	1	0
82	452	1	0
83	452	1	0
84	452	1	0
85	452	1	0
86	452	1	0
87	452	1	0
88	452	0	0
89	452	1	0
90	452	1	0
91	452	1	0
92	452	1	0
93	452	1	0
94	452	1	0
95	452	1	0
96	452	1	0
97	452	0	0
98	452	0	0
99	452	0	0
70	453	0	0
71	453	1	0
72	453	1	0
73	453	0	0
74	453	0	0
75	453	1	0
76	453	1	0
77	453	1	0
78	453	0	0
79	453	0	0
80	453	0	0
81	453	1	0
82	453	1	0
83	453	1	0
84	453	1	0
85	453	1	0
86	453	1	0
87	453	1	0
88	453	0	0
89	453	1	0
90	453	1	0
91	453	1	0
92	453	1	0
93	453	1	0
94	453	1	0
95	453	1	0
96	453	1	0
97	453	0	0
75	454	1	0
76	454	1	0
77	454	0	0
78	454	0	0
79	454	0	0
80	454	0	0
81	454	1	0
82	454	1	0
83	454	1	0
84	454	1	0
85	454	1	0
86	454	1	0
87	454	1	0
88	454	0	0
89	454	1	0
90	454	1	0
91	454	1	0
92	454	1	0
93	454	1	0
94	454	1	0
95	454	1	0
96	454	1	0
97	454	0	0
98	454	0	0
99	454	1	0
100	454	1	0
1	455	0	0
2	455	0	0
3	455	0	0
4	455	0	0
5	455	1	0
6	455	1	0
65	456	1	0
66	456	1	0
67	456	1	0
68	456	0	0
69	456	0	0
70	456	0	0
71	456	1	0
72	456	1	0
73	456	1	0
74	456	1	0
75	456	0	0
76	456	1	0
77	456	1	0
78	456	0	0
79	456	1	0
80	456	0	0
81	456	1	0
82	456	1	0
83	456	1	0
84	456	1	0
85	456	1	0
86	456	0	0
87	456	1	0
88	456	0	0
89	456	1	0
90	456	1	0
91	456	1	0
92	456	1	0
93	456	1	0
74	457	1	0
75	457	1	0
76	457	1	0
77	457	1	0
78	457	0	0
79	457	0	0
80	457	0	0
81	457	1	0
82	457	1	0
83	457	1	0
84	457	1	0
85	457	1	0
86	457	1	0
87	457	0	0
88	457	0	0
89	457	1	0
90	457	1	0
91	457	1	0
92	457	1	0
93	457	1	0
94	457	1	0
95	457	1	0
96	457	1	0
97	457	0	0
98	457	0	0
99	457	0	0
100	457	1	0
1	458	1	0
2	458	0	0
13	459	0	0
14	459	1	0
15	459	0	0
16	459	0	0
17	459	0	0
18	459	1	0
19	459	0	0
20	459	1	0
21	459	0	0
22	459	0	0
23	459	0	0
24	459	1	0
25	459	1	0
26	459	1	0
27	459	1	0
28	459	0	0
29	459	0	0
30	459	0	0
31	459	1	0
32	459	1	0
33	459	1	0
34	459	1	0
35	459	1	0
36	459	1	0
83	460	1	0
84	460	1	0
85	460	1	0
86	460	1	0
87	460	1	0
88	460	0	0
89	460	1	0
90	460	0	0
91	460	1	0
92	460	1	0
93	460	1	0
94	460	1	0
95	460	1	0
96	460	1	0
97	460	0	0
98	460	0	0
99	460	1	0
100	460	1	0
