chr	pos	strand	context	ratio	eff_CT_count	C_count	CT_count
chr1	10939	+	CGCAG	0.000	12.00	0	12
chr1	10945	+	CGCAG	1.000	12.00	12	12
chr1	10951	-	GACAC	1.000	12.00	12	12
chr1	10967	+	TCCAG	1.000	17.00	0	17
