chr	pos	strand	context	ratio	eff_CT_count	C_count	CT_count	rev_G_count	rev_GA_count	CI_lower	CI_upper
chrM	4	+	CHH	1.000	1.00	1	1	NA	NA	0.207	1.000
chrM	6	+	CHG	1.000	1.00	1	1	NA	NA	0.207	1.000
chrM	11	+	CHH	1.000	1.00	1	1	NA	NA	0.207	1.000
chrM	15	+	CHH	1.000	1.00	1	1	NA	NA	0.207	1.000
chrM	17	+	CHH	1.000	1.00	1	1	NA	NA	0.207	1.000
chrM	18	+	CHH	1.000	1.00	1	1	NA	NA	0.207	1.000
chrM	19	+	CHH	1.000	1.00	1	1	NA	NA	0.207	1.000
chrM	26	+	CHH	1.000	1.00	1	1	NA	NA	0.207	1.000
chrM	27	+	CHH	1.000	1.00	1	1	NA	NA	0.207	1.000
chrM	29	+	CHH	1.000	1.00	1	1	NA	NA	0.207	1.000
chrM	31	+	CHH	1.000	1.00	1	1	NA	NA	0.207	1.000
chrM	33	+	CG	1.000	1.00	1	1	NA	NA	0.207	1.000
chrM	39	+	CHH	1.000	1.00	1	1	NA	NA	0.207	1.000
chrM	41	+	CHH	1.000	1.00	1	1	NA	NA	0.207	1.000
chrM	43	+	CHH	1.000	1.00	1	1	NA	NA	0.207	1.000
chrM	44	+	CHH	1.000	1.00	1	1	NA	NA	0.207	1.000
chrM	48	+	CHH	1.000	1.00	1	1	NA	NA	0.207	1.000
chrM	61	+	CG	1.000	1.00	1	1	NA	NA	0.207	1.000
chrM	64	+	CHG	0.000	1.00	0	1	NA	NA	0.000	0.793
chrM	76	+	CHH	1.000	1.00	1	1	NA	NA	0.207	1.000
chrM	78	+	CG	1.000	1.00	1	1	NA	NA	0.207	1.000
chrM	80	+	CG	1.000	1.00	1	1	NA	NA	0.207	1.000
chrM	86	+	CHH	0.000	1.00	0	1	NA	NA	0.000	0.793
chrM	91	+	CG	0.000	1.00	0	1	NA	NA	0.000	0.793
chrM	96	+	CG	0.000	1.00	0	1	NA	NA	0.000	0.793
chrM	98	+	CHG	0.000	1.00	0	1	NA	NA	0.000	0.793
chrM	104	+	CHG	0.000	1.00	0	1	NA	NA	0.000	0.793
chrM	105	+	CG	0.000	1.00	0	1	NA	NA	0.000	0.793
chrM	110	+	CHH	1.000	1.00	1	1	NA	NA	0.207	1.000
chrM	112	+	CHH	0.000	1.00	0	1	NA	NA	0.000	0.793
chrM	113	+	CHH	0.000	1.00	0	1	NA	NA	0.000	0.793
chrM	114	+	CHH	0.000	1.00	0	1	NA	NA	0.000	0.793
chrM	120	+	CG	1.000	1.00	1	1	NA	NA	0.207	1.000
chrM	122	+	CHG	1.000	1.00	1	1	NA	NA	0.207	1.000
chrM	128	+	CHG	0.000	1.00	0	1	NA	NA	0.000	0.793
chrM	132	+	CHH	0.000	1.00	0	1	NA	NA	0.000	0.793
chrM	140	+	CHH	1.000	1.00	1	1	NA	NA	0.207	1.000
chrM	141	+	CHG	1.000	1.00	1	1	NA	NA	0.207	1.000
chrM	144	+	CHH	1.000	1.00	1	1	NA	NA	0.207	1.000
chrM	145	+	CHH	0.000	1.00	0	1	NA	NA	0.000	0.793
chrM	147	+	CHH	1.000	1.00	1	1	NA	NA	0.207	1.000
chrM	151	+	CHH	1.000	1.00	1	1	NA	NA	0.207	1.000
chrM	162	+	CG	1.000	1.00	1	1	NA	NA	0.207	1.000
chrM	164	+	CHH	1.000	1.00	1	1	NA	NA	0.207	1.000
chrM	166	+	CHH	0.000	1.00	0	1	NA	NA	0.000	0.793
chrM	167	+	CHH	0.000	1.00	0	1	NA	NA	0.000	0.793
chrM	170	+	CG	1.000	1.00	1	1	NA	NA	0.207	1.000
chrM	174	+	CHH	1.000	1.00	1	1	NA	NA	0.207	1.000
chrM	182	+	CHG	0.000	1.00	0	1	NA	NA	0.000	0.793
chrM	186	+	CG	1.000	1.00	1	1	NA	NA	0.207	1.000
chrM	190	+	CHH	0.000	1.00	0	1	NA	NA	0.000	0.793
chrM	194	+	CHH	0.000	1.00	0	1	NA	NA	0.000	0.793
chrM	195	+	CHH	0.000	1.00	0	1	NA	NA	0.000	0.793
chrM	198	+	CHH	1.000	1.00	1	1	NA	NA	0.207	1.000
chrM	222	+	CHH	0.000	1.00	0	1	NA	NA	0.000	0.793
chrM	231	+	CHH	0.000	1.00	0	1	NA	NA	0.000	0.793
chrM	242	+	CHH	1.000	1.00	1	1	NA	NA	0.207	1.000
chrM	253	+	CHG	1.000	1.00	1	1	NA	NA	0.207	1.000
chrM	256	+	CHH	1.000	1.00	1	1	NA	NA	0.207	1.000
chrM	258	+	CHG	1.000	1.00	1	1	NA	NA	0.207	1.000
chrM	261	+	CHG	1.000	1.00	1	1	NA	NA	0.207	1.000
chrM	262	+	CG	1.000	1.00	1	1	NA	NA	0.207	1.000
chrM	264	+	CHH	1.000	1.00	1	1	NA	NA	0.207	1.000
chrM	268	+	CHH	1.000	1.00	1	1	NA	NA	0.207	1.000
chrM	269	+	CHH	0.000	1.00	0	1	NA	NA	0.000	0.793
chrM	271	+	CHH	1.000	1.00	1	1	NA	NA	0.207	1.000
chrM	273	+	CHG	0.000	1.00	0	1	NA	NA	0.000	0.793
chrM	277	+	CHH	0.000	1.00	0	1	NA	NA	0.000	0.793
chrM	280	+	CHH	1.000	1.00	1	1	NA	NA	0.207	1.000
chrM	285	+	CHH	1.000	1.00	1	1	NA	NA	0.207	1.000
chrM	295	+	CHH	0.000	1.00	0	1	NA	NA	0.000	0.793
chrM	296	+	CHH	0.000	1.00	0	1	NA	NA	0.000	0.793
chrM	298	+	CHH	1.000	1.00	1	1	NA	NA	0.207	1.000
chrM	406	+	CHH	1.000	1.00	1	1	NA	NA	0.207	1.000
chrM	413	+	CG	0.000	1.00	0	1	NA	NA	0.000	0.793
chrM	420	+	CHH	0.000	1.00	0	1	NA	NA	0.000	0.793
chrM	422	+	CHH	1.000	1.00	1	1	NA	NA	0.207	1.000
chrM	429	+	CHG	1.000	1.00	1	1	NA	NA	0.207	1.000
chrM	433	+	CHH	1.000	1.00	1	1	NA	NA	0.207	1.000
chrM	435	+	CHH	1.000	1.00	1	1	NA	NA	0.207	1.000
chrM	436	+	CHH	1.000	1.00	1	1	NA	NA	0.207	1.000
chrM	437	+	CHH	0.000	1.00	0	1	NA	NA	0.000	0.793
chrM	438	+	CHH	0.000	1.00	0	1	NA	NA	0.000	0.793
chrM	439	+	CHH	1.000	1.00	1	1	NA	NA	0.207	1.000
chrM	440	+	CHH	0.000	1.00	0	1	NA	NA	0.000	0.793
chrM	443	+	CHH	1.000	1.00	1	1	NA	NA	0.207	1.000
chrM	447	+	CHH	1.000	1.00	1	1	NA	NA	0.207	1.000
chrM	449	+	CHH	1.000	1.00	1	1	NA	NA	0.207	1.000
chrM	458	+	CHH	1.000	1.00	1	1	NA	NA	0.207	1.000
chrM	459	+	CHH	0.000	1.00	0	1	NA	NA	0.000	0.793
chrM	460	+	CHH	0.000	1.00	0	1	NA	NA	0.000	0.793
chrM	461	+	CHH	1.000	1.00	1	1	NA	NA	0.207	1.000
chrM	463	+	CHH	1.000	1.00	1	1	NA	NA	0.207	1.000
chrM	464	+	CHH	1.000	1.00	1	1	NA	NA	0.207	1.000
chrM	465	+	CHH	1.000	1.00	1	1	NA	NA	0.207	1.000
chrM	467	+	CHH	1.000	1.00	1	1	NA	NA	0.207	1.000
chrM	469	+	CHH	0.000	1.00	0	1	NA	NA	0.000	0.793
chrM	470	+	CHH	0.000	1.00	0	1	NA	NA	0.000	0.793
chrM	471	+	CHH	0.000	1.00	0	1	NA	NA	0.000	0.793
chrM	475	+	CHH	1.000	1.00	1	1	NA	NA	0.207	1.000
chrM	478	+	CHH	1.000	1.00	1	1	NA	NA	0.207	1.000
chrM	483	+	CHH	1.000	1.00	1	1	NA	NA	0.207	1.000
chrM	485	+	CHH	1.000	1.00	1	1	NA	NA	0.207	1.000
chrM	488	+	CHH	1.000	1.00	1	1	NA	NA	0.207	1.000
chrM	493	+	CHH	1.000	1.00	1	1	NA	NA	0.207	1.000
chrM	496	+	CHH	0.000	1.00	0	1	NA	NA	0.000	0.793
chrM	497	+	CHH	1.000	1.00	1	1	NA	NA	0.207	1.000
chrM	498	+	CHH	1.000	1.00	1	1	NA	NA	0.207	1.000
chrM	503	+	CHH	0.000	1.00	0	1	NA	NA	0.000	0.793
chrM	504	+	CHH	0.000	1.00	0	1	NA	NA	0.000	0.793
chrM	507	+	CHH	1.000	1.00	1	1	NA	NA	0.207	1.000
chrM	508	+	CHH	1.000	1.00	1	1	NA	NA	0.207	1.000
chrM	511	+	CHH	1.000	1.00	1	1	NA	NA	0.207	1.000
chrM	512	+	CHH	1.000	1.00	1	1	NA	NA	0.207	1.000
chrM	513	+	CHG	1.000	1.00	1	1	NA	NA	0.207	1.000
chrM	516	+	CHH	1.000	1.00	1	1	NA	NA	0.207	1.000
chrM	518	+	CHH	1.000	1.00	1	1	NA	NA	0.207	1.000
chrM	520	+	CHH	1.000	1.00	1	1	NA	NA	0.207	1.000
chrM	522	+	CHH	1.000	1.00	1	1	NA	NA	0.207	1.000
chrM	524	+	CHH	1.000	1.00	1	1	NA	NA	0.207	1.000
chrM	526	+	CHG	0.000	1.00	0	1	NA	NA	0.000	0.793
chrM	527	+	CG	0.000	1.00	0	1	NA	NA	0.000	0.793
chrM	529	+	CHG	0.000	1.00	0	1	NA	NA	0.000	0.793
chrM	532	+	CHH	0.000	1.00	0	1	NA	NA	0.000	0.793
chrM	536	+	CHH	1.000	1.00	1	1	NA	NA	0.207	1.000
chrM	537	+	CHH	1.000	1.00	1	1	NA	NA	0.207	1.000
chrM	538	+	CHH	0.000	1.00	0	1	NA	NA	0.000	0.793
chrM	539	+	CHH	0.000	1.00	0	1	NA	NA	0.000	0.793
chrM	543	+	CHH	1.000	1.00	1	1	NA	NA	0.207	1.000
chrM	544	+	CHH	1.000	1.00	1	1	NA	NA	0.207	1.000
chrM	545	+	CHG	1.000	1.00	1	1	NA	NA	0.207	1.000
chrM	546	+	CG	1.000	1.00	1	1	NA	NA	0.207	1.000
chrM	550	+	CHH	1.000	1.00	1	1	NA	NA	0.207	1.000
chrM	551	+	CHH	0.000	1.00	0	1	NA	NA	0.000	0.793
chrM	554	+	CHH	1.000	1.00	1	1	NA	NA	0.207	1.000
chrM	555	+	CHH	1.000	1.00	1	1	NA	NA	0.207	1.000
chrM	559	+	CHH	1.000	1.00	1	1	NA	NA	0.207	1.000
chrM	560	+	CHH	0.000	1.00	0	1	NA	NA	0.000	0.793
chrM	561	+	CHH	0.000	1.00	0	1	NA	NA	0.000	0.793
chrM	562	+	CHH	0.000	1.00	0	1	NA	NA	0.000	0.793
chrM	568	+	CHH	1.000	1.00	1	1	NA	NA	0.207	1.000
chrM	570	+	CHH	1.000	1.00	1	1	NA	NA	0.207	1.000
chrM	571	+	CHH	0.000	1.00	0	1	NA	NA	0.000	0.793
chrM	572	+	CHH	0.000	1.00	0	1	NA	NA	0.000	0.793
chrM	573	+	CHH	0.000	1.00	0	1	NA	NA	0.000	0.793
chrM	574	+	CHH	0.000	1.00	0	1	NA	NA	0.000	0.793
chrM	575	+	CHH	1.000	1.00	1	1	NA	NA	0.207	1.000
chrM	577	+	CHG	1.000	1.00	1	1	NA	NA	0.207	1.000
chrM	589	+	CHH	1.000	1.00	1	1	NA	NA	0.207	1.000
chrM	593	+	CHH	1.000	1.00	1	1	NA	NA	0.207	1.000
chrM	594	+	CHH	1.000	1.00	1	1	NA	NA	0.207	1.000
chrM	596	+	CHH	1.000	1.00	1	1	NA	NA	0.207	1.000
chrM	597	+	CHH	1.000	1.00	1	1	NA	NA	0.207	1.000
chrM	604	+	CHH	0.000	1.00	0	1	NA	NA	0.000	0.793
chrM	609	+	CHH	0.000	1.00	0	1	NA	NA	0.000	0.793
chrM	611	+	CHG	0.000	1.00	0	1	NA	NA	0.000	0.793
chrM	626	+	CG	1.000	1.00	1	1	NA	NA	0.207	1.000
chrM	630	+	CHH	0.000	1.00	0	1	NA	NA	0.000	0.793
chrM	632	+	CHH	1.000	1.00	1	1	NA	NA	0.207	1.000
chrM	634	+	CHH	1.000	1.00	1	1	NA	NA	0.207	1.000
chrM	637	+	CHH	1.000	1.00	1	1	NA	NA	0.207	1.000
chrM	639	+	CHH	0.000	1.00	0	1	NA	NA	0.000	0.793
chrM	640	+	CHH	0.000	1.00	0	1	NA	NA	0.000	0.793
chrM	641	+	CHH	0.000	1.00	0	1	NA	NA	0.000	0.793
chrM	642	+	CHH	1.000	1.00	1	1	NA	NA	0.207	1.000
chrM	648	+	CHH	1.000	1.00	1	1	NA	NA	0.207	1.000
chrM	662	+	CHH	1.000	1.00	1	1	NA	NA	0.207	1.000
chrM	663	+	CHH	1.000	1.00	1	1	NA	NA	0.207	1.000
chrM	667	+	CHH	0.000	1.00	0	1	NA	NA	0.000	0.793
chrM	668	+	CHH	0.000	1.00	0	1	NA	NA	0.000	0.793
chrM	672	+	CHH	1.000	1.00	1	1	NA	NA	0.207	1.000
chrM	679	+	CHH	0.000	1.00	0	1	NA	NA	0.000	0.793
chrM	681	+	CHH	1.000	1.00	1	1	NA	NA	0.207	1.000
chrM	694	+	CHH	1.000	1.00	1	1	NA	NA	0.207	1.000
chrM	696	+	CHH	1.000	1.00	1	1	NA	NA	0.207	1.000
