sample_id	cluster_id	size	mean	std
s2	1	2	0.991422223872	0.0113410987195
s1	1	2	0.989542998551	0.0127212015045
s2	2	2	0.99210646728	0.0107300542895
s1	2	2	0.828212105771	0.0306020484827
s2	3	1	0.960781851229	0.0305362706705
s1	3	1	0.668383517599	0.0452799113293
s2	4	5	0.672653728287	0.0197110917401
s1	4	5	0.999565766126	0.00210745640047
s2	5	1	0.740218293124	0.0425961847247
s1	5	1	0.558303554694	0.0445982120489
s2	6	1	0.823023838767	0.0452968080474
s1	6	1	0.528472578201	0.0472044210621
s2	7	3	0.700457964452	0.0251002178699
s1	7	3	0.755590082942	0.0260153863047
s2	8	1	0.796300084177	0.0525415990329
s1	8	1	0.89134347417	0.0444604090911
s2	9	2	0.992603632013	0.0103723102603
s1	9	2	0.466847994877	0.0286191205207
s2	10	1	0.584511141713	0.0396103619717
s1	10	1	0.0886118775433	0.0208105556491
s2	11	1	0.625807789799	0.0443247711855
s1	11	1	0.418143196383	0.0373680864376
