ENSG00000000003:001	55
ENSG00000000003:002	15
ENSG00000000003:003	16
ENSG00000000003:004	13
ENSG00000000003:005	15
ENSG00000000003:006	14
ENSG00000000003:007	10
ENSG00000000003:008	9
ENSG00000000003:009	15
ENSG00000000003:010	1
ENSG00000000003:011	6
ENSG00000000003:012	6
ENSG00000000003:013	1
ENSG00000000003:014	2
ENSG00000000003:015	0
ENSG00000000005:001	0
ENSG00000000005:002	0
ENSG00000000005:003	0
ENSG00000000005:004	0
ENSG00000000005:005	1
ENSG00000000005:006	1
ENSG00000000005:007	1
ENSG00000000005:008	0
ENSG00000000005:009	0
ENSG00000000419:001	14
ENSG00000000419:002	118
ENSG00000000419:003	135
ENSG00000000419:004	634
ENSG00000000419:005	571
ENSG00000000419:006	417
ENSG00000000419:007	7
ENSG00000000419:008	10
ENSG00000000419:009	45
ENSG00000000419:010	494
ENSG00000000419:011	300
ENSG00000000419:012	284
ENSG00000000419:013	389
ENSG00000000419:014	339
ENSG00000000419:015	437
ENSG00000000419:016	321
ENSG00000000419:017	15
ENSG00000000419:018	5
ENSG00000000419:019	1
ENSG00000000457:001	8
ENSG00000000457:002	0
ENSG00000000457:003	90
ENSG00000000457:004	216
ENSG00000000457:005	29
ENSG00000000457:006	43
ENSG00000000457:007	39
ENSG00000000457:008	72
ENSG00000000457:009	71
ENSG00000000457:010	49
ENSG00000000457:011	75
ENSG00000000457:012	10
ENSG00000000457:013	71
ENSG00000000457:014	51
ENSG00000000457:015	56
ENSG00000000457:016	63
ENSG00000000457:017	63
ENSG00000000457:018	36
ENSG00000000457:019	43
ENSG00000000457:020	5
ENSG00000000457:021	1
ENSG00000000460:001	6
ENSG00000000460:002	36
ENSG00000000460:003	42
ENSG00000000460:004	0
ENSG00000000460:005	0
ENSG00000000460:006	0
ENSG00000000460:007	1
ENSG00000000460:008	1
ENSG00000000460:009	10
ENSG00000000460:010	22
ENSG00000000460:011	60
ENSG00000000460:012	3
ENSG00000000460:013	3
ENSG00000000460:014	2
ENSG00000000460:015	0
ENSG00000000460:016	60
ENSG00000000460:017	70
ENSG00000000460:018	76
ENSG00000000460:019	64
ENSG00000000460:020	29
ENSG00000000460:021	47
ENSG00000000460:022	11
ENSG00000000460:023	6
ENSG00000000460:024	22
ENSG00000000460:025	30
ENSG00000000460:026	49
ENSG00000000460:027	49
ENSG00000000460:028	47
ENSG00000000460:029	44
ENSG00000000460:030	1
ENSG00000000460:031	75
ENSG00000000460:032	60
ENSG00000000460:033	72
ENSG00000000460:034	4
ENSG00000000460:035	60
ENSG00000000460:036	56
