id	logFC	PValue
2_232325003_232325137_-	-13.9632133972	0.0006366805
20_2637509_2637643_+	-12.5755546936	0.0011014618
16_29613604_29613730_-	-11.7482977513	0.0026192045
22_46508607_46508713_+	-11.7482973999	0.0027411802
21_9827235_9827311_+	11.6757323833	0.0031647148
