ID	chr	start	end	a	LogR
S0009	1	3252007	3714033	2	-0.660141
S0009	1	4083031	6254460	8	-0.322982
S0009	1	6569286	6569286	1	0.235684
S0009	1	7019816	26278308	75	-0.322982
S0009	1	26355640	53618535	118	0.000000
S0009	1	53818981	54026244	5	0.609486
S0009	1	54029893	59453334	20	0.000000
S0009	1	60183019	60183019	1	-0.777891
S0009	1	60421762	71243479	53	0.000000
S0009	1	71975017	73005305	5	0.809974
S0009	1	73007962	88578494	58	0.000000
S0009	1	88625878	88625878	1	0.273053
S0009	1	88740865	89316412	5	-0.126572
S0009	1	89465514	92569195	11	-0.399625
S0009	1	93066417	93265369	2	-0.949035
S0009	1	93411668	97280313	24	-0.399625
S0009	1	97542797	97542797	1	0.069692
S0009	1	97749248	152109134	97	-0.399625
S0009	1	152149258	153804336	8	-0.966949
S0009	1	153999135	154037973	2	-0.548216
S0009	1	154225344	156017402	8	-0.966949
S0009	1	156101509	162230006	35	-0.399625
S0009	1	162416629	162416629	1	-0.841402
S0009	1	162420749	208874119	160	-0.399625
S0009	1	208994644	213060744	16	-0.867899
S0009	1	213281036	216082027	9	-0.399625
S0009	1	216439672	216439672	1	0.019107
S0009	1	216535712	216535712	1	0.418732
S0009	1	217418745	227525330	39	0.000000
S0009	1	227744660	227744660	1	1.959492
S0009	1	228143582	242270758	49	0.000000
S0009	1	242357338	242357338	1	-0.468999
S0009	1	242401229	247785294	12	0.000000
S0009	2	548277	22189240	57	0.000000
S0009	2	22196303	30668821	30	-0.414570
S0009	2	30954621	61518573	97	0.000000
S0009	2	62464483	82943700	41	-0.083363
S0009	2	83148496	97594142	19	0.000000
S0009	2	99410419	104196439	18	0.207813
S0009	2	105442170	106195910	4	0.373333
S0009	2	106539688	107928846	11	0.207813
S0009	2	108104307	108104307	1	0.476670
S0009	2	108163035	114122827	18	0.268857
S0009	2	114139862	123890609	26	0.000000
S0009	2	127492191	180559024	138	-0.789088
S0009	2	181468010	197287958	52	0.000000
S0009	2	197469555	198144002	2	0.289236
S0009	2	198471171	238769680	111	0.000000
S0009	2	238903310	238903310	1	-0.779188
S0009	2	238970862	239679338	5	0.000000
S0009	2	240097330	242217627	8	-0.397976
S0009	3	3362137	11258238	21	0.000000
S0009	3	11700480	14791371	15	0.991975
S0009	3	14856838	33805561	58	0.000000
S0009	3	34271042	34271042	1	-0.495332
S0009	3	34598590	42461815	21	0.000000
S0009	3	43238536	43238536	1	0.431693
S0009	3	43303725	63681623	67	0.000000
S0009	3	63802871	63956655	2	1.387354
S0009	3	64036016	65597198	5	3.515290
S0009	3	65613957	66744271	4	2.127936
S0009	3	66786091	67882615	5	0.321954
S0009	3	68507158	73489259	24	0.000000
S0009	3	73491002	109459407	116	-0.375796
S0009	3	110044601	110044601	1	-0.110544
S0009	3	111591110	122916963	46	-0.375796
S0009	3	122939157	133492571	34	-0.521869
S0009	3	134137184	134137184	1	-0.204106
S0009	3	135011141	136206474	5	-1.116315
S0009	3	136214596	146190898	26	-0.204106
S0009	3	147607519	151906305	12	0.125813
S0009	3	151976445	153898954	10	-0.204106
S0009	3	154648728	154648728	1	0.183736
S0009	3	154729690	156535404	6	-0.204106
S0009	3	156616684	171302402	40	-0.058032
S0009	3	171307593	181868569	28	-0.375796
S0009	3	181880340	197212100	56	0.000000
S0009	4	1059202	2721132	7	0.000000
S0009	4	2730273	3019054	2	-0.340745
S0009	4	3122222	23222053	65	0.000000
S0009	4	24035754	24035754	1	0.532922
S0009	4	24379623	26164492	3	0.000000
S0009	4	26165467	29508477	6	-0.589942
S0009	4	29727469	37369300	23	0.000000
S0009	4	37525276	92046365	162	-0.431001
S0009	4	92053646	92220576	2	0.352926
S0009	4	92259485	94223831	4	-0.431001
S0009	4	94316763	100321365	12	0.484553
S0009	4	101884585	111538827	36	-0.431001
S0009	4	114090005	158064499	116	0.000000
S0009	4	158103424	160088137	6	0.416988
S0009	4	160097670	165158520	15	0.000000
S0009	4	166373881	166658637	2	0.358400
S0009	4	166936205	188763651	53	0.000000
S0009	5	1325767	2371873	6	-0.001844
S0009	5	2782365	15331131	41	-0.373365
S0009	5	16629815	16629815	1	-0.069581
S0009	5	16795287	29507658	38	-0.373365
S0009	5	29849398	29849398	1	-0.603066
S0009	5	31776025	33814173	9	1.076303
S0009	5	33913565	51237372	48	-0.373365
S0009	5	51501015	67012811	48	-0.001844
S0009	5	68720419	73956787	16	-0.296316
S0009	5	75538460	75642974	2	0.413013
S0009	5	75672414	98413595	41	-0.296316
S0009	5	99848334	99848334	1	0.410369
S0009	5	99911855	106797311	8	-0.001844
S0009	5	106841937	130918803	52	2.057748
S0009	5	131679018	158577288	54	-0.001844
S0009	5	158624569	158975210	2	-0.236377
S0009	5	159292921	179730478	68	-0.001844
S0009	6	1057482	6606227	28	-0.380526
S0009	6	6832337	7810398	4	-0.091057
S0009	6	7813176	13585406	32	-0.380526
S0009	6	14071414	18186730	18	0.000000
S0009	6	18187538	20468635	16	-1.387302
S0009	6	20589370	20808742	5	-0.651889
S0009	6	21166588	41480183	68	-1.387302
S0009	6	41751351	42674983	7	-1.756790
S0009	6	43387947	80512139	124	-1.387302
S0009	6	80661844	92672765	34	-1.389514
S0009	6	92808457	93543825	14	-2.421117
S0009	6	93702141	103912336	30	-1.389514
S0009	6	104205337	107250122	19	-1.716514
S0009	6	107635670	120464931	50	-1.389514
S0009	6	120584931	132593369	59	-0.002212
S0009	6	132942768	133663636	3	-1.442555
S0009	6	133666171	170872572	164	-0.002212
S0009	7	863293	44301664	156	0.000000
S0009	7	44813496	46355343	6	0.365809
S0009	7	46557422	83048339	77	0.000000
S0009	7	84284115	84284115	1	-1.210077
S0009	7	84427012	137438030	114	0.000000
S0009	7	137954598	139558554	4	0.234556
S0009	7	140284211	142508607	9	0.000000
S0009	7	142623357	142623357	1	0.491569
S0009	7	143839426	148487329	14	0.000000
S0009	7	149068950	149068950	1	1.393718
S0009	7	149145139	158215549	36	0.000000
S0009	8	618552	633110	2	0.000000
S0009	8	849793	3737665	14	-0.401318
S0009	8	3929168	14044475	30	-0.033424
S0009	8	14089783	17548292	21	0.367893
S0009	8	17565118	24550474	24	-0.171149
S0009	8	25115240	25115240	1	-0.521921
S0009	8	25280621	35694186	84	-0.171149
S0009	8	35798219	36213763	6	-0.479135
S0009	8	36220268	36220268	1	0.447984
S0009	8	36235570	40163513	48	-0.171149
S0009	8	40195639	40195639	1	0.375047
S0009	8	40203542	66244699	123	-0.171149
S0009	8	67000370	70250501	20	1.631670
S0009	8	70319274	76755503	26	-0.171149
S0009	8	76887172	79908269	16	0.115300
S0009	8	79919546	80046574	2	-0.528280
S0009	8	80092851	82506510	15	0.115300
S0009	8	82595966	83183692	6	-0.171149
S0009	8	83670528	84136017	3	0.672619
S0009	8	84183214	96276076	58	0.367893
S0009	8	96423252	101692878	25	1.009767
S0009	8	101975479	102610279	5	0.367893
S0009	8	103058178	104083786	5	0.000000
S0009	8	104282429	107930723	16	1.069875
S0009	8	108407397	114511921	27	0.000000
S0009	8	114592701	114986413	3	0.209554
S0009	8	115116922	139675584	128	0.000000
S0009	8	139763000	140793859	7	-1.251402
S0009	8	141399664	145147978	8	0.000000
S0009	9	905450	14443402	51	-0.002652
S0009	9	14480820	15845914	9	-0.373102
S0009	9	16133192	16133192	1	-0.933126
S0009	9	16200201	27351767	57	-0.373102
S0009	9	27363004	27369508	2	0.173480
S0009	9	27382244	86913781	86	-0.373102
S0009	9	87284262	92518699	15	-0.220215
S0009	9	92684432	100110179	18	-0.373102
S0009	9	100329488	126506917	78	-0.677510
S0009	9	126744531	140599989	63	-0.307060
S0009	10	466220	24577447	77	-0.006691
S0009	10	24634956	26196932	3	1.760904
S0009	10	26596798	37664591	42	-0.006691
S0009	10	37786255	37931787	2	0.479108
S0009	10	38092975	38092975	1	0.485800
S0009	10	38261279	44191614	13	0.000000
S0009	10	44296893	44296893	1	0.413180
S0009	10	44748363	61353877	35	0.000000
S0009	10	61465327	65182708	20	0.889925
S0009	10	65307948	73413555	34	2.402279
S0009	10	73825952	73858399	2	2.758047
S0009	10	73928530	74152536	2	2.402279
S0009	10	74190704	77373534	16	0.889925
S0009	10	77396891	77901849	5	1.085186
S0009	10	77951103	80321977	12	0.195260
S0009	10	80434449	89799809	43	0.442779
S0009	10	89872203	98056598	29	0.195260
S0009	10	98231747	98354183	2	2.742382
S0009	10	98380137	98859178	3	3.078131
S0009	10	99243326	110892869	27	2.742382
S0009	10	110933214	114645254	18	0.000000
S0009	10	114832672	115168922	2	-1.003811
S0009	10	115488889	118979733	11	0.000000
S0009	10	119210375	119210375	1	0.764767
S0009	10	119533757	121516884	4	0.000000
S0009	10	121538436	122070550	3	0.644694
S0009	10	122317332	128964175	38	0.000000
S0009	10	129190141	135124948	23	0.186209
S0009	11	577454	27115945	103	0.077652
S0009	11	27192545	30641221	14	0.877540
S0009	11	31000852	38741510	41	0.077652
S0009	11	38742268	39322332	4	0.950878
S0009	11	39557130	41143575	13	0.077652
S0009	11	41231647	41231647	1	-0.454908
S0009	11	41407614	61657707	79	0.077652
S0009	11	61657857	62597717	12	1.842129
S0009	11	62618180	68388588	39	0.077652
S0009	11	68490361	68490361	1	-0.333135
S0009	11	68660797	69015728	6	0.077652
S0009	11	69016700	69435627	3	1.118323
S0009	11	69448373	70362207	13	0.077652
S0009	11	70403385	70403385	1	0.380559
S0009	11	70787123	97787915	179	0.077652
S0009	11	98226763	134044100	114	-0.103138
S0009	12	1287872	14477187	46	-0.170090
S0009	12	14744444	15031368	5	0.482148
S0009	12	15161833	15174439	2	0.870597
S0009	12	15716722	22407490	32	0.482148
S0009	12	22439228	25486226	10	-0.170090
S0009	12	25745117	27797905	6	3.109085
S0009	12	27826605	27826605	1	5.111161
S0009	12	27827476	30818556	13	1.831985
S0009	12	31093789	31099949	2	4.057473
S0009	12	31161023	32227953	5	2.055398
S0009	12	32320830	47724158	43	-0.170090
S0009	12	47764433	48929561	5	0.233915
S0009	12	50133611	51036925	5	-0.244630
S0009	12	51635992	59103316	31	-0.648634
S0009	12	59227169	68476572	49	-0.170090
S0009	12	68603916	73015676	42	-0.114605
S0009	12	73181807	102439418	104	-0.556677
S0009	12	102684827	115491832	40	-0.773479
S0009	12	116250776	124499882	37	-0.176582
S0009	12	124998565	127245567	7	-0.773479
S0009	12	127358772	128110264	2	-1.385005
S0009	12	128172301	131560173	6	-0.773479
S0009	12	133114840	133161346	2	-0.234754
S0009	13	19538886	24578032	25	-0.862874
S0009	13	24614951	53344197	89	-0.473098
S0009	13	53454488	100203573	147	-0.862874
S0009	13	100508767	102548688	9	-2.870564
S0009	13	102607422	111208336	35	-0.862874
S0009	13	111237334	111237334	1	-1.731340
S0009	13	111292120	114981574	19	-0.862874
S0009	14	20825965	31861934	50	0.003127
S0009	14	31988127	32656403	5	-0.708908
S0009	14	32867673	38484799	34	0.003127
S0009	14	38499792	48642903	39	0.659861
S0009	14	48654969	56155994	27	0.003127
S0009	14	56314735	59273168	17	0.516762
S0009	14	60141543	105690735	141	0.003127
S0009	15	23733544	33470268	18	0.000000
S0009	15	33605301	37046537	10	0.325785
S0009	15	37120947	63873008	95	0.000000
S0009	15	64114009	90064593	82	-0.400186
S0009	15	90752952	101214182	47	-0.218700
S0009	16	655262	14288686	59	-0.651957
S0009	16	14327297	25508517	23	-4.077548
S0009	16	25520007	26355248	9	-0.651957
S0009	16	26462221	31148215	13	-1.464155
S0009	16	31663854	31663854	1	-1.132738
S0009	16	31692173	52895266	33	-1.464155
S0009	16	52897246	53719254	5	-1.486344
S0009	16	53795409	53795409	1	-2.027821
S0009	16	53850170	57610423	21	-1.464155
S0009	16	57848318	60759829	11	-2.065614
S0009	16	60774193	61241361	3	-1.672889
S0009	16	61321846	64014002	14	-0.860691
S0009	16	64447002	73331696	30	-1.253416
S0009	16	73817834	74963657	5	0.865775
S0009	16	75025548	79860514	20	-1.253416
S0009	16	79868830	89371839	39	-0.651957
S0009	17	1243941	7886735	23	0.000000
S0009	17	8264429	13490948	30	0.450095
S0009	17	13684167	46525353	178	0.000000
S0009	17	46827877	47438624	9	0.877412
S0009	17	47591802	48051772	6	0.000000
S0009	17	48111430	48644537	5	0.110113
S0009	17	48731631	48731631	1	-1.168096
S0009	17	48735774	62067186	118	0.110113
S0009	17	62117262	62117262	1	-0.915290
S0009	17	62304122	62487308	3	0.110113
S0009	17	62516890	65870616	28	0.460021
S0009	17	66015963	74492095	58	0.349908
S0009	17	74500332	74728082	3	0.006515
S0009	17	74738008	76999437	12	-0.343394
S0009	17	77117581	77457002	6	-0.460382
S0009	17	77466189	80917016	25	-0.343394
S0009	18	331827	6786443	25	0.000000
S0009	18	6939846	7791194	3	0.154034
S0009	18	8713774	9871426	4	-0.554528
S0009	18	9913345	25612326	41	0.000000
S0009	18	26727523	27090938	2	0.666024
S0009	18	27189669	31618508	19	0.000000
S0009	18	32782932	35654573	15	0.891154
S0009	18	36637118	36637118	1	0.000000
S0009	18	37151874	37151874	1	-0.508295
S0009	18	37590484	42689285	15	0.000000
S0009	18	44674059	45563098	5	1.286416
S0009	18	45611127	47827943	10	2.648099
S0009	18	48583105	48603835	2	1.361684
S0009	18	48629913	77003733	83	0.000000
S0009	19	412730	5766090	27	0.082407
S0009	19	5936689	11904943	31	-1.458740
S0009	19	12009176	17462792	32	0.082407
S0009	19	17517369	17517369	1	-0.312029
S0009	19	17561454	29769934	44	0.082407
S0009	19	29861707	29861707	1	-0.314974
S0009	19	29906561	29906561	1	0.223701
S0009	19	30112141	30307115	4	-0.314974
S0009	19	30400158	30779475	3	0.263258
S0009	19	30869741	32162212	10	0.660639
S0009	19	32169732	46660954	66	0.082407
S0009	19	46788317	46788317	1	0.434719
S0009	19	46844123	58852835	65	0.082407
S0009	20	545941	15897755	80	-0.142097
S0009	20	15968861	17264549	6	-0.783627
S0009	20	17585614	19523316	11	1.690960
S0009	20	19676432	19676432	1	2.221999
S0009	20	19709665	22021373	14	1.690960
S0009	20	22165427	41429234	84	-0.783627
S0009	20	41616702	41616702	1	-1.339559
S0009	20	42097224	52240671	79	-0.783627
S0009	20	52309410	52319644	2	0.215267
S0009	20	52371343	53223330	9	-0.783627
S0009	20	53584624	54420627	8	-1.640461
S0009	20	54568083	55868734	18	-0.783627
S0009	20	55874532	56348590	10	-0.454297
S0009	20	56400121	56487389	3	-0.783627
S0009	20	56544063	57972626	14	-0.142097
S0009	20	58357939	58357939	1	0.409514
S0009	20	58414453	62215372	32	-0.142097
S0009	21	15946408	17822236	10	0.000000
S0009	21	17842538	17842538	1	-0.483283
S0009	21	17843167	44028951	127	0.000000
S0009	21	44182700	44182700	1	0.328899
S0009	21	44361245	47323522	14	0.000000
S0009	22	17520371	49329633	134	0.222321
S0009	X	3343638	12564950	8	0.582857
S0009	X	12909005	13332862	4	-0.015115
S0009	X	13348682	21434667	22	0.582857
S0009	X	21590118	21590118	1	0.824499
S0009	X	22031197	26991759	13	0.582857
S0009	X	27227498	31568903	15	0.961699
S0009	X	31800413	32223445	2	3.428089
S0009	X	32661894	32661894	1	0.961699
S0009	X	32769118	35539639	4	1.368859
S0009	X	36604676	36604676	1	0.830981
S0009	X	37487594	40210451	7	1.368859
S0009	X	41108897	44480579	6	2.047958
S0009	X	44483797	52683372	26	1.368859
S0009	X	54318812	56813718	7	1.109331
S0009	X	56881650	56881650	1	0.730488
S0009	X	57635870	84866299	71	0.866503
S0009	X	85216733	140192836	104	1.126031
S0009	X	140323861	144303700	12	0.400613
S0009	X	144322371	153689045	28	1.126031
