ID	chr	start	end	a	LogR
S0012	1	3252007	9559042	24	0.263298
S0012	1	9852699	10563523	3	-0.211348
S0012	1	10617034	10650509	3	0.944882
S0012	1	10825799	24917543	53	-0.211348
S0012	1	25768937	33898566	37	-0.707253
S0012	1	34181830	40408280	24	-0.211348
S0012	1	40496677	42074930	11	0.569875
S0012	1	42119844	47155219	23	-0.211348
S0012	1	47265273	65263697	85	-0.245835
S0012	1	65608101	69449173	14	2.139624
S0012	1	70604967	84591002	48	-0.245835
S0012	1	84594399	84594399	1	0.148020
S0012	1	84644718	89167882	25	-0.245835
S0012	1	89316412	94145216	24	0.259365
S0012	1	94182535	95288808	7	0.077078
S0012	1	95485179	109720385	47	0.521224
S0012	1	109754718	109938325	2	0.924460
S0012	1	110918901	119269869	40	0.521224
S0012	1	119333813	158150056	48	0.077078
S0012	1	158185244	158253744	2	-0.589886
S0012	1	158511810	161382976	15	0.077078
S0012	1	161703198	161894478	3	0.823494
S0012	1	162230006	163373461	11	0.077078
S0012	1	163379752	219701961	183	0.259365
S0012	1	220089352	226891595	28	-0.245835
S0012	1	226892377	229030081	11	0.333622
S0012	1	229121197	247785294	58	-0.245835
S0012	2	548277	4698129	10	-0.140299
S0012	2	6500686	7283591	3	0.266757
S0012	2	8287950	23865014	47	-0.140299
S0012	2	23865176	23865176	1	-0.036534
S0012	2	23915513	25160743	7	-0.140299
S0012	2	25714916	28328631	9	-0.544736
S0012	2	28683174	30172861	7	-0.022428
S0012	2	30478628	43780106	30	-0.544736
S0012	2	44016885	44261892	2	-0.013677
S0012	2	44912156	75526489	91	-0.544736
S0012	2	75563204	75563204	1	0.372518
S0012	2	75810268	84527208	20	-0.544736
S0012	2	84537078	106539688	39	-0.140299
S0012	2	106612452	107442374	7	1.278675
S0012	2	107692248	228000136	316	-0.140299
S0012	2	228482701	228482701	1	-0.695901
S0012	2	228726714	232768558	11	-0.327236
S0012	2	233048661	242217627	37	-0.140299
S0012	3	3362137	6709275	9	-0.107180
S0012	3	7110108	10174353	10	-0.368147
S0012	3	10960562	55927681	144	-0.107180
S0012	3	56519323	61595751	15	2.212660
S0012	3	62498378	63271746	5	3.699802
S0012	3	63681623	65613957	9	6.423174
S0012	3	66526184	73491002	33	3.699802
S0012	3	73499631	76557789	9	2.212660
S0012	3	76898181	86033012	41	-0.107180
S0012	3	86088197	100496680	37	0.556989
S0012	3	101121980	115908434	52	0.430898
S0012	3	115959369	118540465	10	-0.233271
S0012	3	118547466	119773933	7	-0.107180
S0012	3	119869509	132968294	37	-0.101770
S0012	3	133260516	133260516	1	-0.356789
S0012	3	133288506	141520541	19	-0.101770
S0012	3	141585594	146190898	15	-0.141316
S0012	3	147607519	147607519	1	0.222522
S0012	3	147747105	170840155	65	-0.141316
S0012	3	170945351	176963521	18	-0.146726
S0012	3	177133282	177581405	3	0.068312
S0012	3	177672475	187022425	28	-0.146726
S0012	3	187221709	187639162	4	1.105311
S0012	3	187865100	190769453	15	-0.146726
S0012	3	190793040	190988277	2	-0.973803
S0012	3	191132748	197212100	17	-0.146726
S0012	4	1059202	5525706	20	0.000000
S0012	4	6249840	44775015	109	0.546763
S0012	4	44863590	46141498	5	1.331676
S0012	4	46334494	47754597	7	0.546763
S0012	4	53112728	91574079	126	0.000000
S0012	4	91774975	92053646	3	0.564971
S0012	4	92220576	92220576	1	0.000000
S0012	4	92259485	108199427	44	0.433561
S0012	4	108202966	121769641	26	-0.279272
S0012	4	123585362	125544726	6	0.373082
S0012	4	125851962	146073143	55	-0.279272
S0012	4	146877869	153883458	24	0.433561
S0012	4	154161797	154161797	1	0.148014
S0012	4	154320701	166373881	34	0.433561
S0012	4	166658637	166936205	2	0.065365
S0012	4	167085951	188763651	52	0.433561
S0012	5	1325767	43429204	132	-0.050387
S0012	5	43739722	43945887	2	0.291592
S0012	5	44196424	51501015	11	-0.050387
S0012	5	51562410	51618407	2	0.470497
S0012	5	52166412	59108188	32	-0.050387
S0012	5	59240576	59641831	2	-0.455202
S0012	5	59973498	60827533	3	-0.050387
S0012	5	61768225	65312181	6	-0.426903
S0012	5	66150737	70663441	5	0.397232
S0012	5	70668192	73840051	12	-0.426903
S0012	5	73956787	93401028	36	-0.381787
S0012	5	94266363	127191705	62	-0.005271
S0012	5	127295353	131679018	8	-0.617874
S0012	5	131972588	168314006	77	-0.005271
S0012	5	168489333	179730478	46	-0.050387
S0012	6	1057482	13316249	61	0.563961
S0012	6	13383430	13393742	2	0.827823
S0012	6	13585406	26483589	66	0.563961
S0012	6	26996011	36031583	18	1.035052
S0012	6	36289878	41043308	22	0.563961
S0012	6	41315236	55456080	54	0.880717
S0012	6	55468462	55468462	1	1.782642
S0012	6	55520809	66564806	28	0.880717
S0012	6	66565457	75709502	33	0.406796
S0012	6	76107040	98436660	79	0.090041
S0012	6	98566341	110802082	44	0.467523
S0012	6	111124065	111124065	1	0.804695
S0012	6	111401665	112295332	3	0.467523
S0012	6	112454245	112624189	3	0.593284
S0012	6	112793278	114275606	10	0.467523
S0012	6	114807936	150514288	165	0.090041
S0012	6	150926499	151011990	2	-0.691170
S0012	6	151253415	151405377	3	0.090041
S0012	6	151665009	152072762	8	-0.522562
S0012	6	152776654	163662087	48	0.090041
S0012	6	163856782	163856782	1	-0.270509
S0012	6	163913825	169503796	16	0.090041
S0012	6	169503976	169503976	1	0.356203
S0012	6	169833505	170872572	6	0.090041
S0012	7	863293	7947541	20	0.117278
S0012	7	8145499	14038626	25	0.777014
S0012	7	14058445	14058445	1	1.368377
S0012	7	15047933	16626101	6	0.777014
S0012	7	16683937	38654084	82	0.117278
S0012	7	38790947	38790947	1	-0.868846
S0012	7	39091288	99649919	137	0.117278
S0012	7	99978080	99978080	1	-0.301276
S0012	7	100479811	158215549	146	0.117278
S0012	8	618552	18446506	77	0.058883
S0012	8	18528727	23909921	13	-0.539358
S0012	8	24550474	25280621	3	-0.031632
S0012	8	25281360	31657854	49	-0.539358
S0012	8	31779265	32277018	3	-0.347837
S0012	8	32340448	32377064	2	0.062396
S0012	8	32488351	37124693	42	-0.347837
S0012	8	37132546	37132546	1	-0.710334
S0012	8	37211335	37754740	12	-0.347837
S0012	8	38167649	50853141	79	0.250403
S0012	8	51672209	51672209	1	1.316902
S0012	8	51862150	86949727	174	0.250403
S0012	8	87124955	87124955	1	-0.120568
S0012	8	87167184	94688890	34	0.250403
S0012	8	94772319	103788000	44	-0.365464
S0012	8	104083786	104282429	2	0.250403
S0012	8	104291296	105763644	8	2.391271
S0012	8	105898954	119019909	59	0.250403
S0012	8	119029871	123457282	20	0.058883
S0012	8	123502642	123502642	1	0.421081
S0012	8	123521573	124254528	5	0.058883
S0012	8	124444496	145147978	95	0.150555
S0012	9	905450	2322101	5	0.353737
S0012	9	2474066	4103703	11	0.798523
S0012	9	4328732	4357357	2	-0.322247
S0012	9	4993026	28158857	105	0.798523
S0012	9	28166400	115361163	155	0.353737
S0012	9	115754404	115754404	1	0.963553
S0012	9	116124844	117376466	5	0.353737
S0012	9	117557112	117736205	3	0.884098
S0012	9	117808080	117808080	1	0.758665
S0012	9	118036595	140310046	90	-0.067099
S0012	9	140520623	140599989	2	-0.389265
S0012	10	466220	28503165	86	0.000000
S0012	10	28603464	28734355	2	0.266087
S0012	10	29146064	37367894	29	0.000000
S0012	10	37447241	37447241	1	0.294989
S0012	10	37489953	37527469	2	0.000000
S0012	10	37615627	67663412	88	0.258309
S0012	10	67755810	68939641	2	0.000000
S0012	10	69789384	70990824	6	0.517970
S0012	10	71195614	71823229	4	2.265800
S0012	10	71887884	73858399	10	1.747830
S0012	10	73928530	121538436	176	0.000000
S0012	10	121845256	126289540	19	-0.502304
S0012	10	126404652	127485254	9	0.000000
S0012	10	127555116	127555116	1	0.266027
S0012	10	127563833	128932056	10	0.000000
S0012	10	128964175	129190141	2	0.481722
S0012	10	129372627	129539903	4	-0.618630
S0012	10	129593684	135124948	18	0.000000
S0012	11	577454	14590435	56	0.332386
S0012	11	15101270	19455826	15	0.490032
S0012	11	19520590	19534993	2	1.132244
S0012	11	19554506	25413655	22	0.490032
S0012	11	25889500	29033952	15	0.768631
S0012	11	29062942	32526962	20	1.016710
S0012	11	32541784	38742268	29	0.768631
S0012	11	38861351	42787485	23	1.172325
S0012	11	42865978	42865978	1	0.449726
S0012	11	42933500	42997172	2	-0.163517
S0012	11	43696917	59258518	46	0.559082
S0012	11	59265359	60527922	14	0.401436
S0012	11	60564804	60898976	2	0.782610
S0012	11	60902434	61885073	10	0.401436
S0012	11	61915701	61915701	1	1.969781
S0012	11	61991756	62774379	12	0.401436
S0012	11	63033268	63033268	1	1.284746
S0012	11	63368384	68326038	34	0.401436
S0012	11	68388588	78125246	93	1.014679
S0012	11	78179058	85262785	58	0.610985
S0012	11	85390406	85871690	4	0.332386
S0012	11	86243133	91429588	22	-0.043679
S0012	11	92131293	99283671	32	-0.548357
S0012	11	99368715	107310710	19	-0.043679
S0012	11	107331701	134044100	90	0.332386
S0012	12	1287872	3769881	9	0.187023
S0012	12	4671490	8838023	11	1.191000
S0012	12	9013329	10970795	8	2.163850
S0012	12	11083677	14090003	17	2.476994
S0012	12	14477187	17056798	13	3.386772
S0012	12	17625605	23624681	29	4.501573
S0012	12	23727848	24514525	4	6.325025
S0012	12	24725652	24725652	1	5.496513
S0012	12	25234646	31099949	25	6.801359
S0012	12	31161023	33071290	10	5.797381
S0012	12	33221491	33221491	1	4.682580
S0012	12	33282226	42763826	13	3.709731
S0012	12	43053711	48256090	28	2.799953
S0012	12	48929561	51740234	8	1.495107
S0012	12	51767614	52788080	7	1.129533
S0012	12	52791900	63768062	50	1.495107
S0012	12	64263327	64263327	1	2.030967
S0012	12	64272607	87472665	128	1.495107
S0012	12	87819504	87865319	2	2.281858
S0012	12	88185117	92234831	11	1.286918
S0012	12	92436751	92436751	1	1.924366
S0012	12	92617103	93883734	3	1.286918
S0012	12	94031881	115491832	61	1.487892
S0012	12	116250776	121194565	25	0.701141
S0012	12	121360131	123758235	9	0.500167
S0012	12	123978134	133161346	20	0.187023
S0012	13	19538886	31042965	52	0.535098
S0012	13	31263697	31263697	1	0.922587
S0012	13	31282130	38832327	26	0.535098
S0012	13	39648018	40554922	2	-0.474006
S0012	13	40963235	54958504	41	0.535098
S0012	13	56531743	57394572	2	0.836926
S0012	13	57483638	85117899	92	0.535098
S0012	13	85239324	86087941	3	0.910914
S0012	13	86484151	109151039	78	0.535098
S0012	13	109235976	112132258	13	-0.646907
S0012	13	112136167	114981574	15	0.535098
S0012	14	20825965	27066063	25	-0.007947
S0012	14	27082086	27082086	1	-0.409744
S0012	14	27107260	57383998	135	-0.007947
S0012	14	57848466	67968294	37	-0.096026
S0012	14	68820853	69392881	9	0.580865
S0012	14	69493178	75340818	18	-0.096026
S0012	14	75773873	105690735	88	-0.120869
S0012	15	23733544	54411690	88	0.444845
S0012	15	54425797	54425797	1	1.098272
S0012	15	54813997	56454191	4	0.444845
S0012	15	56543422	59848338	16	2.217277
S0012	15	60067841	70004352	35	0.444845
S0012	15	70079542	70079542	1	1.161759
S0012	15	70385112	76035926	13	0.444845
S0012	15	76196674	79803344	9	-2.411822
S0012	15	79931669	99572420	78	0.444845
S0012	15	99768580	101189481	6	0.876162
S0012	15	101214182	101214182	1	0.444845
S0012	16	655262	2412067	8	-2.203855
S0012	16	2421236	4586222	11	-1.828244
S0012	16	4692113	6548389	7	-2.504331
S0012	16	6552165	11775872	23	-2.232357
S0012	16	11840700	11870494	2	-1.556271
S0012	16	12084047	22785204	22	-0.700511
S0012	16	23124398	24436474	6	-0.301055
S0012	16	25138026	27010707	15	-0.700511
S0012	16	27446196	27446196	1	-0.264324
S0012	16	27897325	30615197	6	-0.700511
S0012	16	31083026	31083026	1	-1.086617
S0012	16	31147639	49814175	20	-0.700511
S0012	16	49826409	50071115	2	-0.396287
S0012	16	50091335	51007359	4	-0.700511
S0012	16	51037009	52897246	11	-2.233802
S0012	16	53092425	69853383	73	0.000000
S0012	16	70435576	70435576	1	0.084739
S0012	16	70436856	75335658	17	0.000000
S0012	16	76062978	76062978	1	-0.298015
S0012	16	76354874	79009468	12	0.228270
S0012	16	79236908	79868830	6	-0.276318
S0012	16	79889527	85999992	27	0.228270
S0012	16	86029293	89371839	11	0.221727
S0012	17	1243941	21145702	90	0.000000
S0012	17	25363654	26265688	11	0.479470
S0012	17	26372943	63685659	284	0.000000
S0012	17	63733091	63733091	1	-0.300324
S0012	17	63870719	66690586	23	0.000000
S0012	17	66775971	66865466	2	-0.565958
S0012	17	67169410	70242928	22	0.000000
S0012	17	70324554	70355387	2	-0.270425
S0012	17	70390452	80917016	71	0.000000
S0012	18	331827	10840329	37	0.561601
S0012	18	11250447	11489920	6	0.852432
S0012	18	11503484	22167112	15	0.561601
S0012	18	22232265	24576252	11	0.000000
S0012	18	24870746	24886068	2	0.799062
S0012	18	25125940	40364375	49	0.000000
S0012	18	41245773	41923379	2	-0.342714
S0012	18	42041063	45946275	12	0.000000
S0012	18	46123873	46123873	1	-0.400744
S0012	18	46460732	48629913	9	0.000000
S0012	18	48962360	50122300	4	-2.872011
S0012	18	50294871	77003733	78	0.000000
S0012	19	412730	8125342	35	0.000768
S0012	19	8235013	10742170	15	0.387643
S0012	19	10773215	23005066	68	0.000768
S0012	19	23479490	28271160	3	0.109479
S0012	19	28319922	28319922	1	0.361634
S0012	19	28336245	29210129	8	0.000768
S0012	19	29282209	58852835	156	-0.154826
S0012	20	545941	750004	3	0.116548
S0012	20	865107	2508538	13	-1.200594
S0012	20	2800915	21672691	94	0.116548
S0012	20	21720643	22165427	3	0.419029
S0012	20	22338883	46987303	117	0.116548
S0012	20	47058677	47329142	3	1.338440
S0012	20	47504596	52786406	48	0.116548
S0012	20	52943154	54364829	13	0.837848
S0012	20	54420627	62215372	79	0.116548
S0012	21	15946408	31277168	76	-0.337443
S0012	21	31736157	32572461	4	0.208038
S0012	21	32667896	47323522	73	-0.337443
S0012	22	17520371	36496947	72	0.000000
S0012	22	36526962	43308475	27	0.591376
S0012	22	43443952	49329633	35	0.000000
S0012	X	3343638	19431528	30	1.709091
S0012	X	19743137	40210451	48	2.595933
S0012	X	41108897	54718459	34	3.684223
S0012	X	54828794	70601083	35	2.797381
S0012	X	70816449	70816449	1	0.456323
S0012	X	71376114	71376114	1	2.797381
S0012	X	71426422	71426422	1	4.105998
S0012	X	72313442	79069002	11	2.797381
S0012	X	79210534	79210534	1	4.136244
S0012	X	79240479	81981222	13	2.797381
S0012	X	81983052	82260756	3	5.414281
S0012	X	82262569	97589423	33	2.797381
S0012	X	97994534	110050963	23	2.351091
S0012	X	110251592	117573400	14	4.736550
S0012	X	118220720	118220720	1	2.351091
S0012	X	118419194	153689045	84	1.262800
