ID	chr	start	end	a	LogR
S0011	1	3252007	8445142	19	0.000000
S0011	1	8670296	9062952	2	2.572282
S0011	1	9200714	18691614	34	0.000000
S0011	1	18755346	18755346	1	0.309864
S0011	1	18855560	48057451	129	0.000000
S0011	1	48232503	53818981	20	0.248079
S0011	1	53917443	59286656	23	0.000000
S0011	1	59453334	78037557	79	1.359493
S0011	1	78112587	109483767	118	0.000000
S0011	1	109508888	109508888	1	0.867535
S0011	1	109515028	109938325	5	0.000000
S0011	1	110918901	162832406	114	0.010116
S0011	1	162852760	163379752	6	1.300975
S0011	1	163429143	174277606	36	0.010116
S0011	1	174642184	187167595	31	0.000000
S0011	1	187300691	187300691	1	0.528541
S0011	1	187341407	206294125	70	0.000000
S0011	1	206844799	208036509	8	-0.381794
S0011	1	208481249	247785294	133	0.000000
S0011	2	548277	3712048	6	0.000000
S0011	2	3786525	4093752	3	0.904838
S0011	2	4698129	6500686	2	0.000000
S0011	2	6591448	8549440	6	0.287259
S0011	2	9234687	9697209	4	-0.457124
S0011	2	10071801	10624654	4	0.000000
S0011	2	10864597	10865116	2	1.955288
S0011	2	11151452	23865014	33	0.000000
S0011	2	23865176	24646213	4	0.340475
S0011	2	24660442	29562741	16	0.000000
S0011	2	29823652	39558906	18	-0.059856
S0011	2	40458140	59998044	82	0.000000
S0011	2	60576262	61027891	3	-2.302839
S0011	2	61518573	81281204	38	0.000000
S0011	2	81615539	95738051	20	-0.146502
S0011	2	95958375	97282267	2	0.380915
S0011	2	97594142	107777511	33	-0.146502
S0011	2	107928846	108574826	6	0.227726
S0011	2	108681068	127492191	41	-0.146502
S0011	2	127933924	133652089	13	-1.506586
S0011	2	134511555	134544930	2	-0.864374
S0011	2	134553814	142043670	18	-1.506586
S0011	2	142077308	159448804	40	-1.521676
S0011	2	159456235	159642876	4	-1.059535
S0011	2	159670945	163943612	11	-0.624391
S0011	2	164440932	164618825	3	-1.086533
S0011	2	164716037	174739073	31	-0.678325
S0011	2	174787933	209894572	102	-1.086533
S0011	2	210033550	213537460	7	-0.940031
S0011	2	213998007	213998007	1	-0.398041
S0011	2	214192255	217060392	12	-0.940031
S0011	2	217947272	225688519	14	-0.605708
S0011	2	225769259	226792099	3	0.754376
S0011	2	226844854	230538100	12	0.420053
S0011	2	231046602	242217627	43	0.435143
S0011	3	3362137	10960562	20	0.000000
S0011	3	11258238	11258238	1	1.162605
S0011	3	11700480	18295473	27	-0.386731
S0011	3	18451858	25335068	21	0.000000
S0011	3	26571880	37278048	30	-1.275241
S0011	3	37409781	68528427	103	0.000000
S0011	3	68708846	68708846	1	0.541133
S0011	3	69188122	74499060	27	0.000000
S0011	3	75127552	80711349	19	-0.167892
S0011	3	80830848	81146790	3	0.091076
S0011	3	81231440	84086384	14	0.258969
S0011	3	84168160	84168160	1	0.578533
S0011	3	84333246	86149051	10	0.258969
S0011	3	86294224	86786786	4	0.046266
S0011	3	86874511	90311056	12	0.258969
S0011	3	90418659	97660106	15	0.622918
S0011	3	98805403	106094371	22	0.258969
S0011	3	106563584	107474866	4	0.738534
S0011	3	107576819	108276870	4	0.258969
S0011	3	108360443	122916963	49	0.000000
S0011	3	122939157	146069880	65	-0.262132
S0011	3	146190898	151906305	13	0.312268
S0011	3	151976445	151976445	1	1.515474
S0011	3	152032495	152127354	2	0.312268
S0011	3	152127377	177581405	72	0.574401
S0011	3	177672475	178523341	4	-0.399630
S0011	3	179102442	181904297	9	0.574401
S0011	3	182050907	182322914	2	0.955958
S0011	3	182518504	187865100	18	0.574401
S0011	3	187925892	190988277	16	-0.254273
S0011	3	191132748	197212100	17	0.574401
S0011	4	1059202	6758567	26	-0.011715
S0011	4	6766870	16154006	31	-0.080345
S0011	4	16154996	16154996	1	0.248508
S0011	4	16777175	23222053	16	-0.080345
S0011	4	24035754	24035754	1	-0.446842
S0011	4	24379623	29965647	11	-0.080345
S0011	4	29985899	32576604	10	-0.011715
S0011	4	32715643	32811646	2	-0.570156
S0011	4	33223075	74014809	114	-0.011715
S0011	4	74272165	75015750	5	1.437954
S0011	4	75090072	75131443	2	1.908966
S0011	4	76314293	76776779	2	1.437954
S0011	4	76872009	91025850	44	-0.011715
S0011	4	91263496	91263496	1	0.497304
S0011	4	91574079	105211624	38	-0.011715
S0011	4	105607429	107288036	8	-0.531047
S0011	4	107503209	185306117	190	-0.011715
S0011	4	185324629	185331345	2	0.292510
S0011	4	186345094	188763651	11	-0.011715
S0011	5	1325767	4590072	19	0.195843
S0011	5	4901556	5997609	5	-0.090506
S0011	5	6157460	7267949	5	0.713085
S0011	5	7281200	7975171	3	0.258725
S0011	5	8403019	20034682	25	0.713085
S0011	5	21319582	37286617	53	0.999434
S0011	5	37717105	37832798	3	1.222829
S0011	5	38306904	70923358	86	0.419239
S0011	5	71693899	107173281	64	0.195843
S0011	5	107653061	125433208	36	0.073154
S0011	5	125454101	125724347	2	0.464725
S0011	5	125878769	179730478	135	0.073154
S0011	6	1057482	18603071	86	0.287724
S0011	6	18751348	20589370	13	1.031128
S0011	6	20647660	20745508	3	0.743404
S0011	6	20808742	38068626	56	0.000000
S0011	6	38508509	38623000	2	-0.934590
S0011	6	38786141	51208657	44	0.000000
S0011	6	52089559	52089559	1	-0.608069
S0011	6	52256012	65771036	44	0.000000
S0011	6	66166861	71578558	27	-0.770487
S0011	6	72019007	78412428	19	-0.634278
S0011	6	78803610	93702141	56	-0.198773
S0011	6	95841494	95969106	2	-0.490688
S0011	6	96082712	107807880	50	-0.198773
S0011	6	108432641	109665903	4	-0.520939
S0011	6	110802082	119783000	40	-0.198773
S0011	6	120133537	126558024	39	0.571714
S0011	6	126921856	143515699	77	0.000000
S0011	6	143539550	145034402	8	0.511436
S0011	6	145967086	147902709	8	0.000000
S0011	6	148008880	148979033	4	-0.946817
S0011	6	149049410	149802362	3	0.000000
S0011	6	149946472	150002045	2	0.336030
S0011	6	150514249	161988767	56	0.000000
S0011	6	162095633	163171970	5	-0.376736
S0011	6	163172451	164963473	8	0.000000
S0011	6	165105022	165472764	3	0.417684
S0011	6	165580199	170872572	15	0.000000
S0011	7	863293	90758236	250	0.364359
S0011	7	90949616	157217055	160	0.000000
S0011	7	157260669	157458015	3	0.301294
S0011	7	157727292	158215549	6	0.000000
S0011	8	618552	17753873	70	1.156914
S0011	8	17809413	18020696	3	0.619660
S0011	8	18025043	27112779	28	1.156914
S0011	8	27142598	27142598	1	1.539809
S0011	8	27406124	28156896	5	2.013025
S0011	8	28255588	28282583	2	1.156914
S0011	8	28334161	29513003	8	1.387301
S0011	8	29644661	30015758	5	0.681382
S0011	8	30040541	30282658	7	1.387301
S0011	8	30350280	32678531	21	2.044354
S0011	8	32841653	32962692	2	2.046084
S0011	8	33086724	34498239	10	2.492364
S0011	8	34672827	34672827	1	3.229041
S0011	8	34753533	34875614	4	2.492364
S0011	8	34929459	35694186	9	2.046084
S0011	8	35798219	35798219	1	2.261965
S0011	8	35935190	36022676	3	2.046084
S0011	8	36129554	36213763	2	2.870907
S0011	8	36220268	36235570	2	3.263857
S0011	8	36921598	37091113	4	2.439034
S0011	8	37124693	38681076	24	2.046084
S0011	8	38787270	39422051	12	4.664618
S0011	8	39429009	39775754	4	4.654191
S0011	8	39873720	40195639	4	4.117661
S0011	8	40203542	41109005	16	4.654191
S0011	8	41311166	41810848	7	2.035657
S0011	8	41903547	55654711	47	2.659958
S0011	8	55654888	57633546	14	2.035657
S0011	8	58133843	61276247	18	2.446334
S0011	8	61705846	70208291	40	2.035657
S0011	8	70250501	79919546	44	2.365548
S0011	8	80046574	88829022	46	3.271585
S0011	8	89038619	89259873	3	3.282012
S0011	8	89505027	94772319	25	2.624959
S0011	8	94908574	103788000	43	2.394573
S0011	8	104083786	105510915	9	2.506807
S0011	8	105763644	120517731	68	3.310398
S0011	8	120531581	122636922	7	3.308668
S0011	8	122691742	122691742	1	2.668740
S0011	8	122723104	124538233	13	3.308668
S0011	8	124626482	131517830	40	2.505077
S0011	8	132082752	145147978	52	2.392842
S0011	9	905450	74082077	173	0.000000
S0011	9	74248170	91607869	46	-0.638636
S0011	9	92237409	99073269	18	0.000000
S0011	9	99605892	104540734	13	0.681900
S0011	9	105477660	115754404	29	0.000000
S0011	9	116124844	122894457	24	-0.366695
S0011	9	122899526	134413369	54	0.000000
S0011	9	134658234	136657610	6	-1.136825
S0011	9	136810857	139512029	11	0.000000
S0011	9	139514080	140599989	6	-0.271432
S0011	10	466220	37615627	121	0.270728
S0011	10	37664591	38092975	4	0.115390
S0011	10	38261279	50932371	26	0.270728
S0011	10	51556705	51556705	1	0.042244
S0011	10	52669902	52735178	3	-0.205992
S0011	10	53217522	65369960	41	0.270728
S0011	10	65441036	69789384	15	0.882830
S0011	10	70086909	70203234	2	0.270728
S0011	10	70443854	71351750	5	0.136770
S0011	10	71811137	72383091	6	0.270728
S0011	10	72758344	72989145	2	1.650707
S0011	10	73336025	73336025	1	1.963361
S0011	10	73413555	77373534	21	1.650707
S0011	10	77396891	84602094	32	0.270728
S0011	10	84702253	86023713	8	0.051025
S0011	10	86606281	113966486	97	0.270728
S0011	10	114596725	115488889	5	-0.251588
S0011	10	116654574	135124948	79	0.270728
S0011	11	577454	12990240	50	0.000000
S0011	11	13204157	13812002	4	-0.723229
S0011	11	14175276	24116195	33	0.000000
S0011	11	24171109	24171109	1	0.412976
S0011	11	24391096	33634595	49	0.000000
S0011	11	33661419	34994059	9	-0.469893
S0011	11	35588160	40453275	24	0.606635
S0011	11	40469244	40487666	3	0.742153
S0011	11	40702355	58983503	54	0.135518
S0011	11	58997442	61657707	28	0.475729
S0011	11	61657857	68660797	53	0.135518
S0011	11	68800553	80267467	117	0.000000
S0011	11	80351718	80711391	6	-0.667659
S0011	11	80845046	94782720	64	0.000000
S0011	11	94819447	95680877	7	0.294102
S0011	11	95793647	134044100	121	0.000000
S0011	12	1287872	10819935	26	0.937835
S0011	12	10928179	12274618	13	1.966688
S0011	12	12381831	18369137	29	0.937835
S0011	12	18466892	18573912	4	1.442331
S0011	12	19224191	21588168	8	0.937835
S0011	12	21593688	22360249	4	0.399139
S0011	12	22407490	24725652	8	1.057263
S0011	12	25234646	25486226	3	0.399139
S0011	12	25745117	30818556	20	1.457774
S0011	12	31093789	32452817	10	1.058635
S0011	12	32846983	32846983	1	1.298962
S0011	12	33071290	41022751	12	1.058635
S0011	12	41523755	46574921	21	0.000000
S0011	12	47049235	47049235	1	0.270062
S0011	12	47319672	64793997	77	0.000000
S0011	12	65116723	69528385	31	-0.535434
S0011	12	69723709	80040489	59	0.000000
S0011	12	80082752	81833380	2	2.261798
S0011	12	81844493	93883734	51	0.000000
S0011	12	94031881	94181053	2	0.319213
S0011	12	94372857	112861988	51	0.000000
S0011	12	113138261	114840041	5	0.623243
S0011	12	115040865	133161346	57	0.000000
S0011	13	19538886	74383710	181	0.594919
S0011	13	74395492	75306096	2	-0.192142
S0011	13	75469134	75948843	4	-1.582839
S0011	13	75968785	102664847	86	-0.795778
S0011	13	102695620	102695620	1	-0.408839
S0011	13	102856506	114981574	51	-0.795778
S0011	14	20825965	21230576	3	0.000000
S0011	14	21695466	21875051	4	-0.481041
S0011	14	23348952	24129227	6	-0.107959
S0011	14	24133838	26717884	11	-0.481041
S0011	14	27066063	29144866	13	0.956462
S0011	14	29215393	30024303	5	1.437504
S0011	14	30775364	31671572	5	4.033533
S0011	14	31804510	32938871	11	2.596029
S0011	14	33844879	36816368	20	2.226686
S0011	14	36903250	39652801	23	2.124624
S0011	14	39765709	48351407	25	2.493967
S0011	14	48411414	62767069	56	-0.102062
S0011	14	63431014	65775303	12	0.690412
S0011	14	66287974	72461160	22	-0.102062
S0011	14	73415233	105690735	97	0.000000
S0011	15	23733544	38823470	34	0.000000
S0011	15	39471185	39471185	1	-0.807104
S0011	15	39690086	47338697	23	0.000000
S0011	15	47763726	47763726	1	1.639856
S0011	15	48259164	59085055	46	0.000000
S0011	15	59365458	60439180	8	1.145202
S0011	15	60475024	90064593	92	0.000000
S0011	15	90752952	90752952	1	0.256686
S0011	15	90778486	101214182	46	0.000000
S0011	16	655262	7643247	32	0.387116
S0011	16	7772380	25587381	52	0.000000
S0011	16	25589839	25589839	1	0.342303
S0011	16	25674306	50443200	42	0.000000
S0011	16	51007359	61140452	51	0.388129
S0011	16	61241361	75335658	52	0.000000
S0011	16	76062978	78156088	7	0.830508
S0011	16	78209069	87583253	47	0.000000
S0011	16	87765157	87765157	1	0.329551
S0011	16	87845037	89371839	2	0.000000
S0011	17	1243941	11957090	41	-0.091245
S0011	17	12040827	12222749	2	0.217309
S0011	17	12257862	17734509	26	-0.091245
S0011	17	17774289	17898870	4	0.300521
S0011	17	17960011	20949958	15	-0.091245
S0011	17	21121705	25943706	9	0.611166
S0011	17	25989914	34386004	55	-0.091245
S0011	17	35086160	37333396	17	-0.624880
S0011	17	37569665	38570464	17	-0.091245
S0011	17	38640744	40127537	14	2.611906
S0011	17	40360643	40360643	1	2.886664
S0011	17	40416100	44903953	21	2.611906
S0011	17	45347892	70242928	211	-0.091245
S0011	17	70324554	70557346	4	0.418350
S0011	17	70608589	80917016	69	-0.091245
S0011	18	331827	1134695	2	0.000000
S0011	18	1595869	3800808	12	0.476607
S0011	18	3848826	11250582	25	1.515238
S0011	18	11256638	13067319	10	0.476607
S0011	18	13412537	13591494	2	1.103481
S0011	18	19314371	23609095	14	0.476607
S0011	18	24383355	54598051	99	0.000000
S0011	18	55160632	55507349	2	-1.747575
S0011	18	56459732	77003733	60	0.000000
S0011	19	412730	1064485	8	0.000000
S0011	19	1156397	5046070	14	0.084175
S0011	19	5142473	7182753	9	0.470623
S0011	19	7466137	33331913	130	0.084175
S0011	19	33354335	36573381	14	0.442600
S0011	19	36603742	41291119	31	0.084175
S0011	19	41707819	41707819	1	-0.151762
S0011	19	41920765	47596677	20	2.771924
S0011	19	47728913	49921636	11	-0.151762
S0011	19	49956925	56243234	32	0.084175
S0011	19	56319525	57319629	5	0.000000
S0011	19	57516070	57621012	2	0.533979
S0011	19	57733864	58852835	9	0.000000
S0011	20	545941	3474711	21	0.000000
S0011	20	4190524	4190524	1	0.360298
S0011	20	4191058	23265987	97	0.000000
S0011	20	23349222	35496588	48	-0.305943
S0011	20	35525362	35525362	1	0.313688
S0011	20	35556192	35556192	1	-0.305943
S0011	20	35556304	35718770	2	0.664324
S0011	20	36264007	47058677	60	-0.305943
S0011	20	47061398	47886911	6	0.000000
S0011	20	47913578	49824874	21	0.482871
S0011	20	49978905	56314077	63	0.000000
S0011	20	56347397	57668289	15	-0.291721
S0011	20	57684413	57837766	3	-0.000529
S0011	20	57972626	59291747	10	-0.291721
S0011	20	59415170	60467219	8	-0.008145
S0011	20	60487809	62215372	16	-0.291721
S0011	21	15946408	26994542	55	0.378348
S0011	21	27092645	31263518	20	-0.390857
S0011	21	31277168	47323522	78	0.378348
S0011	22	17520371	17520371	1	0.312809
S0011	22	17524190	27338819	23	0.000688
S0011	22	27435613	27435613	1	2.188900
S0011	22	28541998	31984079	23	0.000688
S0011	22	32349304	32668527	2	0.555820
S0011	22	32879317	35442415	13	0.000688
S0011	22	35536052	35536052	1	0.481253
S0011	22	35545915	49287130	69	0.000688
S0011	22	49329633	49329633	1	-0.505509
S0011	X	3343638	23884193	39	1.285429
S0011	X	24066352	31517385	23	2.075377
S0011	X	31568903	31568903	1	3.931566
S0011	X	31800413	56881650	55	2.075377
S0011	X	57635870	63007001	6	1.064399
S0011	X	63011442	72321245	28	1.468096
S0011	X	72359832	72359832	1	1.685721
S0011	X	73118350	73118350	1	1.468096
S0011	X	75446408	81983052	22	0.678148
S0011	X	82173899	82260756	2	1.960221
S0011	X	82262569	153689045	155	0.678148
