ID	chr	start	end	a	LogR
S0027	1	3252007	9559042	24	0.010833
S0027	1	9852699	15528334	19	0.395978
S0027	1	16413265	44778873	123	0.010833
S0027	1	44887860	47155219	12	-0.542044
S0027	1	47265273	65608101	86	0.010833
S0027	1	66170394	74070609	29	-0.279573
S0027	1	74119854	77616679	13	-0.022115
S0027	1	78037557	85611991	24	-0.279573
S0027	1	85797698	85797698	1	0.069560
S0027	1	85798038	94117423	43	-0.279573
S0027	1	94145216	193163743	267	0.010833
S0027	1	193213155	199432454	16	0.859049
S0027	1	199546908	202387276	19	0.010833
S0027	1	202512246	202677178	2	0.279984
S0027	1	202839190	207653364	17	0.010833
S0027	1	207871024	208036509	2	-0.793749
S0027	1	208481249	212141669	16	-0.337094
S0027	1	212227287	214746907	9	-0.793749
S0027	1	215091956	229121197	51	-0.327222
S0027	1	229124867	240825300	41	-0.793749
S0027	1	241058446	242357338	4	-0.537521
S0027	1	242401229	247785294	12	-0.793749
S0027	2	548277	8549440	17	-0.225264
S0027	2	9234687	20623016	36	0.219123
S0027	2	20690249	22196303	5	0.912573
S0027	2	23475786	30172861	26	0.219123
S0027	2	30478628	32215079	6	0.510767
S0027	2	32546873	46611394	36	0.219123
S0027	2	46720551	48465627	7	-0.187492
S0027	2	48585963	81615539	89	0.219123
S0027	2	82049704	82943700	3	0.912336
S0027	2	83148496	84527208	3	0.219123
S0027	2	84537078	86843922	6	0.558571
S0027	2	88397699	157252095	153	0.219123
S0027	2	157722531	159620745	12	0.592560
S0027	2	159642876	187479341	80	0.148174
S0027	2	188404283	188420238	2	0.929810
S0027	2	188644006	204865954	48	0.148174
S0027	2	205125606	205125606	1	-0.181612
S0027	2	205133037	242217627	109	0.148174
S0027	3	3362137	30074874	82	0.000000
S0027	3	30100084	30745369	3	-0.359562
S0027	3	30821281	40522780	21	0.000000
S0027	3	40754437	48637232	37	0.404153
S0027	3	48807207	61512919	34	0.000000
S0027	3	61595751	64036016	10	1.747830
S0027	3	65027413	65597198	4	4.188964
S0027	3	65613957	71254193	22	2.441135
S0027	3	71492015	71492015	1	0.000000
S0027	3	71583552	71600651	2	0.497846
S0027	3	71644390	82912011	48	0.000000
S0027	3	83278763	84970006	7	0.396792
S0027	3	84978010	85384671	2	-0.330793
S0027	3	85816397	103404080	45	0.396792
S0027	3	103593272	103593272	1	0.770707
S0027	3	104150513	106563584	12	1.034533
S0027	3	106928347	115959369	34	0.396792
S0027	3	116421782	116985371	3	0.887319
S0027	3	117220685	117220685	1	0.396792
S0027	3	117220939	118514457	4	1.528507
S0027	3	118540465	122916963	14	0.396792
S0027	3	122939157	125574996	8	0.000000
S0027	3	125872293	127660097	5	0.505326
S0027	3	127766235	150021144	60	0.000000
S0027	3	150590168	150590168	1	0.293880
S0027	3	151645022	164282449	41	0.000000
S0027	3	164436431	177133282	36	1.126484
S0027	3	177176385	177771889	4	0.000000
S0027	3	178478969	197212100	64	-0.613692
S0027	4	1059202	17467626	61	0.060685
S0027	4	17516691	28023574	21	0.000000
S0027	4	28261658	31930676	11	-2.760329
S0027	4	31949227	61539734	74	0.000000
S0027	4	62391854	91025850	98	0.083496
S0027	4	91263496	91263496	1	0.353843
S0027	4	91574079	102478255	25	0.083496
S0027	4	103225594	103534425	6	0.203916
S0027	4	103594198	138192283	79	0.083496
S0027	4	138720243	138720243	1	0.414760
S0027	4	138831989	139109752	2	0.083496
S0027	4	139128562	139998368	5	0.490737
S0027	4	141277309	147052152	20	0.083496
S0027	4	147266540	147266540	1	0.650131
S0027	4	147481601	188763651	110	0.083496
S0027	5	1325767	7881302	31	0.000000
S0027	5	7975171	10382248	5	0.235369
S0027	5	10382473	19587415	20	0.000000
S0027	5	20034682	21976487	3	0.859483
S0027	5	21990114	27990208	20	0.000000
S0027	5	28006560	28006560	1	0.427316
S0027	5	28044385	107653061	184	0.000000
S0027	5	108165123	109425444	4	0.028546
S0027	5	109945133	113996889	11	2.207130
S0027	5	115894579	125433208	20	0.028546
S0027	5	125454101	126854307	5	-0.780553
S0027	5	127191705	167827563	85	0.028546
S0027	5	168314006	169799675	7	0.770415
S0027	5	169947681	179218419	39	0.028546
S0027	5	179730478	179730478	1	-0.500364
S0027	6	1057482	41905811	174	0.000000
S0027	6	42001731	44826250	12	-0.425235
S0027	6	45044542	47286786	6	-0.414129
S0027	6	47633989	49190279	5	0.020397
S0027	6	49191974	50308733	4	-0.414129
S0027	6	50777042	50922173	2	-0.425558
S0027	6	51208657	67544604	59	-0.414129
S0027	6	67923159	68061429	2	0.011106
S0027	6	68399382	68399382	1	0.252740
S0027	6	68431173	81572910	41	0.011106
S0027	6	82530332	83385000	6	0.316919
S0027	6	83521054	101076493	61	0.011106
S0027	6	101716913	101716913	1	0.279486
S0027	6	101723788	112793278	42	0.011106
S0027	6	112825972	112825972	1	0.260185
S0027	6	113516734	125803959	63	0.011106
S0027	6	126022296	133956507	34	-0.268436
S0027	6	134437149	141327019	42	0.011106
S0027	6	141840724	143515699	7	-0.704651
S0027	6	143539550	154829774	52	0.011106
S0027	6	155272960	155272960	1	1.028248
S0027	6	155454790	162332106	32	0.011106
S0027	6	163171970	170872572	27	0.000000
S0027	7	863293	23538950	72	0.078393
S0027	7	23788659	24302257	3	-0.357926
S0027	7	24313025	25465929	5	0.078393
S0027	7	25499543	25499543	1	0.621833
S0027	7	25680910	68190961	120	0.078393
S0027	7	68445075	102418720	78	-0.395877
S0027	7	102428840	158215549	140	0.078393
S0027	8	618552	16758938	58	0.000000
S0027	8	17026852	19739243	23	0.196652
S0027	8	19893047	21208237	3	-0.179168
S0027	8	22095260	22892299	3	0.431024
S0027	8	23060346	25658764	9	0.793398
S0027	8	26018339	31582364	45	-0.179168
S0027	8	31657854	35693285	34	0.815771
S0027	8	35694186	35694186	1	1.402700
S0027	8	35798219	39775754	52	0.815771
S0027	8	39873720	40811968	17	1.519061
S0027	8	40889291	47902866	26	0.815771
S0027	8	48710487	50401159	7	1.191592
S0027	8	50599283	50604608	2	2.043926
S0027	8	50853141	55037324	18	1.191592
S0027	8	55286976	80046574	121	0.994940
S0027	8	80092851	86114735	34	0.000000
S0027	8	86218398	86285926	2	1.992882
S0027	8	86949727	87994260	6	0.000000
S0027	8	88029386	92412174	22	1.224633
S0027	8	92838408	95326668	13	2.051421
S0027	8	95963798	95963798	1	2.945902
S0027	8	96018682	103598817	37	2.051421
S0027	8	103788000	104437065	6	3.536799
S0027	8	105227985	105510915	4	2.710011
S0027	8	105763644	108407397	9	1.224633
S0027	8	108768390	112455258	18	0.000000
S0027	8	112459890	122723104	50	0.370440
S0027	8	122904905	122904905	1	-0.096667
S0027	8	123245482	124254528	8	0.370440
S0027	8	124444496	124444496	1	0.091917
S0027	8	124473894	126193745	7	0.370440
S0027	8	126346270	126373575	2	0.656921
S0027	8	126626899	129812382	20	0.370440
S0027	8	130006472	145147978	65	0.000000
S0027	9	905450	4064655	15	0.000000
S0027	9	4103703	14032023	34	0.679451
S0027	9	14137102	21993964	45	0.000000
S0027	9	22003260	24133238	12	0.237536
S0027	9	24381517	26191619	7	-0.033695
S0027	9	26552713	27351767	5	-0.271231
S0027	9	27363004	28166400	6	0.026621
S0027	9	28376005	33841898	18	0.297853
S0027	9	33992629	77817114	38	0.000000
S0027	9	77898483	77898483	1	0.376847
S0027	9	77989247	86822700	24	0.000000
S0027	9	86913781	86913781	1	0.421655
S0027	9	87284262	140599989	174	0.000000
S0027	10	466220	466220	1	1.320662
S0027	10	680475	6358104	20	0.730775
S0027	10	6398978	14350730	26	1.083501
S0027	10	15195329	15195329	1	0.784317
S0027	10	15523017	25925814	31	1.083501
S0027	10	26196932	31537327	17	1.342973
S0027	10	31702041	34561923	7	1.083501
S0027	10	34842985	36857180	8	1.403960
S0027	10	36871640	37931787	13	1.009308
S0027	10	38092975	38281614	3	0.831844
S0027	10	38682591	43612609	7	1.226496
S0027	10	43855480	50840698	16	0.662071
S0027	10	50932371	61338267	23	1.226496
S0027	10	61353877	72011395	49	1.193453
S0027	10	72081023	72989145	4	2.353553
S0027	10	73336025	82012954	44	1.193453
S0027	10	82438888	84702253	11	1.817926
S0027	10	85050296	85050296	1	1.405143
S0027	10	85566077	85642748	2	1.817926
S0027	10	85761914	87958310	7	1.963560
S0027	10	88111925	88455879	5	1.817926
S0027	10	88868671	92670328	24	1.193453
S0027	10	92823350	113094605	59	0.872994
S0027	10	113224156	113224156	1	0.328733
S0027	10	113428915	116654574	11	0.872994
S0027	10	116740738	135124948	78	-0.033043
S0027	11	577454	1332235	4	-0.005738
S0027	11	1681292	8309189	30	-0.471166
S0027	11	8554415	8574961	2	-0.776601
S0027	11	8598973	14175276	19	-0.471166
S0027	11	14590435	16047917	3	-0.154681
S0027	11	16061965	16358679	3	-0.471166
S0027	11	16530452	16920292	4	-3.896757
S0027	11	17127998	19534993	8	-3.591283
S0027	11	19554506	19554506	1	-4.077551
S0027	11	20169375	22218125	10	-3.591283
S0027	11	23268679	23268679	1	-0.165691
S0027	11	23953624	23953624	1	-0.891917
S0027	11	24116195	24761831	6	-0.165691
S0027	11	24935848	24935848	1	0.249402
S0027	11	24938331	27115945	10	-0.165691
S0027	11	27192545	47576567	100	-0.471166
S0027	11	47623476	68800553	106	-0.005738
S0027	11	68863603	68955847	2	-0.305527
S0027	11	68960204	74753492	62	-0.005738
S0027	11	74950318	76234326	11	0.313410
S0027	11	76266172	80351718	42	-0.005738
S0027	11	80372241	80372241	1	0.833936
S0027	11	80399645	82369607	15	-0.005738
S0027	11	82823967	82823967	1	-0.293198
S0027	11	82834855	90660860	34	-0.005738
S0027	11	90682160	111704034	64	0.354836
S0027	11	112163817	123026823	37	1.154236
S0027	11	123092324	123298088	2	0.144131
S0027	11	123496902	124983982	5	1.154236
S0027	11	125192956	126315727	5	0.354836
S0027	11	126461758	131323359	23	0.687159
S0027	11	131326368	134044100	10	0.354836
S0027	12	1287872	10928179	27	1.232116
S0027	12	10970795	13885445	17	2.102992
S0027	12	14090003	24422223	46	2.625838
S0027	12	24514525	25379414	4	3.337010
S0027	12	25486226	27389230	5	2.625838
S0027	12	27565524	31839776	21	4.555319
S0027	12	32224948	32224948	1	4.892592
S0027	12	32227953	40274602	12	4.555319
S0027	12	40336494	42763826	8	4.032473
S0027	12	43053711	52521638	41	2.102992
S0027	12	52670660	52670660	1	2.369154
S0027	12	52788080	62075342	38	2.102992
S0027	12	62117957	76070996	91	1.809605
S0027	12	76318912	79600131	12	3.166313
S0027	12	79845628	82676650	10	4.873140
S0027	12	82878852	83783139	4	3.516432
S0027	12	83915258	106636097	71	1.809605
S0027	12	106723997	133161346	86	0.938729
S0027	13	19538886	64106709	147	-0.281448
S0027	13	64990432	67509350	8	0.105840
S0027	13	67509992	71536226	15	-0.281448
S0027	13	71747051	71747051	1	0.320038
S0027	13	71842431	79541517	29	-0.281448
S0027	13	79927881	92514642	40	0.157095
S0027	13	93091086	102695620	34	-0.913796
S0027	13	102856506	114981574	51	0.157095
S0027	14	20825965	58725019	168	0.195461
S0027	14	59006804	66287974	27	-1.278210
S0027	14	67274691	95518840	82	-1.872761
S0027	14	96084535	96084535	1	-1.490205
S0027	14	96620508	101241310	13	-1.872761
S0027	14	101308958	102284278	6	-0.399090
S0027	14	102349988	103492250	3	-0.655799
S0027	14	103522289	105690735	13	-0.399090
S0027	15	23733544	38505670	32	-0.003869
S0027	15	38725800	38725800	1	-0.297752
S0027	15	38823470	62902843	85	-0.003869
S0027	15	63060925	63296121	2	0.478950
S0027	15	63376905	101214182	132	-0.003869
S0027	16	655262	2412067	8	-2.717661
S0027	16	2421236	30615197	93	-0.746248
S0027	16	31083026	46947178	11	-1.171598
S0027	16	47189187	55483221	41	-0.458502
S0027	16	55875846	67998721	49	-0.033152
S0027	16	68256368	68256368	1	0.347164
S0027	16	68494322	75025548	26	-0.033152
S0027	16	75335658	75335658	1	0.294410
S0027	16	76062978	82867755	34	-0.033152
S0027	16	82869269	82869269	1	-0.717597
S0027	16	83524491	89371839	22	-0.033152
S0027	17	1243941	12866546	49	-0.259123
S0027	17	12895984	13257183	3	0.155718
S0027	17	13490948	13684167	2	-0.259123
S0027	17	13707817	13707817	1	1.861918
S0027	17	15703313	21121705	34	-0.259123
S0027	17	21145702	25989914	9	0.150624
S0027	17	26175872	26878356	7	-0.259123
S0027	17	27182944	30606301	23	0.372401
S0027	17	30737832	30960445	3	0.376724
S0027	17	31099432	38480657	53	-0.254800
S0027	17	38544444	38570464	2	-0.706153
S0027	17	38640744	39786415	10	-0.254800
S0027	17	39800130	39800130	1	0.097167
S0027	17	39809446	48051772	49	-0.254800
S0027	17	48111430	48111430	1	0.193696
S0027	17	48223677	49081782	10	-0.254800
S0027	17	49242267	49242267	1	0.070140
S0027	17	49844513	66058921	146	-0.254800
S0027	17	66208108	80917016	102	0.161833
S0027	18	331827	29688986	86	-0.644674
S0027	18	30176923	30854602	4	-1.095764
S0027	18	30976408	35213799	17	-0.644674
S0027	18	35305576	48603835	36	-0.820402
S0027	18	48629913	49219762	3	0.484240
S0027	18	49853285	50296948	4	-0.820402
S0027	18	50390763	50390763	1	-1.348559
S0027	18	50498814	67468388	52	-0.820402
S0027	18	67845806	68833455	6	-0.315663
S0027	18	71838859	71838859	1	-0.664273
S0027	18	71937252	72907278	4	-0.488545
S0027	18	72937113	77003733	12	-0.139934
S0027	19	412730	4288205	20	-0.292854
S0027	19	4765789	4765789	1	0.167687
S0027	19	5046070	5945851	9	-0.292854
S0027	19	7182753	7182753	1	-0.529854
S0027	19	7466137	8125342	4	-0.292854
S0027	19	8235013	11526083	21	-0.766699
S0027	19	11569316	28828352	72	-0.292854
S0027	19	28894519	29397005	4	0.017147
S0027	19	29433361	30307115	9	-0.292854
S0027	19	30400158	30400158	1	-1.249315
S0027	19	30768476	42201560	68	-0.292854
S0027	19	42235471	42235471	1	-0.830733
S0027	19	42731570	57162288	62	-0.292854
S0027	19	57218918	57218918	1	0.093014
S0027	19	57319629	58852835	12	-0.292854
S0027	20	545941	7769391	40	0.488548
S0027	20	7910372	13390648	24	0.043819
S0027	20	13424744	14691122	9	-0.518116
S0027	20	15168697	22351433	43	-0.234448
S0027	20	22810308	45676546	105	0.327486
S0027	20	45766329	47504596	13	0.584559
S0027	20	47634301	56775131	96	0.300891
S0027	20	57310727	57421544	2	-0.371489
S0027	20	57515103	58660261	14	0.300891
S0027	20	58858442	61164920	20	0.620433
S0027	20	61382993	62215372	7	0.363361
S0027	21	15946408	21437766	33	-0.237483
S0027	21	21716999	27274368	24	0.000000
S0027	21	28116614	28116614	1	1.960589
S0027	21	28366486	30864812	13	0.000000
S0027	21	30910306	33541379	13	-0.285864
S0027	21	33558918	47323522	69	0.000000
S0027	22	17520371	48321123	128	0.243624
S0027	22	48367718	48367718	1	-0.476102
S0027	22	48492663	49329633	5	0.243624
S0027	X	3343638	28349311	53	0.001648
S0027	X	29273201	31568903	10	2.577297
S0027	X	31800413	50054170	42	0.001648
S0027	X	50661588	50999987	3	-0.318993
S0027	X	51002231	55276039	6	0.001648
S0027	X	55368262	63298667	13	-0.422081
S0027	X	63472146	64635797	4	-0.027597
S0027	X	65316593	79881810	37	-0.422081
S0027	X	80191983	80191983	1	-0.077581
S0027	X	80226228	108973841	62	-0.422081
S0027	X	109264928	115163060	14	0.001648
S0027	X	116688832	118696035	7	0.969272
S0027	X	118913342	153689045	81	0.001648
