ID	chr	start	end	a	LogR
S0022	1	3252007	19499054	60	0.000000
S0022	1	19932600	20151431	3	0.569748
S0022	1	20184538	71975017	221	0.000000
S0022	1	72031566	72031566	1	-0.299106
S0022	1	72046396	83100438	32	0.000000
S0022	1	83119332	86461811	19	-0.279915
S0022	1	86543447	86836353	2	1.716589
S0022	1	87073001	87769970	3	-0.279915
S0022	1	87904460	87904460	1	0.085345
S0022	1	87965176	99326344	50	-0.279915
S0022	1	99532176	102229779	11	1.374969
S0022	1	102289362	109508888	23	-0.279915
S0022	1	109515028	109515028	1	0.512258
S0022	1	109689314	162864313	120	-0.279915
S0022	1	163123762	166139958	18	-0.360861
S0022	1	166839601	166839601	1	-0.111454
S0022	1	166911149	179534510	34	-0.360861
S0022	1	180122812	215091956	123	-0.279915
S0022	1	215757463	215820171	2	0.011391
S0022	1	216082027	227318699	41	-0.279915
S0022	1	227525330	227525330	1	-0.736911
S0022	1	227744660	247785294	63	-0.279915
S0022	2	548277	4698129	10	0.179917
S0022	2	6500686	6500686	1	0.715346
S0022	2	6591448	53479918	144	0.179917
S0022	2	53984957	141273786	197	0.206545
S0022	2	141387793	160023979	51	-2.057372
S0022	2	161058360	162116304	5	-3.048767
S0022	2	163357286	166019848	12	-2.057372
S0022	2	166024128	188420238	61	0.206545
S0022	2	188644006	190174501	4	1.182021
S0022	2	190192766	199888655	37	0.206545
S0022	2	200320018	236788618	95	0.179917
S0022	2	237092137	238415117	4	0.677938
S0022	2	238445803	242217627	18	0.179917
S0022	3	3362137	41257492	110	-1.362074
S0022	3	41269531	41269531	1	-2.208489
S0022	3	41290051	48580105	31	-1.362074
S0022	3	48637232	49903065	5	-2.392744
S0022	3	50217093	50261472	2	-0.473832
S0022	3	50288909	54500538	12	-0.001990
S0022	3	54808174	59198515	10	-0.508361
S0022	3	59216687	71583552	44	-0.001990
S0022	3	71600651	71928710	3	-0.543319
S0022	3	72230791	93878205	77	-0.001990
S0022	3	94092681	131867527	120	0.332810
S0022	3	132086825	132086825	1	0.853749
S0022	3	132260403	136214596	12	0.332810
S0022	3	136544007	141585594	11	-0.001990
S0022	3	141795573	142856740	3	0.616756
S0022	3	143197761	151731248	22	-0.001990
S0022	3	151906305	190769453	123	-0.613411
S0022	3	190793040	197212100	19	-0.001990
S0022	4	1059202	37525276	108	0.232208
S0022	4	37759944	37934808	2	0.697230
S0022	4	38026389	41531404	9	0.232208
S0022	4	41888073	44551334	6	0.738848
S0022	4	44552386	44552520	2	0.232208
S0022	4	44767669	44921760	4	1.075237
S0022	4	45140146	92046365	138	0.232208
S0022	4	92053646	160097670	177	0.000000
S0022	4	160137711	161227344	2	0.841955
S0022	4	161510995	188763651	67	0.000000
S0022	5	1325767	1325803	2	-0.355644
S0022	5	1951926	3574956	10	0.190898
S0022	5	4114662	4528395	6	-0.049903
S0022	5	4590072	29507658	68	0.184340
S0022	5	29849398	29849398	1	0.496053
S0022	5	31776025	35790727	16	0.184340
S0022	5	35808752	35808752	1	-0.443878
S0022	5	35873568	73207923	100	0.184340
S0022	5	73382351	73382351	1	0.961967
S0022	5	73392666	80589744	21	0.184340
S0022	5	80649866	84514818	6	0.674653
S0022	5	84675535	96053605	16	0.881917
S0022	5	97260766	97260766	1	4.010200
S0022	5	98310671	113996889	30	3.519887
S0022	5	115894579	127910534	28	0.391603
S0022	5	128294981	153650262	50	0.184340
S0022	5	154911842	179730478	79	-0.049903
S0022	6	1057482	41905811	174	0.714026
S0022	6	42001731	44064694	8	0.302556
S0022	6	44519096	44802910	3	0.580011
S0022	6	44826250	66166861	65	0.302556
S0022	6	66555130	69641096	21	0.000000
S0022	6	70326617	70326617	1	0.977537
S0022	6	70572354	76917669	18	0.000000
S0022	6	77080455	85506222	28	-0.382739
S0022	6	85632631	104963813	70	-0.078994
S0022	6	105198863	121625087	68	-0.382739
S0022	6	122065395	122065395	1	-0.152917
S0022	6	122200312	137531031	70	-0.382739
S0022	6	137668535	137668535	1	-0.259970
S0022	6	137937059	147707311	49	-0.382739
S0022	6	147898333	147898333	1	0.036636
S0022	6	147902709	150002045	10	0.029891
S0022	6	150514249	158085403	41	-0.746829
S0022	6	158272979	158894523	2	-0.552741
S0022	6	158918888	162095633	14	-0.746829
S0022	6	162237472	163171970	4	-1.093062
S0022	6	163172451	170872572	26	-0.746829
S0022	7	863293	1497115	2	1.497999
S0022	7	1821278	9450069	21	0.000000
S0022	7	9671213	9671213	1	0.595610
S0022	7	10165487	20201886	35	0.000000
S0022	7	20374270	21333342	7	1.399183
S0022	7	21686272	33802940	53	0.000000
S0022	7	34284977	35170906	3	-0.919745
S0022	7	35914947	44301664	34	0.000000
S0022	7	44813496	71906122	58	0.226008
S0022	7	73682352	79931150	13	0.705418
S0022	7	79959389	93689033	32	0.226008
S0022	7	94883836	119573529	53	-0.360523
S0022	7	120139565	121252112	3	-0.023284
S0022	7	122239360	151767475	81	-0.360523
S0022	7	152030172	158215549	23	0.226008
S0022	8	618552	633110	2	0.562158
S0022	8	849793	17062845	58	1.066118
S0022	8	17063258	18020696	13	0.562158
S0022	8	18025043	18025043	1	0.322673
S0022	8	18194218	35693285	101	0.562158
S0022	8	35694186	36213763	7	0.955744
S0022	8	36220268	36235570	2	1.028994
S0022	8	36921598	37124693	5	1.591108
S0022	8	37132546	41109005	59	1.197521
S0022	8	41311166	41311166	1	1.751036
S0022	8	41374341	42004164	8	1.197521
S0022	8	42153509	42356369	6	2.347213
S0022	8	42604828	47902866	8	3.342050
S0022	8	48710487	54265566	23	2.192358
S0022	8	54581060	59254904	29	1.197521
S0022	8	59567885	59793985	3	3.225307
S0022	8	59798998	61276247	8	1.197521
S0022	8	61705846	69550198	34	1.192957
S0022	8	69728632	80406925	54	1.736388
S0022	8	80481594	82209490	8	1.980789
S0022	8	82214841	86218398	24	3.165203
S0022	8	86285926	94908574	39	2.603089
S0022	8	95166321	104340719	46	1.101025
S0022	8	104437065	104437065	1	2.785383
S0022	8	105227985	110273273	24	1.101025
S0022	8	110660658	113422062	9	0.220824
S0022	8	113534195	115623997	12	-0.322608
S0022	8	116084222	116254122	2	-0.563693
S0022	8	116329913	116597192	2	2.287037
S0022	8	116695112	119604035	20	3.167239
S0022	8	120343056	130262269	55	0.316509
S0022	8	130291974	130291974	1	0.814235
S0022	8	130447360	133263386	15	0.316509
S0022	8	133496652	133738532	2	0.568239
S0022	8	133740899	138464848	23	0.316509
S0022	8	138560339	139763000	6	0.611434
S0022	8	139782873	145147978	14	0.316509
S0022	9	905450	6124359	24	0.814262
S0022	9	7057701	9238776	7	1.428703
S0022	9	9517017	9603289	2	1.153113
S0022	9	10023441	13137049	9	0.538672
S0022	9	13301956	27351767	76	0.814262
S0022	9	27363004	28376005	7	1.052006
S0022	9	29198151	75951206	53	0.814262
S0022	9	76264223	77817114	2	1.446641
S0022	9	77898483	81021288	10	0.814262
S0022	9	82069672	82069672	1	1.131490
S0022	9	82637802	124376498	119	0.814262
S0022	9	124701269	127864720	16	0.498965
S0022	9	127997303	127997303	1	1.625843
S0022	9	129697622	140599989	53	0.814262
S0022	10	466220	15783765	51	0.000000
S0022	10	15810810	24134003	24	-0.494479
S0022	10	24483463	38944217	54	0.000000
S0022	10	39045746	43612609	5	0.501324
S0022	10	43855480	43855480	1	0.964297
S0022	10	44167701	49650017	11	0.501324
S0022	10	49805368	50840698	4	0.976565
S0022	10	50932371	61338267	23	0.501324
S0022	10	61353877	61353877	1	0.092482
S0022	10	61465327	62929081	6	0.501324
S0022	10	62973487	62973487	1	0.171371
S0022	10	63300506	63470350	2	0.643825
S0022	10	63528522	78168852	72	0.171371
S0022	10	78203215	78539446	3	0.612595
S0022	10	78995938	89676419	46	0.171371
S0022	10	89741806	95805955	28	-0.329953
S0022	10	96862419	135124948	137	0.000000
S0022	11	577454	8101173	33	0.463209
S0022	11	8309189	10895882	8	0.652323
S0022	11	11017202	12397234	5	0.463209
S0022	11	12479067	15101270	11	0.027181
S0022	11	16047917	16358679	4	0.337970
S0022	11	16530452	16882001	3	0.027181
S0022	11	16920292	17405347	3	0.516520
S0022	11	17631091	33958297	74	0.027181
S0022	11	34134297	34134297	1	0.406342
S0022	11	34478583	35588160	5	0.027181
S0022	11	35879571	56922268	69	0.244968
S0022	11	57190420	60898976	31	0.217786
S0022	11	60902434	62597717	20	0.488126
S0022	11	62618180	68306678	37	0.217786
S0022	11	68326038	69244027	11	0.217195
S0022	11	69435627	70362207	14	3.345478
S0022	11	70403385	70787123	2	3.071641
S0022	11	70820759	70841890	2	3.345478
S0022	11	70936348	71071509	5	2.730210
S0022	11	71101371	71113304	2	3.345478
S0022	11	71155352	71649915	6	3.921600
S0022	11	71779996	73665787	14	0.793316
S0022	11	73694754	73694754	1	0.323860
S0022	11	73859939	74364566	6	0.793316
S0022	11	74495957	80885622	66	0.217195
S0022	11	81167011	81436054	2	0.653736
S0022	11	81440577	82976278	11	0.217195
S0022	11	83371691	92131293	37	-0.180263
S0022	11	92534442	92534442	1	0.898291
S0022	11	92667730	93730029	4	-0.180263
S0022	11	93964452	105046638	41	-0.618983
S0022	11	106139352	106139352	1	-1.020501
S0022	11	106219691	108530960	8	-0.618983
S0022	11	110091977	114388222	13	-0.070703
S0022	11	114658457	116055520	4	-0.618983
S0022	11	116429690	118633171	11	-0.221525
S0022	11	118938826	119147174	2	0.217195
S0022	11	119254137	126612903	24	0.217786
S0022	11	126688005	134044100	31	0.000000
S0022	12	1287872	8189680	18	0.336343
S0022	12	8307968	8307968	1	1.722330
S0022	12	8838023	8838023	1	1.383180
S0022	12	9013329	9013329	1	1.864787
S0022	12	9393282	11095835	9	2.203938
S0022	12	11467455	11467455	1	1.890434
S0022	12	11756686	18221564	32	2.471134
S0022	12	18237057	23727848	25	2.784637
S0022	12	24229275	24422223	2	2.505681
S0022	12	24514525	39709908	42	2.784637
S0022	12	40274602	47049235	28	1.398650
S0022	12	47319672	59234068	49	1.961166
S0022	12	59241014	62075342	12	1.380466
S0022	12	62117957	68476572	34	1.621634
S0022	12	68603916	72316166	34	1.285291
S0022	12	72374530	80082752	39	0.803683
S0022	12	81833380	81833380	1	1.907053
S0022	12	81844493	109993976	90	0.803683
S0022	12	110002777	110877174	6	1.148586
S0022	12	110885663	116874676	19	0.803683
S0022	12	117017512	117017512	1	1.574339
S0022	12	117093686	125190731	36	0.803683
S0022	12	125195426	128172301	7	0.412304
S0022	12	128971704	133161346	7	0.803683
S0022	13	19538886	30067933	43	0.124957
S0022	13	30157252	64990432	105	0.240050
S0022	13	65167225	65677031	3	1.326462
S0022	13	65877595	66438087	3	0.437661
S0022	13	67509350	69525299	8	1.326462
S0022	13	69772307	73001140	16	0.240050
S0022	13	73577728	97801785	72	0.124957
S0022	13	97908861	101591831	17	-0.882582
S0022	13	101890435	114981574	58	0.124957
S0022	14	20825965	34093377	63	0.000000
S0022	14	34112387	42103794	41	-0.431309
S0022	14	42134430	50668831	34	0.000000
S0022	14	51772581	52267923	2	0.805400
S0022	14	52377521	59273168	32	0.000000
S0022	14	60141543	61386052	4	-0.240622
S0022	14	61736420	64959553	12	0.000000
S0022	14	65088374	65217224	2	0.477981
S0022	14	65241228	71552692	22	0.000000
S0022	14	72120350	72120350	1	0.325040
S0022	14	72123008	79823990	19	0.000000
S0022	14	80346029	82319626	5	0.385854
S0022	14	82636085	94375102	37	0.000000
S0022	14	94679389	101766831	21	0.713763
S0022	14	102016281	105690735	18	0.000000
S0022	15	23733544	26036205	8	0.000000
S0022	15	26238413	26238413	1	1.097994
S0022	15	26934542	31409090	7	0.691687
S0022	15	31570376	41066875	23	0.000000
S0022	15	41132778	41428925	2	0.527955
S0022	15	41669234	53867515	44	0.000000
S0022	15	54166511	56553590	10	0.204424
S0022	15	56822403	57285077	4	-0.580231
S0022	15	57300387	58546555	5	0.204424
S0022	15	59085055	59461475	4	0.000000
S0022	15	59848338	59848338	1	-0.610784
S0022	15	60067841	101214182	143	0.000000
S0022	16	655262	10664344	41	0.000000
S0022	16	10725361	12084047	11	-0.132245
S0022	16	12373069	22785204	21	0.000000
S0022	16	23124398	27897325	23	0.355878
S0022	16	28072982	51602444	38	0.000000
S0022	16	51817742	51817742	1	0.423157
S0022	16	52495096	53541390	7	0.000000
S0022	16	53719254	56235799	13	0.226756
S0022	16	56252671	60510631	19	0.000000
S0022	16	60688335	60688335	1	0.416160
S0022	16	60759829	85624399	98	0.000000
S0022	16	85838587	85999992	3	0.943041
S0022	16	86029293	89371839	11	0.000000
S0022	17	1243941	16117862	60	-0.301211
S0022	17	16263496	16408615	2	0.176629
S0022	17	16554971	19864787	21	-0.301211
S0022	17	19944215	19944215	1	-0.971574
S0022	17	20605109	38265591	96	-0.301211
S0022	17	38271452	38271452	1	0.376476
S0022	17	38341603	49844513	78	-0.301211
S0022	17	49957482	50356773	5	-1.047398
S0022	17	50515580	66865466	147	-0.301211
S0022	17	67169410	68153619	4	0.124019
S0022	17	68623636	76151166	56	-0.301211
S0022	17	76222588	76222588	1	-1.898207
S0022	17	76320779	79390013	25	-0.301211
S0022	17	79671935	80917016	9	0.499727
S0022	18	331827	34863656	104	0.000000
S0022	18	34917461	38087719	9	0.522367
S0022	18	38091750	40364375	7	0.930719
S0022	18	41245773	44880763	8	0.522367
S0022	18	45103319	45611127	4	0.910158
S0022	18	45909012	45909012	1	1.376774
S0022	18	45946275	46583734	4	0.988983
S0022	18	46852115	48583105	5	0.522367
S0022	18	48603835	48603835	1	0.819299
S0022	18	48629913	48629913	1	0.522367
S0022	18	48962360	49853285	3	2.076914
S0022	18	50122300	51971393	10	0.522367
S0022	18	52509051	52509051	1	0.196419
S0022	18	52516339	61587732	27	0.522367
S0022	18	61654958	65214082	9	0.885215
S0022	18	65337899	77003733	32	0.522367
S0022	19	412730	5766090	27	1.260865
S0022	19	5936689	5936689	1	0.096185
S0022	19	5945671	12439248	36	1.260865
S0022	19	12844061	18401232	36	0.331184
S0022	19	18524386	18957218	6	1.128430
S0022	19	18975882	19293003	2	0.331184
S0022	19	19377522	21355719	3	1.088770
S0022	19	21722814	49354935	125	0.331184
S0022	19	49802588	49956925	3	0.208976
S0022	19	50297459	57516070	37	0.331184
S0022	19	57621012	57733864	2	2.460606
S0022	19	57962714	58852835	8	0.331184
S0022	20	545941	33046026	153	0.000000
S0022	20	33099332	40278483	36	-0.566968
S0022	20	40338375	40338375	1	-0.618596
S0022	20	40489038	50939247	77	-0.566968
S0022	20	51346472	60969785	97	0.000000
S0022	20	61164753	62215372	9	-0.034987
S0022	21	15946408	19501020	23	-0.186826
S0022	21	19521848	21716999	11	0.550331
S0022	21	22413602	25077895	11	0.947646
S0022	21	25217566	31277168	31	0.210489
S0022	21	31736157	41142188	43	-0.186826
S0022	21	41246730	41246730	1	1.119315
S0022	21	41379783	41743884	2	0.003616
S0022	21	41841444	47323522	31	-0.186826
S0022	22	17520371	39403821	88	-0.084154
S0022	22	39624939	39624939	1	-0.714793
S0022	22	40508722	49329633	45	-0.084154
S0022	X	3343638	13894196	15	1.318572
S0022	X	14136148	57635870	104	2.381700
S0022	X	57812077	135390172	168	1.318572
S0022	X	136403613	143778621	17	2.781200
S0022	X	144303700	153689045	29	1.318572
