ID	chr	start	end	a	LogR
S0020	1	3252007	34852005	124	0.000000
S0020	1	34888152	34888152	1	0.258068
S0020	1	35461836	76781576	176	0.000000
S0020	1	76826996	84594399	25	0.518631
S0020	1	84644718	85797698	5	2.302141
S0020	1	85798038	85798038	1	0.518631
S0020	1	86208734	86259766	2	0.000000
S0020	1	86283071	86461811	2	2.568519
S0020	1	86543447	86543447	1	1.849725
S0020	1	86836353	88578494	9	2.568519
S0020	1	88625878	114198979	100	0.000000
S0020	1	115069906	117264161	13	0.895065
S0020	1	117396686	117656088	3	0.000000
S0020	1	117690758	165654869	100	-0.007425
S0020	1	166035856	166911149	5	0.345599
S0020	1	167049690	182855698	41	-0.007425
S0020	1	182988414	182988414	1	0.382992
S0020	1	183099560	199642205	51	-0.007425
S0020	1	199642997	199642997	1	-1.218892
S0020	1	200335284	204654934	25	-0.007425
S0020	1	205145005	208994644	16	0.468136
S0020	1	209123662	240207638	109	0.475561
S0020	1	240231725	247785294	19	0.000000
S0020	2	548277	18806514	48	-0.537082
S0020	2	19158833	40458140	51	-0.154793
S0020	2	40764167	41905552	5	0.132676
S0020	2	41966314	70015181	92	-0.249612
S0020	2	70063527	95958375	46	-0.537082
S0020	2	97282267	101344604	11	-0.239379
S0020	2	101541270	134544930	85	-0.537082
S0020	2	134553814	141827362	17	0.000000
S0020	2	142043670	142043670	1	1.190177
S0020	2	142077308	142083819	2	0.652307
S0020	2	142109239	159670945	43	0.000000
S0020	2	159787453	159787453	1	0.247885
S0020	2	160023979	198762542	116	0.000000
S0020	2	198962974	199299078	3	0.432789
S0020	2	199888655	214192255	35	0.000000
S0020	2	214204933	214897080	4	-0.297557
S0020	2	215381830	242217627	79	0.000000
S0020	3	3362137	11700480	22	-0.077210
S0020	3	11798039	23458291	42	0.608257
S0020	3	24197273	33437445	29	1.467657
S0020	3	33805561	37278048	6	0.608257
S0020	3	37409781	37409781	1	1.036869
S0020	3	37517381	37517381	1	0.351403
S0020	3	37771554	41257492	9	0.618140
S0020	3	41269531	42461815	6	1.354927
S0020	3	43238536	56949101	50	0.618140
S0020	3	57393243	57393243	1	1.256032
S0020	3	57459912	62789179	15	0.618140
S0020	3	63271746	67042519	16	0.374233
S0020	3	67458656	69605550	8	0.107496
S0020	3	69732645	70960046	4	0.873415
S0020	3	71029408	71492015	4	0.107496
S0020	3	71583552	72589283	6	0.407920
S0020	3	72657311	84333246	48	0.107496
S0020	3	84472471	95156018	32	-0.231697
S0020	3	95156079	96480445	6	-0.595355
S0020	3	97587959	113333388	44	-0.231697
S0020	3	113349451	113349451	1	0.601422
S0020	3	113355409	124566227	40	1.972835
S0020	3	124647727	128820495	14	1.139716
S0020	3	129690192	129690192	1	0.390425
S0020	3	130131184	151976445	60	0.729617
S0020	3	152032495	164282449	36	-0.641795
S0020	3	164436431	171307593	21	-0.343926
S0020	3	171791223	171820342	2	-1.081366
S0020	3	172646170	177672475	16	-0.343926
S0020	3	177771889	196149667	61	-0.641795
S0020	3	196974183	197212100	4	0.107496
S0020	4	1059202	17855437	66	0.000000
S0020	4	18399203	18399203	1	0.657673
S0020	4	19114118	38026389	44	0.000000
S0020	4	38061174	38778903	2	0.574811
S0020	4	39589162	41888073	7	0.000000
S0020	4	42718502	43610300	3	-0.517387
S0020	4	44284078	44551334	2	0.000000
S0020	4	44552386	44552520	2	-2.537219
S0020	4	44767669	46120872	6	0.000000
S0020	4	46141498	53112728	9	1.066710
S0020	4	53263522	58559959	18	0.591352
S0020	4	58857519	60059373	4	0.193003
S0020	4	61228770	61366856	2	0.591352
S0020	4	61539734	63498508	5	-0.741961
S0020	4	64174876	65538012	5	-0.266603
S0020	4	65638274	65638274	1	0.663078
S0020	4	65659214	73604409	30	1.996391
S0020	4	73722757	73722757	1	2.332709
S0020	4	73750926	86324115	44	1.996391
S0020	4	86909213	87188215	4	1.556872
S0020	4	87373400	92046365	13	1.996391
S0020	4	92053646	99298979	16	1.528117
S0020	4	99701724	110320011	36	1.996391
S0020	4	111050203	114679294	4	2.566760
S0020	4	115213965	115434478	2	1.996391
S0020	4	115759582	139611745	54	1.066710
S0020	4	139729690	139835609	2	1.400515
S0020	4	139998368	178682034	103	1.066710
S0020	4	179012585	179012585	1	1.835915
S0020	4	179154611	185324629	16	1.507846
S0020	4	185331345	188763651	12	1.066710
S0020	5	1325767	5997609	24	0.000000
S0020	5	6157460	20034682	33	-0.541457
S0020	5	21319582	23322967	6	-1.260484
S0020	5	23442788	23797589	4	-0.541457
S0020	5	23819475	58378690	108	-1.419956
S0020	5	58410221	76638917	40	-0.541457
S0020	5	76836235	94266363	29	-0.825900
S0020	5	94931333	141008127	91	-0.284444
S0020	5	141501366	153650262	22	0.000000
S0020	5	154911842	155430492	3	0.294338
S0020	5	155745905	168489333	31	0.000000
S0020	5	168741960	168741960	1	0.258175
S0020	5	169440299	179730478	44	0.000000
S0020	6	1057482	36392081	149	0.000000
S0020	6	36556016	36683774	2	0.288438
S0020	6	36771689	38068626	7	0.000000
S0020	6	38508509	38508509	1	-0.943647
S0020	6	38623000	62624206	81	0.000000
S0020	6	62943051	82747845	69	0.253987
S0020	6	82840466	92985307	30	0.000000
S0020	6	92985361	93702141	12	-0.078296
S0020	6	95841494	95841494	1	-0.600781
S0020	6	95969106	116707299	80	-0.078296
S0020	6	116718123	134888788	87	-0.327527
S0020	6	135492392	135574643	3	2.077990
S0020	6	136033075	138921331	17	1.603011
S0020	6	139075844	139075844	1	-0.802506
S0020	6	139076770	139345749	3	-1.108252
S0020	6	139410271	139834012	7	-0.802506
S0020	6	139840693	151405377	45	-0.327527
S0020	6	151665009	161210017	45	-0.638751
S0020	6	161324856	161571151	2	-0.114574
S0020	6	161575543	162317877	5	-0.638751
S0020	6	162332106	163172451	3	-0.047225
S0020	6	163662087	170064843	22	-0.638751
S0020	6	170136351	170783302	2	-0.389520
S0020	6	170872572	170872572	1	-0.311224
S0020	7	863293	4585142	11	0.445640
S0020	7	4661337	7842707	6	-0.088195
S0020	7	7860242	7947541	3	0.310880
S0020	7	8145499	20154816	38	-0.088195
S0020	7	20201886	20374270	2	0.331772
S0020	7	20465061	50999204	113	-0.088195
S0020	7	52047849	79959389	55	0.445640
S0020	7	80401949	81908393	6	3.262872
S0020	7	82395339	91416531	19	0.445640
S0020	7	91809759	92492398	3	0.710124
S0020	7	92624407	147989522	124	0.445640
S0020	7	148232416	158215549	39	0.000000
S0020	8	618552	16650015	57	0.693600
S0020	8	16758938	18194218	18	0.955345
S0020	8	18422235	37091113	113	0.693600
S0020	8	37124693	37124693	1	-1.608762
S0020	8	37132546	37132546	1	-0.869570
S0020	8	37211335	37466596	6	-1.608762
S0020	8	37487260	40203542	37	0.693600
S0020	8	40218347	40327992	4	1.354257
S0020	8	40329035	40329035	1	1.652763
S0020	8	40356238	42922990	30	2.225880
S0020	8	47460945	51672209	14	1.652763
S0020	8	51862150	63659635	62	0.992105
S0020	8	63800190	81140344	81	0.654296
S0020	8	81423801	81423801	1	2.077036
S0020	8	81520237	85648661	24	2.336604
S0020	8	85803529	87994260	11	4.172699
S0020	8	88029386	92412174	22	3.874194
S0020	8	92838408	93096645	3	4.225094
S0020	8	93905907	96229266	14	3.874194
S0020	8	96276076	106384832	50	2.038098
S0020	8	106490018	109627683	9	1.778531
S0020	8	109644769	119604035	50	0.355790
S0020	8	120343056	123245482	14	-0.428399
S0020	8	123457282	123502642	2	0.355790
S0020	8	123521573	131286273	46	0.693600
S0020	8	131506062	131506062	1	1.084796
S0020	8	131517830	145147978	53	0.693600
S0020	9	905450	3284156	12	-0.019596
S0020	9	3934268	15543808	47	-0.356640
S0020	9	15845914	37961995	101	-0.019596
S0020	9	38010763	38010763	1	-0.634682
S0020	9	38058424	88118518	48	-0.019596
S0020	9	88692838	88692838	1	-1.176557
S0020	9	88966691	127205279	110	-0.019596
S0020	9	127233823	140599989	60	0.088185
S0020	10	466220	8220731	26	0.022810
S0020	10	9022264	72081023	197	0.405426
S0020	10	72383091	77396891	26	2.045482
S0020	10	77621520	79789536	14	0.405426
S0020	10	80097033	83763015	15	0.095601
S0020	10	83881385	85892170	8	0.863639
S0020	10	86020263	90557191	27	0.095601
S0020	10	90689535	92523623	6	0.405426
S0020	10	92670328	92670328	1	0.110647
S0020	10	92823350	122405014	90	0.405426
S0020	10	122634716	122634716	1	-0.888749
S0020	10	123218471	135124948	58	0.405426
S0020	11	577454	13285299	52	0.000000
S0020	11	13800622	24761831	40	-0.396992
S0020	11	24935848	42413562	89	-0.793879
S0020	11	42787485	43709965	6	-0.396886
S0020	11	43712254	60385381	56	0.000000
S0020	11	60472516	62080857	19	1.865973
S0020	11	62205537	66608521	28	0.000000
S0020	11	66761463	67036001	4	-0.502345
S0020	11	67054144	69830436	27	0.000000
S0020	11	69841748	70403385	9	0.668362
S0020	11	70787123	72727465	22	0.000000
S0020	11	73001720	73295828	4	-1.421974
S0020	11	73314577	82908161	89	0.000000
S0020	11	82976278	85192241	9	-0.375459
S0020	11	85208955	86816438	10	-0.953869
S0020	11	86991733	94368749	29	-0.375459
S0020	11	94381668	94381668	1	0.131485
S0020	11	94782720	95860005	10	-0.375459
S0020	11	96117873	98229278	7	0.000000
S0020	11	98435327	134044100	112	-0.742792
S0020	12	1287872	3769881	9	5.109278
S0020	12	4671490	9013329	12	2.673787
S0020	12	9393282	9393282	1	2.164030
S0020	12	9923917	32224948	99	2.673787
S0020	12	32227953	33282226	8	1.469874
S0020	12	39560731	39638376	2	1.060849
S0020	12	39709908	39709908	1	-1.521365
S0020	12	40274602	47319672	29	1.060849
S0020	12	47631229	57133321	38	1.264145
S0020	12	57240444	59080855	6	1.757852
S0020	12	59103316	74487917	96	1.264145
S0020	12	74491954	74844696	3	1.752821
S0020	12	74866713	97550444	89	1.264145
S0020	12	98035027	99255220	2	2.430103
S0020	12	99419631	99419631	1	2.681294
S0020	12	99562568	99562568	1	1.515336
S0020	12	100135612	100218456	2	1.264145
S0020	12	100304376	117017512	46	1.596203
S0020	12	117093686	119316699	14	1.264145
S0020	12	119515037	133161346	36	1.060849
S0020	13	19538886	22073023	14	-0.300382
S0020	13	22294117	30668287	35	0.000000
S0020	13	30681620	31634208	9	0.354613
S0020	13	31683271	31683271	1	1.014049
S0020	13	31701807	34957014	10	0.659437
S0020	13	35707074	77039165	125	0.000000
S0020	13	77056248	81805686	13	-0.498740
S0020	13	82302689	93091086	34	0.000000
S0020	13	93214363	98133825	11	-0.329438
S0020	13	98136934	100103895	7	0.000000
S0020	13	100117793	102607422	12	-1.331529
S0020	13	102628700	108123497	22	0.000000
S0020	13	108167663	108367277	2	1.089540
S0020	13	108628716	114981574	30	0.000000
S0020	14	20825965	55657310	154	0.000000
S0020	14	56155994	59006804	15	0.379018
S0020	14	59208542	60537803	6	0.000000
S0020	14	61386052	61386052	1	0.514473
S0020	14	61736420	86022706	74	0.000000
S0020	14	86146748	86229110	2	0.850005
S0020	14	86230118	86230118	1	1.236099
S0020	14	86422769	96620508	26	0.850005
S0020	14	97288251	105690735	34	0.000000
S0020	15	23733544	24147728	3	-0.132226
S0020	15	24288324	26036205	5	0.405060
S0020	15	26238413	27062506	3	-0.132226
S0020	15	27703160	33605301	8	0.241924
S0020	15	33684035	35825777	5	0.374150
S0020	15	35924343	35924343	1	-0.079050
S0020	15	35936543	51882273	49	0.374150
S0020	15	52111901	53867515	11	0.666227
S0020	15	54166511	56454191	8	0.374150
S0020	15	56543422	56553590	2	0.702053
S0020	15	56822403	69520737	47	1.149882
S0020	15	69673728	74838757	13	0.702053
S0020	15	75136694	75976216	2	-1.098905
S0020	15	76035926	76035926	1	-1.776208
S0020	15	76196674	80855842	16	-1.098905
S0020	15	82193782	89859994	29	0.702053
S0020	15	90057054	93480423	20	0.327903
S0020	15	93627639	99477911	20	0.000000
S0020	15	99540258	99768580	3	-0.547855
S0020	15	99929136	101214182	6	0.000000
S0020	16	655262	8804259	35	-0.600565
S0020	16	8811439	9318907	2	-0.927736
S0020	16	9800580	79009468	206	-0.600565
S0020	16	79236908	82580869	19	-1.142445
S0020	16	82655660	82655660	1	-0.838780
S0020	16	82867755	85567156	8	0.108498
S0020	16	85623736	85624399	2	-0.838780
S0020	16	85838587	89371839	14	-1.142445
S0020	17	1243941	9739738	34	-0.161181
S0020	17	9798619	13059468	17	0.000000
S0020	17	13257183	26398130	52	-1.202060
S0020	17	26774762	37726765	71	0.000000
S0020	17	37836581	37905816	4	-0.758444
S0020	17	38128311	42311869	34	0.000000
S0020	17	42332587	42628193	4	0.395754
S0020	17	42921668	47591802	25	0.000000
S0020	17	47698471	48030656	4	0.419495
S0020	17	48051772	54652410	55	0.000000
S0020	17	54778904	56802190	20	-0.370353
S0020	17	57210069	62016520	49	-0.788781
S0020	17	62067186	65329040	29	-1.081272
S0020	17	65549970	70355387	37	-0.788781
S0020	17	70390452	70692740	5	-0.544480
S0020	17	70739048	78524092	47	-0.788781
S0020	17	78524130	80917016	19	-0.544513
S0020	18	331827	3385059	11	0.000000
S0020	18	3420661	3420661	1	0.294534
S0020	18	3753093	5098165	11	0.000000
S0020	18	5705516	19314371	29	-0.143657
S0020	18	19496983	22167112	6	0.000000
S0020	18	22232265	22322903	3	-0.295756
S0020	18	22947167	38287433	54	0.000000
S0020	18	38363064	42166225	9	-0.026775
S0020	18	42359004	42359004	1	-0.128351
S0020	18	42689285	50975302	29	-0.026775
S0020	18	51557280	53714866	8	0.667568
S0020	18	54123922	77003733	64	-0.026775
S0020	19	412730	547973	2	-0.013820
S0020	19	756844	8332606	36	0.155801
S0020	19	8396803	18951139	67	-0.013820
S0020	19	18957218	18975882	2	1.206034
S0020	19	19293003	28336245	16	-0.013820
S0020	19	28569878	28676058	2	-0.494986
S0020	19	28792480	42201560	85	-0.013820
S0020	19	42235471	45762753	8	0.647212
S0020	19	46007334	46844123	4	1.286010
S0020	19	46876217	49215540	13	0.624978
S0020	19	49354935	58852835	51	-0.013820
S0020	20	545941	4775639	25	0.000000
S0020	20	4887784	6049692	7	-0.514620
S0020	20	6121815	19030786	62	-0.460466
S0020	20	19215642	22338883	20	0.054154
S0020	20	22339631	30259246	25	2.259754
S0020	20	30308518	33892372	22	0.054154
S0020	20	34093689	35355008	5	0.000000
S0020	20	35496588	35496588	1	1.126050
S0020	20	35525362	40489038	24	0.000000
S0020	20	40529152	44217278	23	-0.276324
S0020	20	44332873	44332873	1	0.063982
S0020	20	44407697	47914066	24	-0.276324
S0020	20	48253975	48437832	2	0.340283
S0020	20	48440023	49174720	8	-0.276324
S0020	20	49329488	49652415	7	0.000000
S0020	20	49788860	49978905	3	-1.103182
S0020	20	50250838	51346472	9	0.000000
S0020	20	51392006	52051443	6	-0.294765
S0020	20	52130441	62215372	99	0.000000
S0020	21	15946408	30864812	71	0.000000
S0020	21	30910306	31263518	4	1.201967
S0020	21	31277168	47323522	78	0.000000
S0020	22	17520371	17969266	9	0.183730
S0020	22	18040160	39403821	79	-0.136002
S0020	22	39624939	41880770	6	0.183730
S0020	22	42245790	47781662	30	-0.222181
S0020	22	47814553	49329633	10	0.183730
S0020	X	3343638	21434667	34	0.003003
S0020	X	21590118	26913250	13	1.019527
S0020	X	26991759	31513228	14	2.410850
S0020	X	31517385	35539639	9	1.019527
S0020	X	36604676	39990022	7	0.570948
S0020	X	40210451	46791709	13	1.019527
S0020	X	46808693	46999552	3	0.003003
S0020	X	47009193	47009193	1	0.513705
S0020	X	47384875	47384875	1	0.003003
S0020	X	47829019	58086344	26	0.899749
S0020	X	58316060	118419194	129	1.685937
S0020	X	118498227	118696035	2	2.823754
S0020	X	118913342	118913342	1	3.352072
S0020	X	119439802	119439802	1	2.823754
S0020	X	119493332	145167102	57	0.899749
S0020	X	145996920	145996920	1	0.496863
S0020	X	146143159	153689045	21	0.899749
