ID	chr	start	end	a	LogR
S0039	1	3252007	6144417	9	0.000204
S0039	1	6254460	6569286	2	0.890597
S0039	1	7019816	21646510	56	-0.816857
S0039	1	21790721	23498024	6	-0.261271
S0039	1	23529203	37770623	62	-0.816857
S0039	1	38023390	44778873	31	-0.348307
S0039	1	44887860	53818981	39	0.468754
S0039	1	53917443	53917443	1	1.537111
S0039	1	53917952	54664434	6	0.468754
S0039	1	54757190	55391268	3	3.211136
S0039	1	55495744	55495744	1	4.487946
S0039	1	55497302	61274534	20	3.211136
S0039	1	61356057	61650635	4	5.795218
S0039	1	61745783	62125719	4	3.211136
S0039	1	62188969	78455648	65	0.468754
S0039	1	78537489	86259766	25	1.795491
S0039	1	86283071	87356690	6	1.326374
S0039	1	87769970	94574931	38	1.407711
S0039	1	94763207	94813457	2	1.136844
S0039	1	95101325	101239376	17	1.407711
S0039	1	101580334	102289362	7	0.651788
S0039	1	102557721	107602612	12	1.407711
S0039	1	107946650	112595913	21	0.080974
S0039	1	112756453	112756453	1	-0.410212
S0039	1	113297497	117255068	20	0.080974
S0039	1	117264161	153421409	35	0.550092
S0039	1	153423248	153423248	1	0.701145
S0039	1	153804336	156523087	18	0.081542
S0039	1	156615194	159646924	17	-1.191700
S0039	1	159881684	215757463	195	0.081542
S0039	1	215820171	216082027	2	0.364622
S0039	1	216439672	229124867	48	0.081542
S0039	1	229895264	230075889	2	-0.244103
S0039	1	230200928	247785294	54	0.081542
S0039	2	548277	8520508	16	0.016585
S0039	2	8549440	41905552	88	0.678975
S0039	2	41966314	47418882	28	0.280878
S0039	2	48465627	51771417	16	-0.381513
S0039	2	51848207	53479918	7	0.068192
S0039	2	53984957	54897588	3	-0.381513
S0039	2	55081082	72186361	43	-0.398098
S0039	2	73541833	75526489	6	-1.006792
S0039	2	75563204	86169989	26	-0.398098
S0039	2	86843922	118776345	75	0.000000
S0039	2	119676029	122046743	8	-0.886846
S0039	2	122141144	129518223	11	-1.985614
S0039	2	129762245	142226298	35	-2.448996
S0039	2	142738865	143737724	4	-2.578043
S0039	2	144128555	172324857	73	-1.350228
S0039	2	173639056	173639056	1	-1.062050
S0039	2	174295499	178226891	14	-1.350228
S0039	2	178658242	178658242	1	-0.825437
S0039	2	179613228	190654761	36	-1.350228
S0039	2	190789812	191466532	3	-0.992355
S0039	2	191514732	205706201	38	-1.350228
S0039	2	205865492	205865492	1	-1.000966
S0039	2	206118484	231224255	66	-0.463382
S0039	2	231625970	231625970	1	0.009038
S0039	2	232685865	232768558	2	-0.463382
S0039	2	233048661	233048661	1	-0.122210
S0039	2	233349210	234635241	7	-0.463382
S0039	2	235328608	242217627	29	0.000000
S0039	3	3362137	19257258	54	0.000000
S0039	3	19481127	19481127	1	0.277816
S0039	3	19786743	24834378	12	0.000000
S0039	3	25256919	28923207	8	-0.710348
S0039	3	28935150	37517381	26	-0.590184
S0039	3	37771554	37771554	1	-0.282295
S0039	3	37795282	56949101	64	-0.590184
S0039	3	57393243	65613957	26	0.120164
S0039	3	66526184	77850731	48	0.000000
S0039	3	77895652	81632513	16	-0.160375
S0039	3	81731017	113041636	91	-0.307602
S0039	3	113091527	114114722	8	-0.160375
S0039	3	114170272	119017382	22	0.000000
S0039	3	119089008	120151890	7	-0.552615
S0039	3	120421373	197212100	222	0.000000
S0039	4	1059202	10184014	45	0.000000
S0039	4	10336032	10336032	1	0.437208
S0039	4	10746555	11084259	2	0.711210
S0039	4	12779652	38026389	63	0.000000
S0039	4	38061174	39589162	3	-0.268827
S0039	4	40457127	40457127	1	-0.222720
S0039	4	40826261	107288036	197	0.000000
S0039	4	107503209	108199427	3	-2.970362
S0039	4	108202966	120413966	22	0.000000
S0039	4	120897847	132588921	28	-0.002390
S0039	4	132590570	136194693	9	0.169395
S0039	4	137682275	153571180	50	-0.002390
S0039	4	153729816	153729816	1	0.273335
S0039	4	153883458	161802451	26	-0.002390
S0039	4	161938828	165158520	9	1.071862
S0039	4	166373881	182978861	40	-0.002390
S0039	4	183016944	183016944	1	0.344960
S0039	4	185306117	188763651	14	-0.002390
S0039	5	1325767	6188186	26	0.000000
S0039	5	6462338	12331200	14	-0.368420
S0039	5	12589944	55137355	118	0.000000
S0039	5	55198686	55815892	4	-0.014218
S0039	5	55843462	55897014	2	-0.684776
S0039	5	56251777	84675535	69	-0.014218
S0039	5	84712956	90194112	6	-0.322053
S0039	5	90428899	90428899	1	-0.633246
S0039	5	90778848	173146887	175	-0.014218
S0039	5	173253897	173875607	3	0.379029
S0039	5	174285849	174285849	1	-0.014218
S0039	5	174733628	174922076	2	0.702612
S0039	5	174991957	179730478	15	-0.014218
S0039	6	1057482	1882091	3	0.000000
S0039	6	2008850	3281414	8	2.208556
S0039	6	4153297	4660558	3	1.643461
S0039	6	4736115	5557943	5	2.208556
S0039	6	5562532	8118674	16	0.000000
S0039	6	8562117	14071414	30	-0.610924
S0039	6	14131867	16086250	6	-0.352845
S0039	6	16162508	20688471	30	-0.610924
S0039	6	20745508	23002332	13	-0.080893
S0039	6	23054094	26027420	11	0.530031
S0039	6	26089645	67525691	136	0.000000
S0039	6	67544604	68061429	3	0.299174
S0039	6	68399382	68399382	1	0.661558
S0039	6	68431173	76917669	25	0.299174
S0039	6	77080455	112825972	127	0.000000
S0039	6	113516734	120584931	33	0.320720
S0039	6	120727234	121068286	3	0.857031
S0039	6	121198315	122451903	7	0.320720
S0039	6	122581156	136033075	63	0.000000
S0039	6	136574422	138921331	16	0.595232
S0039	6	139075844	156836456	81	0.000000
S0039	6	156873315	156873315	1	0.376543
S0039	6	156981315	170872572	54	0.000000
S0039	7	863293	31200426	101	-0.023553
S0039	7	31206313	37005260	27	0.660299
S0039	7	37447918	37881714	2	1.732977
S0039	7	37890865	48057781	35	0.660299
S0039	7	48132166	55292626	20	-0.023553
S0039	7	55957859	68156614	15	0.855507
S0039	7	68190961	68778193	4	1.133894
S0039	7	68851521	68851521	1	0.855507
S0039	7	69161095	69161095	1	1.103261
S0039	7	69194145	81372346	26	0.855507
S0039	7	81723905	91416531	21	1.054459
S0039	7	91809759	92460675	2	1.402740
S0039	7	92492398	95743918	6	1.054459
S0039	7	96315905	99330438	10	1.384230
S0039	7	99649919	105710085	15	1.054459
S0039	7	107106949	107106949	1	0.562158
S0039	7	107940173	139558554	71	1.054459
S0039	7	140284211	143839426	11	0.855507
S0039	7	144372655	145404152	5	-0.023553
S0039	7	145754971	147568974	3	0.454230
S0039	7	147731740	158215549	42	-0.023553
S0039	8	618552	10605450	34	0.261435
S0039	8	11083420	17063258	27	-0.499694
S0039	8	17221001	28412463	51	0.261435
S0039	8	28712689	40751704	132	1.102759
S0039	8	40811968	42153509	14	1.777045
S0039	8	42224452	59804500	70	2.804063
S0039	8	59875307	60921845	4	2.506505
S0039	8	61016691	70816832	45	2.804063
S0039	8	71034413	79734180	39	2.129776
S0039	8	79908269	80406925	6	2.510356
S0039	8	80481594	85803529	29	2.573000
S0039	8	86046941	86285926	4	3.607615
S0039	8	86949727	91510134	20	2.573000
S0039	8	91619162	91619162	1	1.950153
S0039	8	91817535	95166321	18	2.573000
S0039	8	95206269	95206269	1	1.731676
S0039	8	95326668	117080983	98	1.219814
S0039	8	117111532	117196600	2	1.157170
S0039	8	117376229	119029871	10	2.577621
S0039	8	119151423	120531581	8	1.157170
S0039	8	121009824	124254528	17	0.642015
S0039	8	124444496	125482957	6	0.261435
S0039	8	126156395	126156395	1	-0.454115
S0039	8	126193745	131286273	34	0.261435
S0039	8	131506062	132082752	3	-0.505107
S0039	8	132287138	132556129	2	0.261435
S0039	8	132606888	133080000	3	0.739784
S0039	8	133263386	145147978	46	0.261435
S0039	9	905450	19058987	77	-1.001595
S0039	9	19413864	19413864	1	-0.495432
S0039	9	19423762	27182825	38	-1.001595
S0039	9	27228503	36009843	34	0.000000
S0039	9	36031840	75778544	27	-0.432344
S0039	9	75951206	101858350	68	0.000000
S0039	9	103404555	103404555	1	-0.719467
S0039	9	103712129	103712129	1	0.000000
S0039	9	103951612	120423894	50	-0.740096
S0039	9	120891637	121289829	2	-0.369094
S0039	9	121622990	131237894	36	-0.740096
S0039	9	131264543	131512599	3	-0.114216
S0039	9	131823971	135110884	21	-0.740096
S0039	9	135881021	140599989	21	0.000000
S0039	10	466220	9022680	28	0.569515
S0039	10	9025038	9025038	1	-0.255254
S0039	10	9083820	27069902	54	0.569515
S0039	10	27357572	27357572	1	1.561945
S0039	10	28386052	44191614	54	1.225979
S0039	10	44296893	45442303	6	0.233550
S0039	10	45973920	45973920	1	-0.167483
S0039	10	49650017	62201684	33	-0.074352
S0039	10	62900602	62973487	3	0.796419
S0039	10	63300506	63528522	3	0.435797
S0039	10	63529023	63577644	3	0.796419
S0039	10	63678180	65562586	11	-0.074352
S0039	10	65994428	72011395	24	0.261613
S0039	10	72081023	73825952	7	0.979753
S0039	10	73858399	74152536	3	3.905885
S0039	10	74190704	78203215	24	0.979753
S0039	10	78318879	84602094	24	0.687325
S0039	10	84702253	85050296	2	0.979753
S0039	10	85566077	85761914	3	0.261613
S0039	10	85892170	87958310	6	0.870324
S0039	10	88111925	125514343	131	0.261613
S0039	10	125559844	130442835	33	0.343189
S0039	10	130458099	135124948	14	0.261613
S0039	11	577454	8598973	37	0.394964
S0039	11	9042569	10895882	4	0.919910
S0039	11	11017202	11374986	3	0.394964
S0039	11	11566452	12397234	2	0.783904
S0039	11	12479067	19534993	27	0.394964
S0039	11	19554506	20950861	7	1.788293
S0039	11	21149632	38474313	77	3.062692
S0039	11	38741510	57547437	63	3.799419
S0039	11	57845257	57845257	1	3.480722
S0039	11	58150796	65922589	66	3.799419
S0039	11	66432230	66922863	6	4.046595
S0039	11	67036001	68326038	12	3.799419
S0039	11	68388588	69015728	8	4.291051
S0039	11	69016700	74307614	52	3.799419
S0039	11	74346337	74364566	2	2.373936
S0039	11	74495957	79244715	47	3.799419
S0039	11	79360883	79631868	5	4.078409
S0039	11	79788489	88360772	49	2.685080
S0039	11	88642081	104937371	59	1.948353
S0039	11	104939029	125634035	61	0.673954
S0039	11	125647982	134044100	35	0.394964
S0039	12	1287872	2140625	4	0.945600
S0039	12	2500431	3457931	4	1.452431
S0039	12	3769881	11999076	26	0.938013
S0039	12	12148261	14909713	15	1.704502
S0039	12	15014293	17056798	9	1.428090
S0039	12	17625605	18237057	6	2.527230
S0039	12	18321454	29129874	44	2.803642
S0039	12	29527675	30358302	5	3.651498
S0039	12	30499387	32320830	10	4.840412
S0039	12	32424538	39709908	9	4.073924
S0039	12	40274602	45925755	22	2.885010
S0039	12	46148745	54990949	36	2.475266
S0039	12	55091281	57307241	11	1.786637
S0039	12	57905687	62798992	24	0.938781
S0039	12	63040812	68983840	34	1.348525
S0039	12	69102115	77885365	58	1.159442
S0039	12	78008919	78008919	1	1.610661
S0039	12	78425838	115246128	122	1.159442
S0039	12	115491832	116250776	2	0.466980
S0039	12	116294127	133161346	53	0.060302
S0039	13	19538886	29749067	39	0.000000
S0039	13	29883507	31263697	14	-0.526155
S0039	13	31282130	38832327	26	0.000000
S0039	13	39648018	39648018	1	-0.807193
S0039	13	40554922	43167355	7	0.000000
S0039	13	43423390	43423390	1	0.280927
S0039	13	44142022	57394572	36	0.000000
S0039	13	57483638	87574396	98	-1.528792
S0039	13	88819333	88819333	1	-1.224529
S0039	13	88903397	98133825	29	-1.528792
S0039	13	98136934	98350327	3	-2.240738
S0039	13	98754943	102510055	14	-1.528792
S0039	13	102548688	112846022	45	0.000000
S0039	13	113058921	113110185	2	-0.781637
S0039	13	113188574	114981574	9	0.000000
S0039	14	20825965	27082086	26	0.000000
S0039	14	27107260	58725019	142	0.272093
S0039	14	59006804	60209831	6	-0.558129
S0039	14	60537803	61753153	4	0.272093
S0039	14	61874297	63431014	5	0.642295
S0039	14	63431893	92192590	83	0.272093
S0039	14	92407247	104739229	40	0.000000
S0039	14	104743850	105139894	2	0.395678
S0039	14	105197567	105690735	5	0.000000
S0039	15	23733544	47063289	56	0.000000
S0039	15	47082070	48261419	5	-0.624236
S0039	15	48653043	53855925	23	0.000000
S0039	15	53867515	54308635	3	0.378071
S0039	15	54411690	54411690	1	0.000000
S0039	15	54425797	54425797	1	0.290964
S0039	15	54813997	73966960	64	0.000000
S0039	15	74760733	86350310	37	0.484856
S0039	15	86350508	101214182	62	0.000000
S0039	16	655262	655262	1	0.000000
S0039	16	994364	994364	1	-1.036829
S0039	16	1610070	6517526	23	0.000000
S0039	16	6548389	19505177	42	0.416676
S0039	16	19581973	19651224	2	-0.090417
S0039	16	19713882	57610423	96	0.416676
S0039	16	57848318	61642261	17	0.000000
S0039	16	61728572	89371839	105	-0.560357
S0039	17	1243941	5852445	13	0.000000
S0039	17	5867758	25685052	82	0.074712
S0039	17	25771899	29941966	30	-0.776641
S0039	17	30113295	30113295	1	0.949498
S0039	17	30498012	38570464	60	0.074712
S0039	17	38640744	39786415	10	0.198301
S0039	17	39800130	45611074	28	1.865786
S0039	17	45644154	47981617	20	0.198301
S0039	17	48030656	55401227	64	0.074712
S0039	17	55607591	58450344	21	0.000000
S0039	17	58706599	58706599	1	0.205297
S0039	17	58834724	60899178	27	0.000000
S0039	17	61013157	61020725	3	0.467707
S0039	17	61225577	68942215	62	0.000000
S0039	17	69042937	69042937	1	-0.479671
S0039	17	69050149	80917016	83	0.000000
S0039	18	331827	2357547	6	0.000000
S0039	18	3010609	4127583	12	-0.724447
S0039	18	4211925	28135234	63	0.000000
S0039	18	28711519	30451993	8	-0.475354
S0039	18	30854602	35213799	18	0.000000
S0039	18	35305576	35305576	1	-0.514934
S0039	18	35654573	48962360	37	0.000000
S0039	18	49219762	50498814	7	0.333882
S0039	18	50588945	50588945	1	0.775121
S0039	18	50975302	51596681	3	0.333882
S0039	18	51971393	77003733	70	0.000000
S0039	19	412730	13614007	68	0.192368
S0039	19	13678320	14018553	2	-0.820728
S0039	19	14132863	14451948	2	0.192368
S0039	19	14595704	14595704	1	-1.331442
S0039	19	14686381	17360864	16	0.192368
S0039	19	17462792	17462792	1	0.536161
S0039	19	17517369	17899886	5	0.192368
S0039	19	17939369	28676058	30	0.473931
S0039	19	28792480	58852835	161	0.192368
S0039	20	545941	6121815	33	-0.189414
S0039	20	6182577	15206141	42	0.041172
S0039	20	15216195	15770093	4	0.757757
S0039	20	15897755	15897755	1	0.987991
S0039	20	15968861	16234885	2	0.757757
S0039	20	16555464	23862844	41	0.041172
S0039	20	23938338	23938338	1	0.334295
S0039	20	23956894	40529152	68	0.041172
S0039	20	40606121	40616993	2	-0.711679
S0039	20	41118016	45766329	28	0.041172
S0039	20	45797639	46245260	3	0.442264
S0039	20	46316669	56348590	98	0.041172
S0039	20	56400121	62215372	50	-0.320083
S0039	21	15946408	17489761	8	-0.001633
S0039	21	17508670	17822236	2	-0.396612
S0039	21	17842538	19006359	9	-0.001633
S0039	21	19317005	19317005	1	0.504750
S0039	21	19340202	32968981	63	-0.001633
S0039	21	33541379	35229631	6	0.605791
S0039	21	35907217	47323522	64	-0.001633
S0039	22	17520371	49329633	134	0.154254
S0039	X	3343638	3343638	1	1.598440
S0039	X	5832488	11070209	4	2.485579
S0039	X	11260526	13894196	10	3.281667
S0039	X	14136148	14400221	2	2.450326
S0039	X	14611369	49734029	86	3.281667
S0039	X	49929501	54828794	10	2.394528
S0039	X	55276039	65316593	19	1.023116
S0039	X	65414617	67430481	7	2.500966
S0039	X	67563500	76113619	19	1.704878
S0039	X	77310197	77310197	1	0.882458
S0039	X	78675742	79478285	7	1.704878
S0039	X	79484025	80191983	3	2.086572
S0039	X	80226228	82262569	10	1.704878
S0039	X	82459788	153689045	154	0.227028
