ID	chr	start	end	a	LogR
S0032	1	3252007	5424667	7	0.000000
S0032	1	5718185	16436771	38	0.110816
S0032	1	16454380	23498024	28	-0.441368
S0032	1	23529203	40408280	71	0.110816
S0032	1	40496677	40837481	5	0.474591
S0032	1	41293664	54026244	60	0.110816
S0032	1	54029893	55497302	8	-0.324533
S0032	1	55684293	59286656	11	0.110816
S0032	1	59453334	60421762	3	0.443388
S0032	1	60577064	61383717	7	0.110816
S0032	1	61489206	74070609	55	0.212913
S0032	1	74119854	75373251	3	0.927214
S0032	1	75883606	87769970	45	0.212913
S0032	1	87904460	87904460	1	-0.238818
S0032	1	87965176	108643426	80	0.212913
S0032	1	108900105	109508888	4	0.282333
S0032	1	109515028	113297497	13	-0.126753
S0032	1	113501475	113501475	1	0.267688
S0032	1	113862503	119048181	29	-0.126753
S0032	1	119080503	164293400	87	-0.237569
S0032	1	164293715	204110660	124	0.171517
S0032	1	204307047	204307047	1	0.547828
S0032	1	204427933	234420229	106	0.171517
S0032	1	234526332	238765187	14	0.029087
S0032	1	238855281	239264404	3	-0.040333
S0032	1	239342486	244922193	21	0.102097
S0032	1	245650748	247785294	5	0.000000
S0032	2	548277	25160743	68	-0.097188
S0032	2	25714916	48585963	66	-0.376248
S0032	2	49202585	59665119	42	-1.044657
S0032	2	59741108	82943700	49	-0.376248
S0032	2	83148496	84327061	2	0.022830
S0032	2	84527208	84621150	3	0.259715
S0032	2	85332445	105559440	34	0.022830
S0032	2	106179399	106539688	3	-0.101149
S0032	2	106612452	109500929	20	0.022830
S0032	2	111760768	114122827	9	2.458321
S0032	2	114139862	123890609	26	0.022830
S0032	2	127492191	128624537	3	0.899492
S0032	2	128800798	158726256	67	0.022830
S0032	2	158820136	158820136	1	-0.098757
S0032	2	159180134	174343700	49	0.022830
S0032	2	174371810	174371810	1	0.633664
S0032	2	174562151	180518155	16	0.022830
S0032	2	180559024	189714147	25	-0.311880
S0032	2	190174501	190174501	1	-0.875696
S0032	2	190192766	197469555	28	-0.311880
S0032	2	198144002	198144002	1	0.439143
S0032	2	198471171	202859911	12	-0.311880
S0032	2	204050625	204865954	3	0.112085
S0032	2	205125606	221439475	44	-0.311880
S0032	2	221585681	233711369	35	0.022830
S0032	2	234102070	238903310	18	0.197709
S0032	2	238970862	242217627	13	0.022830
S0032	3	3362137	15990231	44	-0.818271
S0032	3	16117428	20003172	14	-1.854719
S0032	3	20763777	34271042	37	-2.014934
S0032	3	34598590	37278048	4	-1.186922
S0032	3	37409781	43895115	23	-2.014934
S0032	3	43990451	43990451	1	-2.356837
S0032	3	43994802	50261472	26	-2.014934
S0032	3	50288909	59691380	26	-1.036448
S0032	3	61128017	65368030	14	0.000000
S0032	3	65573867	66882281	8	2.069401
S0032	3	67042519	84978010	75	0.000000
S0032	3	85384671	88203183	16	0.315922
S0032	3	89145866	107354552	45	0.000000
S0032	3	107474866	138940989	100	-0.445427
S0032	3	139777849	167650846	75	0.000000
S0032	3	168129587	168811465	3	-1.451959
S0032	3	168855293	170945351	9	0.000000
S0032	3	171302066	195018324	79	0.005729
S0032	3	195979421	196149667	3	0.396620
S0032	3	196974183	197212100	4	0.005729
S0032	4	1059202	13157860	51	0.000000
S0032	4	13279591	38061174	61	0.113314
S0032	4	38778903	86133345	139	0.000000
S0032	4	86324115	86909213	2	0.287557
S0032	4	87162055	131085096	107	0.000000
S0032	4	131603050	131939505	2	-0.326007
S0032	4	132401228	157542791	76	0.000000
S0032	4	158064499	158324627	3	0.748687
S0032	4	159291059	166936205	22	0.000000
S0032	4	167085951	169037358	5	-0.627582
S0032	4	169800062	188763651	47	0.000000
S0032	5	1325767	31863958	89	0.000000
S0032	5	32362576	35790727	14	0.096781
S0032	5	35808752	151771186	248	0.000000
S0032	5	151896509	151896509	1	0.373995
S0032	5	152202156	155430492	8	0.000000
S0032	5	155745905	158154687	4	0.601391
S0032	5	158268754	168741960	28	0.000000
S0032	5	169440299	169440299	1	0.488360
S0032	5	169484033	179730478	43	0.000000
S0032	6	1057482	2511559	7	0.700725
S0032	6	2650786	5557943	12	0.231167
S0032	6	5562532	6525303	6	0.856766
S0032	6	6560963	10109191	22	0.231167
S0032	6	10323734	10368708	2	0.821663
S0032	6	10452107	12872440	10	0.231167
S0032	6	12967645	12967645	1	-0.125044
S0032	6	13316249	13316249	1	0.231167
S0032	6	13383430	17542304	18	0.974671
S0032	6	18022839	20745508	23	0.231167
S0032	6	20808742	22215692	8	-0.444979
S0032	6	22310741	45044542	77	0.024579
S0032	6	45569863	47160114	4	-0.665672
S0032	6	47286786	55905637	35	0.024579
S0032	6	55958997	56377447	4	-0.133400
S0032	6	56412205	80726409	74	-0.412926
S0032	6	81381213	83963229	10	0.592535
S0032	6	84053211	84078564	2	0.976322
S0032	6	84349538	104774047	69	-0.029138
S0032	6	104785244	107120782	13	-0.412926
S0032	6	107250122	122272781	61	-0.133400
S0032	6	122451903	132097656	46	0.169046
S0032	6	132192994	132283483	2	-0.164972
S0032	6	132593369	150926499	84	0.169046
S0032	6	151011990	151779990	9	-0.227763
S0032	6	151908242	151908242	1	-0.034371
S0032	6	151914143	152072762	2	-0.530209
S0032	6	152776654	158926409	30	-0.133400
S0032	6	159535533	161988767	11	0.024579
S0032	6	162095633	170872572	31	-0.437979
S0032	7	863293	12530491	37	0.980244
S0032	7	13080760	30103808	60	0.468333
S0032	7	30203422	37881714	33	0.980244
S0032	7	37890865	37931481	2	0.068694
S0032	7	38131647	44140119	23	0.980244
S0032	7	44301664	44301664	1	1.304558
S0032	7	44813496	46557422	7	0.980244
S0032	7	46694520	48057781	2	1.349430
S0032	7	48132166	98982025	104	0.980244
S0032	7	99113505	100715874	6	1.715622
S0032	7	101849396	158215549	144	0.980244
S0032	8	618552	28409165	111	0.716588
S0032	8	28412463	28412463	1	0.451252
S0032	8	28712689	30932751	25	0.716588
S0032	8	31099615	31099615	1	1.689322
S0032	8	31447633	35377586	32	0.716588
S0032	8	35441075	35441075	1	1.195095
S0032	8	35464255	35694186	5	0.716588
S0032	8	35798219	36213763	6	1.682107
S0032	8	36220268	38251737	23	3.104847
S0032	8	38402151	38402151	1	2.139329
S0032	8	38525003	39203448	17	2.496200
S0032	8	39422051	39873720	6	2.139329
S0032	8	39890169	40218347	5	1.918126
S0032	8	40240463	40388318	6	2.139329
S0032	8	40525033	41549194	11	2.457650
S0032	8	41613496	42797957	15	2.139329
S0032	8	42806506	48710487	6	3.383327
S0032	8	49320751	53408414	19	2.469733
S0032	8	53766263	57633546	25	2.139329
S0032	8	58133843	59254904	7	0.716588
S0032	8	59567885	67511338	35	-0.004697
S0032	8	67760268	67760268	1	2.591332
S0032	8	67777319	82214841	72	2.596029
S0032	8	82383848	83829947	11	3.482788
S0032	8	84136017	84183214	2	0.886759
S0032	8	84553579	86114735	9	2.388823
S0032	8	86218398	87167184	5	5.324825
S0032	8	87780543	94908574	35	2.388823
S0032	8	95166321	95206269	2	3.001220
S0032	8	95326668	97399572	12	2.388823
S0032	8	97402408	120531581	106	0.886759
S0032	8	121009824	123502642	12	1.530152
S0032	8	123521573	132556129	51	0.886759
S0032	8	132606888	145147978	49	0.825928
S0032	9	905450	4103703	16	0.662338
S0032	9	4328732	5040333	5	1.058906
S0032	9	5719212	7057701	4	0.662338
S0032	9	7245009	9238776	6	0.323339
S0032	9	9517017	10361262	5	0.662338
S0032	9	10511307	13531732	9	2.935303
S0032	9	13793592	14776027	10	2.658892
S0032	9	15229510	15845914	5	0.385926
S0032	9	16133192	22003260	35	0.662338
S0032	9	22003686	22003686	1	1.329468
S0032	9	22023963	25508135	14	0.662338
S0032	9	25640498	25640498	1	0.864879
S0032	9	26077022	27351767	7	1.355940
S0032	9	27363004	37303489	37	0.662338
S0032	9	37334730	37334730	1	-0.581739
S0032	9	37340659	71050695	9	0.662338
S0032	9	71079393	83854816	28	0.128216
S0032	9	84204244	132038784	149	0.662338
S0032	9	132155664	140599989	38	0.316004
S0032	10	466220	9025038	29	-0.479522
S0032	10	9083820	17522699	30	-0.023295
S0032	10	17728180	20623776	8	-0.807265
S0032	10	20726070	20726070	1	-1.220917
S0032	10	21203132	23897498	6	-0.807265
S0032	10	24134003	26596798	7	-0.723651
S0032	10	26864609	52669902	72	0.060319
S0032	10	52711794	53769608	6	-0.574858
S0032	10	53944635	56329106	3	-1.054974
S0032	10	58578720	59969111	6	-0.574858
S0032	10	60039877	60039877	1	0.791868
S0032	10	60606488	64569653	23	-0.358909
S0032	10	64616367	65441036	5	1.707691
S0032	10	65562586	79684095	65	0.276268
S0032	10	79789536	79789536	1	-0.233760
S0032	10	80097033	84702253	18	0.276268
S0032	10	85050296	112795171	94	0.060319
S0032	10	112865677	113049763	3	0.374540
S0032	10	113094605	117568584	16	0.060319
S0032	10	117646515	118006158	3	0.349707
S0032	10	118036000	127914242	43	0.060319
S0032	10	128427689	128896937	4	-0.325581
S0032	10	128932056	135124948	25	0.272391
S0032	11	577454	59141750	229	0.000000
S0032	11	59156571	66761463	62	2.154235
S0032	11	66910826	74495957	77	0.000000
S0032	11	74518487	74518487	1	-0.332186
S0032	11	74631702	78665617	39	0.000000
S0032	11	78910058	79390131	8	0.725602
S0032	11	79485137	94325963	76	0.000000
S0032	11	94368749	95096815	5	0.335728
S0032	11	95266482	99283671	17	0.000000
S0032	11	99368715	99574547	2	0.271112
S0032	11	100020880	111567655	24	0.000000
S0032	11	111704034	111704034	1	0.447839
S0032	11	112163817	125279382	46	0.000000
S0032	11	125634035	126315727	3	-0.411315
S0032	11	126461758	132509067	29	0.000000
S0032	11	132823545	134044100	4	0.384260
S0032	12	1287872	9923917	23	0.352065
S0032	12	10421192	12210328	14	0.660871
S0032	12	12271166	29815195	73	0.352065
S0032	12	30013127	30499387	4	1.496995
S0032	12	30818556	31093789	2	3.326643
S0032	12	31099949	40274602	17	1.496995
S0032	12	40336494	43126980	11	0.352065
S0032	12	43209302	81833380	185	-0.001363
S0032	12	81844493	84382650	14	1.785336
S0032	12	84544531	84918749	3	-0.001363
S0032	12	85048219	109328904	71	0.460541
S0032	12	109974404	110877174	8	-0.773782
S0032	12	110885663	112861988	8	-0.001363
S0032	12	113138261	113138261	1	0.095224
S0032	12	113397691	121697690	35	-0.001363
S0032	12	122642163	122642163	1	0.420310
S0032	12	122765425	133161346	25	-0.001363
S0032	13	19538886	22294117	15	-0.170400
S0032	13	22397453	39648018	65	2.354044
S0032	13	40554922	69879945	84	-0.170400
S0032	13	70270009	70419018	3	-0.822952
S0032	13	71347258	90869494	66	-0.170400
S0032	13	90894620	98271386	21	0.226575
S0032	13	98350327	98350327	1	-0.533355
S0032	13	98754943	102856506	20	0.226575
S0032	13	102882086	107362208	17	0.468327
S0032	13	108123497	114981574	33	0.226575
S0032	14	20825965	35048642	71	0.000000
S0032	14	35311086	37104047	9	0.359941
S0032	14	37423627	66287974	115	0.000000
S0032	14	67274691	67274691	1	-0.484862
S0032	14	67554120	97288251	84	0.000000
S0032	14	98028428	99195871	3	0.478349
S0032	14	99493118	105492159	29	0.000000
S0032	14	105690735	105690735	1	-1.114516
S0032	15	23733544	41132778	40	0.000000
S0032	15	41428925	41428925	1	-0.072291
S0032	15	41669234	50523819	26	0.583517
S0032	15	50648711	51503005	5	0.655808
S0032	15	51660546	51882273	2	1.284320
S0032	15	52111901	53849690	9	0.655808
S0032	15	53855925	53855925	1	1.168223
S0032	15	53867515	54308635	3	0.655808
S0032	15	54411690	56553590	8	0.167175
S0032	15	56822403	59085055	10	0.655808
S0032	15	59365458	59365458	1	2.452848
S0032	15	59389466	69673728	37	0.655808
S0032	15	70004352	70079542	2	0.848303
S0032	15	70385112	74760733	9	0.655808
S0032	15	74838757	80665955	17	0.117809
S0032	15	80686251	85311062	15	0.655808
S0032	15	85721440	86350508	5	0.275085
S0032	15	87150106	101214182	61	0.000000
S0032	16	655262	3618856	16	0.005963
S0032	16	3851225	3851225	1	-0.521047
S0032	16	4345917	31692173	89	0.005963
S0032	16	31850299	46891253	4	0.294820
S0032	16	46900438	70723314	107	0.005963
S0032	16	70757555	73331696	6	0.244087
S0032	16	73817834	80246643	29	0.005963
S0032	16	80722556	80722556	1	-0.321412
S0032	16	80779181	89371839	34	0.005963
S0032	17	1243941	39346518	193	-0.001334
S0032	17	39647368	44903953	29	0.000000
S0032	17	45347892	51792862	47	-0.626616
S0032	17	51847660	52947422	12	0.000000
S0032	17	52968458	54190386	12	0.282701
S0032	17	54201431	59929104	54	0.000000
S0032	17	59939798	59939895	2	-0.508822
S0032	17	59985874	62304122	23	0.000000
S0032	17	62481111	62487308	2	-0.059543
S0032	17	62516890	80917016	132	0.000000
S0032	18	331827	3337001	10	0.000000
S0032	18	3385059	5705516	14	0.257203
S0032	18	6786443	7509230	3	0.716547
S0032	18	7791194	8713774	2	0.257203
S0032	18	9108126	11489920	14	-0.288955
S0032	18	11503484	11503484	1	0.257203
S0032	18	12039400	19496983	9	0.421769
S0032	18	20554819	20554819	1	0.738982
S0032	18	21336098	28783688	29	0.421769
S0032	18	29597447	29637649	2	0.135316
S0032	18	29688986	45909012	48	0.421769
S0032	18	45946275	72937113	82	0.257203
S0032	18	74282531	77003733	11	0.000000
S0032	19	412730	28792480	126	0.000000
S0032	19	28795713	32038730	27	0.327914
S0032	19	32162212	34889549	15	-0.384603
S0032	19	35061250	57962714	111	0.327914
S0032	19	58050264	58050264	1	0.774058
S0032	19	58112435	58852835	6	0.446143
S0032	20	545941	594693	2	0.000000
S0032	20	750004	4190524	20	0.972925
S0032	20	4191058	10418801	32	0.000000
S0032	20	10538202	10538202	1	-1.562850
S0032	20	11086630	50567582	208	0.000000
S0032	20	50812093	53223330	24	0.481600
S0032	20	53584624	53584624	1	0.000000
S0032	20	53642387	55436095	17	0.183730
S0032	20	55452732	55452732	1	0.486428
S0032	20	55527775	60968894	57	0.183730
S0032	20	60969785	60969785	1	0.012037
S0032	20	61164753	62215372	9	0.183730
S0032	21	15946408	29066725	61	-0.078267
S0032	21	29142212	29142212	1	0.415616
S0032	21	29613044	30585507	7	-0.078267
S0032	21	30832471	31736157	8	0.316212
S0032	21	31990098	40322544	37	-0.078267
S0032	21	40621569	40621569	1	0.174865
S0032	21	40693623	41854081	9	-0.078267
S0032	21	42069068	46121817	26	2.396320
S0032	21	46615352	47323522	3	-0.078267
S0032	22	17520371	30618439	34	0.000000
S0032	22	30715471	30715471	1	0.332868
S0032	22	30779767	35442415	28	0.000000
S0032	22	35536052	35841037	4	0.103895
S0032	22	35855804	41540963	26	0.000000
S0032	22	41880770	41880770	1	0.555828
S0032	22	42245790	43443952	6	0.000000
S0032	22	43614266	43866131	4	-0.568091
S0032	22	44248504	48492663	26	0.000000
S0032	22	49146540	49329633	4	-0.489204
S0032	X	3343638	19311740	28	1.276407
S0032	X	19346385	21434667	6	2.344498
S0032	X	21590118	21590118	1	1.840010
S0032	X	22031197	40210451	43	2.344498
S0032	X	41108897	44483797	7	1.276407
S0032	X	46460615	63007001	39	2.581254
S0032	X	63011442	63011442	1	3.173296
S0032	X	63265770	63298667	2	2.581254
S0032	X	63472146	63472146	1	3.132831
S0032	X	63773164	65523656	8	2.581254
S0032	X	66945740	67430481	3	3.674971
S0032	X	67563500	79210534	23	2.581254
S0032	X	79240479	145071828	148	1.276407
S0032	X	145167102	152813436	14	1.590517
S0032	X	152834160	153689045	9	1.276407
