ID	chr	start	end	a	LogR
S0056	1	3252007	6254460	10	-0.095411
S0056	1	6569286	17833145	40	-0.382678
S0056	1	18233159	26355640	37	-0.095411
S0056	1	26410147	26410147	1	0.249481
S0056	1	26433267	30619205	16	-0.095411
S0056	1	30930479	60577064	128	-0.090838
S0056	1	60874472	63491780	20	0.929490
S0056	1	63684460	89492528	102	0.972476
S0056	1	89527660	113501475	86	-0.047852
S0056	1	113862503	114166561	5	-0.689201
S0056	1	114198979	119269869	26	-0.047852
S0056	1	119333813	153423248	23	-0.052425
S0056	1	153804336	154225344	4	-0.651529
S0056	1	154818353	172774067	84	-0.418613
S0056	1	172800805	178731088	16	0.180491
S0056	1	179339415	180562544	6	-0.052425
S0056	1	180740024	192370899	33	0.284000
S0056	1	192424787	195934306	10	-0.326467
S0056	1	196105809	210387562	63	0.284000
S0056	1	211016418	234930171	81	-0.052425
S0056	1	235125182	240207638	20	-0.267956
S0056	1	240231725	247785294	19	-0.052425
S0056	2	548277	20623016	53	-0.778693
S0056	2	20690249	42773755	55	0.000000
S0056	2	42942067	42995862	2	0.422686
S0056	2	43242307	51651967	36	0.000000
S0056	2	51659710	70015181	50	0.013700
S0056	2	70063527	85332445	35	0.186308
S0056	2	86165443	107434324	42	0.172607
S0056	2	107442374	107692248	2	-0.195589
S0056	2	107777511	119840651	36	0.172607
S0056	2	120598746	120598746	1	-0.424183
S0056	2	121306592	121392265	2	0.000000
S0056	2	121802396	121802396	1	0.296594
S0056	2	122046743	123890609	7	0.000000
S0056	2	127492191	141387793	31	0.754765
S0056	2	141754154	147344514	20	0.000000
S0056	2	148296641	148775578	3	0.865229
S0056	2	151227237	159180134	18	0.000000
S0056	2	159377524	165816905	25	-0.358228
S0056	2	166019848	166019848	1	-0.840789
S0056	2	166024128	169763148	14	-0.358228
S0056	2	170146412	175558804	14	-0.724923
S0056	2	175872257	180217502	10	-0.366695
S0056	2	180518155	190464596	30	0.000000
S0056	2	190500817	190503961	2	0.811796
S0056	2	190654761	222965927	85	0.000000
S0056	2	223021101	227983436	14	0.492548
S0056	2	228000136	230538100	7	0.000000
S0056	2	231046602	231097129	2	-2.007689
S0056	2	231224255	233349210	6	-1.382091
S0056	2	233420276	233420276	1	-2.007689
S0056	2	233460204	242217627	34	0.000000
S0056	3	3362137	11700480	22	0.524986
S0056	3	11798039	12802182	6	1.076377
S0056	3	13446498	43810960	93	0.524986
S0056	3	43895115	43990451	2	-0.283142
S0056	3	43994802	55927681	40	0.524986
S0056	3	56519323	65597198	28	0.246937
S0056	3	65613957	66526184	2	2.159161
S0056	3	66645221	71219794	19	0.246937
S0056	3	71254193	73427609	11	-0.301068
S0056	3	73489259	84168160	44	0.246937
S0056	3	84333246	95035704	30	-0.041957
S0056	3	95038404	95038404	1	0.290198
S0056	3	95155082	119017382	79	-0.041957
S0056	3	119089008	119773933	4	0.373914
S0056	3	119869509	122916963	6	1.042985
S0056	3	122939157	130673332	22	0.373914
S0056	3	130930654	170389631	109	-0.041957
S0056	3	170840155	187264570	52	0.160554
S0056	3	187350273	187350273	1	-0.738726
S0056	3	187639162	197212100	35	0.160554
S0056	4	1059202	2211995	4	0.368234
S0056	4	2236199	2285710	2	0.864071
S0056	4	2721132	42718502	115	0.368234
S0056	4	43424930	43424930	1	-0.297632
S0056	4	43610300	46654922	16	0.368234
S0056	4	47289588	62391854	30	0.540699
S0056	4	63418183	71427724	28	0.368234
S0056	4	71572497	72385043	2	1.125926
S0056	4	72495287	91263496	68	0.368234
S0056	4	91574079	91574079	1	-0.061218
S0056	4	91774975	119698635	65	0.368234
S0056	4	119939312	120253853	2	1.009874
S0056	4	120285139	125851962	14	0.368234
S0056	4	126356626	131939505	14	0.140676
S0056	4	132401228	136084749	10	0.850608
S0056	4	136089879	137682275	3	-0.078846
S0056	4	138192283	149431616	36	0.140676
S0056	4	150196361	150196361	1	0.601012
S0056	4	150256678	152976331	8	0.140676
S0056	4	153099273	154705836	10	0.485365
S0056	4	154772946	182183915	67	0.140676
S0056	4	182784721	182784721	1	0.492245
S0056	4	182892047	188763651	17	0.140676
S0056	5	1325767	72349984	203	0.004181
S0056	5	73207923	73382351	2	-0.180834
S0056	5	73392666	84712956	29	0.004181
S0056	5	85002907	128294981	74	0.000000
S0056	5	128867885	139906070	23	0.216304
S0056	5	140121428	179730478	105	0.000000
S0056	6	1057482	14071414	65	0.004662
S0056	6	14131867	18138827	16	0.480739
S0056	6	18186730	20424359	16	0.004662
S0056	6	20468635	20589370	2	-0.474272
S0056	6	20647660	54179431	115	0.004662
S0056	6	54185689	54185689	1	-0.624277
S0056	6	54495166	67923159	48	0.004662
S0056	6	68061429	68061429	1	0.268628
S0056	6	68399382	70326617	8	0.004662
S0056	6	70572354	72642388	9	0.556685
S0056	6	73531644	73531644	1	0.036296
S0056	6	73914827	97312171	77	0.556685
S0056	6	97312559	97426622	3	1.227516
S0056	6	97453983	105971582	30	0.556685
S0056	6	106036151	112295332	20	0.279590
S0056	6	112454245	116718123	21	0.556685
S0056	6	116721475	116721475	1	1.346327
S0056	6	116838022	122272781	25	0.556685
S0056	6	122451903	151405377	136	0.004662
S0056	6	151665009	151665009	1	-1.235180
S0056	6	151704694	170872572	79	0.004662
S0056	7	863293	1497115	2	0.000000
S0056	7	1821278	11975718	30	-0.012975
S0056	7	12138648	12328765	3	-0.214125
S0056	7	12339360	13080760	3	0.082181
S0056	7	13308486	13728264	5	-0.214125
S0056	7	13746466	23788659	30	-0.012975
S0056	7	24182997	24182997	1	-0.798227
S0056	7	24302257	68445075	128	-0.012975
S0056	7	68684145	68684145	1	-0.211984
S0056	7	68778193	85390679	39	-0.012975
S0056	7	85682920	92492398	14	0.000000
S0056	7	92624407	92624407	1	0.306897
S0056	7	93360885	137438030	97	0.000000
S0056	7	137954598	137954598	1	0.364975
S0056	7	138773056	150115228	33	0.000000
S0056	7	150210148	150412317	2	0.387515
S0056	7	150460708	158215549	29	0.000000
S0056	8	618552	1633222	6	1.723234
S0056	8	2113554	3665576	8	2.570039
S0056	8	3736348	14607919	35	1.846962
S0056	8	15146803	15393380	3	1.193109
S0056	8	15770950	17463001	12	1.846962
S0056	8	17501615	25281360	30	2.166910
S0056	8	25489096	32340448	52	1.785664
S0056	8	32377064	34753533	18	1.854267
S0056	8	34775398	35617028	10	1.496616
S0056	8	35693285	35935190	4	2.131141
S0056	8	35966595	35966595	1	2.488792
S0056	8	36022676	42330102	83	1.978615
S0056	8	42356369	55941658	44	2.787974
S0056	8	56421762	58275695	12	3.479815
S0056	8	58427630	59798998	9	2.776365
S0056	8	59804500	62011683	10	0.867866
S0056	8	62484574	63467199	5	0.145544
S0056	8	63643215	64516925	6	0.867866
S0056	8	64683815	65915827	5	1.522680
S0056	8	66057858	67777319	7	0.830839
S0056	8	67828252	74268575	34	0.569020
S0056	8	74450406	74450406	1	-0.836185
S0056	8	74492466	79908269	22	0.569020
S0056	8	79919546	82091811	11	0.881662
S0056	8	82146585	89038619	37	2.277333
S0056	8	89130983	91510134	10	2.980782
S0056	8	91619162	91619162	1	3.771663
S0056	8	91817535	92412174	7	2.980782
S0056	8	92838408	95963798	14	3.242602
S0056	8	96018682	100243413	20	4.636339
S0056	8	100557356	110075358	44	3.240668
S0056	8	110097565	113534195	13	1.846932
S0056	8	113617156	113766048	2	0.383328
S0056	8	113872098	114511921	3	1.846932
S0056	8	114592701	135443791	110	1.911689
S0056	8	135486340	136071383	4	1.277164
S0056	8	136091070	140793859	24	0.622351
S0056	8	141399664	145147978	8	0.557593
S0056	9	905450	16680901	66	0.000000
S0056	9	16706012	16706012	1	-0.725352
S0056	9	17210514	99605892	171	0.000000
S0056	9	100110179	105501545	14	-0.267974
S0056	9	106288607	118714293	38	0.000000
S0056	9	119095150	119095150	1	1.337134
S0056	9	119445411	120423894	6	0.000000
S0056	9	120891637	130008654	32	0.608365
S0056	9	130070549	140599989	51	0.000000
S0056	10	466220	24134003	75	-0.193833
S0056	10	24483463	24634956	3	-0.600131
S0056	10	25925814	30571179	15	-0.193833
S0056	10	30791330	33860229	9	0.306796
S0056	10	34561923	44848921	40	-0.193833
S0056	10	44855927	49805368	5	0.152107
S0056	10	49944249	50014328	2	-0.193833
S0056	10	50840698	50840698	1	0.284616
S0056	10	50932371	61295218	22	-0.193833
S0056	10	61338267	61465327	3	-0.524939
S0056	10	61540166	63528522	9	-0.193833
S0056	10	63529023	71887884	37	0.564991
S0056	10	72011395	76537811	20	2.015112
S0056	10	76614500	77637866	10	1.256288
S0056	10	77781146	89443310	50	-0.193833
S0056	10	89549252	89549252	1	0.146690
S0056	10	89671563	89671563	1	-0.193833
S0056	10	89676419	89676419	1	-0.783869
S0056	10	89741806	110933214	66	-0.193833
S0056	10	111406513	112223286	3	-3.479858
S0056	10	112371565	114832672	15	-0.193833
S0056	10	115168922	115168922	1	-0.957824
S0056	10	115488889	115488889	1	-1.168825
S0056	10	116654574	126289540	35	-0.404833
S0056	10	126404652	132957703	39	-0.856564
S0056	10	133079490	135124948	5	-2.379860
S0056	11	577454	12830876	48	0.000000
S0056	11	12893517	38060464	106	-0.033457
S0056	11	38337576	38337576	1	0.302675
S0056	11	38473730	43696917	31	-0.033457
S0056	11	43709965	44848050	5	0.000000
S0056	11	44926820	45391556	4	-0.374585
S0056	11	45538879	56180386	16	0.000000
S0056	11	56228448	61469728	42	0.173094
S0056	11	61494804	64261102	30	-0.194117
S0056	11	64409281	68022006	18	0.081971
S0056	11	68057342	68388588	5	0.449182
S0056	11	68490361	68490361	1	0.895714
S0056	11	68660797	75625849	73	0.449182
S0056	11	75769421	75769421	1	0.010673
S0056	11	75900527	75900527	1	-0.413342
S0056	11	76040463	79485137	35	0.010673
S0056	11	79615720	82908161	28	-0.265415
S0056	11	82976278	86243133	16	-0.438510
S0056	11	86447556	86447556	1	-0.977320
S0056	11	86813118	86816438	2	0.058939
S0056	11	86991733	96117873	41	-0.438510
S0056	11	96907109	96908425	2	-0.184221
S0056	11	97046879	101161048	15	-0.438510
S0056	11	102486681	104728919	3	0.151034
S0056	11	104914969	117183632	35	-0.438510
S0056	11	117661100	117909096	2	0.876177
S0056	11	117985888	134044100	61	-0.438510
S0056	12	1287872	1911830	2	1.086409
S0056	12	1911860	1911860	1	1.546542
S0056	12	2140625	18540171	67	1.086409
S0056	12	18562257	18562257	1	1.321873
S0056	12	18573912	31093789	45	1.086409
S0056	12	31099949	31414473	3	2.083778
S0056	12	31839776	50344733	53	1.086409
S0056	12	50472832	53019394	14	0.943684
S0056	12	53022513	53022513	1	1.707138
S0056	12	53357623	63205232	41	0.943684
S0056	12	63207615	63765072	5	0.335883
S0056	12	63768062	65779945	8	0.019347
S0056	12	66006488	67969929	12	0.335883
S0056	12	68020404	69102115	7	0.760954
S0056	12	69244388	69528385	8	0.335883
S0056	12	69723709	69723709	1	1.136379
S0056	12	69785748	87043048	93	0.335883
S0056	12	87472665	112861988	71	0.478609
S0056	12	113138261	116874676	11	-1.054682
S0056	12	117017512	119515037	16	0.478609
S0056	12	120045310	120045310	1	0.019258
S0056	12	120106376	133161346	34	0.478609
S0056	13	19538886	22397453	16	0.000000
S0056	13	22483744	24109415	8	0.339234
S0056	13	24578032	30225686	22	0.000000
S0056	13	30611956	30611956	1	0.326875
S0056	13	30635375	50114491	63	0.000000
S0056	13	50414887	54056192	9	0.409747
S0056	13	54600126	91072385	116	0.000000
S0056	13	91300138	98903477	23	-0.451976
S0056	13	100103895	101473697	8	-1.711463
S0056	13	101591831	101591831	1	-2.444481
S0056	13	101890435	106431828	24	-1.711463
S0056	13	107362208	114981574	34	-1.259487
S0056	14	20825965	31020786	45	-0.858267
S0056	14	31467838	31804510	3	0.138386
S0056	14	31861361	32284877	4	-0.858267
S0056	14	32392494	44794647	61	-0.294033
S0056	14	45071500	47609858	8	-0.911788
S0056	14	47654534	54355193	28	-0.294033
S0056	14	54468386	54727235	2	-0.765745
S0056	14	54903842	59006804	18	-0.294033
S0056	14	59208542	59208542	1	0.996363
S0056	14	59220001	65088374	19	-0.294033
S0056	14	65217224	65775303	5	-0.858267
S0056	14	66287974	66287974	1	-0.498718
S0056	14	67274691	68820853	4	-0.858267
S0056	14	68880422	69200457	7	-1.885268
S0056	14	69392881	97288251	74	-0.858267
S0056	14	98028428	99551119	5	-0.037998
S0056	14	100453128	105690735	28	-0.858267
S0056	15	23733544	39834197	37	-0.011837
S0056	15	41011738	41132778	3	0.060841
S0056	15	41428925	46236144	13	-0.011837
S0056	15	46619133	47023062	2	0.509210
S0056	15	47063289	88616092	142	-0.011837
S0056	15	88770374	99051196	44	-0.187888
S0056	15	99408970	101214182	11	0.738353
S0056	16	655262	11870494	51	0.000000
S0056	16	12084047	13609820	5	-0.560365
S0056	16	13873985	85999992	220	0.000000
S0056	16	86029293	86029293	1	0.267095
S0056	16	86149217	89371839	10	0.000000
S0056	17	1243941	18180615	75	0.000000
S0056	17	18205290	19859688	7	0.555618
S0056	17	19864787	28118435	28	0.000000
S0056	17	28187272	37046871	56	-1.305847
S0056	17	37081707	62304122	206	0.000000
S0056	17	62481111	64910303	21	-0.117785
S0056	17	64913220	65042616	3	0.000000
S0056	17	65176527	65593833	4	2.236234
S0056	17	65838589	80917016	106	0.000000
S0056	18	331827	3915046	16	-0.445565
S0056	18	4112842	27543565	62	-0.977698
S0056	18	27641288	28135234	3	-0.594248
S0056	18	28711519	34917461	24	-0.977698
S0056	18	34949544	35654573	4	-1.594398
S0056	18	36637118	46583734	28	-0.977698
S0056	18	46852115	64630731	52	-0.445565
S0056	18	64950093	64950093	1	0.369163
S0056	18	65004338	77003733	36	-0.445565
S0056	19	412730	17876535	94	0.000000
S0056	19	17899886	18855724	10	1.312922
S0056	19	18951139	58852835	182	0.000000
S0056	20	545941	44332873	215	-0.155752
S0056	20	44407697	45766329	7	-0.343204
S0056	20	45797639	55433512	82	-0.155752
S0056	20	55436095	56307417	16	-1.205661
S0056	20	56314077	58472781	23	-0.155752
S0056	20	58618251	58629775	2	-1.037527
S0056	20	58660261	62215372	28	-0.155752
S0056	21	15946408	18132867	16	0.577383
S0056	21	18264025	25077895	29	0.347667
S0056	21	25217566	25217566	1	0.819784
S0056	21	25900645	30864812	25	0.347667
S0056	21	30910306	38118420	34	-0.206415
S0056	21	38246278	38734810	2	0.741479
S0056	21	39039566	47323522	46	-0.206415
S0056	22	17520371	49329633	134	-0.385903
S0056	X	3343638	5832488	2	1.515574
S0056	X	5964716	5964716	1	0.726491
S0056	X	10599697	13348682	10	1.515574
S0056	X	13482558	23726805	24	3.556967
S0056	X	23803198	24066352	3	3.888316
S0056	X	24261585	24261585	1	1.846923
S0056	X	25692582	30493231	16	1.310569
S0056	X	30495763	31513228	4	3.000908
S0056	X	31517385	41217251	19	1.310569
S0056	X	41396705	41396705	1	1.573249
S0056	X	44223152	97134063	129	1.310569
S0056	X	97589423	117573400	38	1.886393
S0056	X	118220720	133636334	37	1.475281
S0056	X	134079072	143778621	19	1.680286
S0056	X	144303700	150207610	12	1.104462
S0056	X	150449981	153689045	17	1.515574
