ID	chr	start	end	a	LogR
S0058	1	3252007	8670296	20	-1.527436
S0058	1	9062952	23545787	55	-1.253493
S0058	1	23756155	27408134	15	-0.842677
S0058	1	27704890	28365073	6	0.325200
S0058	1	28712545	28712545	1	1.699770
S0058	1	29007668	29747649	2	2.098239
S0058	1	29795985	32136398	12	1.699770
S0058	1	32213655	34852005	13	2.140614
S0058	1	34888152	58820399	102	1.699770
S0058	1	59014830	59014830	1	2.673186
S0058	1	59286656	59286656	1	2.310812
S0058	1	59453334	83057803	88	2.673186
S0058	1	83100438	83999604	6	4.569617
S0058	1	84390011	87904460	20	5.318809
S0058	1	87965176	87965176	1	4.117971
S0058	1	88198343	90285190	15	5.318809
S0058	1	90830351	93066417	6	3.422378
S0058	1	93265369	97749248	27	3.015036
S0058	1	99326344	99532176	2	3.768634
S0058	1	100220425	101580334	5	2.616300
S0058	1	101604401	105271741	13	3.015036
S0058	1	105641571	105641571	1	2.265844
S0058	1	106465385	107602612	4	2.971150
S0058	1	107946650	109515028	11	1.997734
S0058	1	109689314	111726897	8	1.292428
S0058	1	112208653	112208653	1	1.642676
S0058	1	112595913	119988111	42	1.292428
S0058	1	120060094	154225344	20	-0.082142
S0058	1	154818353	155274960	4	-0.876635
S0058	1	155467277	158567866	21	-0.469292
S0058	1	158604143	169686322	51	0.325200
S0058	1	170126741	199642205	86	2.143519
S0058	1	199642997	247203657	167	0.325200
S0058	1	247208534	247785294	3	0.140053
S0058	2	548277	20270099	52	0.104456
S0058	2	20623016	23865014	8	-0.481971
S0058	2	23865176	30954621	28	0.104456
S0058	2	32026885	46423447	36	0.336380
S0058	2	46556633	49447719	12	0.104456
S0058	2	49608957	49608957	1	0.660284
S0058	2	49863171	81615539	85	0.104456
S0058	2	82049704	82049704	1	-0.750540
S0058	2	82492283	102042298	33	0.104456
S0058	2	103428694	103865288	4	-1.556454
S0058	2	103884567	121802396	55	0.104456
S0058	2	122046743	139228359	33	0.000000
S0058	2	139436436	141273786	4	0.645434
S0058	2	141387793	147017390	20	-0.149855
S0058	2	147344514	159642876	28	-0.809269
S0058	2	159670945	161368905	5	0.373621
S0058	2	161802470	176883074	46	-0.809269
S0058	2	177902066	180217502	7	1.127767
S0058	2	180518155	190503961	32	-0.809269
S0058	2	190654761	192386863	11	-0.659414
S0058	2	192413455	214204933	56	-0.343008
S0058	2	214267030	231224255	42	0.316406
S0058	2	231625970	232768558	3	0.972808
S0058	2	233048661	242217627	37	0.000000
S0058	3	3362137	11258238	21	-0.392493
S0058	3	11700480	15990231	23	0.000000
S0058	3	16117428	34598590	52	-0.232092
S0058	3	34719374	39488878	9	0.106522
S0058	3	40522780	43810960	16	-0.232092
S0058	3	43895115	43895115	1	-1.933143
S0058	3	43990451	49903065	25	-0.232092
S0058	3	50217093	69188122	57	0.000000
S0058	3	69310582	71492015	10	-0.421195
S0058	3	71583552	76904185	22	0.000000
S0058	3	77081899	77081899	1	-0.468999
S0058	3	77233479	149964309	222	0.000000
S0058	3	150021144	151976445	7	-0.190361
S0058	3	152032495	156535404	16	0.000000
S0058	3	156616684	156616684	1	-2.705804
S0058	3	156732685	197212100	123	0.000000
S0058	4	1059202	19194753	69	0.117046
S0058	4	19889325	74555066	145	-0.154685
S0058	4	74617243	78648827	12	-0.414051
S0058	4	78879461	79901540	8	2.445229
S0058	4	80452832	80640297	2	2.704595
S0058	4	81294121	86909213	17	2.554597
S0058	4	87162055	106076726	55	-0.304682
S0058	4	106297189	109938230	12	-0.762299
S0058	4	110320011	114090005	4	-0.304682
S0058	4	114679294	115434478	3	-0.154685
S0058	4	115759582	139998368	57	0.117046
S0058	4	141277309	144358766	14	0.402897
S0058	4	144757842	159291059	44	0.721030
S0058	4	159574963	188763651	73	0.402897
S0058	5	1325767	12589944	41	0.254947
S0058	5	12629951	12629951	1	-0.628565
S0058	5	14290274	29849398	45	0.254947
S0058	5	31776025	31776025	1	-0.842508
S0058	5	31863958	33814173	8	0.254947
S0058	5	33913565	35766895	6	0.485297
S0058	5	35790727	37721865	10	0.254947
S0058	5	37832798	56819519	54	0.418407
S0058	5	56947271	93401028	77	0.404783
S0058	5	94266363	94931333	2	2.102541
S0058	5	95192776	95192776	1	0.404783
S0058	5	95193616	98413595	5	0.241323
S0058	5	99848334	148736790	92	0.134975
S0058	5	148846557	161571099	29	-1.681236
S0058	5	161636777	172870287	38	0.134975
S0058	5	172928450	172928450	1	-2.913344
S0058	5	172975519	176771123	16	0.134975
S0058	5	177559143	177559143	1	0.434493
S0058	5	177568839	179730478	8	0.134975
S0058	6	1057482	9392644	45	0.000000
S0058	6	9729745	9729745	1	0.376826
S0058	6	10109191	20374128	48	0.000000
S0058	6	20391083	22215692	16	0.084492
S0058	6	22310741	22310741	1	-0.197902
S0058	6	22346116	55255927	110	0.084492
S0058	6	55264290	55958997	6	-0.180932
S0058	6	56075203	67525691	34	-0.495481
S0058	6	67544604	82587813	47	-0.180932
S0058	6	82747845	86098984	12	-0.717146
S0058	6	87230664	87230664	1	-0.323810
S0058	6	87236328	106997897	76	-0.717146
S0058	6	107120782	107766968	5	-1.137560
S0058	6	107807880	109441596	4	-1.880457
S0058	6	109665903	111124065	3	-1.544535
S0058	6	111401665	112793278	7	-0.801638
S0058	6	112825972	113516734	2	-0.265424
S0058	6	113626773	113832110	3	0.000000
S0058	6	114009667	134437149	94	-0.187148
S0058	6	134466694	134484073	2	-0.348605
S0058	6	134651992	137937059	12	2.314663
S0058	6	137965418	138691483	6	-0.348605
S0058	6	138728220	149946472	52	-0.187148
S0058	6	150002045	150514249	2	-0.539346
S0058	6	150514288	164147217	66	-0.187148
S0058	6	164629657	166049430	7	-1.015208
S0058	6	166352212	170872572	13	-0.187148
S0058	7	863293	63795406	189	0.390652
S0058	7	63954791	64422660	3	0.861743
S0058	7	64443401	158215549	227	0.390652
S0058	8	618552	19893047	82	-0.061872
S0058	8	20871759	28409165	29	-0.450316
S0058	8	28412463	30503371	22	-0.715259
S0058	8	30606972	50401159	145	-0.618741
S0058	8	50599283	50599283	1	0.191978
S0058	8	50604608	57106654	31	-0.598307
S0058	8	57347126	58427630	9	1.261285
S0058	8	58595165	59804500	9	3.675059
S0058	8	59875307	61276247	6	1.261285
S0058	8	61705846	71338750	47	-0.598307
S0058	8	71673725	77864399	26	-0.209863
S0058	8	78550231	81423801	19	-0.526992
S0058	8	81520237	89259873	41	-0.209863
S0058	8	89505027	89505027	1	-0.836211
S0058	8	90022416	102436045	61	-0.209863
S0058	8	102458149	111860724	40	2.065798
S0058	8	111980415	119029871	36	-0.209863
S0058	8	119151423	122691742	15	0.580422
S0058	8	122723104	122723104	1	0.780386
S0058	8	122904905	127308157	26	0.580422
S0058	8	127371524	127958586	4	1.492021
S0058	8	128086643	129279836	7	0.717685
S0058	8	129681897	129812382	2	0.580422
S0058	8	130006472	145147978	65	-0.230297
S0058	9	905450	14480820	52	0.575989
S0058	9	14565982	38058424	110	0.000000
S0058	9	38396502	77817114	18	-0.658146
S0058	9	77898483	77989247	2	-2.576129
S0058	9	78272025	78580233	2	-1.551379
S0058	9	78965491	81021288	6	-0.658146
S0058	9	82069672	112027488	75	-0.894753
S0058	9	112296403	113728251	5	-0.236606
S0058	9	113920798	124818049	42	0.000000
S0058	9	125016823	131237894	23	-0.012913
S0058	9	131264543	140599989	45	0.273156
S0058	10	466220	5580628	18	-0.330236
S0058	10	5864304	7523002	6	0.521721
S0058	10	8114747	8114747	1	1.901038
S0058	10	8220731	10443187	11	0.521721
S0058	10	10831412	10973316	2	-0.330236
S0058	10	11163783	11163783	1	0.597237
S0058	10	11175462	39045746	91	-0.330236
S0058	10	43465021	56329106	32	0.065174
S0058	10	58578720	60039877	7	0.395410
S0058	10	60606488	65562586	29	0.070801
S0058	10	65994428	72011395	24	-0.324609
S0058	10	72081023	73858399	8	1.535056
S0058	10	73928530	92823350	91	-0.324609
S0058	10	92842084	93955851	6	0.000000
S0058	10	94004562	97946542	9	0.399832
S0058	10	98056598	101146374	12	0.000000
S0058	10	101632915	101632915	1	0.361439
S0058	10	101940090	113049763	29	0.000000
S0058	10	113094605	113094605	1	0.557523
S0058	10	113224156	122070550	29	0.000000
S0058	10	122317332	122317332	1	0.267513
S0058	10	122405014	135124948	60	0.000000
S0058	11	577454	15101270	57	-0.257496
S0058	11	16047917	16047917	1	-0.894714
S0058	11	16061965	34134297	84	-0.257496
S0058	11	34478583	57547437	78	0.403001
S0058	11	57845257	60527922	25	0.247067
S0058	11	60564804	61144819	7	2.001815
S0058	11	61469728	62205537	11	2.400056
S0058	11	62468450	69873977	60	0.645308
S0058	11	69920134	70820759	9	3.658550
S0058	11	70841890	70990454	4	4.163444
S0058	11	71057464	71057464	1	4.376653
S0058	11	71071509	71279222	6	3.871759
S0058	11	71352139	77445718	52	0.858517
S0058	11	77589467	78179058	4	0.495034
S0058	11	78254486	79244715	15	0.858517
S0058	11	79360883	82823967	29	0.198020
S0058	11	82834855	90628841	33	-0.015189
S0058	11	90660860	95372979	24	-0.710246
S0058	11	95402685	113292331	46	-0.015189
S0058	11	113472938	134044100	77	0.140745
S0058	12	1287872	10819935	26	1.956812
S0058	12	10928179	32224948	95	0.000000
S0058	12	32227953	32452817	4	0.471840
S0058	12	32846983	32846983	1	0.000000
S0058	12	33071290	33071290	1	0.269851
S0058	12	33221491	63205232	101	0.000000
S0058	12	63207615	63251395	2	0.668752
S0058	12	63464061	72672823	64	0.000000
S0058	12	72719550	74687675	9	0.372328
S0058	12	74844696	74844696	1	0.678818
S0058	12	74866713	80040489	23	0.372328
S0058	12	80082752	81833380	2	2.203345
S0058	12	81844493	84918749	17	0.372328
S0058	12	85048219	102439418	55	0.000000
S0058	12	102684827	110885663	25	0.667013
S0058	12	111376921	120106376	36	0.000000
S0058	12	120229671	121396420	6	0.290396
S0058	12	121697690	133161346	27	0.000000
S0058	13	19538886	43423390	88	0.007064
S0058	13	44142022	46001441	6	0.428887
S0058	13	46227243	48362973	6	0.007064
S0058	13	48612947	49015456	6	0.290147
S0058	13	49083291	53928207	11	0.007064
S0058	13	53997778	61788961	14	-0.121784
S0058	13	61820662	61820662	1	0.007064
S0058	13	62021486	62026581	2	0.399077
S0058	13	62106608	62454380	2	0.007064
S0058	13	62461153	62461153	1	1.297566
S0058	13	62589215	65196169	13	1.633786
S0058	13	65677031	65877595	2	1.347443
S0058	13	65912181	68959109	7	1.633786
S0058	13	68959626	70414089	7	0.343284
S0058	13	70419018	114981574	159	0.007064
S0058	14	20825965	26717884	24	0.000000
S0058	14	27066063	27066063	1	0.583412
S0058	14	27082086	38837381	71	0.000000
S0058	14	38871931	38934068	2	0.363837
S0058	14	39081588	105690735	215	0.000000
S0058	15	23733544	42767829	46	0.000000
S0058	15	43039063	51882273	28	0.697073
S0058	15	52111901	53675766	8	0.000000
S0058	15	53849690	53867515	3	0.603285
S0058	15	54166511	101214182	167	0.000000
S0058	16	655262	3035041	12	-0.116930
S0058	16	3252779	3618856	4	0.562626
S0058	16	3851225	50443200	111	-0.116930
S0058	16	51007359	51007359	1	-0.577879
S0058	16	51037009	60688335	47	-0.116930
S0058	16	60759829	60759829	1	0.597324
S0058	16	60774193	68805784	31	-0.116930
S0058	16	68811379	70435576	6	0.322340
S0058	16	70436856	73817834	11	-0.116930
S0058	16	74040018	74678276	2	0.120231
S0058	16	74911787	87329704	57	-0.116930
S0058	16	87583253	87583253	1	-0.644286
S0058	16	87765157	89371839	3	-0.116930
S0058	17	1243941	6739629	18	-0.141871
S0058	17	7310822	7404991	2	0.380600
S0058	17	7630020	12677911	26	-0.141871
S0058	17	12771381	12771381	1	0.190342
S0058	17	12814925	18180615	28	-0.141871
S0058	17	18205290	26175872	24	0.888399
S0058	17	26200813	33829958	47	-0.141871
S0058	17	33971208	33971208	1	0.328682
S0058	17	34108080	36952807	17	-0.141871
S0058	17	36953754	37081707	3	-0.496240
S0058	17	37160979	49957482	93	-0.141871
S0058	17	50215881	53352352	29	-0.184970
S0058	17	53400110	54190386	4	0.083700
S0058	17	54201431	62016520	76	-0.184970
S0058	17	62067186	63321572	15	-0.470870
S0058	17	63685659	67420741	29	-0.184970
S0058	17	67978370	68623636	3	-1.002317
S0058	17	68688983	74738008	48	-0.184970
S0058	17	74742805	74742805	1	0.163101
S0058	17	74903777	80917016	41	-0.184970
S0058	18	331827	11384909	42	0.000000
S0058	18	11489920	11503484	2	-0.274125
S0058	18	12039400	34917461	61	0.000000
S0058	18	34949544	41923379	17	-0.659898
S0058	18	42041063	54123922	41	0.000000
S0058	18	54598051	54598051	1	-0.374642
S0058	18	55160632	77003733	62	0.000000
S0058	19	412730	788101	4	-0.641530
S0058	19	967584	967584	1	-1.157793
S0058	19	1014377	8125342	30	-0.641530
S0058	19	8235013	8235013	1	0.193085
S0058	19	8278560	17561454	56	-0.641530
S0058	19	17848705	17876535	2	-3.177328
S0058	19	17899886	30307115	47	-0.641530
S0058	19	30400158	36573381	34	-1.214396
S0058	19	36603742	36603742	1	-1.686390
S0058	19	36947940	36947940	1	-1.044859
S0058	19	36985886	47596677	50	-0.572866
S0058	19	47728913	54890622	32	0.000000
S0058	19	55069964	55069964	1	-0.307252
S0058	19	55209061	58852835	26	0.000000
S0058	20	545941	1759469	10	-0.437443
S0058	20	1815062	2833252	8	0.079807
S0058	20	3324969	7910372	23	-0.437443
S0058	20	8021399	8600767	2	0.152531
S0058	20	8843716	23349749	78	-0.437443
S0058	20	23704288	24676742	9	-0.045230
S0058	20	25110133	35525362	38	-0.437443
S0058	20	35556192	35556192	1	0.278613
S0058	20	35556304	60969785	195	-0.437443
S0058	20	61164753	62215372	9	-0.282929
S0058	21	15946408	43203188	133	-0.727316
S0058	21	43303275	47323522	20	-0.246941
S0058	22	17520371	47407517	123	0.631260
S0058	22	47781662	47781662	1	0.963715
S0058	22	47814553	49329633	10	0.631260
S0058	X	3343638	19745776	32	0.980489
S0058	X	20815209	26901209	14	0.773461
S0058	X	26913250	28070464	6	0.473809
S0058	X	28349311	35017408	17	0.773461
S0058	X	35539639	46999552	24	0.980489
S0058	X	47009193	47384875	2	0.602919
S0058	X	47829019	49144114	3	0.980489
S0058	X	49157398	49157398	1	0.694684
S0058	X	49157582	65414617	34	0.980489
S0058	X	65459223	73118350	21	2.356162
S0058	X	75446408	80872093	19	1.902374
S0058	X	81038081	81983052	3	1.258482
S0058	X	82173899	82596383	5	1.902374
S0058	X	82664712	82804542	3	2.179995
S0058	X	83338499	96599520	23	1.902374
S0058	X	96693058	99736956	8	2.504228
S0058	X	99765411	113090918	27	1.902374
S0058	X	113995993	118913342	11	3.101324
S0058	X	119439802	119439802	1	2.142791
S0058	X	119493332	119493332	1	0.943842
S0058	X	119494354	141408283	42	1.902374
S0058	X	142400322	142733997	3	2.356162
S0058	X	142760091	153641851	32	0.980489
S0058	X	153689045	153689045	1	0.763187
