ID	chr	start	end	a	LogR
S0052	1	3252007	23915669	81	0.000000
S0052	1	24373887	24917543	2	-0.451354
S0052	1	25768937	26278308	3	0.000000
S0052	1	26355640	30384611	16	-0.696697
S0052	1	30569052	40408280	42	0.000000
S0052	1	40496677	40496677	1	0.699074
S0052	1	40612199	43925768	15	1.106496
S0052	1	44034135	88578494	186	0.000000
S0052	1	88625878	90238372	11	-0.161566
S0052	1	90285190	94145216	18	0.134577
S0052	1	94182535	94182535	1	-0.081377
S0052	1	94402263	96873350	11	0.134577
S0052	1	97018734	97018734	1	-0.161566
S0052	1	97280313	99326344	4	-0.588204
S0052	1	99532176	101239376	5	1.138561
S0052	1	101580334	105271741	14	1.565198
S0052	1	105641571	105641571	1	1.205387
S0052	1	106465385	109158513	12	1.565198
S0052	1	109483767	109754718	6	1.421826
S0052	1	109938325	113297497	9	-0.304939
S0052	1	113501475	115734289	10	0.901829
S0052	1	115986104	117656088	13	-0.304939
S0052	1	117690758	156101549	45	-0.161566
S0052	1	156135241	158150056	12	-0.878854
S0052	1	158185244	159646924	10	-0.161566
S0052	1	159881684	160548263	3	1.640480
S0052	1	160803718	162695676	12	-0.161566
S0052	1	162832406	180426280	59	-0.749800
S0052	1	180562544	183099560	7	-0.582353
S0052	1	183255067	189836285	23	-0.420787
S0052	1	190756004	190756004	1	0.072371
S0052	1	191002796	192370899	3	-0.420787
S0052	1	192424787	193225095	6	0.504192
S0052	1	193756420	207871024	53	-0.420787
S0052	1	208036509	226397002	63	0.167446
S0052	1	226886080	226886080	1	0.218894
S0052	1	226891595	231143291	20	0.167446
S0052	1	231991131	231991131	1	0.467749
S0052	1	232244722	247785294	49	0.167446
S0052	2	548277	9310529	19	0.164954
S0052	2	9349055	20270099	33	1.119300
S0052	2	20623016	20690249	2	0.164954
S0052	2	20760365	22196303	4	1.128351
S0052	2	23475786	23865014	2	0.164954
S0052	2	23865176	25160743	8	0.015213
S0052	2	25714916	79785810	150	0.083616
S0052	2	80428800	103884567	43	0.595951
S0052	2	104196439	115334928	39	0.083616
S0052	2	116804084	117401081	2	0.233357
S0052	2	117443759	118741298	4	0.164954
S0052	2	118772515	118772515	1	0.944533
S0052	2	118776345	130525406	25	0.164954
S0052	2	133401746	133401746	1	0.483048
S0052	2	133404586	156059573	52	0.164954
S0052	2	156872170	157970843	4	0.202833
S0052	2	158005798	167749266	40	0.164954
S0052	2	168112627	168507596	2	0.925621
S0052	2	168539925	216806547	134	0.164954
S0052	2	216891619	222965927	10	-0.225966
S0052	2	223021101	230400840	20	0.164954
S0052	2	230538100	230538100	1	2.470150
S0052	2	231046602	233420276	9	0.164954
S0052	2	233460204	240176736	29	0.445139
S0052	2	240952333	242217627	5	0.164954
S0052	3	3362137	29189143	78	-0.032719
S0052	3	29200525	31006125	9	-0.750658
S0052	3	31677989	33180658	5	-0.032719
S0052	3	33437445	41093575	16	0.609320
S0052	3	41098981	41257492	2	0.176219
S0052	3	41269531	43990451	13	0.609320
S0052	3	43994802	66744271	72	0.807272
S0052	3	66786091	82554056	67	0.165232
S0052	3	82855737	95035704	35	0.357800
S0052	3	95038404	106563584	34	0.165232
S0052	3	106928347	108360443	8	0.702702
S0052	3	109459407	112364873	6	0.224915
S0052	3	112390578	127660097	55	-0.312554
S0052	3	127766235	131681178	13	0.165232
S0052	3	131788084	132968294	5	0.580366
S0052	3	133260516	141585594	21	0.165232
S0052	3	141795573	147747105	16	0.744677
S0052	3	147957013	152127354	13	0.096806
S0052	3	152127377	152148553	2	-0.101146
S0052	3	153496585	156535404	12	-0.833427
S0052	3	156616684	156852943	3	0.023159
S0052	3	157125949	158756047	6	-0.833427
S0052	3	159503191	174790418	41	-1.412872
S0052	3	174916360	174916360	1	-1.870768
S0052	3	174960474	180464749	16	-1.412872
S0052	3	181868569	182050907	5	-0.765000
S0052	3	182322914	190988277	35	-3.273296
S0052	3	191132748	195018324	10	-0.765000
S0052	3	195979421	196128882	2	0.910978
S0052	3	196149667	197212100	5	-0.765000
S0052	4	1059202	9993858	43	0.036558
S0052	4	9996852	22264580	30	0.035864
S0052	4	23222053	24035754	2	-0.579016
S0052	4	24379623	44767669	53	0.035864
S0052	4	44775015	44863590	2	-0.235399
S0052	4	44921760	71113633	62	0.035864
S0052	4	71170765	87166256	63	-0.000694
S0052	4	87188215	111050203	67	0.092981
S0052	4	111538827	120253853	12	0.093675
S0052	4	120285139	130320729	24	-0.169822
S0052	4	130456015	156649457	76	-0.263497
S0052	4	156865614	157031865	3	0.930542
S0052	4	157542791	157542791	1	-0.263497
S0052	4	158064499	158064499	1	0.523503
S0052	4	158103424	162009443	14	-0.263497
S0052	4	162548865	166658637	9	1.007822
S0052	4	166936205	171405161	8	-0.263497
S0052	4	172296117	172296117	1	0.079813
S0052	4	173073568	176020166	10	-0.263497
S0052	4	176055295	179012585	6	-0.872192
S0052	4	179154611	181315715	9	-0.263497
S0052	4	182183915	188763651	19	0.000000
S0052	5	1325767	23322967	63	0.309696
S0052	5	23442788	50279255	78	-0.226517
S0052	5	50365051	51501015	4	0.041412
S0052	5	51562410	57820210	26	-0.226517
S0052	5	58040137	59641831	10	0.309696
S0052	5	59973498	59973498	1	-0.043560
S0052	5	60201715	118469707	106	0.309696
S0052	5	118732187	122600585	3	1.791698
S0052	5	122999412	124348233	6	0.309696
S0052	5	124946389	132359978	18	0.780669
S0052	5	132704104	134584588	4	1.841593
S0052	5	134825683	134965171	3	0.780669
S0052	5	135723811	135723811	1	0.473614
S0052	5	136098043	140827234	11	0.780669
S0052	5	141008127	179730478	102	0.309696
S0052	6	1057482	3281414	11	0.000000
S0052	6	4153297	4153297	1	0.663026
S0052	6	4178912	8562117	24	0.000000
S0052	6	8605770	10452107	14	0.604080
S0052	6	10980639	16550913	24	0.195355
S0052	6	16560133	22215692	36	0.604080
S0052	6	22310741	22346116	2	1.008179
S0052	6	22903019	23054094	3	0.404100
S0052	6	23395389	24280101	4	0.767136
S0052	6	24355849	41315236	51	0.363037
S0052	6	41480183	41892809	3	1.891935
S0052	6	41905811	65119572	72	0.363037
S0052	6	65153756	65153756	1	0.809906
S0052	6	65415442	70593803	28	0.363037
S0052	6	70909073	72108361	4	0.697390
S0052	6	72276667	79482550	21	0.363037
S0052	6	79608362	79608362	1	2.028335
S0052	6	79999687	106573372	95	0.363037
S0052	6	106680627	106997897	2	-0.017334
S0052	6	107120782	107807880	6	0.363037
S0052	6	108432641	108432641	1	0.724390
S0052	6	109083558	119419127	42	0.363037
S0052	6	119783000	119783000	1	0.905911
S0052	6	120133537	120133537	1	1.308539
S0052	6	120464931	133499986	62	0.765665
S0052	6	133663636	133663636	1	-0.110264
S0052	6	133666171	138801650	27	0.765665
S0052	6	138921331	139075844	2	1.417324
S0052	6	139076770	139076770	1	1.704799
S0052	6	139143192	158272979	89	0.765665
S0052	6	158894523	160772900	7	0.402629
S0052	6	160908451	169503796	31	0.000000
S0052	6	169503976	170872572	7	-0.571178
S0052	7	863293	41774976	145	-0.081292
S0052	7	42008429	43505075	7	0.333592
S0052	7	43534627	43971990	2	-0.081292
S0052	7	44140119	44301664	2	0.323734
S0052	7	44813496	78398500	67	-0.081292
S0052	7	78708536	78708536	1	0.414324
S0052	7	79333386	158215549	195	-0.081292
S0052	8	618552	6312223	26	0.000000
S0052	8	6460340	9247777	3	2.164167
S0052	8	9271052	28156896	78	0.000000
S0052	8	28255588	28409165	4	-0.317380
S0052	8	28412463	39698408	116	0.000000
S0052	8	39775754	39775754	1	-0.484601
S0052	8	39873720	42004164	29	0.000000
S0052	8	42153509	42797957	9	0.837821
S0052	8	42806506	42922990	2	0.000000
S0052	8	47460945	50259371	8	0.526081
S0052	8	50312970	57106654	34	0.000000
S0052	8	57347126	57533063	4	2.043915
S0052	8	57556925	57556925	1	2.374750
S0052	8	57633546	58901430	7	2.043915
S0052	8	59254904	59254904	1	2.775885
S0052	8	59567885	59567885	1	4.867275
S0052	8	59593907	60555006	6	2.775885
S0052	8	60813580	60921845	2	0.731970
S0052	8	61016691	66244699	23	1.725876
S0052	8	67000370	82209490	75	2.459006
S0052	8	82214841	86949727	26	2.453292
S0052	8	87124955	87124955	1	1.763406
S0052	8	87167184	89505027	11	2.453292
S0052	8	90022416	90327358	3	3.218278
S0052	8	90398960	90398960	1	2.748771
S0052	8	91021318	92236625	9	3.218278
S0052	8	92363390	92838408	3	2.485148
S0052	8	92875464	93096645	2	1.822573
S0052	8	93905907	96464386	17	2.485148
S0052	8	96825294	96825294	1	2.876158
S0052	8	96826168	101651991	20	2.485148
S0052	8	101654392	105342645	18	5.537145
S0052	8	105481923	111544555	26	2.485148
S0052	8	111860724	114986413	14	2.490862
S0052	8	115116922	116597192	7	2.935126
S0052	8	116695112	116746899	2	1.941220
S0052	8	116858016	117196600	4	2.344988
S0052	8	117376229	117376229	1	1.941220
S0052	8	117533304	120531581	17	1.496956
S0052	8	121009824	127958586	38	0.731970
S0052	8	128086643	128253752	3	2.608095
S0052	8	128261927	137264675	50	0.731970
S0052	8	138464848	145147978	21	0.000000
S0052	9	905450	1587921	2	-0.027016
S0052	9	2211628	2819332	7	0.377323
S0052	9	2949527	24971293	100	-0.027016
S0052	9	25508135	25508135	1	0.342941
S0052	9	25640498	25640498	1	0.795830
S0052	9	26077022	71711987	58	0.342941
S0052	9	72667462	96988860	63	-0.027016
S0052	9	97415909	99073269	5	-0.581984
S0052	9	99605892	127830997	88	-0.027016
S0052	9	127864720	132957214	22	0.466658
S0052	9	133019752	133358391	2	0.901827
S0052	9	133393109	136112570	13	-0.027016
S0052	9	136657610	140599989	18	-0.187984
S0052	10	466220	9864392	33	-0.340014
S0052	10	10191366	11163783	6	0.059962
S0052	10	11175462	32951411	61	-0.340014
S0052	10	33735135	34842985	4	-0.664940
S0052	10	35621132	54870710	57	-0.340014
S0052	10	56329106	64616367	32	0.000000
S0052	10	65182708	65994428	6	0.686115
S0052	10	66217477	82438888	72	0.000000
S0052	10	82498369	83648746	6	0.288391
S0052	10	83763015	89755075	30	0.000000
S0052	10	89799809	89799809	1	-1.059037
S0052	10	89872203	123679684	109	0.000000
S0052	10	123766854	123766854	1	-0.729297
S0052	10	124190121	135124948	51	0.000000
S0052	11	577454	1979118	6	0.000000
S0052	11	2029278	2029278	1	0.420456
S0052	11	2441017	7203221	21	0.000000
S0052	11	7503165	9400690	12	0.751758
S0052	11	10895882	24116195	47	0.000000
S0052	11	24171109	24391096	2	-0.248353
S0052	11	24397729	32385980	39	0.000000
S0052	11	32475234	60929876	121	0.380379
S0052	11	60935978	62618180	19	3.803929
S0052	11	62624616	66922863	25	0.380379
S0052	11	67036001	74712724	78	0.000000
S0052	11	74746553	76234326	13	0.388542
S0052	11	76266172	78604092	22	0.000000
S0052	11	78624246	79041100	6	2.817232
S0052	11	79244001	98468742	101	0.000000
S0052	11	99283671	99283671	1	-0.381052
S0052	11	99368715	104937371	13	0.000000
S0052	11	104939029	114658457	25	-0.507662
S0052	11	114810918	120235277	18	-0.285775
S0052	11	120853380	134044100	53	0.221887
S0052	12	1287872	30079439	112	0.294578
S0052	12	30358302	30499387	2	1.876245
S0052	12	30818556	32424538	10	3.797033
S0052	12	32452817	32846983	2	6.147655
S0052	12	33071290	39638376	5	4.565989
S0052	12	39709908	42763826	10	2.215367
S0052	12	43053711	45925755	13	0.294578
S0052	12	46148745	69382836	110	0.733652
S0052	12	69422390	69888978	7	0.345303
S0052	12	69921168	78008919	47	0.733652
S0052	12	78425838	108165894	98	0.498255
S0052	12	109328904	110312232	6	0.059181
S0052	12	110549767	110597435	2	0.442196
S0052	12	110877174	123597877	50	0.059181
S0052	12	123758235	133161346	21	0.294578
S0052	13	19538886	23241666	19	-0.400459
S0052	13	23564568	23577885	2	-1.263739
S0052	13	23584254	29920543	21	-0.400459
S0052	13	30067933	31330981	14	-0.602569
S0052	13	31371737	53928207	61	-0.400459
S0052	13	53997778	53997778	1	0.066121
S0052	13	54056192	62106608	17	-0.400459
S0052	13	62454380	62589215	3	-0.627384
S0052	13	62642843	104844982	150	-0.400459
S0052	13	105465997	108167663	6	0.255049
S0052	13	108367277	114981574	31	-0.400459
S0052	14	20825965	105690735	313	-0.108118
S0052	15	23733544	27062506	11	0.000000
S0052	15	27703160	31570376	6	2.470095
S0052	15	33470268	35413424	6	0.000000
S0052	15	35825777	37012821	4	-0.305401
S0052	15	37046537	48261419	34	0.000000
S0052	15	48653043	49952940	3	0.781641
S0052	15	50008531	50870393	6	0.000000
S0052	15	50896089	50896089	1	0.592562
S0052	15	51503005	59365458	35	0.000000
S0052	15	59389466	59389466	1	-0.503395
S0052	15	59461475	95819755	124	0.000000
S0052	15	95884134	101214182	21	-0.831787
S0052	16	655262	23621566	78	0.000000
S0052	16	24436474	25520007	5	-0.655963
S0052	16	25587381	89371839	204	0.000000
S0052	17	1243941	13490948	53	0.000000
S0052	17	13684167	19751484	28	-0.910464
S0052	17	19859688	21145702	9	0.003073
S0052	17	25363654	28685949	27	-0.492305
S0052	17	28698774	35939050	43	-0.910464
S0052	17	36479190	36479190	1	-1.413583
S0052	17	36710513	44903953	61	-0.910464
S0052	17	45347892	47187056	15	-0.239915
S0052	17	47211387	51670019	31	1.022442
S0052	17	51792862	52947422	13	-0.239915
S0052	17	52968458	64913220	113	-0.910464
S0052	17	65035960	65870616	8	2.352819
S0052	17	66015963	68842041	18	-0.910464
S0052	17	68914600	74742805	45	0.000000
S0052	17	74903777	74903777	1	0.662246
S0052	17	74988444	80917016	40	0.000000
S0052	18	331827	21716773	56	0.000000
S0052	18	22101076	22101076	1	0.460689
S0052	18	22167112	31079945	35	0.000000
S0052	18	31413448	31413448	1	-0.574607
S0052	18	31618508	42041063	30	0.000000
S0052	18	42166225	45433117	7	-0.834516
S0052	18	45563098	46885674	9	2.923686
S0052	18	46897961	50296948	11	2.526835
S0052	18	50390763	50975302	4	-0.396851
S0052	18	51557280	65138422	39	0.126703
S0052	18	65214082	66393240	6	0.523554
S0052	18	66659911	66659911	1	0.935671
S0052	18	66787884	77003733	26	0.523554
S0052	19	412730	36603742	176	0.269242
S0052	19	36947940	37239016	3	-0.401163
S0052	19	37334598	42235471	32	0.269242
S0052	19	42731570	42731570	1	-1.041404
S0052	19	42883953	58210159	70	0.269242
S0052	19	58675005	58703085	2	-0.451614
S0052	19	58830261	58852835	2	0.269242
S0052	20	545941	10164853	51	0.365598
S0052	20	10275300	10275300	1	0.797595
S0052	20	10286217	14385378	18	0.365598
S0052	20	14455497	16234885	12	-0.484394
S0052	20	16555464	25849242	52	0.365598
S0052	20	29989493	53203426	152	0.334952
S0052	20	53223330	53584624	2	0.608919
S0052	20	53642387	62215372	85	0.334952
S0052	21	15946408	16921886	5	0.000000
S0052	21	17173058	19876683	21	-0.645108
S0052	21	20562856	26087742	25	0.000000
S0052	21	26601604	26994542	4	-0.368469
S0052	21	27092645	33541379	29	0.000000
S0052	21	33558918	36017222	10	-0.581525
S0052	21	36147021	47323522	59	0.000000
S0052	22	17520371	17524190	2	-0.108547
S0052	22	17536555	33127416	51	0.233259
S0052	22	33691520	34399432	5	0.476377
S0052	22	34589901	40652801	33	0.233259
S0052	22	40851806	45682544	23	-0.108547
S0052	22	45733199	45733199	1	0.168860
S0052	22	45800173	49329633	19	-0.108547
S0052	X	3343638	19745776	32	1.692247
S0052	X	20815209	31513228	29	1.427242
S0052	X	31517385	31800413	3	0.636878
S0052	X	32223445	50054170	41	1.942682
S0052	X	50661588	68029074	36	2.207686
S0052	X	68379657	68476828	3	2.372311
S0052	X	68492768	82262569	35	2.762296
S0052	X	82459788	82804542	5	1.456492
S0052	X	83338499	97994534	28	1.291867
S0052	X	99121633	111768483	25	0.901882
S0052	X	112546431	116688832	9	0.426299
S0052	X	117392835	118419194	4	-0.244464
S0052	X	118498227	153689045	83	0.426299
