"mutation_id"	"sample_id"	"cluster_id"	"cellular_prevalence"	"cellular_prevalence_std"	"variant_allele_frequency"	"cluster_pvalue"
"mut1"	"s2"	0	0.7023584171124109	1.4304900250403403e-07	0.3124215809284818	0.0
"mut1"	"s1"	0	0.38022754482520854	0.0	0.2084233261339093	0.0
"mut10"	"s2"	2	0.6759082710196213	0.0	0.3583934088568486	0.012266900751094711
"mut10"	"s1"	2	0.9903858315487177	0.0	0.5225916453537937	0.012266900751094711
"mut11"	"s2"	0	0.8071121268298533	0.0	0.39776951672862454	0.0
"mut11"	"s1"	0	0.8963150568930551	0.0	0.4459893048128342	0.0
"mut12"	"s2"	2	0.6759082710196209	7.835116550007242e-08	0.3684210526315789	0.02912690482430924
"mut12"	"s1"	2	0.9911817258170004	0.0	0.6064814814814815	0.02912690482430924
"mut13"	"s2"	2	0.6759082710196209	6.397345874251155e-08	0.33569739952718675	0.02912690482430924
"mut13"	"s1"	2	0.9911817258170004	0.0	0.5518590998043053	0.02912690482430924
"mut14"	"s2"	0	0.7174045994865798	0.02554763311742544	0.32978723404255317	1.5072890959366703e-05
"mut14"	"s1"	0	0.717495032150545	7.835116550007242e-08	0.4072312083729781	1.5072890959366703e-05
"mut15"	"s2"	1	0.9791110912473331	0.0	0.49178832116788324	0.12720333031375863
"mut15"	"s1"	1	0.7483508847383417	0.0022469915257528504	0.33375796178343947	0.12720333031375863
"mut16"	"s2"	6	0.9378660804449178	0.0	0.544211485870556	0.003808677703000418
"mut16"	"s1"	6	0.9913084653702171	0.0	0.561344537815126	0.003808677703000418
"mut17"	"s2"	0	0.5426756582195473	0.0	0.2918825561312608	0.0
"mut17"	"s1"	0	0.12537831664709476	0.0	0.042879019908116385	0.0
"mut18"	"s2"	1	0.9620566735247849	2.558938349700462e-07	0.49658703071672355	0.012681514971849994
"mut18"	"s1"	1	0.8235352110890517	1.1080528087794137e-07	0.434640522875817	0.012681514971849994
"mut19"	"s2"	0	0.5519253811994922	0.0	0.26497695852534564	0.0
"mut19"	"s1"	0	0.991820005061637	0.0	0.5377358490566038	0.0
"mut2"	"s2"	1	0.9791110912473331	0.0	0.5614617940199336	0.11946568147908365
"mut2"	"s1"	1	0.7471808325392411	0.009433991056776506	0.39706959706959705	0.11946568147908365
"mut20"	"s2"	0	0.73873973031145	0.027857716728127997	0.346875	1.9344681034816347e-07
"mut20"	"s1"	0	0.7166047471883125	0.010152391010114822	0.3593429158110883	1.9344681034816347e-07
"mut3"	"s2"	3	0.9949539038556061	0.0	0.5617408906882592	0.23397402208757656
"mut3"	"s1"	3	0.511865400253317	3.1986729371255775e-08	0.22236503856041132	0.23397402208757656
"mut4"	"s2"	2	0.6759082710196208	1.0115091971257388e-07	0.354796320630749	0.02912690482430924
"mut4"	"s1"	2	0.9911817258170001	0.0	0.5740897544453852	0.02912690482430924
"mut5"	"s2"	3	0.9949539038556061	0.0	0.5078740157480315	0.23397402208757656
"mut5"	"s1"	3	0.5118654002533168	0.0	0.24390243902439024	0.23397402208757656
"mut6"	"s2"	6	0.9378660804449175	0.0	0.5126903553299492	0.003808677703000418
"mut6"	"s1"	6	0.9913084653702171	0.0	0.4794979079497908	0.003808677703000418
"mut7"	"s2"	0	0.7023584171124106	0.0	0.3698630136986301	0.0
"mut7"	"s1"	0	0.4980121778461326	0.0	0.2784992784992785	0.0
"mut8"	"s2"	0	0.865271103723797	6.397345874251155e-08	0.41131664853101196	0.0
"mut8"	"s1"	0	0.5691731305341734	0.017796064619884797	0.26335174953959484	0.0
"mut9"	"s2"	0	0.7357901548567547	0.016907875806212048	0.37373737373737376	0.00014291446304559585
"mut9"	"s1"	0	0.6895829509132854	7.835116550007242e-08	0.36363636363636365	0.00014291446304559585
