RowName	sample1	sample2	sample3	sample4
gene1	13.1864057406	12.6396034748	13.15650087	13.2890569709
gene2	7.182034675	5.4959065484	5.2367090283	6.3561055016
gene3	14.1934034268	13.6665944233	14.1668846861	14.2913478458
