"RowName"	"sample4"	"sample8"	"sample5"	"sample6"
"ENSG00000000003"	382.72007425512	97.6593849137582	68.9826409991466	105.158349078537
"ENSG00000000005"	2.15616943242321	1.08510427681954	2.18992511108402	0
"ENSG00000000419"	3602.95912157919	1681.91162907028	3330.87609395879	1922.62963890494
"ENSG00000000457"	993.994108347102	607.65839501894	466.454048660896	728.663604676944
"ENSG00000000460"	1203.14254329215	753.062368112757	961.377123765884	1403.35212752597
"ENSG00000000938"	960.573482144542	5120.60708231139	1075.25322954225	573.252593206893
"ENSG00000000971"	475.435359849319	2342.74013365338	1180.36963487429	1390.32365949854
"ENSG00000001036"	1197.7521197111	1764.37955410856	1146.42579565248	842.1973974874
"ENSG00000001084"	1264.59337211622	2403.50597315527	1657.7733090906	7009.31579875701
"ENSG00000001167"	2061.29797739659	1871.8048775137	2102.32810664066	1420.1030149898
"ENSG00000001460"	616.664457673039	411.254520914604	241.986724774784	914.784576497364
"ENSG00000001461"	1521.17753457458	2016.1237463307	1215.40843665163	2773.20248012426
"ENSG00000001497"	1818.72891624898	2687.80329368199	9576.54251077041	3246.88035340723
"ENSG00000001561"	3112.43057570291	1016.7427073799	994.226000432144	1521.53894463193
"ENSG00000001617"	212.382689093687	355.914202796808	498.207962771614	120.978631683273
"ENSG00000001626"	16.1712707431741	0	3.28488766662603	1.8612097182042
"ENSG00000001629"	1569.6913468041	2188.655326345	2166.93089741764	4241.69694778737
"ENSG00000001630"	78.7001842834473	66.1913608859917	188.333559553226	89.3380664738016
"ENSG00000001631"	1623.59558261468	1143.69990776779	1376.36793231631	3027.25760665913
"ENSG00000002016"	724.4729292942	525.190469980655	767.568751434949	770.540823336538
"ENSG00000002079"	211.304604377475	33.6382325814056	1.09496255554201	27.918145773063
"ENSG00000002330"	969.198159874235	352.658889966349	398.566370217291	310.822022940101
"ENSG00000002549"	7687.82211130497	23060.6360909688	7596.85021035046	5890.72875811629
"ENSG00000002586"	33988.7768480033	7417.77283633834	7620.93938657239	11346.8650470319
"ENSG00000002587"	197.289503066724	112.850844789232	302.209665329595	1756.05136912566
"ENSG00000002726"	143.385267256144	27.1276069204884	4.37985022216804	71.6565741508617
"ENSG00000002745"	12.9370165945393	6.51062566091721	7.66473788879407	7.4448388728168
"ENSG00000002746"	60.37274410785	40.1488582423228	17.5194008886721	11.1672583092252
"ENSG00000002822"	754.659301348125	1480.08223358185	1801.21340386661	3075.64905933244
"ENSG00000002834"	7126.13997415872	14429.7166731462	21356.1496832914	23594.5555976746
"ENSG00000002919"	3289.23646916161	3056.73874780063	2368.40400763737	5426.35693342434
"ENSG00000002933"	2039.73628307236	6546.43410205226	2496.51462663578	1933.79689721416
"ENSG00000003056"	3467.12044733653	7315.77303431731	9883.13202632218	3236.6436999571
"ENSG00000003096"	30.186372053925	11.9361470450149	31.7539141107183	24.1957263366546
"ENSG00000003137"	54.982320526792	1093.78511103409	526.676989215706	742.622677563475
"ENSG00000003147"	185.430571188396	412.339625191423	90.8818921099868	135.868309428907
"ENSG00000003249"	116.433149350854	34.7233368582251	76.6473788879407	57.6975012643302
"ENSG00000003393"	523.949172078841	880.019568500643	745.669500324108	834.752558614583
"ENSG00000003400"	277.067772066383	749.807055282299	227.752211552738	192.635205834135
"ENSG00000003402"	3494.07256524182	7517.60242980574	6446.04456447581	7572.33173851378
"ENSG00000003436"	346.065193903926	795.381434908719	329.583729218145	254.055126534873
"ENSG00000003509"	767.596317942664	737.870908237284	973.421711876846	544.403842574728
"ENSG00000003756"	3071.46335648687	3993.18373869589	3578.33763151129	4863.34099366757
"ENSG00000003987"	44.2014733646759	35.8084411350447	41.6085771105964	36.2935895049819
"ENSG00000003989"	44.2014733646759	142.148660263359	31.7539141107183	488.567551028602
"ENSG00000004059"	10968.4339027369	2683.46287657471	3545.48875484503	3114.73446341473
"ENSG00000004139"	44.2014733646759	330.956804429958	120.445881109621	142.382543442621
"ENSG00000004142"	3694.59632245718	5075.03270268497	6136.17016125742	4542.28231727735
"ENSG00000004399"	1446.78968915598	16372.0533286531	6230.33694103403	6120.58815831451
"ENSG00000004455"	10249.3513970237	5412.50013277584	12829.6762632857	6592.40482187927
"ENSG00000004468"	3621.28656175479	2929.78154741275	486.163374660652	895.24187445622
"ENSG00000004478"	2148.62283940973	4221.05563682799	10964.9550311977	3403.22196973638
"ENSG00000004487"	3558.75764821452	3624.24828457725	6128.50542336863	3401.36076001817
"ENSG00000004534"	5135.9955880321	4852.58632593696	9416.67797766128	4804.71288754414
"ENSG00000004660"	223.163536255803	226.786793855283	118.255955998537	134.007099710702
"ENSG00000004700"	1801.4795607896	2357.93159352885	3942.96016250678	1954.27020411441
"ENSG00000004766"	1415.52523238584	1052.55114851495	859.545606100477	1669.50511722917
"ENSG00000004776"	3.23425414863482	40.1488582423228	13.1395506665041	16.7508874638378
"ENSG00000004777"	637.14806728106	580.530788098451	413.89584599488	1335.41797281151
"ENSG00000004779"	7780.53739689917	2625.95234990328	4311.96254372443	2223.21500839492
"ENSG00000004799"	64.6850829726964	1181.67855745647	91.9768546655288	307.099603503693
"ENSG00000004809"	19.4055248918089	16.276564152293	0	0
"ENSG00000004838"	84.0906078645054	103.084906297856	24.0891762219242	32.5711700685735
"ENSG00000004846"	24.795948472867	9.76593849137582	7.66473788879407	9.306048591021
"ENSG00000004848"	6.46850829726964	2.17020855363907	58.0330154437265	16.7508874638378
"ENSG00000004864"	1220.39189875154	1166.487097581	2435.19672352543	1775.59407116681
"ENSG00000004866"	821.500553753245	537.12661702567	1145.33083309694	929.674254242997
"ENSG00000004897"	3075.77569535172	3135.95136000846	4262.68922872504	3468.36430987353
"ENSG00000004939"	223.163536255803	81.3828207614651	31.7539141107183	19.5427020411441
"ENSG00000004948"	2.15616943242321	4.34041710727814	1.09496255554201	10.2366534501231
"ENSG00000004961"	3347.45304383704	1215.31679003788	3466.651450846	1623.90547913316
"ENSG00000004975"	1254.89060967031	3260.7383518427	2245.76820141666	2194.36625776275
"ENSG00000005001"	67.9193371213312	57.5105266714354	2.18992511108402	18.612097182042
"ENSG00000005007"	2096.87477303158	7383.04949948012	10462.3672182039	9907.21933000095
"ENSG00000005020"	8249.50424845122	5009.92644607579	4759.80222894111	7266.16273986919
"ENSG00000005022"	92555.7290561989	12850.8899503738	46360.7146016487	9602.91154107457
"ENSG00000005059"	8341.1414493292	1506.12473622551	1565.79645442507	1416.3805955534
"ENSG00000005073"	28.0302026215018	1.08510427681954	38.3236894439703	3.7224194364084
"ENSG00000005075"	6805.94881344388	1306.46554929072	1672.00782231265	1555.04071955961
"ENSG00000005100"	630.67955898379	1579.91182704924	3797.33014261969	1722.54959419799
"ENSG00000005102"	227.475875120649	211.595333979809	76.6473788879407	647.700981935061
"ENSG00000005108"	11.8589318783277	62.936048055533	50.3682775549324	72.5871790099638
"ENSG00000005156"	544.432781686862	1121.9978222314	1558.13171653628	1543.87346125038
"ENSG00000005175"	3414.29429624216	3780.50330043926	6185.44347625681	1954.27020411441
"ENSG00000005187"	51.7480663781571	83.5530293151042	97.4516674432388	66.0729449962491
"ENSG00000005189"	702.911234969968	237.637836623478	225.562286441654	187.051576679522
"ENSG00000005194"	2883.87661586605	1687.33715045438	2706.74743729985	1865.86274249971
"ENSG00000005206"	1215.00147517048	2379.63367906524	3457.89175040167	2279.05129994104
"ENSG00000005238"	387.032413119967	891.955715545658	414.990808550422	311.752627799203
"ENSG00000005243"	438.780479498124	159.510328692472	221.182436219486	244.749077943852
"ENSG00000005249"	11620.6751560449	3763.14163201015	885.824707433486	19483.1433301616
"ENSG00000005302"	9560.45526336453	2466.4420212108	4775.1317047187	5068.07406267003
"ENSG00000005339"	1982.59779311315	7583.79379069173	5472.62285259896	8703.01664232283
"ENSG00000005379"	484.060037579012	933.1896780648	287.975152107548	1629.48910828778
"ENSG00000005381"	10.7808471621161	336.382325814056	7.66473788879407	3.7224194364084
"ENSG00000005421"	3.23425414863482	1.08510427681954	2.18992511108402	1.8612097182042
"ENSG00000005436"	1128.75469787355	999.381038950792	965.756973988052	1508.5104766045
"ENSG00000005448"	961.651566860754	683.615694396307	2483.37507596928	624.435860457509
"ENSG00000005469"	553.057459416554	592.466935143466	350.388017773443	1032.97139360333
"ENSG00000005471"	63.6069982564848	551.232972624324	209.137848108524	153.549801751846
