"rowName"	"Group1"	"Group2"	"right"
"incid"	"0.19"	"0.07"	"joint P"
"incid_lo"	"0.121191172130358"	"0.0333709204303069"	"0.0164506258604247"
"incid_hi"	"0.297876481969904"	"0.146834427603918"	NA
"hr"	"1"	"0.368421052631579"	NA
"hr_lo"	"0.529454540727256"	"0.154876799740811"	NA
"hr_hi"	"1.88873628060004"	"0.876400288805773"	NA
"P_hr"	"0.5"	"0.988039453854634"	NA
