chr	start	end	transcriptionFactor	sample
chr1	50	100	TF1	s1
chr1	75	110	TF2	s2
chr1	120	140	TF1	s1
chr1	300	340	TF3	s1
chr1	320	380	TF1	s3
chr2	10	90	TF1	s2
chr2	50	80	TF2	s2
chr2	130	180	TF2	s3
chr3	15	40	TF1	s1
chr3	45	90	TF1	s2
