"id"	"chr"	"start"	"end"	"strand"	"pvalue"	"qvalue"	"meth.diff"
"chr2.10552"	"chr2"	10552	10552	"-"	2.72719960956365e-10	2.78946552070723e-24	80.9523809523809
"chr2.10555"	"chr2"	10555	10555	"-"	2.72719960956365e-10	2.78946552070723e-24	80.9523809523809
"chr2.10557"	"chr2"	10557	10557	"+"	1.2471323391028e-07	8.50404115999131e-22	72.6574500768049
"chr2.10558"	"chr2"	10558	10558	"-"	4.07643535140185e-05	2.0847531328935e-19	-58.2181259600614
