mutation_id	ref_counts	var_counts	normal_cn	minor_cn	major_cn
mut1	733	193	2	1	1
mut2	823	542	2	1	1
mut3	605	173	2	1	1
mut4	503	678	2	1	1
mut5	620	200	2	1	1
mut6	622	573	2	1	1
mut7	500	193	2	1	1
mut8	400	143	2	1	1
mut9	441	252	2	1	1
mut10	560	613	2	1	1
mut11	518	417	2	1	1
mut12	425	655	2	1	1
mut13	458	564	2	1	1
mut14	623	428	2	1	1
mut15	523	262	2	1	1
mut16	522	668	2	1	1
mut17	625	28	2	1	1
mut18	519	399	2	1	1
mut19	539	627	2	1	1
mut20	624	350	2	1	1
