ID	Treatment	Sample
sample1A	A	1
sample1B	B	1
sample2A	A	2
sample2B	B	2
sample3A	A	3
sample3B	B	3
sample4A	A	4
sample4B	B	4
sample5A	A	5
sample5B	B	5
sample6A	A	6
sample6B	B	6
sample7A	A	7
sample7B	B	7
